NC,NN,D1C,D1N,D2C,D2N,D3C,D3N,D4C,D4N,MC,MN,V
Nível Territorial (Código),Nível Territorial,Unidade da Federação (Código),Unidade da Federação,Ano (Código),Ano,Variável (Código),Variável,Número de moradores (Código),Número de moradores,Unidade de Medida (Código),Unidade de Medida,Valor
3,Unidade da Federação,11,Rondônia,2016,2016,162,Domicílios,0,Total,48,Mil unidades,562
3,Unidade da Federação,11,Rondônia,2016,2016,5123,Coeficiente de variação - Domicílios,0,Total,2,%,34.9
3,Unidade da Federação,11,Rondônia,2016,2016,9784,Distribuição percentual dos domicílios,0,Total,2,%,100.1
3,Unidade da Federação,11,Rondônia,2016,2016,9785,Coeficiente de variação - Distribuição percentual dos domicílios,0,Total,2,%,34.7
3,Unidade da Federação,11,Rondônia,2017,2017,162,Domicílios,0,Total,48,Mil unidades,572
3,Unidade da Federação,11,Rondônia,2017,2017,5123,Coeficiente de variação - Domicílios,0,Total,2,%,40.0
3,Unidade da Federação,11,Rondônia,2017,2017,9784,Distribuição percentual dos domicílios,0,Total,2,%,100.0
3,Unidade da Federação,11,Rondônia,2017,2017,9785,Coeficiente de variação - Distribuição percentual dos domicílios,0,Total,2,%,39.7
3,Unidade da Federação,11,Rondônia,2018,2018,162,Domicílios,0,Total,48,Mil unidades,582
3,Unidade da Federação,11,Rondônia,2018,2018,5123,Coeficiente de variação - Domicílios,0,Total,2,%,36.4
3,Unidade da Federação,11,Rondônia,2018,2018,9784,Distribuição percentual dos domicílios,0,Total,2,%,100.0
3,Unidade da Federação,11,Rondônia,2018,2018,9785,Coeficiente de variação - Distribuição percentual dos domicílios,0,Total,2,%,36.2
3,Unidade da Federação,11,Rondônia,2019,2019,162,Domicílios,0,Total,48,Mil unidades,593
3,Unidade da Federação,11,Rondônia,2019,2019,5123,Coeficiente de variação - Domicílios,0,Total,2,%,41.0
3,Unidade da Federação,11,Rondônia,2019,2019,9784,Distribuição percentual dos domicílios,0,Total,2,%,100.1
3,Unidade da Federação,11,Rondônia,2019,2019,9785,Coeficiente de variação - Distribuição percentual dos domicílios,0,Total,2,%,40.8
3,Unidade da Federação,12,Acre,2016,2016,162,Domicílios,0,Total,48,Mil unidades,235
3,Unidade da Federação,12,Acre,2016,2016,5123,Coeficiente de variação - Domicílios,0,Total,2,%,32.4
3,Unidade da Federação,12,Acre,2016,2016,9784,Distribuição percentual dos domicílios,0,Total,2,%,100.0
3,Unidade da Federação,12,Acre,2016,2016,9785,Coeficiente de variação - Distribuição percentual dos domicílios,0,Total,2,%,31.5
3,Unidade da Federação,12,Acre,2017,2017,162,Domicílios,0,Total,48,Mil unidades,244
3,Unidade da Federação,12,Acre,2017,2017,5123,Coeficiente de variação - Domicílios,0,Total,2,%,31.7
3,Unidade da Federação,12,Acre,2017,2017,9784,Distribuição percentual dos domicílios,0,Total,2,%,99.9
3,Unidade da Federação,12,Acre,2017,2017,9785,Coeficiente de variação - Distribuição percentual dos domicílios,0,Total,2,%,31.0
3,Unidade da Federação,12,Acre,2018,2018,162,Domicílios,0,Total,48,Mil unidades,261
3,Unidade da Federação,12,Acre,2018,2018,5123,Coeficiente de variação - Domicílios,0,Total,2,%,32.7
3,Unidade da Federação,12,Acre,2018,2018,9784,Distribuição percentual dos domicílios,0,Total,2,%,99.9
3,Unidade da Federação,12,Acre,2018,2018,9785,Coeficiente de variação - Distribuição percentual dos domicílios,0,Total,2,%,32.4
3,Unidade da Federação,12,Acre,2019,2019,162,Domicílios,0,Total,48,Mil unidades,267
3,Unidade da Federação,12,Acre,2019,2019,5123,Coeficiente de variação - Domicílios,0,Total,2,%,34.9
3,Unidade da Federação,12,Acre,2019,2019,9784,Distribuição percentual dos domicílios,0,Total,2,%,100.1
3,Unidade da Federação,12,Acre,2019,2019,9785,Coeficiente de variação - Distribuição percentual dos domicílios,0,Total,2,%,34.3
3,Unidade da Federação,13,Amazonas,2016,2016,162,Domicílios,0,Total,48,Mil unidades,1028
3,Unidade da Federação,13,Amazonas,2016,2016,5123,Coeficiente de variação - Domicílios,0,Total,2,%,28.4
3,Unidade da Federação,13,Amazonas,2016,2016,9784,Distribuição percentual dos domicílios,0,Total,2,%,99.9
3,Unidade da Federação,13,Amazonas,2016,2016,9785,Coeficiente de variação - Distribuição percentual dos domicílios,0,Total,2,%,27.7
3,Unidade da Federação,13,Amazonas,2017,2017,162,Domicílios,0,Total,48,Mil unidades,1072
3,Unidade da Federação,13,Amazonas,2017,2017,5123,Coeficiente de variação - Domicílios,0,Total,2,%,29.4
3,Unidade da Federação,13,Amazonas,2017,2017,9784,Distribuição percentual dos domicílios,0,Total,2,%,99.9
3,Unidade da Federação,13,Amazonas,2017,2017,9785,Coeficiente de variação - Distribuição percentual dos domicílios,0,Total,2,%,28.6
3,Unidade da Federação,13,Amazonas,2018,2018,162,Domicílios,0,Total,48,Mil unidades,1091
3,Unidade da Federação,13,Amazonas,2018,2018,5123,Coeficiente de variação - Domicílios,0,Total,2,%,28.7
3,Unidade da Federação,13,Amazonas,2018,2018,9784,Distribuição percentual dos domicílios,0,Total,2,%,99.9
3,Unidade da Federação,13,Amazonas,2018,2018,9785,Coeficiente de variação - Distribuição percentual dos domicílios,0,Total,2,%,27.9
3,Unidade da Federação,13,Amazonas,2019,2019,162,Domicílios,0,Total,48,Mil unidades,1101
3,Unidade da Federação,13,Amazonas,2019,2019,5123,Coeficiente de variação - Domicílios,0,Total,2,%,27.6
3,Unidade da Federação,13,Amazonas,2019,2019,9784,Distribuição percentual dos domicílios,0,Total,2,%,99.9
3,Unidade da Federação,13,Amazonas,2019,2019,9785,Coeficiente de variação - Distribuição percentual dos domicílios,0,Total,2,%,26.7
3,Unidade da Federação,14,Roraima,2016,2016,162,Domicílios,0,Total,48,Mil unidades,135
3,Unidade da Federação,14,Roraima,2016,2016,5123,Coeficiente de variação - Domicílios,0,Total,2,%,43.4
3,Unidade da Federação,14,Roraima,2016,2016,9784,Distribuição percentual dos domicílios,0,Total,2,%,99.9
3,Unidade da Federação,14,Roraima,2016,2016,9785,Coeficiente de variação - Distribuição percentual dos domicílios,0,Total,2,%,42.7
3,Unidade da Federação,14,Roraima,2017,2017,162,Domicílios,0,Total,48,Mil unidades,143
3,Unidade da Federação,14,Roraima,2017,2017,5123,Coeficiente de variação - Domicílios,0,Total,2,%,42.0
3,Unidade da Federação,14,Roraima,2017,2017,9784,Distribuição percentual dos domicílios,0,Total,2,%,100.0
3,Unidade da Federação,14,Roraima,2017,2017,9785,Coeficiente de variação - Distribuição percentual dos domicílios,0,Total,2,%,41.9
3,Unidade da Federação,14,Roraima,2018,2018,162,Domicílios,0,Total,48,Mil unidades,154
3,Unidade da Federação,14,Roraima,2018,2018,5123,Coeficiente de variação - Domicílios,0,Total,2,%,42.7
3,Unidade da Federação,14,Roraima,2018,2018,9784,Distribuição percentual dos domicílios,0,Total,2,%,99.9
3,Unidade da Federação,14,Roraima,2018,2018,9785,Coeficiente de variação - Distribuição percentual dos domicílios,0,Total,2,%,42.1
3,Unidade da Federação,14,Roraima,2019,2019,162,Domicílios,0,Total,48,Mil unidades,153
3,Unidade da Federação,14,Roraima,2019,2019,5123,Coeficiente de variação - Domicílios,0,Total,2,%,41.2
3,Unidade da Federação,14,Roraima,2019,2019,9784,Distribuição percentual dos domicílios,0,Total,2,%,100.1
3,Unidade da Federação,14,Roraima,2019,2019,9785,Coeficiente de variação - Distribuição percentual dos domicílios,0,Total,2,%,40.5
3,Unidade da Federação,15,Pará,2016,2016,162,Domicílios,0,Total,48,Mil unidades,2334
3,Unidade da Federação,15,Pará,2016,2016,5123,Coeficiente de variação - Domicílios,0,Total,2,%,24.2
3,Unidade da Federação,15,Pará,2016,2016,9784,Distribuição percentual dos domicílios,0,Total,2,%,100.0
3,Unidade da Federação,15,Pará,2016,2016,9785,Coeficiente de variação - Distribuição percentual dos domicílios,0,Total,2,%,23.7
3,Unidade da Federação,15,Pará,2017,2017,162,Domicílios,0,Total,48,Mil unidades,2367
3,Unidade da Federação,15,Pará,2017,2017,5123,Coeficiente de variação - Domicílios,0,Total,2,%,25.6
3,Unidade da Federação,15,Pará,2017,2017,9784,Distribuição percentual dos domicílios,0,Total,2,%,100.1
3,Unidade da Federação,15,Pará,2017,2017,9785,Coeficiente de variação - Distribuição percentual dos domicílios,0,Total,2,%,24.9
3,Unidade da Federação,15,Pará,2018,2018,162,Domicílios,0,Total,48,Mil unidades,2450
3,Unidade da Federação,15,Pará,2018,2018,5123,Coeficiente de variação - Domicílios,0,Total,2,%,25.2
3,Unidade da Federação,15,Pará,2018,2018,9784,Distribuição percentual dos domicílios,0,Total,2,%,100.0
3,Unidade da Federação,15,Pará,2018,2018,9785,Coeficiente de variação - Distribuição percentual dos domicílios,0,Total,2,%,24.7
3,Unidade da Federação,15,Pará,2019,2019,162,Domicílios,0,Total,48,Mil unidades,2550
3,Unidade da Federação,15,Pará,2019,2019,5123,Coeficiente de variação - Domicílios,0,Total,2,%,24.3
3,Unidade da Federação,15,Pará,2019,2019,9784,Distribuição percentual dos domicílios,0,Total,2,%,100.0
3,Unidade da Federação,15,Pará,2019,2019,9785,Coeficiente de variação - Distribuição percentual dos domicílios,0,Total,2,%,23.8
3,Unidade da Federação,16,Amapá,2016,2016,162,Domicílios,0,Total,48,Mil unidades,210
3,Unidade da Federação,16,Amapá,2016,2016,5123,Coeficiente de variação - Domicílios,0,Total,2,%,55.7
3,Unidade da Federação,16,Amapá,2016,2016,9784,Distribuição percentual dos domicílios,0,Total,2,%,99.8
3,Unidade da Federação,16,Amapá,2016,2016,9785,Coeficiente de variação - Distribuição percentual dos domicílios,0,Total,2,%,54.5
3,Unidade da Federação,16,Amapá,2017,2017,162,Domicílios,0,Total,48,Mil unidades,215
3,Unidade da Federação,16,Amapá,2017,2017,5123,Coeficiente de variação - Domicílios,0,Total,2,%,54.3
3,Unidade da Federação,16,Amapá,2017,2017,9784,Distribuição percentual dos domicílios,0,Total,2,%,100.0
3,Unidade da Federação,16,Amapá,2017,2017,9785,Coeficiente de variação - Distribuição percentual dos domicílios,0,Total,2,%,52.7
3,Unidade da Federação,16,Amapá,2018,2018,162,Domicílios,0,Total,48,Mil unidades,213
3,Unidade da Federação,16,Amapá,2018,2018,5123,Coeficiente de variação - Domicílios,0,Total,2,%,55.0
3,Unidade da Federação,16,Amapá,2018,2018,9784,Distribuição percentual dos domicílios,0,Total,2,%,99.9
3,Unidade da Federação,16,Amapá,2018,2018,9785,Coeficiente de variação - Distribuição percentual dos domicílios,0,Total,2,%,53.5
3,Unidade da Federação,16,Amapá,2019,2019,162,Domicílios,0,Total,48,Mil unidades,222
3,Unidade da Federação,16,Amapá,2019,2019,5123,Coeficiente de variação - Domicílios,0,Total,2,%,56.3
3,Unidade da Federação,16,Amapá,2019,2019,9784,Distribuição percentual dos domicílios,0,Total,2,%,100.1
3,Unidade da Federação,16,Amapá,2019,2019,9785,Coeficiente de variação - Distribuição percentual dos domicílios,0,Total,2,%,54.5
3,Unidade da Federação,17,Tocantins,2016,2016,162,Domicílios,0,Total,48,Mil unidades,486
3,Unidade da Federação,17,Tocantins,2016,2016,5123,Coeficiente de variação - Domicílios,0,Total,2,%,39.6
3,Unidade da Federação,17,Tocantins,2016,2016,9784,Distribuição percentual dos domicílios,0,Total,2,%,99.9
3,Unidade da Federação,17,Tocantins,2016,2016,9785,Coeficiente de variação - Distribuição percentual dos domicílios,0,Total,2,%,39.1
3,Unidade da Federação,17,Tocantins,2017,2017,162,Domicílios,0,Total,48,Mil unidades,500
3,Unidade da Federação,17,Tocantins,2017,2017,5123,Coeficiente de variação - Domicílios,0,Total,2,%,35.3
3,Unidade da Federação,17,Tocantins,2017,2017,9784,Distribuição percentual dos domicílios,0,Total,2,%,100.0
3,Unidade da Federação,17,Tocantins,2017,2017,9785,Coeficiente de variação - Distribuição percentual dos domicílios,0,Total,2,%,35.1
3,Unidade da Federação,17,Tocantins,2018,2018,162,Domicílios,0,Total,48,Mil unidades,519
3,Unidade da Federação,17,Tocantins,2018,2018,5123,Coeficiente de variação - Domicílios,0,Total,2,%,37.5
3,Unidade da Federação,17,Tocantins,2018,2018,9784,Distribuição percentual dos domicílios,0,Total,2,%,100.0
3,Unidade da Federação,17,Tocantins,2018,2018,9785,Coeficiente de variação - Distribuição percentual dos domicílios,0,Total,2,%,37.4
3,Unidade da Federação,17,Tocantins,2019,2019,162,Domicílios,0,Total,48,Mil unidades,527
3,Unidade da Federação,17,Tocantins,2019,2019,5123,Coeficiente de variação - Domicílios,0,Total,2,%,37.1
3,Unidade da Federação,17,Tocantins,2019,2019,9784,Distribuição percentual dos domicílios,0,Total,2,%,100.0
3,Unidade da Federação,17,Tocantins,2019,2019,9785,Coeficiente de variação - Distribuição percentual dos domicílios,0,Total,2,%,36.8
3,Unidade da Federação,21,Maranhão,2016,2016,162,Domicílios,0,Total,48,Mil unidades,2004
3,Unidade da Federação,21,Maranhão,2016,2016,5123,Coeficiente de variação - Domicílios,0,Total,2,%,17.9
3,Unidade da Federação,21,Maranhão,2016,2016,9784,Distribuição percentual dos domicílios,0,Total,2,%,99.9
3,Unidade da Federação,21,Maranhão,2016,2016,9785,Coeficiente de variação - Distribuição percentual dos domicílios,0,Total,2,%,17.6
3,Unidade da Federação,21,Maranhão,2017,2017,162,Domicílios,0,Total,48,Mil unidades,2022
3,Unidade da Federação,21,Maranhão,2017,2017,5123,Coeficiente de variação - Domicílios,0,Total,2,%,17.2
3,Unidade da Federação,21,Maranhão,2017,2017,9784,Distribuição percentual dos domicílios,0,Total,2,%,100.1
3,Unidade da Federação,21,Maranhão,2017,2017,9785,Coeficiente de variação - Distribuição percentual dos domicílios,0,Total,2,%,17.1
3,Unidade da Federação,21,Maranhão,2018,2018,162,Domicílios,0,Total,48,Mil unidades,2036
3,Unidade da Federação,21,Maranhão,2018,2018,5123,Coeficiente de variação - Domicílios,0,Total,2,%,17.5
3,Unidade da Federação,21,Maranhão,2018,2018,9784,Distribuição percentual dos domicílios,0,Total,2,%,100.1
3,Unidade da Federação,21,Maranhão,2018,2018,9785,Coeficiente de variação - Distribuição percentual dos domicílios,0,Total,2,%,17.3
3,Unidade da Federação,21,Maranhão,2019,2019,162,Domicílios,0,Total,48,Mil unidades,2096
3,Unidade da Federação,21,Maranhão,2019,2019,5123,Coeficiente de variação - Domicílios,0,Total,2,%,17.3
3,Unidade da Federação,21,Maranhão,2019,2019,9784,Distribuição percentual dos domicílios,0,Total,2,%,100.0
3,Unidade da Federação,21,Maranhão,2019,2019,9785,Coeficiente de variação - Distribuição percentual dos domicílios,0,Total,2,%,17.1
3,Unidade da Federação,22,Piauí,2016,2016,162,Domicílios,0,Total,48,Mil unidades,1015
3,Unidade da Federação,22,Piauí,2016,2016,5123,Coeficiente de variação - Domicílios,0,Total,2,%,32.5
3,Unidade da Federação,22,Piauí,2016,2016,9784,Distribuição percentual dos domicílios,0,Total,2,%,100.1
3,Unidade da Federação,22,Piauí,2016,2016,9785,Coeficiente de variação - Distribuição percentual dos domicílios,0,Total,2,%,32.2
3,Unidade da Federação,22,Piauí,2017,2017,162,Domicílios,0,Total,48,Mil unidades,1026
3,Unidade da Federação,22,Piauí,2017,2017,5123,Coeficiente de variação - Domicílios,0,Total,2,%,30.6
3,Unidade da Federação,22,Piauí,2017,2017,9784,Distribuição percentual dos domicílios,0,Total,2,%,100.1
3,Unidade da Federação,22,Piauí,2017,2017,9785,Coeficiente de variação - Distribuição percentual dos domicílios,0,Total,2,%,30.5
3,Unidade da Federação,22,Piauí,2018,2018,162,Domicílios,0,Total,48,Mil unidades,1012
3,Unidade da Federação,22,Piauí,2018,2018,5123,Coeficiente de variação - Domicílios,0,Total,2,%,30.6
3,Unidade da Federação,22,Piauí,2018,2018,9784,Distribuição percentual dos domicílios,0,Total,2,%,99.9
3,Unidade da Federação,22,Piauí,2018,2018,9785,Coeficiente de variação - Distribuição percentual dos domicílios,0,Total,2,%,30.4
3,Unidade da Federação,22,Piauí,2019,2019,162,Domicílios,0,Total,48,Mil unidades,1031
3,Unidade da Federação,22,Piauí,2019,2019,5123,Coeficiente de variação - Domicílios,0,Total,2,%,31.5
3,Unidade da Federação,22,Piauí,2019,2019,9784,Distribuição percentual dos domicílios,0,Total,2,%,100.0
3,Unidade da Federação,22,Piauí,2019,2019,9785,Coeficiente de variação - Distribuição percentual dos domicílios,0,Total,2,%,31.3
3,Unidade da Federação,23,Ceará,2016,2016,162,Domicílios,0,Total,48,Mil unidades,2849
3,Unidade da Federação,23,Ceará,2016,2016,5123,Coeficiente de variação - Domicílios,0,Total,2,%,20.1
3,Unidade da Federação,23,Ceará,2016,2016,9784,Distribuição percentual dos domicílios,0,Total,2,%,100.0
3,Unidade da Federação,23,Ceará,2016,2016,9785,Coeficiente de variação - Distribuição percentual dos domicílios,0,Total,2,%,19.8
3,Unidade da Federação,23,Ceará,2017,2017,162,Domicílios,0,Total,48,Mil unidades,2875
3,Unidade da Federação,23,Ceará,2017,2017,5123,Coeficiente de variação - Domicílios,0,Total,2,%,22.1
3,Unidade da Federação,23,Ceará,2017,2017,9784,Distribuição percentual dos domicílios,0,Total,2,%,100.0
3,Unidade da Federação,23,Ceará,2017,2017,9785,Coeficiente de variação - Distribuição percentual dos domicílios,0,Total,2,%,21.8
3,Unidade da Federação,23,Ceará,2018,2018,162,Domicílios,0,Total,48,Mil unidades,2986
3,Unidade da Federação,23,Ceará,2018,2018,5123,Coeficiente de variação - Domicílios,0,Total,2,%,21.3
3,Unidade da Federação,23,Ceará,2018,2018,9784,Distribuição percentual dos domicílios,0,Total,2,%,100.0
3,Unidade da Federação,23,Ceará,2018,2018,9785,Coeficiente de variação - Distribuição percentual dos domicílios,0,Total,2,%,21.3
3,Unidade da Federação,23,Ceará,2019,2019,162,Domicílios,0,Total,48,Mil unidades,2977
3,Unidade da Federação,23,Ceará,2019,2019,5123,Coeficiente de variação - Domicílios,0,Total,2,%,21.2
3,Unidade da Federação,23,Ceará,2019,2019,9784,Distribuição percentual dos domicílios,0,Total,2,%,100.0
3,Unidade da Federação,23,Ceará,2019,2019,9785,Coeficiente de variação - Distribuição percentual dos domicílios,0,Total,2,%,21.0
3,Unidade da Federação,24,Rio Grande do Norte,2016,2016,162,Domicílios,0,Total,48,Mil unidades,1086
3,Unidade da Federação,24,Rio Grande do Norte,2016,2016,5123,Coeficiente de variação - Domicílios,0,Total,2,%,31.9
3,Unidade da Federação,24,Rio Grande do Norte,2016,2016,9784,Distribuição percentual dos domicílios,0,Total,2,%,100.0
3,Unidade da Federação,24,Rio Grande do Norte,2016,2016,9785,Coeficiente de variação - Distribuição percentual dos domicílios,0,Total,2,%,31.8
3,Unidade da Federação,24,Rio Grande do Norte,2017,2017,162,Domicílios,0,Total,48,Mil unidades,1088
3,Unidade da Federação,24,Rio Grande do Norte,2017,2017,5123,Coeficiente de variação - Domicílios,0,Total,2,%,31.4
3,Unidade da Federação,24,Rio Grande do Norte,2017,2017,9784,Distribuição percentual dos domicílios,0,Total,2,%,99.9
3,Unidade da Federação,24,Rio Grande do Norte,2017,2017,9785,Coeficiente de variação - Distribuição percentual dos domicílios,0,Total,2,%,31.1
3,Unidade da Federação,24,Rio Grande do Norte,2018,2018,162,Domicílios,0,Total,48,Mil unidades,1102
3,Unidade da Federação,24,Rio Grande do Norte,2018,2018,5123,Coeficiente de variação - Domicílios,0,Total,2,%,39.3
3,Unidade da Federação,24,Rio Grande do Norte,2018,2018,9784,Distribuição percentual dos domicílios,0,Total,2,%,99.9
3,Unidade da Federação,24,Rio Grande do Norte,2018,2018,9785,Coeficiente de variação - Distribuição percentual dos domicílios,0,Total,2,%,38.9
3,Unidade da Federação,24,Rio Grande do Norte,2019,2019,162,Domicílios,0,Total,48,Mil unidades,1146
3,Unidade da Federação,24,Rio Grande do Norte,2019,2019,5123,Coeficiente de variação - Domicílios,0,Total,2,%,33.5
3,Unidade da Federação,24,Rio Grande do Norte,2019,2019,9784,Distribuição percentual dos domicílios,0,Total,2,%,99.9
3,Unidade da Federação,24,Rio Grande do Norte,2019,2019,9785,Coeficiente de variação - Distribuição percentual dos domicílios,0,Total,2,%,33.3
3,Unidade da Federação,25,Paraíba,2016,2016,162,Domicílios,0,Total,48,Mil unidades,1252
3,Unidade da Federação,25,Paraíba,2016,2016,5123,Coeficiente de variação - Domicílios,0,Total,2,%,26.7
3,Unidade da Federação,25,Paraíba,2016,2016,9784,Distribuição percentual dos domicílios,0,Total,2,%,100.0
3,Unidade da Federação,25,Paraíba,2016,2016,9785,Coeficiente de variação - Distribuição percentual dos domicílios,0,Total,2,%,26.6
3,Unidade da Federação,25,Paraíba,2017,2017,162,Domicílios,0,Total,48,Mil unidades,1263
3,Unidade da Federação,25,Paraíba,2017,2017,5123,Coeficiente de variação - Domicílios,0,Total,2,%,28.1
3,Unidade da Federação,25,Paraíba,2017,2017,9784,Distribuição percentual dos domicílios,0,Total,2,%,100.1
3,Unidade da Federação,25,Paraíba,2017,2017,9785,Coeficiente de variação - Distribuição percentual dos domicílios,0,Total,2,%,27.8
3,Unidade da Federação,25,Paraíba,2018,2018,162,Domicílios,0,Total,48,Mil unidades,1292
3,Unidade da Federação,25,Paraíba,2018,2018,5123,Coeficiente de variação - Domicílios,0,Total,2,%,29.8
3,Unidade da Federação,25,Paraíba,2018,2018,9784,Distribuição percentual dos domicílios,0,Total,2,%,99.9
3,Unidade da Federação,25,Paraíba,2018,2018,9785,Coeficiente de variação - Distribuição percentual dos domicílios,0,Total,2,%,29.6
3,Unidade da Federação,25,Paraíba,2019,2019,162,Domicílios,0,Total,48,Mil unidades,1312
3,Unidade da Federação,25,Paraíba,2019,2019,5123,Coeficiente de variação - Domicílios,0,Total,2,%,27.4
3,Unidade da Federação,25,Paraíba,2019,2019,9784,Distribuição percentual dos domicílios,0,Total,2,%,100.0
3,Unidade da Federação,25,Paraíba,2019,2019,9785,Coeficiente de variação - Distribuição percentual dos domicílios,0,Total,2,%,27.1
3,Unidade da Federação,26,Pernambuco,2016,2016,162,Domicílios,0,Total,48,Mil unidades,3119
3,Unidade da Federação,26,Pernambuco,2016,2016,5123,Coeficiente de variação - Domicílios,0,Total,2,%,22.8
3,Unidade da Federação,26,Pernambuco,2016,2016,9784,Distribuição percentual dos domicílios,0,Total,2,%,100.0
3,Unidade da Federação,26,Pernambuco,2016,2016,9785,Coeficiente de variação - Distribuição percentual dos domicílios,0,Total,2,%,22.6
3,Unidade da Federação,26,Pernambuco,2017,2017,162,Domicílios,0,Total,48,Mil unidades,3106
3,Unidade da Federação,26,Pernambuco,2017,2017,5123,Coeficiente de variação - Domicílios,0,Total,2,%,23.7
3,Unidade da Federação,26,Pernambuco,2017,2017,9784,Distribuição percentual dos domicílios,0,Total,2,%,100.1
3,Unidade da Federação,26,Pernambuco,2017,2017,9785,Coeficiente de variação - Distribuição percentual dos domicílios,0,Total,2,%,23.5
3,Unidade da Federação,26,Pernambuco,2018,2018,162,Domicílios,0,Total,48,Mil unidades,3176
3,Unidade da Federação,26,Pernambuco,2018,2018,5123,Coeficiente de variação - Domicílios,0,Total,2,%,24.6
3,Unidade da Federação,26,Pernambuco,2018,2018,9784,Distribuição percentual dos domicílios,0,Total,2,%,100.1
3,Unidade da Federação,26,Pernambuco,2018,2018,9785,Coeficiente de variação - Distribuição percentual dos domicílios,0,Total,2,%,24.5
3,Unidade da Federação,26,Pernambuco,2019,2019,162,Domicílios,0,Total,48,Mil unidades,3279
3,Unidade da Federação,26,Pernambuco,2019,2019,5123,Coeficiente de variação - Domicílios,0,Total,2,%,24.3
3,Unidade da Federação,26,Pernambuco,2019,2019,9784,Distribuição percentual dos domicílios,0,Total,2,%,100.1
3,Unidade da Federação,26,Pernambuco,2019,2019,9785,Coeficiente de variação - Distribuição percentual dos domicílios,0,Total,2,%,24.2
3,Unidade da Federação,27,Alagoas,2016,2016,162,Domicílios,0,Total,48,Mil unidades,1040
3,Unidade da Federação,27,Alagoas,2016,2016,5123,Coeficiente de variação - Domicílios,0,Total,2,%,21.8
3,Unidade da Federação,27,Alagoas,2016,2016,9784,Distribuição percentual dos domicílios,0,Total,2,%,100.0
3,Unidade da Federação,27,Alagoas,2016,2016,9785,Coeficiente de variação - Distribuição percentual dos domicílios,0,Total,2,%,21.5
3,Unidade da Federação,27,Alagoas,2017,2017,162,Domicílios,0,Total,48,Mil unidades,1067
3,Unidade da Federação,27,Alagoas,2017,2017,5123,Coeficiente de variação - Domicílios,0,Total,2,%,21.8
3,Unidade da Federação,27,Alagoas,2017,2017,9784,Distribuição percentual dos domicílios,0,Total,2,%,99.9
3,Unidade da Federação,27,Alagoas,2017,2017,9785,Coeficiente de variação - Distribuição percentual dos domicílios,0,Total,2,%,21.6
3,Unidade da Federação,27,Alagoas,2018,2018,162,Domicílios,0,Total,48,Mil unidades,1099
3,Unidade da Federação,27,Alagoas,2018,2018,5123,Coeficiente de variação - Domicílios,0,Total,2,%,23.4
3,Unidade da Federação,27,Alagoas,2018,2018,9784,Distribuição percentual dos domicílios,0,Total,2,%,100.0
3,Unidade da Federação,27,Alagoas,2018,2018,9785,Coeficiente de variação - Distribuição percentual dos domicílios,0,Total,2,%,23.4
3,Unidade da Federação,27,Alagoas,2019,2019,162,Domicílios,0,Total,48,Mil unidades,1127
3,Unidade da Federação,27,Alagoas,2019,2019,5123,Coeficiente de variação - Domicílios,0,Total,2,%,23.9
3,Unidade da Federação,27,Alagoas,2019,2019,9784,Distribuição percentual dos domicílios,0,Total,2,%,99.9
3,Unidade da Federação,27,Alagoas,2019,2019,9785,Coeficiente de variação - Distribuição percentual dos domicílios,0,Total,2,%,23.7
3,Unidade da Federação,28,Sergipe,2016,2016,162,Domicílios,0,Total,48,Mil unidades,755
3,Unidade da Federação,28,Sergipe,2016,2016,5123,Coeficiente de variação - Domicílios,0,Total,2,%,32.2
3,Unidade da Federação,28,Sergipe,2016,2016,9784,Distribuição percentual dos domicílios,0,Total,2,%,99.8
3,Unidade da Federação,28,Sergipe,2016,2016,9785,Coeficiente de variação - Distribuição percentual dos domicílios,0,Total,2,%,32.0
3,Unidade da Federação,28,Sergipe,2017,2017,162,Domicílios,0,Total,48,Mil unidades,766
3,Unidade da Federação,28,Sergipe,2017,2017,5123,Coeficiente de variação - Domicílios,0,Total,2,%,31.6
3,Unidade da Federação,28,Sergipe,2017,2017,9784,Distribuição percentual dos domicílios,0,Total,2,%,100.1
3,Unidade da Federação,28,Sergipe,2017,2017,9785,Coeficiente de variação - Distribuição percentual dos domicílios,0,Total,2,%,31.5
3,Unidade da Federação,28,Sergipe,2018,2018,162,Domicílios,0,Total,48,Mil unidades,759
3,Unidade da Federação,28,Sergipe,2018,2018,5123,Coeficiente de variação - Domicílios,0,Total,2,%,31.4
3,Unidade da Federação,28,Sergipe,2018,2018,9784,Distribuição percentual dos domicílios,0,Total,2,%,100.1
3,Unidade da Federação,28,Sergipe,2018,2018,9785,Coeficiente de variação - Distribuição percentual dos domicílios,0,Total,2,%,31.1
3,Unidade da Federação,28,Sergipe,2019,2019,162,Domicílios,0,Total,48,Mil unidades,791
3,Unidade da Federação,28,Sergipe,2019,2019,5123,Coeficiente de variação - Domicílios,0,Total,2,%,34.1
3,Unidade da Federação,28,Sergipe,2019,2019,9784,Distribuição percentual dos domicílios,0,Total,2,%,99.9
3,Unidade da Federação,28,Sergipe,2019,2019,9785,Coeficiente de variação - Distribuição percentual dos domicílios,0,Total,2,%,33.7
3,Unidade da Federação,29,Bahia,2016,2016,162,Domicílios,0,Total,48,Mil unidades,4942
3,Unidade da Federação,29,Bahia,2016,2016,5123,Coeficiente de variação - Domicílios,0,Total,2,%,24.8
3,Unidade da Federação,29,Bahia,2016,2016,9784,Distribuição percentual dos domicílios,0,Total,2,%,100.0
3,Unidade da Federação,29,Bahia,2016,2016,9785,Coeficiente de variação - Distribuição percentual dos domicílios,0,Total,2,%,24.6
3,Unidade da Federação,29,Bahia,2017,2017,162,Domicílios,0,Total,48,Mil unidades,4971
3,Unidade da Federação,29,Bahia,2017,2017,5123,Coeficiente de variação - Domicílios,0,Total,2,%,23.5
3,Unidade da Federação,29,Bahia,2017,2017,9784,Distribuição percentual dos domicílios,0,Total,2,%,99.9
3,Unidade da Federação,29,Bahia,2017,2017,9785,Coeficiente de variação - Distribuição percentual dos domicílios,0,Total,2,%,23.3
3,Unidade da Federação,29,Bahia,2018,2018,162,Domicílios,0,Total,48,Mil unidades,5022
3,Unidade da Federação,29,Bahia,2018,2018,5123,Coeficiente de variação - Domicílios,0,Total,2,%,22.7
3,Unidade da Federação,29,Bahia,2018,2018,9784,Distribuição percentual dos domicílios,0,Total,2,%,99.8
3,Unidade da Federação,29,Bahia,2018,2018,9785,Coeficiente de variação - Distribuição percentual dos domicílios,0,Total,2,%,22.6
3,Unidade da Federação,29,Bahia,2019,2019,162,Domicílios,0,Total,48,Mil unidades,5202
3,Unidade da Federação,29,Bahia,2019,2019,5123,Coeficiente de variação - Domicílios,0,Total,2,%,21.9
3,Unidade da Federação,29,Bahia,2019,2019,9784,Distribuição percentual dos domicílios,0,Total,2,%,100.0
3,Unidade da Federação,29,Bahia,2019,2019,9785,Coeficiente de variação - Distribuição percentual dos domicílios,0,Total,2,%,22.0
3,Unidade da Federação,31,Minas Gerais,2016,2016,162,Domicílios,0,Total,48,Mil unidades,7082
3,Unidade da Federação,31,Minas Gerais,2016,2016,5123,Coeficiente de variação - Domicílios,0,Total,2,%,18.1
3,Unidade da Federação,31,Minas Gerais,2016,2016,9784,Distribuição percentual dos domicílios,0,Total,2,%,100.0
3,Unidade da Federação,31,Minas Gerais,2016,2016,9785,Coeficiente de variação - Distribuição percentual dos domicílios,0,Total,2,%,17.9
3,Unidade da Federação,31,Minas Gerais,2017,2017,162,Domicílios,0,Total,48,Mil unidades,7164
3,Unidade da Federação,31,Minas Gerais,2017,2017,5123,Coeficiente de variação - Domicílios,0,Total,2,%,18.3
3,Unidade da Federação,31,Minas Gerais,2017,2017,9784,Distribuição percentual dos domicílios,0,Total,2,%,100.0
3,Unidade da Federação,31,Minas Gerais,2017,2017,9785,Coeficiente de variação - Distribuição percentual dos domicílios,0,Total,2,%,18.1
3,Unidade da Federação,31,Minas Gerais,2018,2018,162,Domicílios,0,Total,48,Mil unidades,7330
3,Unidade da Federação,31,Minas Gerais,2018,2018,5123,Coeficiente de variação - Domicílios,0,Total,2,%,19.0
3,Unidade da Federação,31,Minas Gerais,2018,2018,9784,Distribuição percentual dos domicílios,0,Total,2,%,100.0
3,Unidade da Federação,31,Minas Gerais,2018,2018,9785,Coeficiente de variação - Distribuição percentual dos domicílios,0,Total,2,%,19.0
3,Unidade da Federação,31,Minas Gerais,2019,2019,162,Domicílios,0,Total,48,Mil unidades,7461
3,Unidade da Federação,31,Minas Gerais,2019,2019,5123,Coeficiente de variação - Domicílios,0,Total,2,%,19.1
3,Unidade da Federação,31,Minas Gerais,2019,2019,9784,Distribuição percentual dos domicílios,0,Total,2,%,99.9
3,Unidade da Federação,31,Minas Gerais,2019,2019,9785,Coeficiente de variação - Distribuição percentual dos domicílios,0,Total,2,%,19.2
3,Unidade da Federação,32,Espírito Santo,2016,2016,162,Domicílios,0,Total,48,Mil unidades,1356
3,Unidade da Federação,32,Espírito Santo,2016,2016,5123,Coeficiente de variação - Domicílios,0,Total,2,%,24.2
3,Unidade da Federação,32,Espírito Santo,2016,2016,9784,Distribuição percentual dos domicílios,0,Total,2,%,100.0
3,Unidade da Federação,32,Espírito Santo,2016,2016,9785,Coeficiente de variação - Distribuição percentual dos domicílios,0,Total,2,%,24.3
3,Unidade da Federação,32,Espírito Santo,2017,2017,162,Domicílios,0,Total,48,Mil unidades,1350
3,Unidade da Federação,32,Espírito Santo,2017,2017,5123,Coeficiente de variação - Domicílios,0,Total,2,%,25.3
3,Unidade da Federação,32,Espírito Santo,2017,2017,9784,Distribuição percentual dos domicílios,0,Total,2,%,100.0
3,Unidade da Federação,32,Espírito Santo,2017,2017,9785,Coeficiente de variação - Distribuição percentual dos domicílios,0,Total,2,%,25.2
3,Unidade da Federação,32,Espírito Santo,2018,2018,162,Domicílios,0,Total,48,Mil unidades,1398
3,Unidade da Federação,32,Espírito Santo,2018,2018,5123,Coeficiente de variação - Domicílios,0,Total,2,%,25.9
3,Unidade da Federação,32,Espírito Santo,2018,2018,9784,Distribuição percentual dos domicílios,0,Total,2,%,100.1
3,Unidade da Federação,32,Espírito Santo,2018,2018,9785,Coeficiente de variação - Distribuição percentual dos domicílios,0,Total,2,%,25.7
3,Unidade da Federação,32,Espírito Santo,2019,2019,162,Domicílios,0,Total,48,Mil unidades,1423
3,Unidade da Federação,32,Espírito Santo,2019,2019,5123,Coeficiente de variação - Domicílios,0,Total,2,%,25.5
3,Unidade da Federação,32,Espírito Santo,2019,2019,9784,Distribuição percentual dos domicílios,0,Total,2,%,99.9
3,Unidade da Federação,32,Espírito Santo,2019,2019,9785,Coeficiente de variação - Distribuição percentual dos domicílios,0,Total,2,%,25.3
3,Unidade da Federação,33,Rio de Janeiro,2016,2016,162,Domicílios,0,Total,48,Mil unidades,6291
3,Unidade da Federação,33,Rio de Janeiro,2016,2016,5123,Coeficiente de variação - Domicílios,0,Total,2,%,19.5
3,Unidade da Federação,33,Rio de Janeiro,2016,2016,9784,Distribuição percentual dos domicílios,0,Total,2,%,99.9
3,Unidade da Federação,33,Rio de Janeiro,2016,2016,9785,Coeficiente de variação - Distribuição percentual dos domicílios,0,Total,2,%,19.6
3,Unidade da Federação,33,Rio de Janeiro,2017,2017,162,Domicílios,0,Total,48,Mil unidades,6305
3,Unidade da Federação,33,Rio de Janeiro,2017,2017,5123,Coeficiente de variação - Domicílios,0,Total,2,%,17.9
3,Unidade da Federação,33,Rio de Janeiro,2017,2017,9784,Distribuição percentual dos domicílios,0,Total,2,%,100.0
3,Unidade da Federação,33,Rio de Janeiro,2017,2017,9785,Coeficiente de variação - Distribuição percentual dos domicílios,0,Total,2,%,17.8
3,Unidade da Federação,33,Rio de Janeiro,2018,2018,162,Domicílios,0,Total,48,Mil unidades,6384
3,Unidade da Federação,33,Rio de Janeiro,2018,2018,5123,Coeficiente de variação - Domicílios,0,Total,2,%,17.8
3,Unidade da Federação,33,Rio de Janeiro,2018,2018,9784,Distribuição percentual dos domicílios,0,Total,2,%,100.0
3,Unidade da Federação,33,Rio de Janeiro,2018,2018,9785,Coeficiente de variação - Distribuição percentual dos domicílios,0,Total,2,%,17.7
3,Unidade da Federação,33,Rio de Janeiro,2019,2019,162,Domicílios,0,Total,48,Mil unidades,6501
3,Unidade da Federação,33,Rio de Janeiro,2019,2019,5123,Coeficiente de variação - Domicílios,0,Total,2,%,18.8
3,Unidade da Federação,33,Rio de Janeiro,2019,2019,9784,Distribuição percentual dos domicílios,0,Total,2,%,100.0
3,Unidade da Federação,33,Rio de Janeiro,2019,2019,9785,Coeficiente de variação - Distribuição percentual dos domicílios,0,Total,2,%,18.8
3,Unidade da Federação,35,São Paulo,2016,2016,162,Domicílios,0,Total,48,Mil unidades,15426
3,Unidade da Federação,35,São Paulo,2016,2016,5123,Coeficiente de variação - Domicílios,0,Total,2,%,20.9
3,Unidade da Federação,35,São Paulo,2016,2016,9784,Distribuição percentual dos domicílios,0,Total,2,%,100.1
3,Unidade da Federação,35,São Paulo,2016,2016,9785,Coeficiente de variação - Distribuição percentual dos domicílios,0,Total,2,%,20.8
3,Unidade da Federação,35,São Paulo,2017,2017,162,Domicílios,0,Total,48,Mil unidades,15442
3,Unidade da Federação,35,São Paulo,2017,2017,5123,Coeficiente de variação - Domicílios,0,Total,2,%,18.0
3,Unidade da Federação,35,São Paulo,2017,2017,9784,Distribuição percentual dos domicílios,0,Total,2,%,100.0
3,Unidade da Federação,35,São Paulo,2017,2017,9785,Coeficiente de variação - Distribuição percentual dos domicílios,0,Total,2,%,17.9
3,Unidade da Federação,35,São Paulo,2018,2018,162,Domicílios,0,Total,48,Mil unidades,15909
3,Unidade da Federação,35,São Paulo,2018,2018,5123,Coeficiente de variação - Domicílios,0,Total,2,%,19.1
3,Unidade da Federação,35,São Paulo,2018,2018,9784,Distribuição percentual dos domicílios,0,Total,2,%,100.0
3,Unidade da Federação,35,São Paulo,2018,2018,9785,Coeficiente de variação - Distribuição percentual dos domicílios,0,Total,2,%,19.0
3,Unidade da Federação,35,São Paulo,2019,2019,162,Domicílios,0,Total,48,Mil unidades,16135
3,Unidade da Federação,35,São Paulo,2019,2019,5123,Coeficiente de variação - Domicílios,0,Total,2,%,19.7
3,Unidade da Federação,35,São Paulo,2019,2019,9784,Distribuição percentual dos domicílios,0,Total,2,%,100.1
3,Unidade da Federação,35,São Paulo,2019,2019,9785,Coeficiente de variação - Distribuição percentual dos domicílios,0,Total,2,%,19.8
3,Unidade da Federação,41,Paraná,2016,2016,162,Domicílios,0,Total,48,Mil unidades,3884
3,Unidade da Federação,41,Paraná,2016,2016,5123,Coeficiente de variação - Domicílios,0,Total,2,%,23.3
3,Unidade da Federação,41,Paraná,2016,2016,9784,Distribuição percentual dos domicílios,0,Total,2,%,100.0
3,Unidade da Federação,41,Paraná,2016,2016,9785,Coeficiente de variação - Distribuição percentual dos domicílios,0,Total,2,%,23.1
3,Unidade da Federação,41,Paraná,2017,2017,162,Domicílios,0,Total,48,Mil unidades,3895
3,Unidade da Federação,41,Paraná,2017,2017,5123,Coeficiente de variação - Domicílios,0,Total,2,%,22.5
3,Unidade da Federação,41,Paraná,2017,2017,9784,Distribuição percentual dos domicílios,0,Total,2,%,100.0
3,Unidade da Federação,41,Paraná,2017,2017,9785,Coeficiente de variação - Distribuição percentual dos domicílios,0,Total,2,%,22.3
3,Unidade da Federação,41,Paraná,2018,2018,162,Domicílios,0,Total,48,Mil unidades,3970
3,Unidade da Federação,41,Paraná,2018,2018,5123,Coeficiente de variação - Domicílios,0,Total,2,%,22.8
3,Unidade da Federação,41,Paraná,2018,2018,9784,Distribuição percentual dos domicílios,0,Total,2,%,100.0
3,Unidade da Federação,41,Paraná,2018,2018,9785,Coeficiente de variação - Distribuição percentual dos domicílios,0,Total,2,%,22.8
3,Unidade da Federação,41,Paraná,2019,2019,162,Domicílios,0,Total,48,Mil unidades,4042
3,Unidade da Federação,41,Paraná,2019,2019,5123,Coeficiente de variação - Domicílios,0,Total,2,%,23.6
3,Unidade da Federação,41,Paraná,2019,2019,9784,Distribuição percentual dos domicílios,0,Total,2,%,100.0
3,Unidade da Federação,41,Paraná,2019,2019,9785,Coeficiente de variação - Distribuição percentual dos domicílios,0,Total,2,%,23.6
3,Unidade da Federação,42,Santa Catarina,2016,2016,162,Domicílios,0,Total,48,Mil unidades,2404
3,Unidade da Federação,42,Santa Catarina,2016,2016,5123,Coeficiente de variação - Domicílios,0,Total,2,%,19.3
3,Unidade da Federação,42,Santa Catarina,2016,2016,9784,Distribuição percentual dos domicílios,0,Total,2,%,100.0
3,Unidade da Federação,42,Santa Catarina,2016,2016,9785,Coeficiente de variação - Distribuição percentual dos domicílios,0,Total,2,%,19.3
3,Unidade da Federação,42,Santa Catarina,2017,2017,162,Domicílios,0,Total,48,Mil unidades,2460
3,Unidade da Federação,42,Santa Catarina,2017,2017,5123,Coeficiente de variação - Domicílios,0,Total,2,%,20.1
3,Unidade da Federação,42,Santa Catarina,2017,2017,9784,Distribuição percentual dos domicílios,0,Total,2,%,100.0
3,Unidade da Federação,42,Santa Catarina,2017,2017,9785,Coeficiente de variação - Distribuição percentual dos domicílios,0,Total,2,%,20.2
3,Unidade da Federação,42,Santa Catarina,2018,2018,162,Domicílios,0,Total,48,Mil unidades,2546
3,Unidade da Federação,42,Santa Catarina,2018,2018,5123,Coeficiente de variação - Domicílios,0,Total,2,%,19.9
3,Unidade da Federação,42,Santa Catarina,2018,2018,9784,Distribuição percentual dos domicílios,0,Total,2,%,100.0
3,Unidade da Federação,42,Santa Catarina,2018,2018,9785,Coeficiente de variação - Distribuição percentual dos domicílios,0,Total,2,%,20.0
3,Unidade da Federação,42,Santa Catarina,2019,2019,162,Domicílios,0,Total,48,Mil unidades,2560
3,Unidade da Federação,42,Santa Catarina,2019,2019,5123,Coeficiente de variação - Domicílios,0,Total,2,%,21.1
3,Unidade da Federação,42,Santa Catarina,2019,2019,9784,Distribuição percentual dos domicílios,0,Total,2,%,100.1
3,Unidade da Federação,42,Santa Catarina,2019,2019,9785,Coeficiente de variação - Distribuição percentual dos domicílios,0,Total,2,%,21.1
3,Unidade da Federação,43,Rio Grande do Sul,2016,2016,162,Domicílios,0,Total,48,Mil unidades,4138
3,Unidade da Federação,43,Rio Grande do Sul,2016,2016,5123,Coeficiente de variação - Domicílios,0,Total,2,%,22.3
3,Unidade da Federação,43,Rio Grande do Sul,2016,2016,9784,Distribuição percentual dos domicílios,0,Total,2,%,100.1
3,Unidade da Federação,43,Rio Grande do Sul,2016,2016,9785,Coeficiente de variação - Distribuição percentual dos domicílios,0,Total,2,%,22.2
3,Unidade da Federação,43,Rio Grande do Sul,2017,2017,162,Domicílios,0,Total,48,Mil unidades,4183
3,Unidade da Federação,43,Rio Grande do Sul,2017,2017,5123,Coeficiente de variação - Domicílios,0,Total,2,%,23.6
3,Unidade da Federação,43,Rio Grande do Sul,2017,2017,9784,Distribuição percentual dos domicílios,0,Total,2,%,99.9
3,Unidade da Federação,43,Rio Grande do Sul,2017,2017,9785,Coeficiente de variação - Distribuição percentual dos domicílios,0,Total,2,%,23.5
3,Unidade da Federação,43,Rio Grande do Sul,2018,2018,162,Domicílios,0,Total,48,Mil unidades,4226
3,Unidade da Federação,43,Rio Grande do Sul,2018,2018,5123,Coeficiente de variação - Domicílios,0,Total,2,%,25.1
3,Unidade da Federação,43,Rio Grande do Sul,2018,2018,9784,Distribuição percentual dos domicílios,0,Total,2,%,99.9
3,Unidade da Federação,43,Rio Grande do Sul,2018,2018,9785,Coeficiente de variação - Distribuição percentual dos domicílios,0,Total,2,%,25.0
3,Unidade da Federação,43,Rio Grande do Sul,2019,2019,162,Domicílios,0,Total,48,Mil unidades,4343
3,Unidade da Federação,43,Rio Grande do Sul,2019,2019,5123,Coeficiente de variação - Domicílios,0,Total,2,%,24.6
3,Unidade da Federação,43,Rio Grande do Sul,2019,2019,9784,Distribuição percentual dos domicílios,0,Total,2,%,100.0
3,Unidade da Federação,43,Rio Grande do Sul,2019,2019,9785,Coeficiente de variação - Distribuição percentual dos domicílios,0,Total,2,%,24.8
3,Unidade da Federação,50,Mato Grosso do Sul,2016,2016,162,Domicílios,0,Total,48,Mil unidades,890
3,Unidade da Federação,50,Mato Grosso do Sul,2016,2016,5123,Coeficiente de variação - Domicílios,0,Total,2,%,32.8
3,Unidade da Federação,50,Mato Grosso do Sul,2016,2016,9784,Distribuição percentual dos domicílios,0,Total,2,%,100.0
3,Unidade da Federação,50,Mato Grosso do Sul,2016,2016,9785,Coeficiente de variação - Distribuição percentual dos domicílios,0,Total,2,%,32.8
3,Unidade da Federação,50,Mato Grosso do Sul,2017,2017,162,Domicílios,0,Total,48,Mil unidades,902
3,Unidade da Federação,50,Mato Grosso do Sul,2017,2017,5123,Coeficiente de variação - Domicílios,0,Total,2,%,31.6
3,Unidade da Federação,50,Mato Grosso do Sul,2017,2017,9784,Distribuição percentual dos domicílios,0,Total,2,%,100.0
3,Unidade da Federação,50,Mato Grosso do Sul,2017,2017,9785,Coeficiente de variação - Distribuição percentual dos domicílios,0,Total,2,%,31.5
3,Unidade da Federação,50,Mato Grosso do Sul,2018,2018,162,Domicílios,0,Total,48,Mil unidades,920
3,Unidade da Federação,50,Mato Grosso do Sul,2018,2018,5123,Coeficiente de variação - Domicílios,0,Total,2,%,30.8
3,Unidade da Federação,50,Mato Grosso do Sul,2018,2018,9784,Distribuição percentual dos domicílios,0,Total,2,%,100.0
3,Unidade da Federação,50,Mato Grosso do Sul,2018,2018,9785,Coeficiente de variação - Distribuição percentual dos domicílios,0,Total,2,%,30.6
3,Unidade da Federação,50,Mato Grosso do Sul,2019,2019,162,Domicílios,0,Total,48,Mil unidades,928
3,Unidade da Federação,50,Mato Grosso do Sul,2019,2019,5123,Coeficiente de variação - Domicílios,0,Total,2,%,31.0
3,Unidade da Federação,50,Mato Grosso do Sul,2019,2019,9784,Distribuição percentual dos domicílios,0,Total,2,%,99.9
3,Unidade da Federação,50,Mato Grosso do Sul,2019,2019,9785,Coeficiente de variação - Distribuição percentual dos domicílios,0,Total,2,%,30.9
3,Unidade da Federação,51,Mato Grosso,2016,2016,162,Domicílios,0,Total,48,Mil unidades,1115
3,Unidade da Federação,51,Mato Grosso,2016,2016,5123,Coeficiente de variação - Domicílios,0,Total,2,%,27.8
3,Unidade da Federação,51,Mato Grosso,2016,2016,9784,Distribuição percentual dos domicílios,0,Total,2,%,99.9
3,Unidade da Federação,51,Mato Grosso,2016,2016,9785,Coeficiente de variação - Distribuição percentual dos domicílios,0,Total,2,%,27.7
3,Unidade da Federação,51,Mato Grosso,2017,2017,162,Domicílios,0,Total,48,Mil unidades,1131
3,Unidade da Federação,51,Mato Grosso,2017,2017,5123,Coeficiente de variação - Domicílios,0,Total,2,%,29.8
3,Unidade da Federação,51,Mato Grosso,2017,2017,9784,Distribuição percentual dos domicílios,0,Total,2,%,99.9
3,Unidade da Federação,51,Mato Grosso,2017,2017,9785,Coeficiente de variação - Distribuição percentual dos domicílios,0,Total,2,%,29.6
3,Unidade da Federação,51,Mato Grosso,2018,2018,162,Domicílios,0,Total,48,Mil unidades,1159
3,Unidade da Federação,51,Mato Grosso,2018,2018,5123,Coeficiente de variação - Domicílios,0,Total,2,%,30.0
3,Unidade da Federação,51,Mato Grosso,2018,2018,9784,Distribuição percentual dos domicílios,0,Total,2,%,100.0
3,Unidade da Federação,51,Mato Grosso,2018,2018,9785,Coeficiente de variação - Distribuição percentual dos domicílios,0,Total,2,%,30.0
3,Unidade da Federação,51,Mato Grosso,2019,2019,162,Domicílios,0,Total,48,Mil unidades,1145
3,Unidade da Federação,51,Mato Grosso,2019,2019,5123,Coeficiente de variação - Domicílios,0,Total,2,%,30.8
3,Unidade da Federação,51,Mato Grosso,2019,2019,9784,Distribuição percentual dos domicílios,0,Total,2,%,100.0
3,Unidade da Federação,51,Mato Grosso,2019,2019,9785,Coeficiente de variação - Distribuição percentual dos domicílios,0,Total,2,%,30.7
3,Unidade da Federação,52,Goiás,2016,2016,162,Domicílios,0,Total,48,Mil unidades,2278
3,Unidade da Federação,52,Goiás,2016,2016,5123,Coeficiente de variação - Domicílios,0,Total,2,%,28.2
3,Unidade da Federação,52,Goiás,2016,2016,9784,Distribuição percentual dos domicílios,0,Total,2,%,99.9
3,Unidade da Federação,52,Goiás,2016,2016,9785,Coeficiente de variação - Distribuição percentual dos domicílios,0,Total,2,%,28.1
3,Unidade da Federação,52,Goiás,2017,2017,162,Domicílios,0,Total,48,Mil unidades,2342
3,Unidade da Federação,52,Goiás,2017,2017,5123,Coeficiente de variação - Domicílios,0,Total,2,%,28.2
3,Unidade da Federação,52,Goiás,2017,2017,9784,Distribuição percentual dos domicílios,0,Total,2,%,99.9
3,Unidade da Federação,52,Goiás,2017,2017,9785,Coeficiente de variação - Distribuição percentual dos domicílios,0,Total,2,%,28.1
3,Unidade da Federação,52,Goiás,2018,2018,162,Domicílios,0,Total,48,Mil unidades,2401
3,Unidade da Federação,52,Goiás,2018,2018,5123,Coeficiente de variação - Domicílios,0,Total,2,%,27.4
3,Unidade da Federação,52,Goiás,2018,2018,9784,Distribuição percentual dos domicílios,0,Total,2,%,99.9
3,Unidade da Federação,52,Goiás,2018,2018,9785,Coeficiente de variação - Distribuição percentual dos domicílios,0,Total,2,%,27.4
3,Unidade da Federação,52,Goiás,2019,2019,162,Domicílios,0,Total,48,Mil unidades,2481
3,Unidade da Federação,52,Goiás,2019,2019,5123,Coeficiente de variação - Domicílios,0,Total,2,%,27.8
3,Unidade da Federação,52,Goiás,2019,2019,9784,Distribuição percentual dos domicílios,0,Total,2,%,100.0
3,Unidade da Federação,52,Goiás,2019,2019,9785,Coeficiente de variação - Distribuição percentual dos domicílios,0,Total,2,%,27.6
3,Unidade da Federação,53,Distrito Federal,2016,2016,162,Domicílios,0,Total,48,Mil unidades,981
3,Unidade da Federação,53,Distrito Federal,2016,2016,5123,Coeficiente de variação - Domicílios,0,Total,2,%,37.5
3,Unidade da Federação,53,Distrito Federal,2016,2016,9784,Distribuição percentual dos domicílios,0,Total,2,%,100.0
3,Unidade da Federação,53,Distrito Federal,2016,2016,9785,Coeficiente de variação - Distribuição percentual dos domicílios,0,Total,2,%,37.8
3,Unidade da Federação,53,Distrito Federal,2017,2017,162,Domicílios,0,Total,48,Mil unidades,1005
3,Unidade da Federação,53,Distrito Federal,2017,2017,5123,Coeficiente de variação - Domicílios,0,Total,2,%,38.3
3,Unidade da Federação,53,Distrito Federal,2017,2017,9784,Distribuição percentual dos domicílios,0,Total,2,%,100.0
3,Unidade da Federação,53,Distrito Federal,2017,2017,9785,Coeficiente de variação - Distribuição percentual dos domicílios,0,Total,2,%,38.2
3,Unidade da Federação,53,Distrito Federal,2018,2018,162,Domicílios,0,Total,48,Mil unidades,1015
3,Unidade da Federação,53,Distrito Federal,2018,2018,5123,Coeficiente de variação - Domicílios,0,Total,2,%,36.7
3,Unidade da Federação,53,Distrito Federal,2018,2018,9784,Distribuição percentual dos domicílios,0,Total,2,%,100.0
3,Unidade da Federação,53,Distrito Federal,2018,2018,9785,Coeficiente de variação - Distribuição percentual dos domicílios,0,Total,2,%,36.4
3,Unidade da Federação,53,Distrito Federal,2019,2019,162,Domicílios,0,Total,48,Mil unidades,1009
3,Unidade da Federação,53,Distrito Federal,2019,2019,5123,Coeficiente de variação - Domicílios,0,Total,2,%,39.2
3,Unidade da Federação,53,Distrito Federal,2019,2019,9784,Distribuição percentual dos domicílios,0,Total,2,%,100.0
3,Unidade da Federação,53,Distrito Federal,2019,2019,9785,Coeficiente de variação - Distribuição percentual dos domicílios,0,Total,2,%,39.1
