NC,NN,D1C,D1N,D2C,D2N,D3C,D3N,D4C,D4N,MC,MN,V
Nível Territorial (Código),Nível Territorial,Unidade da Federação (Código),Unidade da Federação,Ano (Código),Ano,Variável (Código),Variável,Principal fonte de abastecimento de água (Código),Principal fonte de abastecimento de água,Unidade de Medida (Código),Unidade de Medida,Valor
3,Unidade da Federação,11,Rondônia,2016,2016,162,Domicílios,0,,48,Mil unidades,..
3,Unidade da Federação,11,Rondônia,2016,2016,5123,Coeficiente de variação - Domicílios,0,,2,%,..
3,Unidade da Federação,11,Rondônia,2016,2016,9784,Distribuição percentual dos domicílios,0,,2,%,..
3,Unidade da Federação,11,Rondônia,2016,2016,9785,Coeficiente de variação - Distribuição percentual dos domicílios,0,,2,%,..
3,Unidade da Federação,11,Rondônia,2016,2016,10114,Moradores em domicílios,0,,1572,Mil pessoas,..
3,Unidade da Federação,11,Rondônia,2016,2016,10116,Coeficiente de variação - Moradores em domicílios,0,,2,%,..
3,Unidade da Federação,11,Rondônia,2016,2016,10117,Distribuição percentual dos moradores em domicílios,0,,2,%,..
3,Unidade da Federação,11,Rondônia,2016,2016,10118,Coeficiente de variação - Distribuição percentual dos moradores em domicílios,0,,2,%,..
3,Unidade da Federação,11,Rondônia,2017,2017,162,Domicílios,0,,48,Mil unidades,..
3,Unidade da Federação,11,Rondônia,2017,2017,5123,Coeficiente de variação - Domicílios,0,,2,%,..
3,Unidade da Federação,11,Rondônia,2017,2017,9784,Distribuição percentual dos domicílios,0,,2,%,..
3,Unidade da Federação,11,Rondônia,2017,2017,9785,Coeficiente de variação - Distribuição percentual dos domicílios,0,,2,%,..
3,Unidade da Federação,11,Rondônia,2017,2017,10114,Moradores em domicílios,0,,1572,Mil pessoas,..
3,Unidade da Federação,11,Rondônia,2017,2017,10116,Coeficiente de variação - Moradores em domicílios,0,,2,%,..
3,Unidade da Federação,11,Rondônia,2017,2017,10117,Distribuição percentual dos moradores em domicílios,0,,2,%,..
3,Unidade da Federação,11,Rondônia,2017,2017,10118,Coeficiente de variação - Distribuição percentual dos moradores em domicílios,0,,2,%,..
3,Unidade da Federação,11,Rondônia,2018,2018,162,Domicílios,0,,48,Mil unidades,..
3,Unidade da Federação,11,Rondônia,2018,2018,5123,Coeficiente de variação - Domicílios,0,,2,%,..
3,Unidade da Federação,11,Rondônia,2018,2018,9784,Distribuição percentual dos domicílios,0,,2,%,..
3,Unidade da Federação,11,Rondônia,2018,2018,9785,Coeficiente de variação - Distribuição percentual dos domicílios,0,,2,%,..
3,Unidade da Federação,11,Rondônia,2018,2018,10114,Moradores em domicílios,0,,1572,Mil pessoas,..
3,Unidade da Federação,11,Rondônia,2018,2018,10116,Coeficiente de variação - Moradores em domicílios,0,,2,%,..
3,Unidade da Federação,11,Rondônia,2018,2018,10117,Distribuição percentual dos moradores em domicílios,0,,2,%,..
3,Unidade da Federação,11,Rondônia,2018,2018,10118,Coeficiente de variação - Distribuição percentual dos moradores em domicílios,0,,2,%,..
3,Unidade da Federação,11,Rondônia,2019,2019,162,Domicílios,0,,48,Mil unidades,..
3,Unidade da Federação,11,Rondônia,2019,2019,5123,Coeficiente de variação - Domicílios,0,,2,%,..
3,Unidade da Federação,11,Rondônia,2019,2019,9784,Distribuição percentual dos domicílios,0,,2,%,..
3,Unidade da Federação,11,Rondônia,2019,2019,9785,Coeficiente de variação - Distribuição percentual dos domicílios,0,,2,%,..
3,Unidade da Federação,11,Rondônia,2019,2019,10114,Moradores em domicílios,0,,1572,Mil pessoas,..
3,Unidade da Federação,11,Rondônia,2019,2019,10116,Coeficiente de variação - Moradores em domicílios,0,,2,%,..
3,Unidade da Federação,11,Rondônia,2019,2019,10117,Distribuição percentual dos moradores em domicílios,0,,2,%,..
3,Unidade da Federação,11,Rondônia,2019,2019,10118,Coeficiente de variação - Distribuição percentual dos moradores em domicílios,0,,2,%,..
3,Unidade da Federação,12,Acre,2016,2016,162,Domicílios,0,,48,Mil unidades,..
3,Unidade da Federação,12,Acre,2016,2016,5123,Coeficiente de variação - Domicílios,0,,2,%,..
3,Unidade da Federação,12,Acre,2016,2016,9784,Distribuição percentual dos domicílios,0,,2,%,..
3,Unidade da Federação,12,Acre,2016,2016,9785,Coeficiente de variação - Distribuição percentual dos domicílios,0,,2,%,..
3,Unidade da Federação,12,Acre,2016,2016,10114,Moradores em domicílios,0,,1572,Mil pessoas,..
3,Unidade da Federação,12,Acre,2016,2016,10116,Coeficiente de variação - Moradores em domicílios,0,,2,%,..
3,Unidade da Federação,12,Acre,2016,2016,10117,Distribuição percentual dos moradores em domicílios,0,,2,%,..
3,Unidade da Federação,12,Acre,2016,2016,10118,Coeficiente de variação - Distribuição percentual dos moradores em domicílios,0,,2,%,..
3,Unidade da Federação,12,Acre,2017,2017,162,Domicílios,0,,48,Mil unidades,..
3,Unidade da Federação,12,Acre,2017,2017,5123,Coeficiente de variação - Domicílios,0,,2,%,..
3,Unidade da Federação,12,Acre,2017,2017,9784,Distribuição percentual dos domicílios,0,,2,%,..
3,Unidade da Federação,12,Acre,2017,2017,9785,Coeficiente de variação - Distribuição percentual dos domicílios,0,,2,%,..
3,Unidade da Federação,12,Acre,2017,2017,10114,Moradores em domicílios,0,,1572,Mil pessoas,..
3,Unidade da Federação,12,Acre,2017,2017,10116,Coeficiente de variação - Moradores em domicílios,0,,2,%,..
3,Unidade da Federação,12,Acre,2017,2017,10117,Distribuição percentual dos moradores em domicílios,0,,2,%,..
3,Unidade da Federação,12,Acre,2017,2017,10118,Coeficiente de variação - Distribuição percentual dos moradores em domicílios,0,,2,%,..
3,Unidade da Federação,12,Acre,2018,2018,162,Domicílios,0,,48,Mil unidades,..
3,Unidade da Federação,12,Acre,2018,2018,5123,Coeficiente de variação - Domicílios,0,,2,%,..
3,Unidade da Federação,12,Acre,2018,2018,9784,Distribuição percentual dos domicílios,0,,2,%,..
3,Unidade da Federação,12,Acre,2018,2018,9785,Coeficiente de variação - Distribuição percentual dos domicílios,0,,2,%,..
3,Unidade da Federação,12,Acre,2018,2018,10114,Moradores em domicílios,0,,1572,Mil pessoas,..
3,Unidade da Federação,12,Acre,2018,2018,10116,Coeficiente de variação - Moradores em domicílios,0,,2,%,..
3,Unidade da Federação,12,Acre,2018,2018,10117,Distribuição percentual dos moradores em domicílios,0,,2,%,..
3,Unidade da Federação,12,Acre,2018,2018,10118,Coeficiente de variação - Distribuição percentual dos moradores em domicílios,0,,2,%,..
3,Unidade da Federação,12,Acre,2019,2019,162,Domicílios,0,,48,Mil unidades,..
3,Unidade da Federação,12,Acre,2019,2019,5123,Coeficiente de variação - Domicílios,0,,2,%,..
3,Unidade da Federação,12,Acre,2019,2019,9784,Distribuição percentual dos domicílios,0,,2,%,..
3,Unidade da Federação,12,Acre,2019,2019,9785,Coeficiente de variação - Distribuição percentual dos domicílios,0,,2,%,..
3,Unidade da Federação,12,Acre,2019,2019,10114,Moradores em domicílios,0,,1572,Mil pessoas,..
3,Unidade da Federação,12,Acre,2019,2019,10116,Coeficiente de variação - Moradores em domicílios,0,,2,%,..
3,Unidade da Federação,12,Acre,2019,2019,10117,Distribuição percentual dos moradores em domicílios,0,,2,%,..
3,Unidade da Federação,12,Acre,2019,2019,10118,Coeficiente de variação - Distribuição percentual dos moradores em domicílios,0,,2,%,..
3,Unidade da Federação,13,Amazonas,2016,2016,162,Domicílios,0,,48,Mil unidades,..
3,Unidade da Federação,13,Amazonas,2016,2016,5123,Coeficiente de variação - Domicílios,0,,2,%,..
3,Unidade da Federação,13,Amazonas,2016,2016,9784,Distribuição percentual dos domicílios,0,,2,%,..
3,Unidade da Federação,13,Amazonas,2016,2016,9785,Coeficiente de variação - Distribuição percentual dos domicílios,0,,2,%,..
3,Unidade da Federação,13,Amazonas,2016,2016,10114,Moradores em domicílios,0,,1572,Mil pessoas,..
3,Unidade da Federação,13,Amazonas,2016,2016,10116,Coeficiente de variação - Moradores em domicílios,0,,2,%,..
3,Unidade da Federação,13,Amazonas,2016,2016,10117,Distribuição percentual dos moradores em domicílios,0,,2,%,..
3,Unidade da Federação,13,Amazonas,2016,2016,10118,Coeficiente de variação - Distribuição percentual dos moradores em domicílios,0,,2,%,..
3,Unidade da Federação,13,Amazonas,2017,2017,162,Domicílios,0,,48,Mil unidades,..
3,Unidade da Federação,13,Amazonas,2017,2017,5123,Coeficiente de variação - Domicílios,0,,2,%,..
3,Unidade da Federação,13,Amazonas,2017,2017,9784,Distribuição percentual dos domicílios,0,,2,%,..
3,Unidade da Federação,13,Amazonas,2017,2017,9785,Coeficiente de variação - Distribuição percentual dos domicílios,0,,2,%,..
3,Unidade da Federação,13,Amazonas,2017,2017,10114,Moradores em domicílios,0,,1572,Mil pessoas,..
3,Unidade da Federação,13,Amazonas,2017,2017,10116,Coeficiente de variação - Moradores em domicílios,0,,2,%,..
3,Unidade da Federação,13,Amazonas,2017,2017,10117,Distribuição percentual dos moradores em domicílios,0,,2,%,..
3,Unidade da Federação,13,Amazonas,2017,2017,10118,Coeficiente de variação - Distribuição percentual dos moradores em domicílios,0,,2,%,..
3,Unidade da Federação,13,Amazonas,2018,2018,162,Domicílios,0,,48,Mil unidades,..
3,Unidade da Federação,13,Amazonas,2018,2018,5123,Coeficiente de variação - Domicílios,0,,2,%,..
3,Unidade da Federação,13,Amazonas,2018,2018,9784,Distribuição percentual dos domicílios,0,,2,%,..
3,Unidade da Federação,13,Amazonas,2018,2018,9785,Coeficiente de variação - Distribuição percentual dos domicílios,0,,2,%,..
3,Unidade da Federação,13,Amazonas,2018,2018,10114,Moradores em domicílios,0,,1572,Mil pessoas,..
3,Unidade da Federação,13,Amazonas,2018,2018,10116,Coeficiente de variação - Moradores em domicílios,0,,2,%,..
3,Unidade da Federação,13,Amazonas,2018,2018,10117,Distribuição percentual dos moradores em domicílios,0,,2,%,..
3,Unidade da Federação,13,Amazonas,2018,2018,10118,Coeficiente de variação - Distribuição percentual dos moradores em domicílios,0,,2,%,..
3,Unidade da Federação,13,Amazonas,2019,2019,162,Domicílios,0,,48,Mil unidades,..
3,Unidade da Federação,13,Amazonas,2019,2019,5123,Coeficiente de variação - Domicílios,0,,2,%,..
3,Unidade da Federação,13,Amazonas,2019,2019,9784,Distribuição percentual dos domicílios,0,,2,%,..
3,Unidade da Federação,13,Amazonas,2019,2019,9785,Coeficiente de variação - Distribuição percentual dos domicílios,0,,2,%,..
3,Unidade da Federação,13,Amazonas,2019,2019,10114,Moradores em domicílios,0,,1572,Mil pessoas,..
3,Unidade da Federação,13,Amazonas,2019,2019,10116,Coeficiente de variação - Moradores em domicílios,0,,2,%,..
3,Unidade da Federação,13,Amazonas,2019,2019,10117,Distribuição percentual dos moradores em domicílios,0,,2,%,..
3,Unidade da Federação,13,Amazonas,2019,2019,10118,Coeficiente de variação - Distribuição percentual dos moradores em domicílios,0,,2,%,..
3,Unidade da Federação,14,Roraima,2016,2016,162,Domicílios,0,,48,Mil unidades,..
3,Unidade da Federação,14,Roraima,2016,2016,5123,Coeficiente de variação - Domicílios,0,,2,%,..
3,Unidade da Federação,14,Roraima,2016,2016,9784,Distribuição percentual dos domicílios,0,,2,%,..
3,Unidade da Federação,14,Roraima,2016,2016,9785,Coeficiente de variação - Distribuição percentual dos domicílios,0,,2,%,..
3,Unidade da Federação,14,Roraima,2016,2016,10114,Moradores em domicílios,0,,1572,Mil pessoas,..
3,Unidade da Federação,14,Roraima,2016,2016,10116,Coeficiente de variação - Moradores em domicílios,0,,2,%,..
3,Unidade da Federação,14,Roraima,2016,2016,10117,Distribuição percentual dos moradores em domicílios,0,,2,%,..
3,Unidade da Federação,14,Roraima,2016,2016,10118,Coeficiente de variação - Distribuição percentual dos moradores em domicílios,0,,2,%,..
3,Unidade da Federação,14,Roraima,2017,2017,162,Domicílios,0,,48,Mil unidades,..
3,Unidade da Federação,14,Roraima,2017,2017,5123,Coeficiente de variação - Domicílios,0,,2,%,..
3,Unidade da Federação,14,Roraima,2017,2017,9784,Distribuição percentual dos domicílios,0,,2,%,..
3,Unidade da Federação,14,Roraima,2017,2017,9785,Coeficiente de variação - Distribuição percentual dos domicílios,0,,2,%,..
3,Unidade da Federação,14,Roraima,2017,2017,10114,Moradores em domicílios,0,,1572,Mil pessoas,..
3,Unidade da Federação,14,Roraima,2017,2017,10116,Coeficiente de variação - Moradores em domicílios,0,,2,%,..
3,Unidade da Federação,14,Roraima,2017,2017,10117,Distribuição percentual dos moradores em domicílios,0,,2,%,..
3,Unidade da Federação,14,Roraima,2017,2017,10118,Coeficiente de variação - Distribuição percentual dos moradores em domicílios,0,,2,%,..
3,Unidade da Federação,14,Roraima,2018,2018,162,Domicílios,0,,48,Mil unidades,..
3,Unidade da Federação,14,Roraima,2018,2018,5123,Coeficiente de variação - Domicílios,0,,2,%,..
3,Unidade da Federação,14,Roraima,2018,2018,9784,Distribuição percentual dos domicílios,0,,2,%,..
3,Unidade da Federação,14,Roraima,2018,2018,9785,Coeficiente de variação - Distribuição percentual dos domicílios,0,,2,%,..
3,Unidade da Federação,14,Roraima,2018,2018,10114,Moradores em domicílios,0,,1572,Mil pessoas,..
3,Unidade da Federação,14,Roraima,2018,2018,10116,Coeficiente de variação - Moradores em domicílios,0,,2,%,..
3,Unidade da Federação,14,Roraima,2018,2018,10117,Distribuição percentual dos moradores em domicílios,0,,2,%,..
3,Unidade da Federação,14,Roraima,2018,2018,10118,Coeficiente de variação - Distribuição percentual dos moradores em domicílios,0,,2,%,..
3,Unidade da Federação,14,Roraima,2019,2019,162,Domicílios,0,,48,Mil unidades,..
3,Unidade da Federação,14,Roraima,2019,2019,5123,Coeficiente de variação - Domicílios,0,,2,%,..
3,Unidade da Federação,14,Roraima,2019,2019,9784,Distribuição percentual dos domicílios,0,,2,%,..
3,Unidade da Federação,14,Roraima,2019,2019,9785,Coeficiente de variação - Distribuição percentual dos domicílios,0,,2,%,..
3,Unidade da Federação,14,Roraima,2019,2019,10114,Moradores em domicílios,0,,1572,Mil pessoas,..
3,Unidade da Federação,14,Roraima,2019,2019,10116,Coeficiente de variação - Moradores em domicílios,0,,2,%,..
3,Unidade da Federação,14,Roraima,2019,2019,10117,Distribuição percentual dos moradores em domicílios,0,,2,%,..
3,Unidade da Federação,14,Roraima,2019,2019,10118,Coeficiente de variação - Distribuição percentual dos moradores em domicílios,0,,2,%,..
3,Unidade da Federação,15,Pará,2016,2016,162,Domicílios,0,,48,Mil unidades,..
3,Unidade da Federação,15,Pará,2016,2016,5123,Coeficiente de variação - Domicílios,0,,2,%,..
3,Unidade da Federação,15,Pará,2016,2016,9784,Distribuição percentual dos domicílios,0,,2,%,..
3,Unidade da Federação,15,Pará,2016,2016,9785,Coeficiente de variação - Distribuição percentual dos domicílios,0,,2,%,..
3,Unidade da Federação,15,Pará,2016,2016,10114,Moradores em domicílios,0,,1572,Mil pessoas,..
3,Unidade da Federação,15,Pará,2016,2016,10116,Coeficiente de variação - Moradores em domicílios,0,,2,%,..
3,Unidade da Federação,15,Pará,2016,2016,10117,Distribuição percentual dos moradores em domicílios,0,,2,%,..
3,Unidade da Federação,15,Pará,2016,2016,10118,Coeficiente de variação - Distribuição percentual dos moradores em domicílios,0,,2,%,..
3,Unidade da Federação,15,Pará,2017,2017,162,Domicílios,0,,48,Mil unidades,..
3,Unidade da Federação,15,Pará,2017,2017,5123,Coeficiente de variação - Domicílios,0,,2,%,..
3,Unidade da Federação,15,Pará,2017,2017,9784,Distribuição percentual dos domicílios,0,,2,%,..
3,Unidade da Federação,15,Pará,2017,2017,9785,Coeficiente de variação - Distribuição percentual dos domicílios,0,,2,%,..
3,Unidade da Federação,15,Pará,2017,2017,10114,Moradores em domicílios,0,,1572,Mil pessoas,..
3,Unidade da Federação,15,Pará,2017,2017,10116,Coeficiente de variação - Moradores em domicílios,0,,2,%,..
3,Unidade da Federação,15,Pará,2017,2017,10117,Distribuição percentual dos moradores em domicílios,0,,2,%,..
3,Unidade da Federação,15,Pará,2017,2017,10118,Coeficiente de variação - Distribuição percentual dos moradores em domicílios,0,,2,%,..
3,Unidade da Federação,15,Pará,2018,2018,162,Domicílios,0,,48,Mil unidades,..
3,Unidade da Federação,15,Pará,2018,2018,5123,Coeficiente de variação - Domicílios,0,,2,%,..
3,Unidade da Federação,15,Pará,2018,2018,9784,Distribuição percentual dos domicílios,0,,2,%,..
3,Unidade da Federação,15,Pará,2018,2018,9785,Coeficiente de variação - Distribuição percentual dos domicílios,0,,2,%,..
3,Unidade da Federação,15,Pará,2018,2018,10114,Moradores em domicílios,0,,1572,Mil pessoas,..
3,Unidade da Federação,15,Pará,2018,2018,10116,Coeficiente de variação - Moradores em domicílios,0,,2,%,..
3,Unidade da Federação,15,Pará,2018,2018,10117,Distribuição percentual dos moradores em domicílios,0,,2,%,..
3,Unidade da Federação,15,Pará,2018,2018,10118,Coeficiente de variação - Distribuição percentual dos moradores em domicílios,0,,2,%,..
3,Unidade da Federação,15,Pará,2019,2019,162,Domicílios,0,,48,Mil unidades,..
3,Unidade da Federação,15,Pará,2019,2019,5123,Coeficiente de variação - Domicílios,0,,2,%,..
3,Unidade da Federação,15,Pará,2019,2019,9784,Distribuição percentual dos domicílios,0,,2,%,..
3,Unidade da Federação,15,Pará,2019,2019,9785,Coeficiente de variação - Distribuição percentual dos domicílios,0,,2,%,..
3,Unidade da Federação,15,Pará,2019,2019,10114,Moradores em domicílios,0,,1572,Mil pessoas,..
3,Unidade da Federação,15,Pará,2019,2019,10116,Coeficiente de variação - Moradores em domicílios,0,,2,%,..
3,Unidade da Federação,15,Pará,2019,2019,10117,Distribuição percentual dos moradores em domicílios,0,,2,%,..
3,Unidade da Federação,15,Pará,2019,2019,10118,Coeficiente de variação - Distribuição percentual dos moradores em domicílios,0,,2,%,..
3,Unidade da Federação,16,Amapá,2016,2016,162,Domicílios,0,,48,Mil unidades,..
3,Unidade da Federação,16,Amapá,2016,2016,5123,Coeficiente de variação - Domicílios,0,,2,%,..
3,Unidade da Federação,16,Amapá,2016,2016,9784,Distribuição percentual dos domicílios,0,,2,%,..
3,Unidade da Federação,16,Amapá,2016,2016,9785,Coeficiente de variação - Distribuição percentual dos domicílios,0,,2,%,..
3,Unidade da Federação,16,Amapá,2016,2016,10114,Moradores em domicílios,0,,1572,Mil pessoas,..
3,Unidade da Federação,16,Amapá,2016,2016,10116,Coeficiente de variação - Moradores em domicílios,0,,2,%,..
3,Unidade da Federação,16,Amapá,2016,2016,10117,Distribuição percentual dos moradores em domicílios,0,,2,%,..
3,Unidade da Federação,16,Amapá,2016,2016,10118,Coeficiente de variação - Distribuição percentual dos moradores em domicílios,0,,2,%,..
3,Unidade da Federação,16,Amapá,2017,2017,162,Domicílios,0,,48,Mil unidades,..
3,Unidade da Federação,16,Amapá,2017,2017,5123,Coeficiente de variação - Domicílios,0,,2,%,..
3,Unidade da Federação,16,Amapá,2017,2017,9784,Distribuição percentual dos domicílios,0,,2,%,..
3,Unidade da Federação,16,Amapá,2017,2017,9785,Coeficiente de variação - Distribuição percentual dos domicílios,0,,2,%,..
3,Unidade da Federação,16,Amapá,2017,2017,10114,Moradores em domicílios,0,,1572,Mil pessoas,..
3,Unidade da Federação,16,Amapá,2017,2017,10116,Coeficiente de variação - Moradores em domicílios,0,,2,%,..
3,Unidade da Federação,16,Amapá,2017,2017,10117,Distribuição percentual dos moradores em domicílios,0,,2,%,..
3,Unidade da Federação,16,Amapá,2017,2017,10118,Coeficiente de variação - Distribuição percentual dos moradores em domicílios,0,,2,%,..
3,Unidade da Federação,16,Amapá,2018,2018,162,Domicílios,0,,48,Mil unidades,..
3,Unidade da Federação,16,Amapá,2018,2018,5123,Coeficiente de variação - Domicílios,0,,2,%,..
3,Unidade da Federação,16,Amapá,2018,2018,9784,Distribuição percentual dos domicílios,0,,2,%,..
3,Unidade da Federação,16,Amapá,2018,2018,9785,Coeficiente de variação - Distribuição percentual dos domicílios,0,,2,%,..
3,Unidade da Federação,16,Amapá,2018,2018,10114,Moradores em domicílios,0,,1572,Mil pessoas,..
3,Unidade da Federação,16,Amapá,2018,2018,10116,Coeficiente de variação - Moradores em domicílios,0,,2,%,..
3,Unidade da Federação,16,Amapá,2018,2018,10117,Distribuição percentual dos moradores em domicílios,0,,2,%,..
3,Unidade da Federação,16,Amapá,2018,2018,10118,Coeficiente de variação - Distribuição percentual dos moradores em domicílios,0,,2,%,..
3,Unidade da Federação,16,Amapá,2019,2019,162,Domicílios,0,,48,Mil unidades,..
3,Unidade da Federação,16,Amapá,2019,2019,5123,Coeficiente de variação - Domicílios,0,,2,%,..
3,Unidade da Federação,16,Amapá,2019,2019,9784,Distribuição percentual dos domicílios,0,,2,%,..
3,Unidade da Federação,16,Amapá,2019,2019,9785,Coeficiente de variação - Distribuição percentual dos domicílios,0,,2,%,..
3,Unidade da Federação,16,Amapá,2019,2019,10114,Moradores em domicílios,0,,1572,Mil pessoas,..
3,Unidade da Federação,16,Amapá,2019,2019,10116,Coeficiente de variação - Moradores em domicílios,0,,2,%,..
3,Unidade da Federação,16,Amapá,2019,2019,10117,Distribuição percentual dos moradores em domicílios,0,,2,%,..
3,Unidade da Federação,16,Amapá,2019,2019,10118,Coeficiente de variação - Distribuição percentual dos moradores em domicílios,0,,2,%,..
3,Unidade da Federação,17,Tocantins,2016,2016,162,Domicílios,0,,48,Mil unidades,..
3,Unidade da Federação,17,Tocantins,2016,2016,5123,Coeficiente de variação - Domicílios,0,,2,%,..
3,Unidade da Federação,17,Tocantins,2016,2016,9784,Distribuição percentual dos domicílios,0,,2,%,..
3,Unidade da Federação,17,Tocantins,2016,2016,9785,Coeficiente de variação - Distribuição percentual dos domicílios,0,,2,%,..
3,Unidade da Federação,17,Tocantins,2016,2016,10114,Moradores em domicílios,0,,1572,Mil pessoas,..
3,Unidade da Federação,17,Tocantins,2016,2016,10116,Coeficiente de variação - Moradores em domicílios,0,,2,%,..
3,Unidade da Federação,17,Tocantins,2016,2016,10117,Distribuição percentual dos moradores em domicílios,0,,2,%,..
3,Unidade da Federação,17,Tocantins,2016,2016,10118,Coeficiente de variação - Distribuição percentual dos moradores em domicílios,0,,2,%,..
3,Unidade da Federação,17,Tocantins,2017,2017,162,Domicílios,0,,48,Mil unidades,..
3,Unidade da Federação,17,Tocantins,2017,2017,5123,Coeficiente de variação - Domicílios,0,,2,%,..
3,Unidade da Federação,17,Tocantins,2017,2017,9784,Distribuição percentual dos domicílios,0,,2,%,..
3,Unidade da Federação,17,Tocantins,2017,2017,9785,Coeficiente de variação - Distribuição percentual dos domicílios,0,,2,%,..
3,Unidade da Federação,17,Tocantins,2017,2017,10114,Moradores em domicílios,0,,1572,Mil pessoas,..
3,Unidade da Federação,17,Tocantins,2017,2017,10116,Coeficiente de variação - Moradores em domicílios,0,,2,%,..
3,Unidade da Federação,17,Tocantins,2017,2017,10117,Distribuição percentual dos moradores em domicílios,0,,2,%,..
3,Unidade da Federação,17,Tocantins,2017,2017,10118,Coeficiente de variação - Distribuição percentual dos moradores em domicílios,0,,2,%,..
3,Unidade da Federação,17,Tocantins,2018,2018,162,Domicílios,0,,48,Mil unidades,..
3,Unidade da Federação,17,Tocantins,2018,2018,5123,Coeficiente de variação - Domicílios,0,,2,%,..
3,Unidade da Federação,17,Tocantins,2018,2018,9784,Distribuição percentual dos domicílios,0,,2,%,..
3,Unidade da Federação,17,Tocantins,2018,2018,9785,Coeficiente de variação - Distribuição percentual dos domicílios,0,,2,%,..
3,Unidade da Federação,17,Tocantins,2018,2018,10114,Moradores em domicílios,0,,1572,Mil pessoas,..
3,Unidade da Federação,17,Tocantins,2018,2018,10116,Coeficiente de variação - Moradores em domicílios,0,,2,%,..
3,Unidade da Federação,17,Tocantins,2018,2018,10117,Distribuição percentual dos moradores em domicílios,0,,2,%,..
3,Unidade da Federação,17,Tocantins,2018,2018,10118,Coeficiente de variação - Distribuição percentual dos moradores em domicílios,0,,2,%,..
3,Unidade da Federação,17,Tocantins,2019,2019,162,Domicílios,0,,48,Mil unidades,..
3,Unidade da Federação,17,Tocantins,2019,2019,5123,Coeficiente de variação - Domicílios,0,,2,%,..
3,Unidade da Federação,17,Tocantins,2019,2019,9784,Distribuição percentual dos domicílios,0,,2,%,..
3,Unidade da Federação,17,Tocantins,2019,2019,9785,Coeficiente de variação - Distribuição percentual dos domicílios,0,,2,%,..
3,Unidade da Federação,17,Tocantins,2019,2019,10114,Moradores em domicílios,0,,1572,Mil pessoas,..
3,Unidade da Federação,17,Tocantins,2019,2019,10116,Coeficiente de variação - Moradores em domicílios,0,,2,%,..
3,Unidade da Federação,17,Tocantins,2019,2019,10117,Distribuição percentual dos moradores em domicílios,0,,2,%,..
3,Unidade da Federação,17,Tocantins,2019,2019,10118,Coeficiente de variação - Distribuição percentual dos moradores em domicílios,0,,2,%,..
3,Unidade da Federação,21,Maranhão,2016,2016,162,Domicílios,0,,48,Mil unidades,..
3,Unidade da Federação,21,Maranhão,2016,2016,5123,Coeficiente de variação - Domicílios,0,,2,%,..
3,Unidade da Federação,21,Maranhão,2016,2016,9784,Distribuição percentual dos domicílios,0,,2,%,..
3,Unidade da Federação,21,Maranhão,2016,2016,9785,Coeficiente de variação - Distribuição percentual dos domicílios,0,,2,%,..
3,Unidade da Federação,21,Maranhão,2016,2016,10114,Moradores em domicílios,0,,1572,Mil pessoas,..
3,Unidade da Federação,21,Maranhão,2016,2016,10116,Coeficiente de variação - Moradores em domicílios,0,,2,%,..
3,Unidade da Federação,21,Maranhão,2016,2016,10117,Distribuição percentual dos moradores em domicílios,0,,2,%,..
3,Unidade da Federação,21,Maranhão,2016,2016,10118,Coeficiente de variação - Distribuição percentual dos moradores em domicílios,0,,2,%,..
3,Unidade da Federação,21,Maranhão,2017,2017,162,Domicílios,0,,48,Mil unidades,..
3,Unidade da Federação,21,Maranhão,2017,2017,5123,Coeficiente de variação - Domicílios,0,,2,%,..
3,Unidade da Federação,21,Maranhão,2017,2017,9784,Distribuição percentual dos domicílios,0,,2,%,..
3,Unidade da Federação,21,Maranhão,2017,2017,9785,Coeficiente de variação - Distribuição percentual dos domicílios,0,,2,%,..
3,Unidade da Federação,21,Maranhão,2017,2017,10114,Moradores em domicílios,0,,1572,Mil pessoas,..
3,Unidade da Federação,21,Maranhão,2017,2017,10116,Coeficiente de variação - Moradores em domicílios,0,,2,%,..
3,Unidade da Federação,21,Maranhão,2017,2017,10117,Distribuição percentual dos moradores em domicílios,0,,2,%,..
3,Unidade da Federação,21,Maranhão,2017,2017,10118,Coeficiente de variação - Distribuição percentual dos moradores em domicílios,0,,2,%,..
3,Unidade da Federação,21,Maranhão,2018,2018,162,Domicílios,0,,48,Mil unidades,..
3,Unidade da Federação,21,Maranhão,2018,2018,5123,Coeficiente de variação - Domicílios,0,,2,%,..
3,Unidade da Federação,21,Maranhão,2018,2018,9784,Distribuição percentual dos domicílios,0,,2,%,..
3,Unidade da Federação,21,Maranhão,2018,2018,9785,Coeficiente de variação - Distribuição percentual dos domicílios,0,,2,%,..
3,Unidade da Federação,21,Maranhão,2018,2018,10114,Moradores em domicílios,0,,1572,Mil pessoas,..
3,Unidade da Federação,21,Maranhão,2018,2018,10116,Coeficiente de variação - Moradores em domicílios,0,,2,%,..
3,Unidade da Federação,21,Maranhão,2018,2018,10117,Distribuição percentual dos moradores em domicílios,0,,2,%,..
3,Unidade da Federação,21,Maranhão,2018,2018,10118,Coeficiente de variação - Distribuição percentual dos moradores em domicílios,0,,2,%,..
3,Unidade da Federação,21,Maranhão,2019,2019,162,Domicílios,0,,48,Mil unidades,..
3,Unidade da Federação,21,Maranhão,2019,2019,5123,Coeficiente de variação - Domicílios,0,,2,%,..
3,Unidade da Federação,21,Maranhão,2019,2019,9784,Distribuição percentual dos domicílios,0,,2,%,..
3,Unidade da Federação,21,Maranhão,2019,2019,9785,Coeficiente de variação - Distribuição percentual dos domicílios,0,,2,%,..
3,Unidade da Federação,21,Maranhão,2019,2019,10114,Moradores em domicílios,0,,1572,Mil pessoas,..
3,Unidade da Federação,21,Maranhão,2019,2019,10116,Coeficiente de variação - Moradores em domicílios,0,,2,%,..
3,Unidade da Federação,21,Maranhão,2019,2019,10117,Distribuição percentual dos moradores em domicílios,0,,2,%,..
3,Unidade da Federação,21,Maranhão,2019,2019,10118,Coeficiente de variação - Distribuição percentual dos moradores em domicílios,0,,2,%,..
3,Unidade da Federação,22,Piauí,2016,2016,162,Domicílios,0,,48,Mil unidades,..
3,Unidade da Federação,22,Piauí,2016,2016,5123,Coeficiente de variação - Domicílios,0,,2,%,..
3,Unidade da Federação,22,Piauí,2016,2016,9784,Distribuição percentual dos domicílios,0,,2,%,..
3,Unidade da Federação,22,Piauí,2016,2016,9785,Coeficiente de variação - Distribuição percentual dos domicílios,0,,2,%,..
3,Unidade da Federação,22,Piauí,2016,2016,10114,Moradores em domicílios,0,,1572,Mil pessoas,..
3,Unidade da Federação,22,Piauí,2016,2016,10116,Coeficiente de variação - Moradores em domicílios,0,,2,%,..
3,Unidade da Federação,22,Piauí,2016,2016,10117,Distribuição percentual dos moradores em domicílios,0,,2,%,..
3,Unidade da Federação,22,Piauí,2016,2016,10118,Coeficiente de variação - Distribuição percentual dos moradores em domicílios,0,,2,%,..
3,Unidade da Federação,22,Piauí,2017,2017,162,Domicílios,0,,48,Mil unidades,..
3,Unidade da Federação,22,Piauí,2017,2017,5123,Coeficiente de variação - Domicílios,0,,2,%,..
3,Unidade da Federação,22,Piauí,2017,2017,9784,Distribuição percentual dos domicílios,0,,2,%,..
3,Unidade da Federação,22,Piauí,2017,2017,9785,Coeficiente de variação - Distribuição percentual dos domicílios,0,,2,%,..
3,Unidade da Federação,22,Piauí,2017,2017,10114,Moradores em domicílios,0,,1572,Mil pessoas,..
3,Unidade da Federação,22,Piauí,2017,2017,10116,Coeficiente de variação - Moradores em domicílios,0,,2,%,..
3,Unidade da Federação,22,Piauí,2017,2017,10117,Distribuição percentual dos moradores em domicílios,0,,2,%,..
3,Unidade da Federação,22,Piauí,2017,2017,10118,Coeficiente de variação - Distribuição percentual dos moradores em domicílios,0,,2,%,..
3,Unidade da Federação,22,Piauí,2018,2018,162,Domicílios,0,,48,Mil unidades,..
3,Unidade da Federação,22,Piauí,2018,2018,5123,Coeficiente de variação - Domicílios,0,,2,%,..
3,Unidade da Federação,22,Piauí,2018,2018,9784,Distribuição percentual dos domicílios,0,,2,%,..
3,Unidade da Federação,22,Piauí,2018,2018,9785,Coeficiente de variação - Distribuição percentual dos domicílios,0,,2,%,..
3,Unidade da Federação,22,Piauí,2018,2018,10114,Moradores em domicílios,0,,1572,Mil pessoas,..
3,Unidade da Federação,22,Piauí,2018,2018,10116,Coeficiente de variação - Moradores em domicílios,0,,2,%,..
3,Unidade da Federação,22,Piauí,2018,2018,10117,Distribuição percentual dos moradores em domicílios,0,,2,%,..
3,Unidade da Federação,22,Piauí,2018,2018,10118,Coeficiente de variação - Distribuição percentual dos moradores em domicílios,0,,2,%,..
3,Unidade da Federação,22,Piauí,2019,2019,162,Domicílios,0,,48,Mil unidades,..
3,Unidade da Federação,22,Piauí,2019,2019,5123,Coeficiente de variação - Domicílios,0,,2,%,..
3,Unidade da Federação,22,Piauí,2019,2019,9784,Distribuição percentual dos domicílios,0,,2,%,..
3,Unidade da Federação,22,Piauí,2019,2019,9785,Coeficiente de variação - Distribuição percentual dos domicílios,0,,2,%,..
3,Unidade da Federação,22,Piauí,2019,2019,10114,Moradores em domicílios,0,,1572,Mil pessoas,..
3,Unidade da Federação,22,Piauí,2019,2019,10116,Coeficiente de variação - Moradores em domicílios,0,,2,%,..
3,Unidade da Federação,22,Piauí,2019,2019,10117,Distribuição percentual dos moradores em domicílios,0,,2,%,..
3,Unidade da Federação,22,Piauí,2019,2019,10118,Coeficiente de variação - Distribuição percentual dos moradores em domicílios,0,,2,%,..
3,Unidade da Federação,23,Ceará,2016,2016,162,Domicílios,0,,48,Mil unidades,..
3,Unidade da Federação,23,Ceará,2016,2016,5123,Coeficiente de variação - Domicílios,0,,2,%,..
3,Unidade da Federação,23,Ceará,2016,2016,9784,Distribuição percentual dos domicílios,0,,2,%,..
3,Unidade da Federação,23,Ceará,2016,2016,9785,Coeficiente de variação - Distribuição percentual dos domicílios,0,,2,%,..
3,Unidade da Federação,23,Ceará,2016,2016,10114,Moradores em domicílios,0,,1572,Mil pessoas,..
3,Unidade da Federação,23,Ceará,2016,2016,10116,Coeficiente de variação - Moradores em domicílios,0,,2,%,..
3,Unidade da Federação,23,Ceará,2016,2016,10117,Distribuição percentual dos moradores em domicílios,0,,2,%,..
3,Unidade da Federação,23,Ceará,2016,2016,10118,Coeficiente de variação - Distribuição percentual dos moradores em domicílios,0,,2,%,..
3,Unidade da Federação,23,Ceará,2017,2017,162,Domicílios,0,,48,Mil unidades,..
3,Unidade da Federação,23,Ceará,2017,2017,5123,Coeficiente de variação - Domicílios,0,,2,%,..
3,Unidade da Federação,23,Ceará,2017,2017,9784,Distribuição percentual dos domicílios,0,,2,%,..
3,Unidade da Federação,23,Ceará,2017,2017,9785,Coeficiente de variação - Distribuição percentual dos domicílios,0,,2,%,..
3,Unidade da Federação,23,Ceará,2017,2017,10114,Moradores em domicílios,0,,1572,Mil pessoas,..
3,Unidade da Federação,23,Ceará,2017,2017,10116,Coeficiente de variação - Moradores em domicílios,0,,2,%,..
3,Unidade da Federação,23,Ceará,2017,2017,10117,Distribuição percentual dos moradores em domicílios,0,,2,%,..
3,Unidade da Federação,23,Ceará,2017,2017,10118,Coeficiente de variação - Distribuição percentual dos moradores em domicílios,0,,2,%,..
3,Unidade da Federação,23,Ceará,2018,2018,162,Domicílios,0,,48,Mil unidades,..
3,Unidade da Federação,23,Ceará,2018,2018,5123,Coeficiente de variação - Domicílios,0,,2,%,..
3,Unidade da Federação,23,Ceará,2018,2018,9784,Distribuição percentual dos domicílios,0,,2,%,..
3,Unidade da Federação,23,Ceará,2018,2018,9785,Coeficiente de variação - Distribuição percentual dos domicílios,0,,2,%,..
3,Unidade da Federação,23,Ceará,2018,2018,10114,Moradores em domicílios,0,,1572,Mil pessoas,..
3,Unidade da Federação,23,Ceará,2018,2018,10116,Coeficiente de variação - Moradores em domicílios,0,,2,%,..
3,Unidade da Federação,23,Ceará,2018,2018,10117,Distribuição percentual dos moradores em domicílios,0,,2,%,..
3,Unidade da Federação,23,Ceará,2018,2018,10118,Coeficiente de variação - Distribuição percentual dos moradores em domicílios,0,,2,%,..
3,Unidade da Federação,23,Ceará,2019,2019,162,Domicílios,0,,48,Mil unidades,..
3,Unidade da Federação,23,Ceará,2019,2019,5123,Coeficiente de variação - Domicílios,0,,2,%,..
3,Unidade da Federação,23,Ceará,2019,2019,9784,Distribuição percentual dos domicílios,0,,2,%,..
3,Unidade da Federação,23,Ceará,2019,2019,9785,Coeficiente de variação - Distribuição percentual dos domicílios,0,,2,%,..
3,Unidade da Federação,23,Ceará,2019,2019,10114,Moradores em domicílios,0,,1572,Mil pessoas,..
3,Unidade da Federação,23,Ceará,2019,2019,10116,Coeficiente de variação - Moradores em domicílios,0,,2,%,..
3,Unidade da Federação,23,Ceará,2019,2019,10117,Distribuição percentual dos moradores em domicílios,0,,2,%,..
3,Unidade da Federação,23,Ceará,2019,2019,10118,Coeficiente de variação - Distribuição percentual dos moradores em domicílios,0,,2,%,..
3,Unidade da Federação,24,Rio Grande do Norte,2016,2016,162,Domicílios,0,,48,Mil unidades,..
3,Unidade da Federação,24,Rio Grande do Norte,2016,2016,5123,Coeficiente de variação - Domicílios,0,,2,%,..
3,Unidade da Federação,24,Rio Grande do Norte,2016,2016,9784,Distribuição percentual dos domicílios,0,,2,%,..
3,Unidade da Federação,24,Rio Grande do Norte,2016,2016,9785,Coeficiente de variação - Distribuição percentual dos domicílios,0,,2,%,..
3,Unidade da Federação,24,Rio Grande do Norte,2016,2016,10114,Moradores em domicílios,0,,1572,Mil pessoas,..
3,Unidade da Federação,24,Rio Grande do Norte,2016,2016,10116,Coeficiente de variação - Moradores em domicílios,0,,2,%,..
3,Unidade da Federação,24,Rio Grande do Norte,2016,2016,10117,Distribuição percentual dos moradores em domicílios,0,,2,%,..
3,Unidade da Federação,24,Rio Grande do Norte,2016,2016,10118,Coeficiente de variação - Distribuição percentual dos moradores em domicílios,0,,2,%,..
3,Unidade da Federação,24,Rio Grande do Norte,2017,2017,162,Domicílios,0,,48,Mil unidades,..
3,Unidade da Federação,24,Rio Grande do Norte,2017,2017,5123,Coeficiente de variação - Domicílios,0,,2,%,..
3,Unidade da Federação,24,Rio Grande do Norte,2017,2017,9784,Distribuição percentual dos domicílios,0,,2,%,..
3,Unidade da Federação,24,Rio Grande do Norte,2017,2017,9785,Coeficiente de variação - Distribuição percentual dos domicílios,0,,2,%,..
3,Unidade da Federação,24,Rio Grande do Norte,2017,2017,10114,Moradores em domicílios,0,,1572,Mil pessoas,..
3,Unidade da Federação,24,Rio Grande do Norte,2017,2017,10116,Coeficiente de variação - Moradores em domicílios,0,,2,%,..
3,Unidade da Federação,24,Rio Grande do Norte,2017,2017,10117,Distribuição percentual dos moradores em domicílios,0,,2,%,..
3,Unidade da Federação,24,Rio Grande do Norte,2017,2017,10118,Coeficiente de variação - Distribuição percentual dos moradores em domicílios,0,,2,%,..
3,Unidade da Federação,24,Rio Grande do Norte,2018,2018,162,Domicílios,0,,48,Mil unidades,..
3,Unidade da Federação,24,Rio Grande do Norte,2018,2018,5123,Coeficiente de variação - Domicílios,0,,2,%,..
3,Unidade da Federação,24,Rio Grande do Norte,2018,2018,9784,Distribuição percentual dos domicílios,0,,2,%,..
3,Unidade da Federação,24,Rio Grande do Norte,2018,2018,9785,Coeficiente de variação - Distribuição percentual dos domicílios,0,,2,%,..
3,Unidade da Federação,24,Rio Grande do Norte,2018,2018,10114,Moradores em domicílios,0,,1572,Mil pessoas,..
3,Unidade da Federação,24,Rio Grande do Norte,2018,2018,10116,Coeficiente de variação - Moradores em domicílios,0,,2,%,..
3,Unidade da Federação,24,Rio Grande do Norte,2018,2018,10117,Distribuição percentual dos moradores em domicílios,0,,2,%,..
3,Unidade da Federação,24,Rio Grande do Norte,2018,2018,10118,Coeficiente de variação - Distribuição percentual dos moradores em domicílios,0,,2,%,..
3,Unidade da Federação,24,Rio Grande do Norte,2019,2019,162,Domicílios,0,,48,Mil unidades,..
3,Unidade da Federação,24,Rio Grande do Norte,2019,2019,5123,Coeficiente de variação - Domicílios,0,,2,%,..
3,Unidade da Federação,24,Rio Grande do Norte,2019,2019,9784,Distribuição percentual dos domicílios,0,,2,%,..
3,Unidade da Federação,24,Rio Grande do Norte,2019,2019,9785,Coeficiente de variação - Distribuição percentual dos domicílios,0,,2,%,..
3,Unidade da Federação,24,Rio Grande do Norte,2019,2019,10114,Moradores em domicílios,0,,1572,Mil pessoas,..
3,Unidade da Federação,24,Rio Grande do Norte,2019,2019,10116,Coeficiente de variação - Moradores em domicílios,0,,2,%,..
3,Unidade da Federação,24,Rio Grande do Norte,2019,2019,10117,Distribuição percentual dos moradores em domicílios,0,,2,%,..
3,Unidade da Federação,24,Rio Grande do Norte,2019,2019,10118,Coeficiente de variação - Distribuição percentual dos moradores em domicílios,0,,2,%,..
3,Unidade da Federação,25,Paraíba,2016,2016,162,Domicílios,0,,48,Mil unidades,..
3,Unidade da Federação,25,Paraíba,2016,2016,5123,Coeficiente de variação - Domicílios,0,,2,%,..
3,Unidade da Federação,25,Paraíba,2016,2016,9784,Distribuição percentual dos domicílios,0,,2,%,..
3,Unidade da Federação,25,Paraíba,2016,2016,9785,Coeficiente de variação - Distribuição percentual dos domicílios,0,,2,%,..
3,Unidade da Federação,25,Paraíba,2016,2016,10114,Moradores em domicílios,0,,1572,Mil pessoas,..
3,Unidade da Federação,25,Paraíba,2016,2016,10116,Coeficiente de variação - Moradores em domicílios,0,,2,%,..
3,Unidade da Federação,25,Paraíba,2016,2016,10117,Distribuição percentual dos moradores em domicílios,0,,2,%,..
3,Unidade da Federação,25,Paraíba,2016,2016,10118,Coeficiente de variação - Distribuição percentual dos moradores em domicílios,0,,2,%,..
3,Unidade da Federação,25,Paraíba,2017,2017,162,Domicílios,0,,48,Mil unidades,..
3,Unidade da Federação,25,Paraíba,2017,2017,5123,Coeficiente de variação - Domicílios,0,,2,%,..
3,Unidade da Federação,25,Paraíba,2017,2017,9784,Distribuição percentual dos domicílios,0,,2,%,..
3,Unidade da Federação,25,Paraíba,2017,2017,9785,Coeficiente de variação - Distribuição percentual dos domicílios,0,,2,%,..
3,Unidade da Federação,25,Paraíba,2017,2017,10114,Moradores em domicílios,0,,1572,Mil pessoas,..
3,Unidade da Federação,25,Paraíba,2017,2017,10116,Coeficiente de variação - Moradores em domicílios,0,,2,%,..
3,Unidade da Federação,25,Paraíba,2017,2017,10117,Distribuição percentual dos moradores em domicílios,0,,2,%,..
3,Unidade da Federação,25,Paraíba,2017,2017,10118,Coeficiente de variação - Distribuição percentual dos moradores em domicílios,0,,2,%,..
3,Unidade da Federação,25,Paraíba,2018,2018,162,Domicílios,0,,48,Mil unidades,..
3,Unidade da Federação,25,Paraíba,2018,2018,5123,Coeficiente de variação - Domicílios,0,,2,%,..
3,Unidade da Federação,25,Paraíba,2018,2018,9784,Distribuição percentual dos domicílios,0,,2,%,..
3,Unidade da Federação,25,Paraíba,2018,2018,9785,Coeficiente de variação - Distribuição percentual dos domicílios,0,,2,%,..
3,Unidade da Federação,25,Paraíba,2018,2018,10114,Moradores em domicílios,0,,1572,Mil pessoas,..
3,Unidade da Federação,25,Paraíba,2018,2018,10116,Coeficiente de variação - Moradores em domicílios,0,,2,%,..
3,Unidade da Federação,25,Paraíba,2018,2018,10117,Distribuição percentual dos moradores em domicílios,0,,2,%,..
3,Unidade da Federação,25,Paraíba,2018,2018,10118,Coeficiente de variação - Distribuição percentual dos moradores em domicílios,0,,2,%,..
3,Unidade da Federação,25,Paraíba,2019,2019,162,Domicílios,0,,48,Mil unidades,..
3,Unidade da Federação,25,Paraíba,2019,2019,5123,Coeficiente de variação - Domicílios,0,,2,%,..
3,Unidade da Federação,25,Paraíba,2019,2019,9784,Distribuição percentual dos domicílios,0,,2,%,..
3,Unidade da Federação,25,Paraíba,2019,2019,9785,Coeficiente de variação - Distribuição percentual dos domicílios,0,,2,%,..
3,Unidade da Federação,25,Paraíba,2019,2019,10114,Moradores em domicílios,0,,1572,Mil pessoas,..
3,Unidade da Federação,25,Paraíba,2019,2019,10116,Coeficiente de variação - Moradores em domicílios,0,,2,%,..
3,Unidade da Federação,25,Paraíba,2019,2019,10117,Distribuição percentual dos moradores em domicílios,0,,2,%,..
3,Unidade da Federação,25,Paraíba,2019,2019,10118,Coeficiente de variação - Distribuição percentual dos moradores em domicílios,0,,2,%,..
3,Unidade da Federação,26,Pernambuco,2016,2016,162,Domicílios,0,,48,Mil unidades,..
3,Unidade da Federação,26,Pernambuco,2016,2016,5123,Coeficiente de variação - Domicílios,0,,2,%,..
3,Unidade da Federação,26,Pernambuco,2016,2016,9784,Distribuição percentual dos domicílios,0,,2,%,..
3,Unidade da Federação,26,Pernambuco,2016,2016,9785,Coeficiente de variação - Distribuição percentual dos domicílios,0,,2,%,..
3,Unidade da Federação,26,Pernambuco,2016,2016,10114,Moradores em domicílios,0,,1572,Mil pessoas,..
3,Unidade da Federação,26,Pernambuco,2016,2016,10116,Coeficiente de variação - Moradores em domicílios,0,,2,%,..
3,Unidade da Federação,26,Pernambuco,2016,2016,10117,Distribuição percentual dos moradores em domicílios,0,,2,%,..
3,Unidade da Federação,26,Pernambuco,2016,2016,10118,Coeficiente de variação - Distribuição percentual dos moradores em domicílios,0,,2,%,..
3,Unidade da Federação,26,Pernambuco,2017,2017,162,Domicílios,0,,48,Mil unidades,..
3,Unidade da Federação,26,Pernambuco,2017,2017,5123,Coeficiente de variação - Domicílios,0,,2,%,..
3,Unidade da Federação,26,Pernambuco,2017,2017,9784,Distribuição percentual dos domicílios,0,,2,%,..
3,Unidade da Federação,26,Pernambuco,2017,2017,9785,Coeficiente de variação - Distribuição percentual dos domicílios,0,,2,%,..
3,Unidade da Federação,26,Pernambuco,2017,2017,10114,Moradores em domicílios,0,,1572,Mil pessoas,..
3,Unidade da Federação,26,Pernambuco,2017,2017,10116,Coeficiente de variação - Moradores em domicílios,0,,2,%,..
3,Unidade da Federação,26,Pernambuco,2017,2017,10117,Distribuição percentual dos moradores em domicílios,0,,2,%,..
3,Unidade da Federação,26,Pernambuco,2017,2017,10118,Coeficiente de variação - Distribuição percentual dos moradores em domicílios,0,,2,%,..
3,Unidade da Federação,26,Pernambuco,2018,2018,162,Domicílios,0,,48,Mil unidades,..
3,Unidade da Federação,26,Pernambuco,2018,2018,5123,Coeficiente de variação - Domicílios,0,,2,%,..
3,Unidade da Federação,26,Pernambuco,2018,2018,9784,Distribuição percentual dos domicílios,0,,2,%,..
3,Unidade da Federação,26,Pernambuco,2018,2018,9785,Coeficiente de variação - Distribuição percentual dos domicílios,0,,2,%,..
3,Unidade da Federação,26,Pernambuco,2018,2018,10114,Moradores em domicílios,0,,1572,Mil pessoas,..
3,Unidade da Federação,26,Pernambuco,2018,2018,10116,Coeficiente de variação - Moradores em domicílios,0,,2,%,..
3,Unidade da Federação,26,Pernambuco,2018,2018,10117,Distribuição percentual dos moradores em domicílios,0,,2,%,..
3,Unidade da Federação,26,Pernambuco,2018,2018,10118,Coeficiente de variação - Distribuição percentual dos moradores em domicílios,0,,2,%,..
3,Unidade da Federação,26,Pernambuco,2019,2019,162,Domicílios,0,,48,Mil unidades,..
3,Unidade da Federação,26,Pernambuco,2019,2019,5123,Coeficiente de variação - Domicílios,0,,2,%,..
3,Unidade da Federação,26,Pernambuco,2019,2019,9784,Distribuição percentual dos domicílios,0,,2,%,..
3,Unidade da Federação,26,Pernambuco,2019,2019,9785,Coeficiente de variação - Distribuição percentual dos domicílios,0,,2,%,..
3,Unidade da Federação,26,Pernambuco,2019,2019,10114,Moradores em domicílios,0,,1572,Mil pessoas,..
3,Unidade da Federação,26,Pernambuco,2019,2019,10116,Coeficiente de variação - Moradores em domicílios,0,,2,%,..
3,Unidade da Federação,26,Pernambuco,2019,2019,10117,Distribuição percentual dos moradores em domicílios,0,,2,%,..
3,Unidade da Federação,26,Pernambuco,2019,2019,10118,Coeficiente de variação - Distribuição percentual dos moradores em domicílios,0,,2,%,..
3,Unidade da Federação,27,Alagoas,2016,2016,162,Domicílios,0,,48,Mil unidades,..
3,Unidade da Federação,27,Alagoas,2016,2016,5123,Coeficiente de variação - Domicílios,0,,2,%,..
3,Unidade da Federação,27,Alagoas,2016,2016,9784,Distribuição percentual dos domicílios,0,,2,%,..
3,Unidade da Federação,27,Alagoas,2016,2016,9785,Coeficiente de variação - Distribuição percentual dos domicílios,0,,2,%,..
3,Unidade da Federação,27,Alagoas,2016,2016,10114,Moradores em domicílios,0,,1572,Mil pessoas,..
3,Unidade da Federação,27,Alagoas,2016,2016,10116,Coeficiente de variação - Moradores em domicílios,0,,2,%,..
3,Unidade da Federação,27,Alagoas,2016,2016,10117,Distribuição percentual dos moradores em domicílios,0,,2,%,..
3,Unidade da Federação,27,Alagoas,2016,2016,10118,Coeficiente de variação - Distribuição percentual dos moradores em domicílios,0,,2,%,..
3,Unidade da Federação,27,Alagoas,2017,2017,162,Domicílios,0,,48,Mil unidades,..
3,Unidade da Federação,27,Alagoas,2017,2017,5123,Coeficiente de variação - Domicílios,0,,2,%,..
3,Unidade da Federação,27,Alagoas,2017,2017,9784,Distribuição percentual dos domicílios,0,,2,%,..
3,Unidade da Federação,27,Alagoas,2017,2017,9785,Coeficiente de variação - Distribuição percentual dos domicílios,0,,2,%,..
3,Unidade da Federação,27,Alagoas,2017,2017,10114,Moradores em domicílios,0,,1572,Mil pessoas,..
3,Unidade da Federação,27,Alagoas,2017,2017,10116,Coeficiente de variação - Moradores em domicílios,0,,2,%,..
3,Unidade da Federação,27,Alagoas,2017,2017,10117,Distribuição percentual dos moradores em domicílios,0,,2,%,..
3,Unidade da Federação,27,Alagoas,2017,2017,10118,Coeficiente de variação - Distribuição percentual dos moradores em domicílios,0,,2,%,..
3,Unidade da Federação,27,Alagoas,2018,2018,162,Domicílios,0,,48,Mil unidades,..
3,Unidade da Federação,27,Alagoas,2018,2018,5123,Coeficiente de variação - Domicílios,0,,2,%,..
3,Unidade da Federação,27,Alagoas,2018,2018,9784,Distribuição percentual dos domicílios,0,,2,%,..
3,Unidade da Federação,27,Alagoas,2018,2018,9785,Coeficiente de variação - Distribuição percentual dos domicílios,0,,2,%,..
3,Unidade da Federação,27,Alagoas,2018,2018,10114,Moradores em domicílios,0,,1572,Mil pessoas,..
3,Unidade da Federação,27,Alagoas,2018,2018,10116,Coeficiente de variação - Moradores em domicílios,0,,2,%,..
3,Unidade da Federação,27,Alagoas,2018,2018,10117,Distribuição percentual dos moradores em domicílios,0,,2,%,..
3,Unidade da Federação,27,Alagoas,2018,2018,10118,Coeficiente de variação - Distribuição percentual dos moradores em domicílios,0,,2,%,..
3,Unidade da Federação,27,Alagoas,2019,2019,162,Domicílios,0,,48,Mil unidades,..
3,Unidade da Federação,27,Alagoas,2019,2019,5123,Coeficiente de variação - Domicílios,0,,2,%,..
3,Unidade da Federação,27,Alagoas,2019,2019,9784,Distribuição percentual dos domicílios,0,,2,%,..
3,Unidade da Federação,27,Alagoas,2019,2019,9785,Coeficiente de variação - Distribuição percentual dos domicílios,0,,2,%,..
3,Unidade da Federação,27,Alagoas,2019,2019,10114,Moradores em domicílios,0,,1572,Mil pessoas,..
3,Unidade da Federação,27,Alagoas,2019,2019,10116,Coeficiente de variação - Moradores em domicílios,0,,2,%,..
3,Unidade da Federação,27,Alagoas,2019,2019,10117,Distribuição percentual dos moradores em domicílios,0,,2,%,..
3,Unidade da Federação,27,Alagoas,2019,2019,10118,Coeficiente de variação - Distribuição percentual dos moradores em domicílios,0,,2,%,..
3,Unidade da Federação,28,Sergipe,2016,2016,162,Domicílios,0,,48,Mil unidades,..
3,Unidade da Federação,28,Sergipe,2016,2016,5123,Coeficiente de variação - Domicílios,0,,2,%,..
3,Unidade da Federação,28,Sergipe,2016,2016,9784,Distribuição percentual dos domicílios,0,,2,%,..
3,Unidade da Federação,28,Sergipe,2016,2016,9785,Coeficiente de variação - Distribuição percentual dos domicílios,0,,2,%,..
3,Unidade da Federação,28,Sergipe,2016,2016,10114,Moradores em domicílios,0,,1572,Mil pessoas,..
3,Unidade da Federação,28,Sergipe,2016,2016,10116,Coeficiente de variação - Moradores em domicílios,0,,2,%,..
3,Unidade da Federação,28,Sergipe,2016,2016,10117,Distribuição percentual dos moradores em domicílios,0,,2,%,..
3,Unidade da Federação,28,Sergipe,2016,2016,10118,Coeficiente de variação - Distribuição percentual dos moradores em domicílios,0,,2,%,..
3,Unidade da Federação,28,Sergipe,2017,2017,162,Domicílios,0,,48,Mil unidades,..
3,Unidade da Federação,28,Sergipe,2017,2017,5123,Coeficiente de variação - Domicílios,0,,2,%,..
3,Unidade da Federação,28,Sergipe,2017,2017,9784,Distribuição percentual dos domicílios,0,,2,%,..
3,Unidade da Federação,28,Sergipe,2017,2017,9785,Coeficiente de variação - Distribuição percentual dos domicílios,0,,2,%,..
3,Unidade da Federação,28,Sergipe,2017,2017,10114,Moradores em domicílios,0,,1572,Mil pessoas,..
3,Unidade da Federação,28,Sergipe,2017,2017,10116,Coeficiente de variação - Moradores em domicílios,0,,2,%,..
3,Unidade da Federação,28,Sergipe,2017,2017,10117,Distribuição percentual dos moradores em domicílios,0,,2,%,..
3,Unidade da Federação,28,Sergipe,2017,2017,10118,Coeficiente de variação - Distribuição percentual dos moradores em domicílios,0,,2,%,..
3,Unidade da Federação,28,Sergipe,2018,2018,162,Domicílios,0,,48,Mil unidades,..
3,Unidade da Federação,28,Sergipe,2018,2018,5123,Coeficiente de variação - Domicílios,0,,2,%,..
3,Unidade da Federação,28,Sergipe,2018,2018,9784,Distribuição percentual dos domicílios,0,,2,%,..
3,Unidade da Federação,28,Sergipe,2018,2018,9785,Coeficiente de variação - Distribuição percentual dos domicílios,0,,2,%,..
3,Unidade da Federação,28,Sergipe,2018,2018,10114,Moradores em domicílios,0,,1572,Mil pessoas,..
3,Unidade da Federação,28,Sergipe,2018,2018,10116,Coeficiente de variação - Moradores em domicílios,0,,2,%,..
3,Unidade da Federação,28,Sergipe,2018,2018,10117,Distribuição percentual dos moradores em domicílios,0,,2,%,..
3,Unidade da Federação,28,Sergipe,2018,2018,10118,Coeficiente de variação - Distribuição percentual dos moradores em domicílios,0,,2,%,..
3,Unidade da Federação,28,Sergipe,2019,2019,162,Domicílios,0,,48,Mil unidades,..
3,Unidade da Federação,28,Sergipe,2019,2019,5123,Coeficiente de variação - Domicílios,0,,2,%,..
3,Unidade da Federação,28,Sergipe,2019,2019,9784,Distribuição percentual dos domicílios,0,,2,%,..
3,Unidade da Federação,28,Sergipe,2019,2019,9785,Coeficiente de variação - Distribuição percentual dos domicílios,0,,2,%,..
3,Unidade da Federação,28,Sergipe,2019,2019,10114,Moradores em domicílios,0,,1572,Mil pessoas,..
3,Unidade da Federação,28,Sergipe,2019,2019,10116,Coeficiente de variação - Moradores em domicílios,0,,2,%,..
3,Unidade da Federação,28,Sergipe,2019,2019,10117,Distribuição percentual dos moradores em domicílios,0,,2,%,..
3,Unidade da Federação,28,Sergipe,2019,2019,10118,Coeficiente de variação - Distribuição percentual dos moradores em domicílios,0,,2,%,..
3,Unidade da Federação,29,Bahia,2016,2016,162,Domicílios,0,,48,Mil unidades,..
3,Unidade da Federação,29,Bahia,2016,2016,5123,Coeficiente de variação - Domicílios,0,,2,%,..
3,Unidade da Federação,29,Bahia,2016,2016,9784,Distribuição percentual dos domicílios,0,,2,%,..
3,Unidade da Federação,29,Bahia,2016,2016,9785,Coeficiente de variação - Distribuição percentual dos domicílios,0,,2,%,..
3,Unidade da Federação,29,Bahia,2016,2016,10114,Moradores em domicílios,0,,1572,Mil pessoas,..
3,Unidade da Federação,29,Bahia,2016,2016,10116,Coeficiente de variação - Moradores em domicílios,0,,2,%,..
3,Unidade da Federação,29,Bahia,2016,2016,10117,Distribuição percentual dos moradores em domicílios,0,,2,%,..
3,Unidade da Federação,29,Bahia,2016,2016,10118,Coeficiente de variação - Distribuição percentual dos moradores em domicílios,0,,2,%,..
3,Unidade da Federação,29,Bahia,2017,2017,162,Domicílios,0,,48,Mil unidades,..
3,Unidade da Federação,29,Bahia,2017,2017,5123,Coeficiente de variação - Domicílios,0,,2,%,..
3,Unidade da Federação,29,Bahia,2017,2017,9784,Distribuição percentual dos domicílios,0,,2,%,..
3,Unidade da Federação,29,Bahia,2017,2017,9785,Coeficiente de variação - Distribuição percentual dos domicílios,0,,2,%,..
3,Unidade da Federação,29,Bahia,2017,2017,10114,Moradores em domicílios,0,,1572,Mil pessoas,..
3,Unidade da Federação,29,Bahia,2017,2017,10116,Coeficiente de variação - Moradores em domicílios,0,,2,%,..
3,Unidade da Federação,29,Bahia,2017,2017,10117,Distribuição percentual dos moradores em domicílios,0,,2,%,..
3,Unidade da Federação,29,Bahia,2017,2017,10118,Coeficiente de variação - Distribuição percentual dos moradores em domicílios,0,,2,%,..
3,Unidade da Federação,29,Bahia,2018,2018,162,Domicílios,0,,48,Mil unidades,..
3,Unidade da Federação,29,Bahia,2018,2018,5123,Coeficiente de variação - Domicílios,0,,2,%,..
3,Unidade da Federação,29,Bahia,2018,2018,9784,Distribuição percentual dos domicílios,0,,2,%,..
3,Unidade da Federação,29,Bahia,2018,2018,9785,Coeficiente de variação - Distribuição percentual dos domicílios,0,,2,%,..
3,Unidade da Federação,29,Bahia,2018,2018,10114,Moradores em domicílios,0,,1572,Mil pessoas,..
3,Unidade da Federação,29,Bahia,2018,2018,10116,Coeficiente de variação - Moradores em domicílios,0,,2,%,..
3,Unidade da Federação,29,Bahia,2018,2018,10117,Distribuição percentual dos moradores em domicílios,0,,2,%,..
3,Unidade da Federação,29,Bahia,2018,2018,10118,Coeficiente de variação - Distribuição percentual dos moradores em domicílios,0,,2,%,..
3,Unidade da Federação,29,Bahia,2019,2019,162,Domicílios,0,,48,Mil unidades,..
3,Unidade da Federação,29,Bahia,2019,2019,5123,Coeficiente de variação - Domicílios,0,,2,%,..
3,Unidade da Federação,29,Bahia,2019,2019,9784,Distribuição percentual dos domicílios,0,,2,%,..
3,Unidade da Federação,29,Bahia,2019,2019,9785,Coeficiente de variação - Distribuição percentual dos domicílios,0,,2,%,..
3,Unidade da Federação,29,Bahia,2019,2019,10114,Moradores em domicílios,0,,1572,Mil pessoas,..
3,Unidade da Federação,29,Bahia,2019,2019,10116,Coeficiente de variação - Moradores em domicílios,0,,2,%,..
3,Unidade da Federação,29,Bahia,2019,2019,10117,Distribuição percentual dos moradores em domicílios,0,,2,%,..
3,Unidade da Federação,29,Bahia,2019,2019,10118,Coeficiente de variação - Distribuição percentual dos moradores em domicílios,0,,2,%,..
3,Unidade da Federação,31,Minas Gerais,2016,2016,162,Domicílios,0,,48,Mil unidades,..
3,Unidade da Federação,31,Minas Gerais,2016,2016,5123,Coeficiente de variação - Domicílios,0,,2,%,..
3,Unidade da Federação,31,Minas Gerais,2016,2016,9784,Distribuição percentual dos domicílios,0,,2,%,..
3,Unidade da Federação,31,Minas Gerais,2016,2016,9785,Coeficiente de variação - Distribuição percentual dos domicílios,0,,2,%,..
3,Unidade da Federação,31,Minas Gerais,2016,2016,10114,Moradores em domicílios,0,,1572,Mil pessoas,..
3,Unidade da Federação,31,Minas Gerais,2016,2016,10116,Coeficiente de variação - Moradores em domicílios,0,,2,%,..
3,Unidade da Federação,31,Minas Gerais,2016,2016,10117,Distribuição percentual dos moradores em domicílios,0,,2,%,..
3,Unidade da Federação,31,Minas Gerais,2016,2016,10118,Coeficiente de variação - Distribuição percentual dos moradores em domicílios,0,,2,%,..
3,Unidade da Federação,31,Minas Gerais,2017,2017,162,Domicílios,0,,48,Mil unidades,..
3,Unidade da Federação,31,Minas Gerais,2017,2017,5123,Coeficiente de variação - Domicílios,0,,2,%,..
3,Unidade da Federação,31,Minas Gerais,2017,2017,9784,Distribuição percentual dos domicílios,0,,2,%,..
3,Unidade da Federação,31,Minas Gerais,2017,2017,9785,Coeficiente de variação - Distribuição percentual dos domicílios,0,,2,%,..
3,Unidade da Federação,31,Minas Gerais,2017,2017,10114,Moradores em domicílios,0,,1572,Mil pessoas,..
3,Unidade da Federação,31,Minas Gerais,2017,2017,10116,Coeficiente de variação - Moradores em domicílios,0,,2,%,..
3,Unidade da Federação,31,Minas Gerais,2017,2017,10117,Distribuição percentual dos moradores em domicílios,0,,2,%,..
3,Unidade da Federação,31,Minas Gerais,2017,2017,10118,Coeficiente de variação - Distribuição percentual dos moradores em domicílios,0,,2,%,..
3,Unidade da Federação,31,Minas Gerais,2018,2018,162,Domicílios,0,,48,Mil unidades,..
3,Unidade da Federação,31,Minas Gerais,2018,2018,5123,Coeficiente de variação - Domicílios,0,,2,%,..
3,Unidade da Federação,31,Minas Gerais,2018,2018,9784,Distribuição percentual dos domicílios,0,,2,%,..
3,Unidade da Federação,31,Minas Gerais,2018,2018,9785,Coeficiente de variação - Distribuição percentual dos domicílios,0,,2,%,..
3,Unidade da Federação,31,Minas Gerais,2018,2018,10114,Moradores em domicílios,0,,1572,Mil pessoas,..
3,Unidade da Federação,31,Minas Gerais,2018,2018,10116,Coeficiente de variação - Moradores em domicílios,0,,2,%,..
3,Unidade da Federação,31,Minas Gerais,2018,2018,10117,Distribuição percentual dos moradores em domicílios,0,,2,%,..
3,Unidade da Federação,31,Minas Gerais,2018,2018,10118,Coeficiente de variação - Distribuição percentual dos moradores em domicílios,0,,2,%,..
3,Unidade da Federação,31,Minas Gerais,2019,2019,162,Domicílios,0,,48,Mil unidades,..
3,Unidade da Federação,31,Minas Gerais,2019,2019,5123,Coeficiente de variação - Domicílios,0,,2,%,..
3,Unidade da Federação,31,Minas Gerais,2019,2019,9784,Distribuição percentual dos domicílios,0,,2,%,..
3,Unidade da Federação,31,Minas Gerais,2019,2019,9785,Coeficiente de variação - Distribuição percentual dos domicílios,0,,2,%,..
3,Unidade da Federação,31,Minas Gerais,2019,2019,10114,Moradores em domicílios,0,,1572,Mil pessoas,..
3,Unidade da Federação,31,Minas Gerais,2019,2019,10116,Coeficiente de variação - Moradores em domicílios,0,,2,%,..
3,Unidade da Federação,31,Minas Gerais,2019,2019,10117,Distribuição percentual dos moradores em domicílios,0,,2,%,..
3,Unidade da Federação,31,Minas Gerais,2019,2019,10118,Coeficiente de variação - Distribuição percentual dos moradores em domicílios,0,,2,%,..
3,Unidade da Federação,32,Espírito Santo,2016,2016,162,Domicílios,0,,48,Mil unidades,..
3,Unidade da Federação,32,Espírito Santo,2016,2016,5123,Coeficiente de variação - Domicílios,0,,2,%,..
3,Unidade da Federação,32,Espírito Santo,2016,2016,9784,Distribuição percentual dos domicílios,0,,2,%,..
3,Unidade da Federação,32,Espírito Santo,2016,2016,9785,Coeficiente de variação - Distribuição percentual dos domicílios,0,,2,%,..
3,Unidade da Federação,32,Espírito Santo,2016,2016,10114,Moradores em domicílios,0,,1572,Mil pessoas,..
3,Unidade da Federação,32,Espírito Santo,2016,2016,10116,Coeficiente de variação - Moradores em domicílios,0,,2,%,..
3,Unidade da Federação,32,Espírito Santo,2016,2016,10117,Distribuição percentual dos moradores em domicílios,0,,2,%,..
3,Unidade da Federação,32,Espírito Santo,2016,2016,10118,Coeficiente de variação - Distribuição percentual dos moradores em domicílios,0,,2,%,..
3,Unidade da Federação,32,Espírito Santo,2017,2017,162,Domicílios,0,,48,Mil unidades,..
3,Unidade da Federação,32,Espírito Santo,2017,2017,5123,Coeficiente de variação - Domicílios,0,,2,%,..
3,Unidade da Federação,32,Espírito Santo,2017,2017,9784,Distribuição percentual dos domicílios,0,,2,%,..
3,Unidade da Federação,32,Espírito Santo,2017,2017,9785,Coeficiente de variação - Distribuição percentual dos domicílios,0,,2,%,..
3,Unidade da Federação,32,Espírito Santo,2017,2017,10114,Moradores em domicílios,0,,1572,Mil pessoas,..
3,Unidade da Federação,32,Espírito Santo,2017,2017,10116,Coeficiente de variação - Moradores em domicílios,0,,2,%,..
3,Unidade da Federação,32,Espírito Santo,2017,2017,10117,Distribuição percentual dos moradores em domicílios,0,,2,%,..
3,Unidade da Federação,32,Espírito Santo,2017,2017,10118,Coeficiente de variação - Distribuição percentual dos moradores em domicílios,0,,2,%,..
3,Unidade da Federação,32,Espírito Santo,2018,2018,162,Domicílios,0,,48,Mil unidades,..
3,Unidade da Federação,32,Espírito Santo,2018,2018,5123,Coeficiente de variação - Domicílios,0,,2,%,..
3,Unidade da Federação,32,Espírito Santo,2018,2018,9784,Distribuição percentual dos domicílios,0,,2,%,..
3,Unidade da Federação,32,Espírito Santo,2018,2018,9785,Coeficiente de variação - Distribuição percentual dos domicílios,0,,2,%,..
3,Unidade da Federação,32,Espírito Santo,2018,2018,10114,Moradores em domicílios,0,,1572,Mil pessoas,..
3,Unidade da Federação,32,Espírito Santo,2018,2018,10116,Coeficiente de variação - Moradores em domicílios,0,,2,%,..
3,Unidade da Federação,32,Espírito Santo,2018,2018,10117,Distribuição percentual dos moradores em domicílios,0,,2,%,..
3,Unidade da Federação,32,Espírito Santo,2018,2018,10118,Coeficiente de variação - Distribuição percentual dos moradores em domicílios,0,,2,%,..
3,Unidade da Federação,32,Espírito Santo,2019,2019,162,Domicílios,0,,48,Mil unidades,..
3,Unidade da Federação,32,Espírito Santo,2019,2019,5123,Coeficiente de variação - Domicílios,0,,2,%,..
3,Unidade da Federação,32,Espírito Santo,2019,2019,9784,Distribuição percentual dos domicílios,0,,2,%,..
3,Unidade da Federação,32,Espírito Santo,2019,2019,9785,Coeficiente de variação - Distribuição percentual dos domicílios,0,,2,%,..
3,Unidade da Federação,32,Espírito Santo,2019,2019,10114,Moradores em domicílios,0,,1572,Mil pessoas,..
3,Unidade da Federação,32,Espírito Santo,2019,2019,10116,Coeficiente de variação - Moradores em domicílios,0,,2,%,..
3,Unidade da Federação,32,Espírito Santo,2019,2019,10117,Distribuição percentual dos moradores em domicílios,0,,2,%,..
3,Unidade da Federação,32,Espírito Santo,2019,2019,10118,Coeficiente de variação - Distribuição percentual dos moradores em domicílios,0,,2,%,..
3,Unidade da Federação,33,Rio de Janeiro,2016,2016,162,Domicílios,0,,48,Mil unidades,..
3,Unidade da Federação,33,Rio de Janeiro,2016,2016,5123,Coeficiente de variação - Domicílios,0,,2,%,..
3,Unidade da Federação,33,Rio de Janeiro,2016,2016,9784,Distribuição percentual dos domicílios,0,,2,%,..
3,Unidade da Federação,33,Rio de Janeiro,2016,2016,9785,Coeficiente de variação - Distribuição percentual dos domicílios,0,,2,%,..
3,Unidade da Federação,33,Rio de Janeiro,2016,2016,10114,Moradores em domicílios,0,,1572,Mil pessoas,..
3,Unidade da Federação,33,Rio de Janeiro,2016,2016,10116,Coeficiente de variação - Moradores em domicílios,0,,2,%,..
3,Unidade da Federação,33,Rio de Janeiro,2016,2016,10117,Distribuição percentual dos moradores em domicílios,0,,2,%,..
3,Unidade da Federação,33,Rio de Janeiro,2016,2016,10118,Coeficiente de variação - Distribuição percentual dos moradores em domicílios,0,,2,%,..
3,Unidade da Federação,33,Rio de Janeiro,2017,2017,162,Domicílios,0,,48,Mil unidades,..
3,Unidade da Federação,33,Rio de Janeiro,2017,2017,5123,Coeficiente de variação - Domicílios,0,,2,%,..
3,Unidade da Federação,33,Rio de Janeiro,2017,2017,9784,Distribuição percentual dos domicílios,0,,2,%,..
3,Unidade da Federação,33,Rio de Janeiro,2017,2017,9785,Coeficiente de variação - Distribuição percentual dos domicílios,0,,2,%,..
3,Unidade da Federação,33,Rio de Janeiro,2017,2017,10114,Moradores em domicílios,0,,1572,Mil pessoas,..
3,Unidade da Federação,33,Rio de Janeiro,2017,2017,10116,Coeficiente de variação - Moradores em domicílios,0,,2,%,..
3,Unidade da Federação,33,Rio de Janeiro,2017,2017,10117,Distribuição percentual dos moradores em domicílios,0,,2,%,..
3,Unidade da Federação,33,Rio de Janeiro,2017,2017,10118,Coeficiente de variação - Distribuição percentual dos moradores em domicílios,0,,2,%,..
3,Unidade da Federação,33,Rio de Janeiro,2018,2018,162,Domicílios,0,,48,Mil unidades,..
3,Unidade da Federação,33,Rio de Janeiro,2018,2018,5123,Coeficiente de variação - Domicílios,0,,2,%,..
3,Unidade da Federação,33,Rio de Janeiro,2018,2018,9784,Distribuição percentual dos domicílios,0,,2,%,..
3,Unidade da Federação,33,Rio de Janeiro,2018,2018,9785,Coeficiente de variação - Distribuição percentual dos domicílios,0,,2,%,..
3,Unidade da Federação,33,Rio de Janeiro,2018,2018,10114,Moradores em domicílios,0,,1572,Mil pessoas,..
3,Unidade da Federação,33,Rio de Janeiro,2018,2018,10116,Coeficiente de variação - Moradores em domicílios,0,,2,%,..
3,Unidade da Federação,33,Rio de Janeiro,2018,2018,10117,Distribuição percentual dos moradores em domicílios,0,,2,%,..
3,Unidade da Federação,33,Rio de Janeiro,2018,2018,10118,Coeficiente de variação - Distribuição percentual dos moradores em domicílios,0,,2,%,..
3,Unidade da Federação,33,Rio de Janeiro,2019,2019,162,Domicílios,0,,48,Mil unidades,..
3,Unidade da Federação,33,Rio de Janeiro,2019,2019,5123,Coeficiente de variação - Domicílios,0,,2,%,..
3,Unidade da Federação,33,Rio de Janeiro,2019,2019,9784,Distribuição percentual dos domicílios,0,,2,%,..
3,Unidade da Federação,33,Rio de Janeiro,2019,2019,9785,Coeficiente de variação - Distribuição percentual dos domicílios,0,,2,%,..
3,Unidade da Federação,33,Rio de Janeiro,2019,2019,10114,Moradores em domicílios,0,,1572,Mil pessoas,..
3,Unidade da Federação,33,Rio de Janeiro,2019,2019,10116,Coeficiente de variação - Moradores em domicílios,0,,2,%,..
3,Unidade da Federação,33,Rio de Janeiro,2019,2019,10117,Distribuição percentual dos moradores em domicílios,0,,2,%,..
3,Unidade da Federação,33,Rio de Janeiro,2019,2019,10118,Coeficiente de variação - Distribuição percentual dos moradores em domicílios,0,,2,%,..
3,Unidade da Federação,35,São Paulo,2016,2016,162,Domicílios,0,,48,Mil unidades,..
3,Unidade da Federação,35,São Paulo,2016,2016,5123,Coeficiente de variação - Domicílios,0,,2,%,..
3,Unidade da Federação,35,São Paulo,2016,2016,9784,Distribuição percentual dos domicílios,0,,2,%,..
3,Unidade da Federação,35,São Paulo,2016,2016,9785,Coeficiente de variação - Distribuição percentual dos domicílios,0,,2,%,..
3,Unidade da Federação,35,São Paulo,2016,2016,10114,Moradores em domicílios,0,,1572,Mil pessoas,..
3,Unidade da Federação,35,São Paulo,2016,2016,10116,Coeficiente de variação - Moradores em domicílios,0,,2,%,..
3,Unidade da Federação,35,São Paulo,2016,2016,10117,Distribuição percentual dos moradores em domicílios,0,,2,%,..
3,Unidade da Federação,35,São Paulo,2016,2016,10118,Coeficiente de variação - Distribuição percentual dos moradores em domicílios,0,,2,%,..
3,Unidade da Federação,35,São Paulo,2017,2017,162,Domicílios,0,,48,Mil unidades,..
3,Unidade da Federação,35,São Paulo,2017,2017,5123,Coeficiente de variação - Domicílios,0,,2,%,..
3,Unidade da Federação,35,São Paulo,2017,2017,9784,Distribuição percentual dos domicílios,0,,2,%,..
3,Unidade da Federação,35,São Paulo,2017,2017,9785,Coeficiente de variação - Distribuição percentual dos domicílios,0,,2,%,..
3,Unidade da Federação,35,São Paulo,2017,2017,10114,Moradores em domicílios,0,,1572,Mil pessoas,..
3,Unidade da Federação,35,São Paulo,2017,2017,10116,Coeficiente de variação - Moradores em domicílios,0,,2,%,..
3,Unidade da Federação,35,São Paulo,2017,2017,10117,Distribuição percentual dos moradores em domicílios,0,,2,%,..
3,Unidade da Federação,35,São Paulo,2017,2017,10118,Coeficiente de variação - Distribuição percentual dos moradores em domicílios,0,,2,%,..
3,Unidade da Federação,35,São Paulo,2018,2018,162,Domicílios,0,,48,Mil unidades,..
3,Unidade da Federação,35,São Paulo,2018,2018,5123,Coeficiente de variação - Domicílios,0,,2,%,..
3,Unidade da Federação,35,São Paulo,2018,2018,9784,Distribuição percentual dos domicílios,0,,2,%,..
3,Unidade da Federação,35,São Paulo,2018,2018,9785,Coeficiente de variação - Distribuição percentual dos domicílios,0,,2,%,..
3,Unidade da Federação,35,São Paulo,2018,2018,10114,Moradores em domicílios,0,,1572,Mil pessoas,..
3,Unidade da Federação,35,São Paulo,2018,2018,10116,Coeficiente de variação - Moradores em domicílios,0,,2,%,..
3,Unidade da Federação,35,São Paulo,2018,2018,10117,Distribuição percentual dos moradores em domicílios,0,,2,%,..
3,Unidade da Federação,35,São Paulo,2018,2018,10118,Coeficiente de variação - Distribuição percentual dos moradores em domicílios,0,,2,%,..
3,Unidade da Federação,35,São Paulo,2019,2019,162,Domicílios,0,,48,Mil unidades,..
3,Unidade da Federação,35,São Paulo,2019,2019,5123,Coeficiente de variação - Domicílios,0,,2,%,..
3,Unidade da Federação,35,São Paulo,2019,2019,9784,Distribuição percentual dos domicílios,0,,2,%,..
3,Unidade da Federação,35,São Paulo,2019,2019,9785,Coeficiente de variação - Distribuição percentual dos domicílios,0,,2,%,..
3,Unidade da Federação,35,São Paulo,2019,2019,10114,Moradores em domicílios,0,,1572,Mil pessoas,..
3,Unidade da Federação,35,São Paulo,2019,2019,10116,Coeficiente de variação - Moradores em domicílios,0,,2,%,..
3,Unidade da Federação,35,São Paulo,2019,2019,10117,Distribuição percentual dos moradores em domicílios,0,,2,%,..
3,Unidade da Federação,35,São Paulo,2019,2019,10118,Coeficiente de variação - Distribuição percentual dos moradores em domicílios,0,,2,%,..
3,Unidade da Federação,41,Paraná,2016,2016,162,Domicílios,0,,48,Mil unidades,..
3,Unidade da Federação,41,Paraná,2016,2016,5123,Coeficiente de variação - Domicílios,0,,2,%,..
3,Unidade da Federação,41,Paraná,2016,2016,9784,Distribuição percentual dos domicílios,0,,2,%,..
3,Unidade da Federação,41,Paraná,2016,2016,9785,Coeficiente de variação - Distribuição percentual dos domicílios,0,,2,%,..
3,Unidade da Federação,41,Paraná,2016,2016,10114,Moradores em domicílios,0,,1572,Mil pessoas,..
3,Unidade da Federação,41,Paraná,2016,2016,10116,Coeficiente de variação - Moradores em domicílios,0,,2,%,..
3,Unidade da Federação,41,Paraná,2016,2016,10117,Distribuição percentual dos moradores em domicílios,0,,2,%,..
3,Unidade da Federação,41,Paraná,2016,2016,10118,Coeficiente de variação - Distribuição percentual dos moradores em domicílios,0,,2,%,..
3,Unidade da Federação,41,Paraná,2017,2017,162,Domicílios,0,,48,Mil unidades,..
3,Unidade da Federação,41,Paraná,2017,2017,5123,Coeficiente de variação - Domicílios,0,,2,%,..
3,Unidade da Federação,41,Paraná,2017,2017,9784,Distribuição percentual dos domicílios,0,,2,%,..
3,Unidade da Federação,41,Paraná,2017,2017,9785,Coeficiente de variação - Distribuição percentual dos domicílios,0,,2,%,..
3,Unidade da Federação,41,Paraná,2017,2017,10114,Moradores em domicílios,0,,1572,Mil pessoas,..
3,Unidade da Federação,41,Paraná,2017,2017,10116,Coeficiente de variação - Moradores em domicílios,0,,2,%,..
3,Unidade da Federação,41,Paraná,2017,2017,10117,Distribuição percentual dos moradores em domicílios,0,,2,%,..
3,Unidade da Federação,41,Paraná,2017,2017,10118,Coeficiente de variação - Distribuição percentual dos moradores em domicílios,0,,2,%,..
3,Unidade da Federação,41,Paraná,2018,2018,162,Domicílios,0,,48,Mil unidades,..
3,Unidade da Federação,41,Paraná,2018,2018,5123,Coeficiente de variação - Domicílios,0,,2,%,..
3,Unidade da Federação,41,Paraná,2018,2018,9784,Distribuição percentual dos domicílios,0,,2,%,..
3,Unidade da Federação,41,Paraná,2018,2018,9785,Coeficiente de variação - Distribuição percentual dos domicílios,0,,2,%,..
3,Unidade da Federação,41,Paraná,2018,2018,10114,Moradores em domicílios,0,,1572,Mil pessoas,..
3,Unidade da Federação,41,Paraná,2018,2018,10116,Coeficiente de variação - Moradores em domicílios,0,,2,%,..
3,Unidade da Federação,41,Paraná,2018,2018,10117,Distribuição percentual dos moradores em domicílios,0,,2,%,..
3,Unidade da Federação,41,Paraná,2018,2018,10118,Coeficiente de variação - Distribuição percentual dos moradores em domicílios,0,,2,%,..
3,Unidade da Federação,41,Paraná,2019,2019,162,Domicílios,0,,48,Mil unidades,..
3,Unidade da Federação,41,Paraná,2019,2019,5123,Coeficiente de variação - Domicílios,0,,2,%,..
3,Unidade da Federação,41,Paraná,2019,2019,9784,Distribuição percentual dos domicílios,0,,2,%,..
3,Unidade da Federação,41,Paraná,2019,2019,9785,Coeficiente de variação - Distribuição percentual dos domicílios,0,,2,%,..
3,Unidade da Federação,41,Paraná,2019,2019,10114,Moradores em domicílios,0,,1572,Mil pessoas,..
3,Unidade da Federação,41,Paraná,2019,2019,10116,Coeficiente de variação - Moradores em domicílios,0,,2,%,..
3,Unidade da Federação,41,Paraná,2019,2019,10117,Distribuição percentual dos moradores em domicílios,0,,2,%,..
3,Unidade da Federação,41,Paraná,2019,2019,10118,Coeficiente de variação - Distribuição percentual dos moradores em domicílios,0,,2,%,..
3,Unidade da Federação,42,Santa Catarina,2016,2016,162,Domicílios,0,,48,Mil unidades,..
3,Unidade da Federação,42,Santa Catarina,2016,2016,5123,Coeficiente de variação - Domicílios,0,,2,%,..
3,Unidade da Federação,42,Santa Catarina,2016,2016,9784,Distribuição percentual dos domicílios,0,,2,%,..
3,Unidade da Federação,42,Santa Catarina,2016,2016,9785,Coeficiente de variação - Distribuição percentual dos domicílios,0,,2,%,..
3,Unidade da Federação,42,Santa Catarina,2016,2016,10114,Moradores em domicílios,0,,1572,Mil pessoas,..
3,Unidade da Federação,42,Santa Catarina,2016,2016,10116,Coeficiente de variação - Moradores em domicílios,0,,2,%,..
3,Unidade da Federação,42,Santa Catarina,2016,2016,10117,Distribuição percentual dos moradores em domicílios,0,,2,%,..
3,Unidade da Federação,42,Santa Catarina,2016,2016,10118,Coeficiente de variação - Distribuição percentual dos moradores em domicílios,0,,2,%,..
3,Unidade da Federação,42,Santa Catarina,2017,2017,162,Domicílios,0,,48,Mil unidades,..
3,Unidade da Federação,42,Santa Catarina,2017,2017,5123,Coeficiente de variação - Domicílios,0,,2,%,..
3,Unidade da Federação,42,Santa Catarina,2017,2017,9784,Distribuição percentual dos domicílios,0,,2,%,..
3,Unidade da Federação,42,Santa Catarina,2017,2017,9785,Coeficiente de variação - Distribuição percentual dos domicílios,0,,2,%,..
3,Unidade da Federação,42,Santa Catarina,2017,2017,10114,Moradores em domicílios,0,,1572,Mil pessoas,..
3,Unidade da Federação,42,Santa Catarina,2017,2017,10116,Coeficiente de variação - Moradores em domicílios,0,,2,%,..
3,Unidade da Federação,42,Santa Catarina,2017,2017,10117,Distribuição percentual dos moradores em domicílios,0,,2,%,..
3,Unidade da Federação,42,Santa Catarina,2017,2017,10118,Coeficiente de variação - Distribuição percentual dos moradores em domicílios,0,,2,%,..
3,Unidade da Federação,42,Santa Catarina,2018,2018,162,Domicílios,0,,48,Mil unidades,..
3,Unidade da Federação,42,Santa Catarina,2018,2018,5123,Coeficiente de variação - Domicílios,0,,2,%,..
3,Unidade da Federação,42,Santa Catarina,2018,2018,9784,Distribuição percentual dos domicílios,0,,2,%,..
3,Unidade da Federação,42,Santa Catarina,2018,2018,9785,Coeficiente de variação - Distribuição percentual dos domicílios,0,,2,%,..
3,Unidade da Federação,42,Santa Catarina,2018,2018,10114,Moradores em domicílios,0,,1572,Mil pessoas,..
3,Unidade da Federação,42,Santa Catarina,2018,2018,10116,Coeficiente de variação - Moradores em domicílios,0,,2,%,..
3,Unidade da Federação,42,Santa Catarina,2018,2018,10117,Distribuição percentual dos moradores em domicílios,0,,2,%,..
3,Unidade da Federação,42,Santa Catarina,2018,2018,10118,Coeficiente de variação - Distribuição percentual dos moradores em domicílios,0,,2,%,..
3,Unidade da Federação,42,Santa Catarina,2019,2019,162,Domicílios,0,,48,Mil unidades,..
3,Unidade da Federação,42,Santa Catarina,2019,2019,5123,Coeficiente de variação - Domicílios,0,,2,%,..
3,Unidade da Federação,42,Santa Catarina,2019,2019,9784,Distribuição percentual dos domicílios,0,,2,%,..
3,Unidade da Federação,42,Santa Catarina,2019,2019,9785,Coeficiente de variação - Distribuição percentual dos domicílios,0,,2,%,..
3,Unidade da Federação,42,Santa Catarina,2019,2019,10114,Moradores em domicílios,0,,1572,Mil pessoas,..
3,Unidade da Federação,42,Santa Catarina,2019,2019,10116,Coeficiente de variação - Moradores em domicílios,0,,2,%,..
3,Unidade da Federação,42,Santa Catarina,2019,2019,10117,Distribuição percentual dos moradores em domicílios,0,,2,%,..
3,Unidade da Federação,42,Santa Catarina,2019,2019,10118,Coeficiente de variação - Distribuição percentual dos moradores em domicílios,0,,2,%,..
3,Unidade da Federação,43,Rio Grande do Sul,2016,2016,162,Domicílios,0,,48,Mil unidades,..
3,Unidade da Federação,43,Rio Grande do Sul,2016,2016,5123,Coeficiente de variação - Domicílios,0,,2,%,..
3,Unidade da Federação,43,Rio Grande do Sul,2016,2016,9784,Distribuição percentual dos domicílios,0,,2,%,..
3,Unidade da Federação,43,Rio Grande do Sul,2016,2016,9785,Coeficiente de variação - Distribuição percentual dos domicílios,0,,2,%,..
3,Unidade da Federação,43,Rio Grande do Sul,2016,2016,10114,Moradores em domicílios,0,,1572,Mil pessoas,..
3,Unidade da Federação,43,Rio Grande do Sul,2016,2016,10116,Coeficiente de variação - Moradores em domicílios,0,,2,%,..
3,Unidade da Federação,43,Rio Grande do Sul,2016,2016,10117,Distribuição percentual dos moradores em domicílios,0,,2,%,..
3,Unidade da Federação,43,Rio Grande do Sul,2016,2016,10118,Coeficiente de variação - Distribuição percentual dos moradores em domicílios,0,,2,%,..
3,Unidade da Federação,43,Rio Grande do Sul,2017,2017,162,Domicílios,0,,48,Mil unidades,..
3,Unidade da Federação,43,Rio Grande do Sul,2017,2017,5123,Coeficiente de variação - Domicílios,0,,2,%,..
3,Unidade da Federação,43,Rio Grande do Sul,2017,2017,9784,Distribuição percentual dos domicílios,0,,2,%,..
3,Unidade da Federação,43,Rio Grande do Sul,2017,2017,9785,Coeficiente de variação - Distribuição percentual dos domicílios,0,,2,%,..
3,Unidade da Federação,43,Rio Grande do Sul,2017,2017,10114,Moradores em domicílios,0,,1572,Mil pessoas,..
3,Unidade da Federação,43,Rio Grande do Sul,2017,2017,10116,Coeficiente de variação - Moradores em domicílios,0,,2,%,..
3,Unidade da Federação,43,Rio Grande do Sul,2017,2017,10117,Distribuição percentual dos moradores em domicílios,0,,2,%,..
3,Unidade da Federação,43,Rio Grande do Sul,2017,2017,10118,Coeficiente de variação - Distribuição percentual dos moradores em domicílios,0,,2,%,..
3,Unidade da Federação,43,Rio Grande do Sul,2018,2018,162,Domicílios,0,,48,Mil unidades,..
3,Unidade da Federação,43,Rio Grande do Sul,2018,2018,5123,Coeficiente de variação - Domicílios,0,,2,%,..
3,Unidade da Federação,43,Rio Grande do Sul,2018,2018,9784,Distribuição percentual dos domicílios,0,,2,%,..
3,Unidade da Federação,43,Rio Grande do Sul,2018,2018,9785,Coeficiente de variação - Distribuição percentual dos domicílios,0,,2,%,..
3,Unidade da Federação,43,Rio Grande do Sul,2018,2018,10114,Moradores em domicílios,0,,1572,Mil pessoas,..
3,Unidade da Federação,43,Rio Grande do Sul,2018,2018,10116,Coeficiente de variação - Moradores em domicílios,0,,2,%,..
3,Unidade da Federação,43,Rio Grande do Sul,2018,2018,10117,Distribuição percentual dos moradores em domicílios,0,,2,%,..
3,Unidade da Federação,43,Rio Grande do Sul,2018,2018,10118,Coeficiente de variação - Distribuição percentual dos moradores em domicílios,0,,2,%,..
3,Unidade da Federação,43,Rio Grande do Sul,2019,2019,162,Domicílios,0,,48,Mil unidades,..
3,Unidade da Federação,43,Rio Grande do Sul,2019,2019,5123,Coeficiente de variação - Domicílios,0,,2,%,..
3,Unidade da Federação,43,Rio Grande do Sul,2019,2019,9784,Distribuição percentual dos domicílios,0,,2,%,..
3,Unidade da Federação,43,Rio Grande do Sul,2019,2019,9785,Coeficiente de variação - Distribuição percentual dos domicílios,0,,2,%,..
3,Unidade da Federação,43,Rio Grande do Sul,2019,2019,10114,Moradores em domicílios,0,,1572,Mil pessoas,..
3,Unidade da Federação,43,Rio Grande do Sul,2019,2019,10116,Coeficiente de variação - Moradores em domicílios,0,,2,%,..
3,Unidade da Federação,43,Rio Grande do Sul,2019,2019,10117,Distribuição percentual dos moradores em domicílios,0,,2,%,..
3,Unidade da Federação,43,Rio Grande do Sul,2019,2019,10118,Coeficiente de variação - Distribuição percentual dos moradores em domicílios,0,,2,%,..
3,Unidade da Federação,50,Mato Grosso do Sul,2016,2016,162,Domicílios,0,,48,Mil unidades,..
3,Unidade da Federação,50,Mato Grosso do Sul,2016,2016,5123,Coeficiente de variação - Domicílios,0,,2,%,..
3,Unidade da Federação,50,Mato Grosso do Sul,2016,2016,9784,Distribuição percentual dos domicílios,0,,2,%,..
3,Unidade da Federação,50,Mato Grosso do Sul,2016,2016,9785,Coeficiente de variação - Distribuição percentual dos domicílios,0,,2,%,..
3,Unidade da Federação,50,Mato Grosso do Sul,2016,2016,10114,Moradores em domicílios,0,,1572,Mil pessoas,..
3,Unidade da Federação,50,Mato Grosso do Sul,2016,2016,10116,Coeficiente de variação - Moradores em domicílios,0,,2,%,..
3,Unidade da Federação,50,Mato Grosso do Sul,2016,2016,10117,Distribuição percentual dos moradores em domicílios,0,,2,%,..
3,Unidade da Federação,50,Mato Grosso do Sul,2016,2016,10118,Coeficiente de variação - Distribuição percentual dos moradores em domicílios,0,,2,%,..
3,Unidade da Federação,50,Mato Grosso do Sul,2017,2017,162,Domicílios,0,,48,Mil unidades,..
3,Unidade da Federação,50,Mato Grosso do Sul,2017,2017,5123,Coeficiente de variação - Domicílios,0,,2,%,..
3,Unidade da Federação,50,Mato Grosso do Sul,2017,2017,9784,Distribuição percentual dos domicílios,0,,2,%,..
3,Unidade da Federação,50,Mato Grosso do Sul,2017,2017,9785,Coeficiente de variação - Distribuição percentual dos domicílios,0,,2,%,..
3,Unidade da Federação,50,Mato Grosso do Sul,2017,2017,10114,Moradores em domicílios,0,,1572,Mil pessoas,..
3,Unidade da Federação,50,Mato Grosso do Sul,2017,2017,10116,Coeficiente de variação - Moradores em domicílios,0,,2,%,..
3,Unidade da Federação,50,Mato Grosso do Sul,2017,2017,10117,Distribuição percentual dos moradores em domicílios,0,,2,%,..
3,Unidade da Federação,50,Mato Grosso do Sul,2017,2017,10118,Coeficiente de variação - Distribuição percentual dos moradores em domicílios,0,,2,%,..
3,Unidade da Federação,50,Mato Grosso do Sul,2018,2018,162,Domicílios,0,,48,Mil unidades,..
3,Unidade da Federação,50,Mato Grosso do Sul,2018,2018,5123,Coeficiente de variação - Domicílios,0,,2,%,..
3,Unidade da Federação,50,Mato Grosso do Sul,2018,2018,9784,Distribuição percentual dos domicílios,0,,2,%,..
3,Unidade da Federação,50,Mato Grosso do Sul,2018,2018,9785,Coeficiente de variação - Distribuição percentual dos domicílios,0,,2,%,..
3,Unidade da Federação,50,Mato Grosso do Sul,2018,2018,10114,Moradores em domicílios,0,,1572,Mil pessoas,..
3,Unidade da Federação,50,Mato Grosso do Sul,2018,2018,10116,Coeficiente de variação - Moradores em domicílios,0,,2,%,..
3,Unidade da Federação,50,Mato Grosso do Sul,2018,2018,10117,Distribuição percentual dos moradores em domicílios,0,,2,%,..
3,Unidade da Federação,50,Mato Grosso do Sul,2018,2018,10118,Coeficiente de variação - Distribuição percentual dos moradores em domicílios,0,,2,%,..
3,Unidade da Federação,50,Mato Grosso do Sul,2019,2019,162,Domicílios,0,,48,Mil unidades,..
3,Unidade da Federação,50,Mato Grosso do Sul,2019,2019,5123,Coeficiente de variação - Domicílios,0,,2,%,..
3,Unidade da Federação,50,Mato Grosso do Sul,2019,2019,9784,Distribuição percentual dos domicílios,0,,2,%,..
3,Unidade da Federação,50,Mato Grosso do Sul,2019,2019,9785,Coeficiente de variação - Distribuição percentual dos domicílios,0,,2,%,..
3,Unidade da Federação,50,Mato Grosso do Sul,2019,2019,10114,Moradores em domicílios,0,,1572,Mil pessoas,..
3,Unidade da Federação,50,Mato Grosso do Sul,2019,2019,10116,Coeficiente de variação - Moradores em domicílios,0,,2,%,..
3,Unidade da Federação,50,Mato Grosso do Sul,2019,2019,10117,Distribuição percentual dos moradores em domicílios,0,,2,%,..
3,Unidade da Federação,50,Mato Grosso do Sul,2019,2019,10118,Coeficiente de variação - Distribuição percentual dos moradores em domicílios,0,,2,%,..
3,Unidade da Federação,51,Mato Grosso,2016,2016,162,Domicílios,0,,48,Mil unidades,..
3,Unidade da Federação,51,Mato Grosso,2016,2016,5123,Coeficiente de variação - Domicílios,0,,2,%,..
3,Unidade da Federação,51,Mato Grosso,2016,2016,9784,Distribuição percentual dos domicílios,0,,2,%,..
3,Unidade da Federação,51,Mato Grosso,2016,2016,9785,Coeficiente de variação - Distribuição percentual dos domicílios,0,,2,%,..
3,Unidade da Federação,51,Mato Grosso,2016,2016,10114,Moradores em domicílios,0,,1572,Mil pessoas,..
3,Unidade da Federação,51,Mato Grosso,2016,2016,10116,Coeficiente de variação - Moradores em domicílios,0,,2,%,..
3,Unidade da Federação,51,Mato Grosso,2016,2016,10117,Distribuição percentual dos moradores em domicílios,0,,2,%,..
3,Unidade da Federação,51,Mato Grosso,2016,2016,10118,Coeficiente de variação - Distribuição percentual dos moradores em domicílios,0,,2,%,..
3,Unidade da Federação,51,Mato Grosso,2017,2017,162,Domicílios,0,,48,Mil unidades,..
3,Unidade da Federação,51,Mato Grosso,2017,2017,5123,Coeficiente de variação - Domicílios,0,,2,%,..
3,Unidade da Federação,51,Mato Grosso,2017,2017,9784,Distribuição percentual dos domicílios,0,,2,%,..
3,Unidade da Federação,51,Mato Grosso,2017,2017,9785,Coeficiente de variação - Distribuição percentual dos domicílios,0,,2,%,..
3,Unidade da Federação,51,Mato Grosso,2017,2017,10114,Moradores em domicílios,0,,1572,Mil pessoas,..
3,Unidade da Federação,51,Mato Grosso,2017,2017,10116,Coeficiente de variação - Moradores em domicílios,0,,2,%,..
3,Unidade da Federação,51,Mato Grosso,2017,2017,10117,Distribuição percentual dos moradores em domicílios,0,,2,%,..
3,Unidade da Federação,51,Mato Grosso,2017,2017,10118,Coeficiente de variação - Distribuição percentual dos moradores em domicílios,0,,2,%,..
3,Unidade da Federação,51,Mato Grosso,2018,2018,162,Domicílios,0,,48,Mil unidades,..
3,Unidade da Federação,51,Mato Grosso,2018,2018,5123,Coeficiente de variação - Domicílios,0,,2,%,..
3,Unidade da Federação,51,Mato Grosso,2018,2018,9784,Distribuição percentual dos domicílios,0,,2,%,..
3,Unidade da Federação,51,Mato Grosso,2018,2018,9785,Coeficiente de variação - Distribuição percentual dos domicílios,0,,2,%,..
3,Unidade da Federação,51,Mato Grosso,2018,2018,10114,Moradores em domicílios,0,,1572,Mil pessoas,..
3,Unidade da Federação,51,Mato Grosso,2018,2018,10116,Coeficiente de variação - Moradores em domicílios,0,,2,%,..
3,Unidade da Federação,51,Mato Grosso,2018,2018,10117,Distribuição percentual dos moradores em domicílios,0,,2,%,..
3,Unidade da Federação,51,Mato Grosso,2018,2018,10118,Coeficiente de variação - Distribuição percentual dos moradores em domicílios,0,,2,%,..
3,Unidade da Federação,51,Mato Grosso,2019,2019,162,Domicílios,0,,48,Mil unidades,..
3,Unidade da Federação,51,Mato Grosso,2019,2019,5123,Coeficiente de variação - Domicílios,0,,2,%,..
3,Unidade da Federação,51,Mato Grosso,2019,2019,9784,Distribuição percentual dos domicílios,0,,2,%,..
3,Unidade da Federação,51,Mato Grosso,2019,2019,9785,Coeficiente de variação - Distribuição percentual dos domicílios,0,,2,%,..
3,Unidade da Federação,51,Mato Grosso,2019,2019,10114,Moradores em domicílios,0,,1572,Mil pessoas,..
3,Unidade da Federação,51,Mato Grosso,2019,2019,10116,Coeficiente de variação - Moradores em domicílios,0,,2,%,..
3,Unidade da Federação,51,Mato Grosso,2019,2019,10117,Distribuição percentual dos moradores em domicílios,0,,2,%,..
3,Unidade da Federação,51,Mato Grosso,2019,2019,10118,Coeficiente de variação - Distribuição percentual dos moradores em domicílios,0,,2,%,..
3,Unidade da Federação,52,Goiás,2016,2016,162,Domicílios,0,,48,Mil unidades,..
3,Unidade da Federação,52,Goiás,2016,2016,5123,Coeficiente de variação - Domicílios,0,,2,%,..
3,Unidade da Federação,52,Goiás,2016,2016,9784,Distribuição percentual dos domicílios,0,,2,%,..
3,Unidade da Federação,52,Goiás,2016,2016,9785,Coeficiente de variação - Distribuição percentual dos domicílios,0,,2,%,..
3,Unidade da Federação,52,Goiás,2016,2016,10114,Moradores em domicílios,0,,1572,Mil pessoas,..
3,Unidade da Federação,52,Goiás,2016,2016,10116,Coeficiente de variação - Moradores em domicílios,0,,2,%,..
3,Unidade da Federação,52,Goiás,2016,2016,10117,Distribuição percentual dos moradores em domicílios,0,,2,%,..
3,Unidade da Federação,52,Goiás,2016,2016,10118,Coeficiente de variação - Distribuição percentual dos moradores em domicílios,0,,2,%,..
3,Unidade da Federação,52,Goiás,2017,2017,162,Domicílios,0,,48,Mil unidades,..
3,Unidade da Federação,52,Goiás,2017,2017,5123,Coeficiente de variação - Domicílios,0,,2,%,..
3,Unidade da Federação,52,Goiás,2017,2017,9784,Distribuição percentual dos domicílios,0,,2,%,..
3,Unidade da Federação,52,Goiás,2017,2017,9785,Coeficiente de variação - Distribuição percentual dos domicílios,0,,2,%,..
3,Unidade da Federação,52,Goiás,2017,2017,10114,Moradores em domicílios,0,,1572,Mil pessoas,..
3,Unidade da Federação,52,Goiás,2017,2017,10116,Coeficiente de variação - Moradores em domicílios,0,,2,%,..
3,Unidade da Federação,52,Goiás,2017,2017,10117,Distribuição percentual dos moradores em domicílios,0,,2,%,..
3,Unidade da Federação,52,Goiás,2017,2017,10118,Coeficiente de variação - Distribuição percentual dos moradores em domicílios,0,,2,%,..
3,Unidade da Federação,52,Goiás,2018,2018,162,Domicílios,0,,48,Mil unidades,..
3,Unidade da Federação,52,Goiás,2018,2018,5123,Coeficiente de variação - Domicílios,0,,2,%,..
3,Unidade da Federação,52,Goiás,2018,2018,9784,Distribuição percentual dos domicílios,0,,2,%,..
3,Unidade da Federação,52,Goiás,2018,2018,9785,Coeficiente de variação - Distribuição percentual dos domicílios,0,,2,%,..
3,Unidade da Federação,52,Goiás,2018,2018,10114,Moradores em domicílios,0,,1572,Mil pessoas,..
3,Unidade da Federação,52,Goiás,2018,2018,10116,Coeficiente de variação - Moradores em domicílios,0,,2,%,..
3,Unidade da Federação,52,Goiás,2018,2018,10117,Distribuição percentual dos moradores em domicílios,0,,2,%,..
3,Unidade da Federação,52,Goiás,2018,2018,10118,Coeficiente de variação - Distribuição percentual dos moradores em domicílios,0,,2,%,..
3,Unidade da Federação,52,Goiás,2019,2019,162,Domicílios,0,,48,Mil unidades,..
3,Unidade da Federação,52,Goiás,2019,2019,5123,Coeficiente de variação - Domicílios,0,,2,%,..
3,Unidade da Federação,52,Goiás,2019,2019,9784,Distribuição percentual dos domicílios,0,,2,%,..
3,Unidade da Federação,52,Goiás,2019,2019,9785,Coeficiente de variação - Distribuição percentual dos domicílios,0,,2,%,..
3,Unidade da Federação,52,Goiás,2019,2019,10114,Moradores em domicílios,0,,1572,Mil pessoas,..
3,Unidade da Federação,52,Goiás,2019,2019,10116,Coeficiente de variação - Moradores em domicílios,0,,2,%,..
3,Unidade da Federação,52,Goiás,2019,2019,10117,Distribuição percentual dos moradores em domicílios,0,,2,%,..
3,Unidade da Federação,52,Goiás,2019,2019,10118,Coeficiente de variação - Distribuição percentual dos moradores em domicílios,0,,2,%,..
3,Unidade da Federação,53,Distrito Federal,2016,2016,162,Domicílios,0,,48,Mil unidades,..
3,Unidade da Federação,53,Distrito Federal,2016,2016,5123,Coeficiente de variação - Domicílios,0,,2,%,..
3,Unidade da Federação,53,Distrito Federal,2016,2016,9784,Distribuição percentual dos domicílios,0,,2,%,..
3,Unidade da Federação,53,Distrito Federal,2016,2016,9785,Coeficiente de variação - Distribuição percentual dos domicílios,0,,2,%,..
3,Unidade da Federação,53,Distrito Federal,2016,2016,10114,Moradores em domicílios,0,,1572,Mil pessoas,..
3,Unidade da Federação,53,Distrito Federal,2016,2016,10116,Coeficiente de variação - Moradores em domicílios,0,,2,%,..
3,Unidade da Federação,53,Distrito Federal,2016,2016,10117,Distribuição percentual dos moradores em domicílios,0,,2,%,..
3,Unidade da Federação,53,Distrito Federal,2016,2016,10118,Coeficiente de variação - Distribuição percentual dos moradores em domicílios,0,,2,%,..
3,Unidade da Federação,53,Distrito Federal,2017,2017,162,Domicílios,0,,48,Mil unidades,..
3,Unidade da Federação,53,Distrito Federal,2017,2017,5123,Coeficiente de variação - Domicílios,0,,2,%,..
3,Unidade da Federação,53,Distrito Federal,2017,2017,9784,Distribuição percentual dos domicílios,0,,2,%,..
3,Unidade da Federação,53,Distrito Federal,2017,2017,9785,Coeficiente de variação - Distribuição percentual dos domicílios,0,,2,%,..
3,Unidade da Federação,53,Distrito Federal,2017,2017,10114,Moradores em domicílios,0,,1572,Mil pessoas,..
3,Unidade da Federação,53,Distrito Federal,2017,2017,10116,Coeficiente de variação - Moradores em domicílios,0,,2,%,..
3,Unidade da Federação,53,Distrito Federal,2017,2017,10117,Distribuição percentual dos moradores em domicílios,0,,2,%,..
3,Unidade da Federação,53,Distrito Federal,2017,2017,10118,Coeficiente de variação - Distribuição percentual dos moradores em domicílios,0,,2,%,..
3,Unidade da Federação,53,Distrito Federal,2018,2018,162,Domicílios,0,,48,Mil unidades,..
3,Unidade da Federação,53,Distrito Federal,2018,2018,5123,Coeficiente de variação - Domicílios,0,,2,%,..
3,Unidade da Federação,53,Distrito Federal,2018,2018,9784,Distribuição percentual dos domicílios,0,,2,%,..
3,Unidade da Federação,53,Distrito Federal,2018,2018,9785,Coeficiente de variação - Distribuição percentual dos domicílios,0,,2,%,..
3,Unidade da Federação,53,Distrito Federal,2018,2018,10114,Moradores em domicílios,0,,1572,Mil pessoas,..
3,Unidade da Federação,53,Distrito Federal,2018,2018,10116,Coeficiente de variação - Moradores em domicílios,0,,2,%,..
3,Unidade da Federação,53,Distrito Federal,2018,2018,10117,Distribuição percentual dos moradores em domicílios,0,,2,%,..
3,Unidade da Federação,53,Distrito Federal,2018,2018,10118,Coeficiente de variação - Distribuição percentual dos moradores em domicílios,0,,2,%,..
3,Unidade da Federação,53,Distrito Federal,2019,2019,162,Domicílios,0,,48,Mil unidades,..
3,Unidade da Federação,53,Distrito Federal,2019,2019,5123,Coeficiente de variação - Domicílios,0,,2,%,..
3,Unidade da Federação,53,Distrito Federal,2019,2019,9784,Distribuição percentual dos domicílios,0,,2,%,..
3,Unidade da Federação,53,Distrito Federal,2019,2019,9785,Coeficiente de variação - Distribuição percentual dos domicílios,0,,2,%,..
3,Unidade da Federação,53,Distrito Federal,2019,2019,10114,Moradores em domicílios,0,,1572,Mil pessoas,..
3,Unidade da Federação,53,Distrito Federal,2019,2019,10116,Coeficiente de variação - Moradores em domicílios,0,,2,%,..
3,Unidade da Federação,53,Distrito Federal,2019,2019,10117,Distribuição percentual dos moradores em domicílios,0,,2,%,..
3,Unidade da Federação,53,Distrito Federal,2019,2019,10118,Coeficiente de variação - Distribuição percentual dos moradores em domicílios,0,,2,%,..
