NC,NN,D1C,D1N,D2C,D2N,D3C,D3N,D4C,D4N,D5C,D5N,D6C,D6N,D7C,D7N,MC,MN,V
Nível Territorial (Código),Nível Territorial,Unidade da Federação (Código),Unidade da Federação,Ano (Código),Ano,Variável (Código),Variável,Situação do domicílio (Código),Situação do domicílio,Sexo (Código),Sexo,Alfabetização (Código),Alfabetização,Relação com a pessoa responsável pelo domicílio (Código),Relação com a pessoa responsável pelo domicílio,Unidade de Medida (Código),Unidade de Medida,Valor
3,Unidade da Federação,11,Rondônia,2000,2000,676,População residente de 10 anos ou mais de idade,0,Total,0,Total,93024,Total,0,Total,45,Pessoas,1065242
3,Unidade da Federação,11,Rondônia,2000,2000,1000676,População residente de 10 anos ou mais de idade - percentual do total geral,0,Total,0,Total,93024,Total,0,Total,2,Percentual,100.00
3,Unidade da Federação,12,Acre,2000,2000,676,População residente de 10 anos ou mais de idade,0,Total,0,Total,93024,Total,0,Total,45,Pessoas,409152
3,Unidade da Federação,12,Acre,2000,2000,1000676,População residente de 10 anos ou mais de idade - percentual do total geral,0,Total,0,Total,93024,Total,0,Total,2,Percentual,100.00
3,Unidade da Federação,13,Amazonas,2000,2000,676,População residente de 10 anos ou mais de idade,0,Total,0,Total,93024,Total,0,Total,45,Pessoas,2059326
3,Unidade da Federação,13,Amazonas,2000,2000,1000676,População residente de 10 anos ou mais de idade - percentual do total geral,0,Total,0,Total,93024,Total,0,Total,2,Percentual,100.00
3,Unidade da Federação,14,Roraima,2000,2000,676,População residente de 10 anos ou mais de idade,0,Total,0,Total,93024,Total,0,Total,45,Pessoas,238380
3,Unidade da Federação,14,Roraima,2000,2000,1000676,População residente de 10 anos ou mais de idade - percentual do total geral,0,Total,0,Total,93024,Total,0,Total,2,Percentual,100.00
3,Unidade da Federação,15,Pará,2000,2000,676,População residente de 10 anos ou mais de idade,0,Total,0,Total,93024,Total,0,Total,45,Pessoas,4650618
3,Unidade da Federação,15,Pará,2000,2000,1000676,População residente de 10 anos ou mais de idade - percentual do total geral,0,Total,0,Total,93024,Total,0,Total,2,Percentual,100.00
3,Unidade da Federação,16,Amapá,2000,2000,676,População residente de 10 anos ou mais de idade,0,Total,0,Total,93024,Total,0,Total,45,Pessoas,347992
3,Unidade da Federação,16,Amapá,2000,2000,1000676,População residente de 10 anos ou mais de idade - percentual do total geral,0,Total,0,Total,93024,Total,0,Total,2,Percentual,100.00
3,Unidade da Federação,17,Tocantins,2000,2000,676,População residente de 10 anos ou mais de idade,0,Total,0,Total,93024,Total,0,Total,45,Pessoas,888253
3,Unidade da Federação,17,Tocantins,2000,2000,1000676,População residente de 10 anos ou mais de idade - percentual do total geral,0,Total,0,Total,93024,Total,0,Total,2,Percentual,100.00
3,Unidade da Federação,21,Maranhão,2000,2000,676,População residente de 10 anos ou mais de idade,0,Total,0,Total,93024,Total,0,Total,45,Pessoas,4279999
3,Unidade da Federação,21,Maranhão,2000,2000,1000676,População residente de 10 anos ou mais de idade - percentual do total geral,0,Total,0,Total,93024,Total,0,Total,2,Percentual,100.00
3,Unidade da Federação,22,Piauí,2000,2000,676,População residente de 10 anos ou mais de idade,0,Total,0,Total,93024,Total,0,Total,45,Pessoas,2238583
3,Unidade da Federação,22,Piauí,2000,2000,1000676,População residente de 10 anos ou mais de idade - percentual do total geral,0,Total,0,Total,93024,Total,0,Total,2,Percentual,100.00
3,Unidade da Federação,23,Ceará,2000,2000,676,População residente de 10 anos ou mais de idade,0,Total,0,Total,93024,Total,0,Total,45,Pessoas,5804948
3,Unidade da Federação,23,Ceará,2000,2000,1000676,População residente de 10 anos ou mais de idade - percentual do total geral,0,Total,0,Total,93024,Total,0,Total,2,Percentual,100.00
3,Unidade da Federação,24,Rio Grande do Norte,2000,2000,676,População residente de 10 anos ou mais de idade,0,Total,0,Total,93024,Total,0,Total,45,Pessoas,2212602
3,Unidade da Federação,24,Rio Grande do Norte,2000,2000,1000676,População residente de 10 anos ou mais de idade - percentual do total geral,0,Total,0,Total,93024,Total,0,Total,2,Percentual,100.00
3,Unidade da Federação,25,Paraíba,2000,2000,676,População residente de 10 anos ou mais de idade,0,Total,0,Total,93024,Total,0,Total,45,Pessoas,2750112
3,Unidade da Federação,25,Paraíba,2000,2000,1000676,População residente de 10 anos ou mais de idade - percentual do total geral,0,Total,0,Total,93024,Total,0,Total,2,Percentual,100.00
3,Unidade da Federação,26,Pernambuco,2000,2000,676,População residente de 10 anos ou mais de idade,0,Total,0,Total,93024,Total,0,Total,45,Pessoas,6319507
3,Unidade da Federação,26,Pernambuco,2000,2000,1000676,População residente de 10 anos ou mais de idade - percentual do total geral,0,Total,0,Total,93024,Total,0,Total,2,Percentual,100.00
3,Unidade da Federação,27,Alagoas,2000,2000,676,População residente de 10 anos ou mais de idade,0,Total,0,Total,93024,Total,0,Total,45,Pessoas,2164033
3,Unidade da Federação,27,Alagoas,2000,2000,1000676,População residente de 10 anos ou mais de idade - percentual do total geral,0,Total,0,Total,93024,Total,0,Total,2,Percentual,100.00
3,Unidade da Federação,28,Sergipe,2000,2000,676,População residente de 10 anos ou mais de idade,0,Total,0,Total,93024,Total,0,Total,45,Pessoas,1393407
3,Unidade da Federação,28,Sergipe,2000,2000,1000676,População residente de 10 anos ou mais de idade - percentual do total geral,0,Total,0,Total,93024,Total,0,Total,2,Percentual,100.00
3,Unidade da Federação,29,Bahia,2000,2000,676,População residente de 10 anos ou mais de idade,0,Total,0,Total,93024,Total,0,Total,45,Pessoas,10385720
3,Unidade da Federação,29,Bahia,2000,2000,1000676,População residente de 10 anos ou mais de idade - percentual do total geral,0,Total,0,Total,93024,Total,0,Total,2,Percentual,100.00
3,Unidade da Federação,31,Minas Gerais,2000,2000,676,População residente de 10 anos ou mais de idade,0,Total,0,Total,93024,Total,0,Total,45,Pessoas,14597420
3,Unidade da Federação,31,Minas Gerais,2000,2000,1000676,População residente de 10 anos ou mais de idade - percentual do total geral,0,Total,0,Total,93024,Total,0,Total,2,Percentual,100.00
3,Unidade da Federação,32,Espírito Santo,2000,2000,676,População residente de 10 anos ou mais de idade,0,Total,0,Total,93024,Total,0,Total,45,Pessoas,2524265
3,Unidade da Federação,32,Espírito Santo,2000,2000,1000676,População residente de 10 anos ou mais de idade - percentual do total geral,0,Total,0,Total,93024,Total,0,Total,2,Percentual,100.00
3,Unidade da Federação,33,Rio de Janeiro,2000,2000,676,População residente de 10 anos ou mais de idade,0,Total,0,Total,93024,Total,0,Total,45,Pessoas,11974872
3,Unidade da Federação,33,Rio de Janeiro,2000,2000,1000676,População residente de 10 anos ou mais de idade - percentual do total geral,0,Total,0,Total,93024,Total,0,Total,2,Percentual,100.00
3,Unidade da Federação,35,São Paulo,2000,2000,676,População residente de 10 anos ou mais de idade,0,Total,0,Total,93024,Total,0,Total,45,Pessoas,30672612
3,Unidade da Federação,35,São Paulo,2000,2000,1000676,População residente de 10 anos ou mais de idade - percentual do total geral,0,Total,0,Total,93024,Total,0,Total,2,Percentual,100.00
3,Unidade da Federação,41,Paraná,2000,2000,676,População residente de 10 anos ou mais de idade,0,Total,0,Total,93024,Total,0,Total,45,Pessoas,7752774
3,Unidade da Federação,41,Paraná,2000,2000,1000676,População residente de 10 anos ou mais de idade - percentual do total geral,0,Total,0,Total,93024,Total,0,Total,2,Percentual,100.00
3,Unidade da Federação,42,Santa Catarina,2000,2000,676,População residente de 10 anos ou mais de idade,0,Total,0,Total,93024,Total,0,Total,45,Pessoas,4373138
3,Unidade da Federação,42,Santa Catarina,2000,2000,1000676,População residente de 10 anos ou mais de idade - percentual do total geral,0,Total,0,Total,93024,Total,0,Total,2,Percentual,100.00
3,Unidade da Federação,43,Rio Grande do Sul,2000,2000,676,População residente de 10 anos ou mais de idade,0,Total,0,Total,93024,Total,0,Total,45,Pessoas,8445151
3,Unidade da Federação,43,Rio Grande do Sul,2000,2000,1000676,População residente de 10 anos ou mais de idade - percentual do total geral,0,Total,0,Total,93024,Total,0,Total,2,Percentual,100.00
3,Unidade da Federação,50,Mato Grosso do Sul,2000,2000,676,População residente de 10 anos ou mais de idade,0,Total,0,Total,93024,Total,0,Total,45,Pessoas,1658760
3,Unidade da Federação,50,Mato Grosso do Sul,2000,2000,1000676,População residente de 10 anos ou mais de idade - percentual do total geral,0,Total,0,Total,93024,Total,0,Total,2,Percentual,100.00
3,Unidade da Federação,51,Mato Grosso,2000,2000,676,População residente de 10 anos ou mais de idade,0,Total,0,Total,93024,Total,0,Total,45,Pessoas,1981816
3,Unidade da Federação,51,Mato Grosso,2000,2000,1000676,População residente de 10 anos ou mais de idade - percentual do total geral,0,Total,0,Total,93024,Total,0,Total,2,Percentual,100.00
3,Unidade da Federação,52,Goiás,2000,2000,676,População residente de 10 anos ou mais de idade,0,Total,0,Total,93024,Total,0,Total,45,Pessoas,4033691
3,Unidade da Federação,52,Goiás,2000,2000,1000676,População residente de 10 anos ou mais de idade - percentual do total geral,0,Total,0,Total,93024,Total,0,Total,2,Percentual,100.00
3,Unidade da Federação,53,Distrito Federal,2000,2000,676,População residente de 10 anos ou mais de idade,0,Total,0,Total,93024,Total,0,Total,45,Pessoas,1658742
3,Unidade da Federação,53,Distrito Federal,2000,2000,1000676,População residente de 10 anos ou mais de idade - percentual do total geral,0,Total,0,Total,93024,Total,0,Total,2,Percentual,100.00
