NC,NN,D1C,D1N,D2C,D2N,D3C,D3N,D4C,D4N,D5C,D5N,D6C,D6N,MC,MN,V
Nível Territorial (Código),Nível Territorial,Unidade da Federação (Código),Unidade da Federação,Ano (Código),Ano,Variável (Código),Variável,Sexo (Código),Sexo,Grupo de idade (Código),Grupo de idade,Nível de ensino ou curso que frequentavam (Código),Nível de ensino ou curso que frequentavam,Unidade de Medida (Código),Unidade de Medida,Valor
3,Unidade da Federação,11,Rondônia,2000,2000,690,Pessoas que frequentavam escola ou creche,0,Total,0,Total,0,Total,45,Pessoas,422986
3,Unidade da Federação,11,Rondônia,2000,2000,1000690,Pessoas que frequentavam escola ou creche - percentual do total geral,0,Total,0,Total,0,Total,2,Percentual,100.00
3,Unidade da Federação,11,Rondônia,2010,2010,690,Pessoas que frequentavam escola ou creche,0,Total,0,Total,0,Total,45,Pessoas,498648
3,Unidade da Federação,11,Rondônia,2010,2010,1000690,Pessoas que frequentavam escola ou creche - percentual do total geral,0,Total,0,Total,0,Total,2,Percentual,100.00
3,Unidade da Federação,12,Acre,2000,2000,690,Pessoas que frequentavam escola ou creche,0,Total,0,Total,0,Total,45,Pessoas,188548
3,Unidade da Federação,12,Acre,2000,2000,1000690,Pessoas que frequentavam escola ou creche - percentual do total geral,0,Total,0,Total,0,Total,2,Percentual,100.00
3,Unidade da Federação,12,Acre,2010,2010,690,Pessoas que frequentavam escola ou creche,0,Total,0,Total,0,Total,45,Pessoas,268161
3,Unidade da Federação,12,Acre,2010,2010,1000690,Pessoas que frequentavam escola ou creche - percentual do total geral,0,Total,0,Total,0,Total,2,Percentual,100.00
3,Unidade da Federação,13,Amazonas,2000,2000,690,Pessoas que frequentavam escola ou creche,0,Total,0,Total,0,Total,45,Pessoas,932758
3,Unidade da Federação,13,Amazonas,2000,2000,1000690,Pessoas que frequentavam escola ou creche - percentual do total geral,0,Total,0,Total,0,Total,2,Percentual,100.00
3,Unidade da Federação,13,Amazonas,2010,2010,690,Pessoas que frequentavam escola ou creche,0,Total,0,Total,0,Total,45,Pessoas,1317820
3,Unidade da Federação,13,Amazonas,2010,2010,1000690,Pessoas que frequentavam escola ou creche - percentual do total geral,0,Total,0,Total,0,Total,2,Percentual,100.00
3,Unidade da Federação,14,Roraima,2000,2000,690,Pessoas que frequentavam escola ou creche,0,Total,0,Total,0,Total,45,Pessoas,127541
3,Unidade da Federação,14,Roraima,2000,2000,1000690,Pessoas que frequentavam escola ou creche - percentual do total geral,0,Total,0,Total,0,Total,2,Percentual,100.00
3,Unidade da Federação,14,Roraima,2010,2010,690,Pessoas que frequentavam escola ou creche,0,Total,0,Total,0,Total,45,Pessoas,170126
3,Unidade da Federação,14,Roraima,2010,2010,1000690,Pessoas que frequentavam escola ou creche - percentual do total geral,0,Total,0,Total,0,Total,2,Percentual,100.00
3,Unidade da Federação,15,Pará,2000,2000,690,Pessoas que frequentavam escola ou creche,0,Total,0,Total,0,Total,45,Pessoas,2183044
3,Unidade da Federação,15,Pará,2000,2000,1000690,Pessoas que frequentavam escola ou creche - percentual do total geral,0,Total,0,Total,0,Total,2,Percentual,100.00
3,Unidade da Federação,15,Pará,2010,2010,690,Pessoas que frequentavam escola ou creche,0,Total,0,Total,0,Total,45,Pessoas,2705666
3,Unidade da Federação,15,Pará,2010,2010,1000690,Pessoas que frequentavam escola ou creche - percentual do total geral,0,Total,0,Total,0,Total,2,Percentual,100.00
3,Unidade da Federação,16,Amapá,2000,2000,690,Pessoas que frequentavam escola ou creche,0,Total,0,Total,0,Total,45,Pessoas,189932
3,Unidade da Federação,16,Amapá,2000,2000,1000690,Pessoas que frequentavam escola ou creche - percentual do total geral,0,Total,0,Total,0,Total,2,Percentual,100.00
3,Unidade da Federação,16,Amapá,2010,2010,690,Pessoas que frequentavam escola ou creche,0,Total,0,Total,0,Total,45,Pessoas,256757
3,Unidade da Federação,16,Amapá,2010,2010,1000690,Pessoas que frequentavam escola ou creche - percentual do total geral,0,Total,0,Total,0,Total,2,Percentual,100.00
3,Unidade da Federação,17,Tocantins,2000,2000,690,Pessoas que frequentavam escola ou creche,0,Total,0,Total,0,Total,45,Pessoas,415016
3,Unidade da Federação,17,Tocantins,2000,2000,1000690,Pessoas que frequentavam escola ou creche - percentual do total geral,0,Total,0,Total,0,Total,2,Percentual,100.00
3,Unidade da Federação,17,Tocantins,2010,2010,690,Pessoas que frequentavam escola ou creche,0,Total,0,Total,0,Total,45,Pessoas,477047
3,Unidade da Federação,17,Tocantins,2010,2010,1000690,Pessoas que frequentavam escola ou creche - percentual do total geral,0,Total,0,Total,0,Total,2,Percentual,100.00
3,Unidade da Federação,21,Maranhão,2000,2000,690,Pessoas que frequentavam escola ou creche,0,Total,0,Total,0,Total,45,Pessoas,2075507
3,Unidade da Federação,21,Maranhão,2000,2000,1000690,Pessoas que frequentavam escola ou creche - percentual do total geral,0,Total,0,Total,0,Total,2,Percentual,100.00
3,Unidade da Federação,21,Maranhão,2010,2010,690,Pessoas que frequentavam escola ou creche,0,Total,0,Total,0,Total,45,Pessoas,2422396
3,Unidade da Federação,21,Maranhão,2010,2010,1000690,Pessoas que frequentavam escola ou creche - percentual do total geral,0,Total,0,Total,0,Total,2,Percentual,100.00
3,Unidade da Federação,22,Piauí,2000,2000,690,Pessoas que frequentavam escola ou creche,0,Total,0,Total,0,Total,45,Pessoas,1033013
3,Unidade da Federação,22,Piauí,2000,2000,1000690,Pessoas que frequentavam escola ou creche - percentual do total geral,0,Total,0,Total,0,Total,2,Percentual,100.00
3,Unidade da Federação,22,Piauí,2010,2010,690,Pessoas que frequentavam escola ou creche,0,Total,0,Total,0,Total,45,Pessoas,1106370
3,Unidade da Federação,22,Piauí,2010,2010,1000690,Pessoas que frequentavam escola ou creche - percentual do total geral,0,Total,0,Total,0,Total,2,Percentual,100.00
3,Unidade da Federação,23,Ceará,2000,2000,690,Pessoas que frequentavam escola ou creche,0,Total,0,Total,0,Total,45,Pessoas,2724861
3,Unidade da Federação,23,Ceará,2000,2000,1000690,Pessoas que frequentavam escola ou creche - percentual do total geral,0,Total,0,Total,0,Total,2,Percentual,100.00
3,Unidade da Federação,23,Ceará,2010,2010,690,Pessoas que frequentavam escola ou creche,0,Total,0,Total,0,Total,45,Pessoas,2780449
3,Unidade da Federação,23,Ceará,2010,2010,1000690,Pessoas que frequentavam escola ou creche - percentual do total geral,0,Total,0,Total,0,Total,2,Percentual,100.00
3,Unidade da Federação,24,Rio Grande do Norte,2000,2000,690,Pessoas que frequentavam escola ou creche,0,Total,0,Total,0,Total,45,Pessoas,972806
3,Unidade da Federação,24,Rio Grande do Norte,2000,2000,1000690,Pessoas que frequentavam escola ou creche - percentual do total geral,0,Total,0,Total,0,Total,2,Percentual,100.00
3,Unidade da Federação,24,Rio Grande do Norte,2010,2010,690,Pessoas que frequentavam escola ou creche,0,Total,0,Total,0,Total,45,Pessoas,1039084
3,Unidade da Federação,24,Rio Grande do Norte,2010,2010,1000690,Pessoas que frequentavam escola ou creche - percentual do total geral,0,Total,0,Total,0,Total,2,Percentual,100.00
3,Unidade da Federação,25,Paraíba,2000,2000,690,Pessoas que frequentavam escola ou creche,0,Total,0,Total,0,Total,45,Pessoas,1159408
3,Unidade da Federação,25,Paraíba,2000,2000,1000690,Pessoas que frequentavam escola ou creche - percentual do total geral,0,Total,0,Total,0,Total,2,Percentual,100.00
3,Unidade da Federação,25,Paraíba,2010,2010,690,Pessoas que frequentavam escola ou creche,0,Total,0,Total,0,Total,45,Pessoas,1224467
3,Unidade da Federação,25,Paraíba,2010,2010,1000690,Pessoas que frequentavam escola ou creche - percentual do total geral,0,Total,0,Total,0,Total,2,Percentual,100.00
3,Unidade da Federação,26,Pernambuco,2000,2000,690,Pessoas que frequentavam escola ou creche,0,Total,0,Total,0,Total,45,Pessoas,2599098
3,Unidade da Federação,26,Pernambuco,2000,2000,1000690,Pessoas que frequentavam escola ou creche - percentual do total geral,0,Total,0,Total,0,Total,2,Percentual,100.00
3,Unidade da Federação,26,Pernambuco,2010,2010,690,Pessoas que frequentavam escola ou creche,0,Total,0,Total,0,Total,45,Pessoas,2847140
3,Unidade da Federação,26,Pernambuco,2010,2010,1000690,Pessoas que frequentavam escola ou creche - percentual do total geral,0,Total,0,Total,0,Total,2,Percentual,100.00
3,Unidade da Federação,27,Alagoas,2000,2000,690,Pessoas que frequentavam escola ou creche,0,Total,0,Total,0,Total,45,Pessoas,953270
3,Unidade da Federação,27,Alagoas,2000,2000,1000690,Pessoas que frequentavam escola ou creche - percentual do total geral,0,Total,0,Total,0,Total,2,Percentual,100.00
3,Unidade da Federação,27,Alagoas,2010,2010,690,Pessoas que frequentavam escola ou creche,0,Total,0,Total,0,Total,45,Pessoas,1087219
3,Unidade da Federação,27,Alagoas,2010,2010,1000690,Pessoas que frequentavam escola ou creche - percentual do total geral,0,Total,0,Total,0,Total,2,Percentual,100.00
3,Unidade da Federação,28,Sergipe,2000,2000,690,Pessoas que frequentavam escola ou creche,0,Total,0,Total,0,Total,45,Pessoas,635925
3,Unidade da Federação,28,Sergipe,2000,2000,1000690,Pessoas que frequentavam escola ou creche - percentual do total geral,0,Total,0,Total,0,Total,2,Percentual,100.00
3,Unidade da Federação,28,Sergipe,2010,2010,690,Pessoas que frequentavam escola ou creche,0,Total,0,Total,0,Total,45,Pessoas,722403
3,Unidade da Federação,28,Sergipe,2010,2010,1000690,Pessoas que frequentavam escola ou creche - percentual do total geral,0,Total,0,Total,0,Total,2,Percentual,100.00
3,Unidade da Federação,29,Bahia,2000,2000,690,Pessoas que frequentavam escola ou creche,0,Total,0,Total,0,Total,45,Pessoas,4618412
3,Unidade da Federação,29,Bahia,2000,2000,1000690,Pessoas que frequentavam escola ou creche - percentual do total geral,0,Total,0,Total,0,Total,2,Percentual,100.00
3,Unidade da Federação,29,Bahia,2010,2010,690,Pessoas que frequentavam escola ou creche,0,Total,0,Total,0,Total,45,Pessoas,4662656
3,Unidade da Federação,29,Bahia,2010,2010,1000690,Pessoas que frequentavam escola ou creche - percentual do total geral,0,Total,0,Total,0,Total,2,Percentual,100.00
3,Unidade da Federação,31,Minas Gerais,2000,2000,690,Pessoas que frequentavam escola ou creche,0,Total,0,Total,0,Total,45,Pessoas,5328043
3,Unidade da Federação,31,Minas Gerais,2000,2000,1000690,Pessoas que frequentavam escola ou creche - percentual do total geral,0,Total,0,Total,0,Total,2,Percentual,100.00
3,Unidade da Federação,31,Minas Gerais,2010,2010,690,Pessoas que frequentavam escola ou creche,0,Total,0,Total,0,Total,45,Pessoas,5681163
3,Unidade da Federação,31,Minas Gerais,2010,2010,1000690,Pessoas que frequentavam escola ou creche - percentual do total geral,0,Total,0,Total,0,Total,2,Percentual,100.00
3,Unidade da Federação,32,Espírito Santo,2000,2000,690,Pessoas que frequentavam escola ou creche,0,Total,0,Total,0,Total,45,Pessoas,942418
3,Unidade da Federação,32,Espírito Santo,2000,2000,1000690,Pessoas que frequentavam escola ou creche - percentual do total geral,0,Total,0,Total,0,Total,2,Percentual,100.00
3,Unidade da Federação,32,Espírito Santo,2010,2010,690,Pessoas que frequentavam escola ou creche,0,Total,0,Total,0,Total,45,Pessoas,1016047
3,Unidade da Federação,32,Espírito Santo,2010,2010,1000690,Pessoas que frequentavam escola ou creche - percentual do total geral,0,Total,0,Total,0,Total,2,Percentual,100.00
3,Unidade da Federação,33,Rio de Janeiro,2000,2000,690,Pessoas que frequentavam escola ou creche,0,Total,0,Total,0,Total,45,Pessoas,4155273
3,Unidade da Federação,33,Rio de Janeiro,2000,2000,1000690,Pessoas que frequentavam escola ou creche - percentual do total geral,0,Total,0,Total,0,Total,2,Percentual,100.00
3,Unidade da Federação,33,Rio de Janeiro,2010,2010,690,Pessoas que frequentavam escola ou creche,0,Total,0,Total,0,Total,45,Pessoas,4710943
3,Unidade da Federação,33,Rio de Janeiro,2010,2010,1000690,Pessoas que frequentavam escola ou creche - percentual do total geral,0,Total,0,Total,0,Total,2,Percentual,100.00
3,Unidade da Federação,35,São Paulo,2000,2000,690,Pessoas que frequentavam escola ou creche,0,Total,0,Total,0,Total,45,Pessoas,10782668
3,Unidade da Federação,35,São Paulo,2000,2000,1000690,Pessoas que frequentavam escola ou creche - percentual do total geral,0,Total,0,Total,0,Total,2,Percentual,100.00
3,Unidade da Federação,35,São Paulo,2010,2010,690,Pessoas que frequentavam escola ou creche,0,Total,0,Total,0,Total,45,Pessoas,12332765
3,Unidade da Federação,35,São Paulo,2010,2010,1000690,Pessoas que frequentavam escola ou creche - percentual do total geral,0,Total,0,Total,0,Total,2,Percentual,100.00
3,Unidade da Federação,41,Paraná,2000,2000,690,Pessoas que frequentavam escola ou creche,0,Total,0,Total,0,Total,45,Pessoas,2830858
3,Unidade da Federação,41,Paraná,2000,2000,1000690,Pessoas que frequentavam escola ou creche - percentual do total geral,0,Total,0,Total,0,Total,2,Percentual,100.00
3,Unidade da Federação,41,Paraná,2010,2010,690,Pessoas que frequentavam escola ou creche,0,Total,0,Total,0,Total,45,Pessoas,3105958
3,Unidade da Federação,41,Paraná,2010,2010,1000690,Pessoas que frequentavam escola ou creche - percentual do total geral,0,Total,0,Total,0,Total,2,Percentual,100.00
3,Unidade da Federação,42,Santa Catarina,2000,2000,690,Pessoas que frequentavam escola ou creche,0,Total,0,Total,0,Total,45,Pessoas,1631443
3,Unidade da Federação,42,Santa Catarina,2000,2000,1000690,Pessoas que frequentavam escola ou creche - percentual do total geral,0,Total,0,Total,0,Total,2,Percentual,100.00
3,Unidade da Federação,42,Santa Catarina,2010,2010,690,Pessoas que frequentavam escola ou creche,0,Total,0,Total,0,Total,45,Pessoas,1828319
3,Unidade da Federação,42,Santa Catarina,2010,2010,1000690,Pessoas que frequentavam escola ou creche - percentual do total geral,0,Total,0,Total,0,Total,2,Percentual,100.00
3,Unidade da Federação,43,Rio Grande do Sul,2000,2000,690,Pessoas que frequentavam escola ou creche,0,Total,0,Total,0,Total,45,Pessoas,2791283
3,Unidade da Federação,43,Rio Grande do Sul,2000,2000,1000690,Pessoas que frequentavam escola ou creche - percentual do total geral,0,Total,0,Total,0,Total,2,Percentual,100.00
3,Unidade da Federação,43,Rio Grande do Sul,2010,2010,690,Pessoas que frequentavam escola ou creche,0,Total,0,Total,0,Total,45,Pessoas,2909361
3,Unidade da Federação,43,Rio Grande do Sul,2010,2010,1000690,Pessoas que frequentavam escola ou creche - percentual do total geral,0,Total,0,Total,0,Total,2,Percentual,100.00
3,Unidade da Federação,50,Mato Grosso do Sul,2000,2000,690,Pessoas que frequentavam escola ou creche,0,Total,0,Total,0,Total,45,Pessoas,628211
3,Unidade da Federação,50,Mato Grosso do Sul,2000,2000,1000690,Pessoas que frequentavam escola ou creche - percentual do total geral,0,Total,0,Total,0,Total,2,Percentual,100.00
3,Unidade da Federação,50,Mato Grosso do Sul,2010,2010,690,Pessoas que frequentavam escola ou creche,0,Total,0,Total,0,Total,45,Pessoas,751579
3,Unidade da Federação,50,Mato Grosso do Sul,2010,2010,1000690,Pessoas que frequentavam escola ou creche - percentual do total geral,0,Total,0,Total,0,Total,2,Percentual,100.00
3,Unidade da Federação,51,Mato Grosso,2000,2000,690,Pessoas que frequentavam escola ou creche,0,Total,0,Total,0,Total,45,Pessoas,797728
3,Unidade da Federação,51,Mato Grosso,2000,2000,1000690,Pessoas que frequentavam escola ou creche - percentual do total geral,0,Total,0,Total,0,Total,2,Percentual,100.00
3,Unidade da Federação,51,Mato Grosso,2010,2010,690,Pessoas que frequentavam escola ou creche,0,Total,0,Total,0,Total,45,Pessoas,977102
3,Unidade da Federação,51,Mato Grosso,2010,2010,1000690,Pessoas que frequentavam escola ou creche - percentual do total geral,0,Total,0,Total,0,Total,2,Percentual,100.00
3,Unidade da Federação,52,Goiás,2000,2000,690,Pessoas que frequentavam escola ou creche,0,Total,0,Total,0,Total,45,Pessoas,1557085
3,Unidade da Federação,52,Goiás,2000,2000,1000690,Pessoas que frequentavam escola ou creche - percentual do total geral,0,Total,0,Total,0,Total,2,Percentual,100.00
3,Unidade da Federação,52,Goiás,2010,2010,690,Pessoas que frequentavam escola ou creche,0,Total,0,Total,0,Total,45,Pessoas,1787847
3,Unidade da Federação,52,Goiás,2010,2010,1000690,Pessoas que frequentavam escola ou creche - percentual do total geral,0,Total,0,Total,0,Total,2,Percentual,100.00
3,Unidade da Federação,53,Distrito Federal,2000,2000,690,Pessoas que frequentavam escola ou creche,0,Total,0,Total,0,Total,45,Pessoas,729188
3,Unidade da Federação,53,Distrito Federal,2000,2000,1000690,Pessoas que frequentavam escola ou creche - percentual do total geral,0,Total,0,Total,0,Total,2,Percentual,100.00
3,Unidade da Federação,53,Distrito Federal,2010,2010,690,Pessoas que frequentavam escola ou creche,0,Total,0,Total,0,Total,45,Pessoas,877695
3,Unidade da Federação,53,Distrito Federal,2010,2010,1000690,Pessoas que frequentavam escola ou creche - percentual do total geral,0,Total,0,Total,0,Total,2,Percentual,100.00
