NC,NN,D1C,D1N,D2C,D2N,D3C,D3N,D4C,D4N,D5C,D5N,D6C,D6N,D7C,D7N,MC,MN,V
Nível Territorial (Código),Nível Territorial,Unidade da Federação (Código),Unidade da Federação,Ano (Código),Ano,Variável (Código),Variável,Situação do domicílio (Código),Situação do domicílio,Grupo de idade (Código),Grupo de idade,Alfabetização (Código),Alfabetização,Cor ou raça (Código),Cor ou raça,Unidade de Medida (Código),Unidade de Medida,Valor
3,Unidade da Federação,11,Rondônia,2000,2000,138,Pessoas de 5 anos ou mais de idade,0,Total,0,Total,0,Total,0,Total,45,Pessoas,1226247
3,Unidade da Federação,11,Rondônia,2000,2000,1000138,Pessoas de 5 anos ou mais de idade - percentual do total geral,0,Total,0,Total,0,Total,0,Total,2,Percentual,100.00
3,Unidade da Federação,12,Acre,2000,2000,138,Pessoas de 5 anos ou mais de idade,0,Total,0,Total,0,Total,0,Total,45,Pessoas,481081
3,Unidade da Federação,12,Acre,2000,2000,1000138,Pessoas de 5 anos ou mais de idade - percentual do total geral,0,Total,0,Total,0,Total,0,Total,2,Percentual,100.00
3,Unidade da Federação,13,Amazonas,2000,2000,138,Pessoas de 5 anos ou mais de idade,0,Total,0,Total,0,Total,0,Total,45,Pessoas,2428787
3,Unidade da Federação,13,Amazonas,2000,2000,1000138,Pessoas de 5 anos ou mais de idade - percentual do total geral,0,Total,0,Total,0,Total,0,Total,2,Percentual,100.00
3,Unidade da Federação,14,Roraima,2000,2000,138,Pessoas de 5 anos ou mais de idade,0,Total,0,Total,0,Total,0,Total,45,Pessoas,280051
3,Unidade da Federação,14,Roraima,2000,2000,1000138,Pessoas de 5 anos ou mais de idade - percentual do total geral,0,Total,0,Total,0,Total,0,Total,2,Percentual,100.00
3,Unidade da Federação,15,Pará,2000,2000,138,Pessoas de 5 anos ou mais de idade,0,Total,0,Total,0,Total,0,Total,45,Pessoas,5417618
3,Unidade da Federação,15,Pará,2000,2000,1000138,Pessoas de 5 anos ou mais de idade - percentual do total geral,0,Total,0,Total,0,Total,0,Total,2,Percentual,100.00
3,Unidade da Federação,16,Amapá,2000,2000,138,Pessoas de 5 anos ou mais de idade,0,Total,0,Total,0,Total,0,Total,45,Pessoas,409312
3,Unidade da Federação,16,Amapá,2000,2000,1000138,Pessoas de 5 anos ou mais de idade - percentual do total geral,0,Total,0,Total,0,Total,0,Total,2,Percentual,100.00
3,Unidade da Federação,17,Tocantins,2000,2000,138,Pessoas de 5 anos ou mais de idade,0,Total,0,Total,0,Total,0,Total,45,Pessoas,1023459
3,Unidade da Federação,17,Tocantins,2000,2000,1000138,Pessoas de 5 anos ou mais de idade - percentual do total geral,0,Total,0,Total,0,Total,0,Total,2,Percentual,100.00
3,Unidade da Federação,21,Maranhão,2000,2000,138,Pessoas de 5 anos ou mais de idade,0,Total,0,Total,0,Total,0,Total,45,Pessoas,4964160
3,Unidade da Federação,21,Maranhão,2000,2000,1000138,Pessoas de 5 anos ou mais de idade - percentual do total geral,0,Total,0,Total,0,Total,0,Total,2,Percentual,100.00
3,Unidade da Federação,22,Piauí,2000,2000,138,Pessoas de 5 anos ou mais de idade,0,Total,0,Total,0,Total,0,Total,45,Pessoas,2541627
3,Unidade da Federação,22,Piauí,2000,2000,1000138,Pessoas de 5 anos ou mais de idade - percentual do total geral,0,Total,0,Total,0,Total,0,Total,2,Percentual,100.00
3,Unidade da Federação,23,Ceará,2000,2000,138,Pessoas de 5 anos ou mais de idade,0,Total,0,Total,0,Total,0,Total,45,Pessoas,6628263
3,Unidade da Federação,23,Ceará,2000,2000,1000138,Pessoas de 5 anos ou mais de idade - percentual do total geral,0,Total,0,Total,0,Total,0,Total,2,Percentual,100.00
3,Unidade da Federação,24,Rio Grande do Norte,2000,2000,138,Pessoas de 5 anos ou mais de idade,0,Total,0,Total,0,Total,0,Total,45,Pessoas,2498980
3,Unidade da Federação,24,Rio Grande do Norte,2000,2000,1000138,Pessoas de 5 anos ou mais de idade - percentual do total geral,0,Total,0,Total,0,Total,0,Total,2,Percentual,100.00
3,Unidade da Federação,25,Paraíba,2000,2000,138,Pessoas de 5 anos ou mais de idade,0,Total,0,Total,0,Total,0,Total,45,Pessoas,3106341
3,Unidade da Federação,25,Paraíba,2000,2000,1000138,Pessoas de 5 anos ou mais de idade - percentual do total geral,0,Total,0,Total,0,Total,0,Total,2,Percentual,100.00
3,Unidade da Federação,26,Pernambuco,2000,2000,138,Pessoas de 5 anos ou mais de idade,0,Total,0,Total,0,Total,0,Total,45,Pessoas,7131046
3,Unidade da Federação,26,Pernambuco,2000,2000,1000138,Pessoas de 5 anos ou mais de idade - percentual do total geral,0,Total,0,Total,0,Total,0,Total,2,Percentual,100.00
3,Unidade da Federação,27,Alagoas,2000,2000,138,Pessoas de 5 anos ou mais de idade,0,Total,0,Total,0,Total,0,Total,45,Pessoas,2492020
3,Unidade da Federação,27,Alagoas,2000,2000,1000138,Pessoas de 5 anos ou mais de idade - percentual do total geral,0,Total,0,Total,0,Total,0,Total,2,Percentual,100.00
3,Unidade da Federação,28,Sergipe,2000,2000,138,Pessoas de 5 anos ou mais de idade,0,Total,0,Total,0,Total,0,Total,45,Pessoas,1588119
3,Unidade da Federação,28,Sergipe,2000,2000,1000138,Pessoas de 5 anos ou mais de idade - percentual do total geral,0,Total,0,Total,0,Total,0,Total,2,Percentual,100.00
3,Unidade da Federação,29,Bahia,2000,2000,138,Pessoas de 5 anos ou mais de idade,0,Total,0,Total,0,Total,0,Total,45,Pessoas,11765758
3,Unidade da Federação,29,Bahia,2000,2000,1000138,Pessoas de 5 anos ou mais de idade - percentual do total geral,0,Total,0,Total,0,Total,0,Total,2,Percentual,100.00
3,Unidade da Federação,31,Minas Gerais,2000,2000,138,Pessoas de 5 anos ou mais de idade,0,Total,0,Total,0,Total,0,Total,45,Pessoas,16288982
3,Unidade da Federação,31,Minas Gerais,2000,2000,1000138,Pessoas de 5 anos ou mais de idade - percentual do total geral,0,Total,0,Total,0,Total,0,Total,2,Percentual,100.00
3,Unidade da Federação,32,Espírito Santo,2000,2000,138,Pessoas de 5 anos ou mais de idade,0,Total,0,Total,0,Total,0,Total,45,Pessoas,2813125
3,Unidade da Federação,32,Espírito Santo,2000,2000,1000138,Pessoas de 5 anos ou mais de idade - percentual do total geral,0,Total,0,Total,0,Total,0,Total,2,Percentual,100.00
3,Unidade da Federação,33,Rio de Janeiro,2000,2000,138,Pessoas de 5 anos ou mais de idade,0,Total,0,Total,0,Total,0,Total,45,Pessoas,13170894
3,Unidade da Federação,33,Rio de Janeiro,2000,2000,1000138,Pessoas de 5 anos ou mais de idade - percentual do total geral,0,Total,0,Total,0,Total,0,Total,2,Percentual,100.00
3,Unidade da Federação,35,São Paulo,2000,2000,138,Pessoas de 5 anos ou mais de idade,0,Total,0,Total,0,Total,0,Total,45,Pessoas,33842320
3,Unidade da Federação,35,São Paulo,2000,2000,1000138,Pessoas de 5 anos ou mais de idade - percentual do total geral,0,Total,0,Total,0,Total,0,Total,2,Percentual,100.00
3,Unidade da Federação,41,Paraná,2000,2000,138,Pessoas de 5 anos ou mais de idade,0,Total,0,Total,0,Total,0,Total,45,Pessoas,8678190
3,Unidade da Federação,41,Paraná,2000,2000,1000138,Pessoas de 5 anos ou mais de idade - percentual do total geral,0,Total,0,Total,0,Total,0,Total,2,Percentual,100.00
3,Unidade da Federação,42,Santa Catarina,2000,2000,138,Pessoas de 5 anos ou mais de idade,0,Total,0,Total,0,Total,0,Total,45,Pessoas,4882338
3,Unidade da Federação,42,Santa Catarina,2000,2000,1000138,Pessoas de 5 anos ou mais de idade - percentual do total geral,0,Total,0,Total,0,Total,0,Total,2,Percentual,100.00
3,Unidade da Federação,43,Rio Grande do Sul,2000,2000,138,Pessoas de 5 anos ou mais de idade,0,Total,0,Total,0,Total,0,Total,45,Pessoas,9332388
3,Unidade da Federação,43,Rio Grande do Sul,2000,2000,1000138,Pessoas de 5 anos ou mais de idade - percentual do total geral,0,Total,0,Total,0,Total,0,Total,2,Percentual,100.00
3,Unidade da Federação,50,Mato Grosso do Sul,2000,2000,138,Pessoas de 5 anos ou mais de idade,0,Total,0,Total,0,Total,0,Total,45,Pessoas,1873982
3,Unidade da Federação,50,Mato Grosso do Sul,2000,2000,1000138,Pessoas de 5 anos ou mais de idade - percentual do total geral,0,Total,0,Total,0,Total,0,Total,2,Percentual,100.00
3,Unidade da Federação,51,Mato Grosso,2000,2000,138,Pessoas de 5 anos ou mais de idade,0,Total,0,Total,0,Total,0,Total,45,Pessoas,2250460
3,Unidade da Federação,51,Mato Grosso,2000,2000,1000138,Pessoas de 5 anos ou mais de idade - percentual do total geral,0,Total,0,Total,0,Total,0,Total,2,Percentual,100.00
3,Unidade da Federação,52,Goiás,2000,2000,138,Pessoas de 5 anos ou mais de idade,0,Total,0,Total,0,Total,0,Total,45,Pessoas,4521450
3,Unidade da Federação,52,Goiás,2000,2000,1000138,Pessoas de 5 anos ou mais de idade - percentual do total geral,0,Total,0,Total,0,Total,0,Total,2,Percentual,100.00
3,Unidade da Federação,53,Distrito Federal,2000,2000,138,Pessoas de 5 anos ou mais de idade,0,Total,0,Total,0,Total,0,Total,45,Pessoas,1849619
3,Unidade da Federação,53,Distrito Federal,2000,2000,1000138,Pessoas de 5 anos ou mais de idade - percentual do total geral,0,Total,0,Total,0,Total,0,Total,2,Percentual,100.00
