NC,NN,D1C,D1N,D2C,D2N,D3C,D3N,D4C,D4N,D5C,D5N,D6C,D6N,MC,MN,V
Nível Territorial (Código),Nível Territorial,Unidade da Federação (Código),Unidade da Federação,Ano (Código),Ano,Variável (Código),Variável,Sexo (Código),Sexo,Nível concluído (Código),Nível concluído,"Áreas gerais, específicas e detalhadas de formação (Código)","Áreas gerais, específicas e detalhadas de formação",Unidade de Medida (Código),Unidade de Medida,Valor
3,Unidade da Federação,11,Rondônia,2000,2000,1644,Pessoas com curso de nível superior concluído,0,Total,0,Total,108890,Total,45,Pessoas,18583
3,Unidade da Federação,11,Rondônia,2000,2000,1001644,Pessoas com curso de nível superior concluído - percentual do total geral,0,Total,0,Total,108890,Total,2,Percentual,100.00
3,Unidade da Federação,12,Acre,2000,2000,1644,Pessoas com curso de nível superior concluído,0,Total,0,Total,108890,Total,45,Pessoas,8449
3,Unidade da Federação,12,Acre,2000,2000,1001644,Pessoas com curso de nível superior concluído - percentual do total geral,0,Total,0,Total,108890,Total,2,Percentual,100.00
3,Unidade da Federação,13,Amazonas,2000,2000,1644,Pessoas com curso de nível superior concluído,0,Total,0,Total,108890,Total,45,Pessoas,37294
3,Unidade da Federação,13,Amazonas,2000,2000,1001644,Pessoas com curso de nível superior concluído - percentual do total geral,0,Total,0,Total,108890,Total,2,Percentual,100.00
3,Unidade da Federação,14,Roraima,2000,2000,1644,Pessoas com curso de nível superior concluído,0,Total,0,Total,108890,Total,45,Pessoas,5237
3,Unidade da Federação,14,Roraima,2000,2000,1001644,Pessoas com curso de nível superior concluído - percentual do total geral,0,Total,0,Total,108890,Total,2,Percentual,100.00
3,Unidade da Federação,15,Pará,2000,2000,1644,Pessoas com curso de nível superior concluído,0,Total,0,Total,108890,Total,45,Pessoas,85075
3,Unidade da Federação,15,Pará,2000,2000,1001644,Pessoas com curso de nível superior concluído - percentual do total geral,0,Total,0,Total,108890,Total,2,Percentual,100.00
3,Unidade da Federação,16,Amapá,2000,2000,1644,Pessoas com curso de nível superior concluído,0,Total,0,Total,108890,Total,45,Pessoas,7543
3,Unidade da Federação,16,Amapá,2000,2000,1001644,Pessoas com curso de nível superior concluído - percentual do total geral,0,Total,0,Total,108890,Total,2,Percentual,100.00
3,Unidade da Federação,17,Tocantins,2000,2000,1644,Pessoas com curso de nível superior concluído,0,Total,0,Total,108890,Total,45,Pessoas,15668
3,Unidade da Federação,17,Tocantins,2000,2000,1001644,Pessoas com curso de nível superior concluído - percentual do total geral,0,Total,0,Total,108890,Total,2,Percentual,100.00
3,Unidade da Federação,21,Maranhão,2000,2000,1644,Pessoas com curso de nível superior concluído,0,Total,0,Total,108890,Total,45,Pessoas,43895
3,Unidade da Federação,21,Maranhão,2000,2000,1001644,Pessoas com curso de nível superior concluído - percentual do total geral,0,Total,0,Total,108890,Total,2,Percentual,100.00
3,Unidade da Federação,22,Piauí,2000,2000,1644,Pessoas com curso de nível superior concluído,0,Total,0,Total,108890,Total,45,Pessoas,31758
3,Unidade da Federação,22,Piauí,2000,2000,1001644,Pessoas com curso de nível superior concluído - percentual do total geral,0,Total,0,Total,108890,Total,2,Percentual,100.00
3,Unidade da Federação,23,Ceará,2000,2000,1644,Pessoas com curso de nível superior concluído,0,Total,0,Total,108890,Total,45,Pessoas,126654
3,Unidade da Federação,23,Ceará,2000,2000,1001644,Pessoas com curso de nível superior concluído - percentual do total geral,0,Total,0,Total,108890,Total,2,Percentual,100.00
3,Unidade da Federação,24,Rio Grande do Norte,2000,2000,1644,Pessoas com curso de nível superior concluído,0,Total,0,Total,108890,Total,45,Pessoas,62173
3,Unidade da Federação,24,Rio Grande do Norte,2000,2000,1001644,Pessoas com curso de nível superior concluído - percentual do total geral,0,Total,0,Total,108890,Total,2,Percentual,100.00
3,Unidade da Federação,25,Paraíba,2000,2000,1644,Pessoas com curso de nível superior concluído,0,Total,0,Total,108890,Total,45,Pessoas,87410
3,Unidade da Federação,25,Paraíba,2000,2000,1001644,Pessoas com curso de nível superior concluído - percentual do total geral,0,Total,0,Total,108890,Total,2,Percentual,100.00
3,Unidade da Federação,26,Pernambuco,2000,2000,1644,Pessoas com curso de nível superior concluído,0,Total,0,Total,108890,Total,45,Pessoas,211832
3,Unidade da Federação,26,Pernambuco,2000,2000,1001644,Pessoas com curso de nível superior concluído - percentual do total geral,0,Total,0,Total,108890,Total,2,Percentual,100.00
3,Unidade da Federação,27,Alagoas,2000,2000,1644,Pessoas com curso de nível superior concluído,0,Total,0,Total,108890,Total,45,Pessoas,48328
3,Unidade da Federação,27,Alagoas,2000,2000,1001644,Pessoas com curso de nível superior concluído - percentual do total geral,0,Total,0,Total,108890,Total,2,Percentual,100.00
3,Unidade da Federação,28,Sergipe,2000,2000,1644,Pessoas com curso de nível superior concluído,0,Total,0,Total,108890,Total,45,Pessoas,31015
3,Unidade da Federação,28,Sergipe,2000,2000,1001644,Pessoas com curso de nível superior concluído - percentual do total geral,0,Total,0,Total,108890,Total,2,Percentual,100.00
3,Unidade da Federação,29,Bahia,2000,2000,1644,Pessoas com curso de nível superior concluído,0,Total,0,Total,108890,Total,45,Pessoas,186626
3,Unidade da Federação,29,Bahia,2000,2000,1001644,Pessoas com curso de nível superior concluído - percentual do total geral,0,Total,0,Total,108890,Total,2,Percentual,100.00
3,Unidade da Federação,31,Minas Gerais,2000,2000,1644,Pessoas com curso de nível superior concluído,0,Total,0,Total,108890,Total,45,Pessoas,571451
3,Unidade da Federação,31,Minas Gerais,2000,2000,1001644,Pessoas com curso de nível superior concluído - percentual do total geral,0,Total,0,Total,108890,Total,2,Percentual,100.00
3,Unidade da Federação,32,Espírito Santo,2000,2000,1644,Pessoas com curso de nível superior concluído,0,Total,0,Total,108890,Total,45,Pessoas,90879
3,Unidade da Federação,32,Espírito Santo,2000,2000,1001644,Pessoas com curso de nível superior concluído - percentual do total geral,0,Total,0,Total,108890,Total,2,Percentual,100.00
3,Unidade da Federação,33,Rio de Janeiro,2000,2000,1644,Pessoas com curso de nível superior concluído,0,Total,0,Total,108890,Total,45,Pessoas,826674
3,Unidade da Federação,33,Rio de Janeiro,2000,2000,1001644,Pessoas com curso de nível superior concluído - percentual do total geral,0,Total,0,Total,108890,Total,2,Percentual,100.00
3,Unidade da Federação,35,São Paulo,2000,2000,1644,Pessoas com curso de nível superior concluído,0,Total,0,Total,108890,Total,45,Pessoas,2030060
3,Unidade da Federação,35,São Paulo,2000,2000,1001644,Pessoas com curso de nível superior concluído - percentual do total geral,0,Total,0,Total,108890,Total,2,Percentual,100.00
3,Unidade da Federação,41,Paraná,2000,2000,1644,Pessoas com curso de nível superior concluído,0,Total,0,Total,108890,Total,45,Pessoas,359591
3,Unidade da Federação,41,Paraná,2000,2000,1001644,Pessoas com curso de nível superior concluído - percentual do total geral,0,Total,0,Total,108890,Total,2,Percentual,100.00
3,Unidade da Federação,42,Santa Catarina,2000,2000,1644,Pessoas com curso de nível superior concluído,0,Total,0,Total,108890,Total,45,Pessoas,175616
3,Unidade da Federação,42,Santa Catarina,2000,2000,1001644,Pessoas com curso de nível superior concluído - percentual do total geral,0,Total,0,Total,108890,Total,2,Percentual,100.00
3,Unidade da Federação,43,Rio Grande do Sul,2000,2000,1644,Pessoas com curso de nível superior concluído,0,Total,0,Total,108890,Total,45,Pessoas,413459
3,Unidade da Federação,43,Rio Grande do Sul,2000,2000,1001644,Pessoas com curso de nível superior concluído - percentual do total geral,0,Total,0,Total,108890,Total,2,Percentual,100.00
3,Unidade da Federação,50,Mato Grosso do Sul,2000,2000,1644,Pessoas com curso de nível superior concluído,0,Total,0,Total,108890,Total,45,Pessoas,72581
3,Unidade da Federação,50,Mato Grosso do Sul,2000,2000,1001644,Pessoas com curso de nível superior concluído - percentual do total geral,0,Total,0,Total,108890,Total,2,Percentual,100.00
3,Unidade da Federação,51,Mato Grosso,2000,2000,1644,Pessoas com curso de nível superior concluído,0,Total,0,Total,108890,Total,45,Pessoas,62784
3,Unidade da Federação,51,Mato Grosso,2000,2000,1001644,Pessoas com curso de nível superior concluído - percentual do total geral,0,Total,0,Total,108890,Total,2,Percentual,100.00
3,Unidade da Federação,52,Goiás,2000,2000,1644,Pessoas com curso de nível superior concluído,0,Total,0,Total,108890,Total,45,Pessoas,125054
3,Unidade da Federação,52,Goiás,2000,2000,1001644,Pessoas com curso de nível superior concluído - percentual do total geral,0,Total,0,Total,108890,Total,2,Percentual,100.00
3,Unidade da Federação,53,Distrito Federal,2000,2000,1644,Pessoas com curso de nível superior concluído,0,Total,0,Total,108890,Total,45,Pessoas,154943
3,Unidade da Federação,53,Distrito Federal,2000,2000,1001644,Pessoas com curso de nível superior concluído - percentual do total geral,0,Total,0,Total,108890,Total,2,Percentual,100.00
