NC,NN,D1C,D1N,D2C,D2N,D3C,D3N,D4C,D4N,D5C,D5N,MC,MN,V
Nível Territorial (Código),Nível Territorial,Unidade da Federação (Código),Unidade da Federação,Ano (Código),Ano,Variável (Código),Variável,Grupo de idade (Código),Grupo de idade,"Frequência à creche ou escola, nível de ensino e série que frequentavam (Código)","Frequência à creche ou escola, nível de ensino e série que frequentavam",Unidade de Medida (Código),Unidade de Medida,Valor
3,Unidade da Federação,11,Rondônia,2000,2000,93,População residente,0,Total,0,Total,45,Pessoas,1380952
3,Unidade da Federação,11,Rondônia,2000,2000,1000093,População residente - percentual do total geral,0,Total,0,Total,2,Percentual,100.00
3,Unidade da Federação,12,Acre,2000,2000,93,População residente,0,Total,0,Total,45,Pessoas,557882
3,Unidade da Federação,12,Acre,2000,2000,1000093,População residente - percentual do total geral,0,Total,0,Total,2,Percentual,100.00
3,Unidade da Federação,13,Amazonas,2000,2000,93,População residente,0,Total,0,Total,45,Pessoas,2817252
3,Unidade da Federação,13,Amazonas,2000,2000,1000093,População residente - percentual do total geral,0,Total,0,Total,2,Percentual,100.00
3,Unidade da Federação,14,Roraima,2000,2000,93,População residente,0,Total,0,Total,45,Pessoas,324397
3,Unidade da Federação,14,Roraima,2000,2000,1000093,População residente - percentual do total geral,0,Total,0,Total,2,Percentual,100.00
3,Unidade da Federação,15,Pará,2000,2000,93,População residente,0,Total,0,Total,45,Pessoas,6195965
3,Unidade da Federação,15,Pará,2000,2000,1000093,População residente - percentual do total geral,0,Total,0,Total,2,Percentual,100.00
3,Unidade da Federação,16,Amapá,2000,2000,93,População residente,0,Total,0,Total,45,Pessoas,477032
3,Unidade da Federação,16,Amapá,2000,2000,1000093,População residente - percentual do total geral,0,Total,0,Total,2,Percentual,100.00
3,Unidade da Federação,17,Tocantins,2000,2000,93,População residente,0,Total,0,Total,45,Pessoas,1157690
3,Unidade da Federação,17,Tocantins,2000,2000,1000093,População residente - percentual do total geral,0,Total,0,Total,2,Percentual,100.00
3,Unidade da Federação,21,Maranhão,2000,2000,93,População residente,0,Total,0,Total,45,Pessoas,5657552
3,Unidade da Federação,21,Maranhão,2000,2000,1000093,População residente - percentual do total geral,0,Total,0,Total,2,Percentual,100.00
3,Unidade da Federação,22,Piauí,2000,2000,93,População residente,0,Total,0,Total,45,Pessoas,2843428
3,Unidade da Federação,22,Piauí,2000,2000,1000093,População residente - percentual do total geral,0,Total,0,Total,2,Percentual,100.00
3,Unidade da Federação,23,Ceará,2000,2000,93,População residente,0,Total,0,Total,45,Pessoas,7431597
3,Unidade da Federação,23,Ceará,2000,2000,1000093,População residente - percentual do total geral,0,Total,0,Total,2,Percentual,100.00
3,Unidade da Federação,24,Rio Grande do Norte,2000,2000,93,População residente,0,Total,0,Total,45,Pessoas,2777509
3,Unidade da Federação,24,Rio Grande do Norte,2000,2000,1000093,População residente - percentual do total geral,0,Total,0,Total,2,Percentual,100.00
3,Unidade da Federação,25,Paraíba,2000,2000,93,População residente,0,Total,0,Total,45,Pessoas,3444794
3,Unidade da Federação,25,Paraíba,2000,2000,1000093,População residente - percentual do total geral,0,Total,0,Total,2,Percentual,100.00
3,Unidade da Federação,26,Pernambuco,2000,2000,93,População residente,0,Total,0,Total,45,Pessoas,7929154
3,Unidade da Federação,26,Pernambuco,2000,2000,1000093,População residente - percentual do total geral,0,Total,0,Total,2,Percentual,100.00
3,Unidade da Federação,27,Alagoas,2000,2000,93,População residente,0,Total,0,Total,45,Pessoas,2827856
3,Unidade da Federação,27,Alagoas,2000,2000,1000093,População residente - percentual do total geral,0,Total,0,Total,2,Percentual,100.00
3,Unidade da Federação,28,Sergipe,2000,2000,93,População residente,0,Total,0,Total,45,Pessoas,1784829
3,Unidade da Federação,28,Sergipe,2000,2000,1000093,População residente - percentual do total geral,0,Total,0,Total,2,Percentual,100.00
3,Unidade da Federação,29,Bahia,2000,2000,93,População residente,0,Total,0,Total,45,Pessoas,13085769
3,Unidade da Federação,29,Bahia,2000,2000,1000093,População residente - percentual do total geral,0,Total,0,Total,2,Percentual,100.00
3,Unidade da Federação,31,Minas Gerais,2000,2000,93,População residente,0,Total,0,Total,45,Pessoas,17905134
3,Unidade da Federação,31,Minas Gerais,2000,2000,1000093,População residente - percentual do total geral,0,Total,0,Total,2,Percentual,100.00
3,Unidade da Federação,32,Espírito Santo,2000,2000,93,População residente,0,Total,0,Total,45,Pessoas,3097498
3,Unidade da Federação,32,Espírito Santo,2000,2000,1000093,População residente - percentual do total geral,0,Total,0,Total,2,Percentual,100.00
3,Unidade da Federação,33,Rio de Janeiro,2000,2000,93,População residente,0,Total,0,Total,45,Pessoas,14392106
3,Unidade da Federação,33,Rio de Janeiro,2000,2000,1000093,População residente - percentual do total geral,0,Total,0,Total,2,Percentual,100.00
3,Unidade da Federação,35,São Paulo,2000,2000,93,População residente,0,Total,0,Total,45,Pessoas,37035456
3,Unidade da Federação,35,São Paulo,2000,2000,1000093,População residente - percentual do total geral,0,Total,0,Total,2,Percentual,100.00
3,Unidade da Federação,41,Paraná,2000,2000,93,População residente,0,Total,0,Total,45,Pessoas,9564643
3,Unidade da Federação,41,Paraná,2000,2000,1000093,População residente - percentual do total geral,0,Total,0,Total,2,Percentual,100.00
3,Unidade da Federação,42,Santa Catarina,2000,2000,93,População residente,0,Total,0,Total,45,Pessoas,5357864
3,Unidade da Federação,42,Santa Catarina,2000,2000,1000093,População residente - percentual do total geral,0,Total,0,Total,2,Percentual,100.00
3,Unidade da Federação,43,Rio Grande do Sul,2000,2000,93,População residente,0,Total,0,Total,45,Pessoas,10187842
3,Unidade da Federação,43,Rio Grande do Sul,2000,2000,1000093,População residente - percentual do total geral,0,Total,0,Total,2,Percentual,100.00
3,Unidade da Federação,50,Mato Grosso do Sul,2000,2000,93,População residente,0,Total,0,Total,45,Pessoas,2078070
3,Unidade da Federação,50,Mato Grosso do Sul,2000,2000,1000093,População residente - percentual do total geral,0,Total,0,Total,2,Percentual,100.00
3,Unidade da Federação,51,Mato Grosso,2000,2000,93,População residente,0,Total,0,Total,45,Pessoas,2505245
3,Unidade da Federação,51,Mato Grosso,2000,2000,1000093,População residente - percentual do total geral,0,Total,0,Total,2,Percentual,100.00
3,Unidade da Federação,52,Goiás,2000,2000,93,População residente,0,Total,0,Total,45,Pessoas,5004197
3,Unidade da Federação,52,Goiás,2000,2000,1000093,População residente - percentual do total geral,0,Total,0,Total,2,Percentual,100.00
3,Unidade da Federação,53,Distrito Federal,2000,2000,93,População residente,0,Total,0,Total,45,Pessoas,2051146
3,Unidade da Federação,53,Distrito Federal,2000,2000,1000093,População residente - percentual do total geral,0,Total,0,Total,2,Percentual,100.00
