NC,NN,D1C,D1N,D2C,D2N,D3C,D3N,D4C,D4N,MC,MN,V
Nível Territorial (Código),Nível Territorial,Unidade da Federação (Código),Unidade da Federação,Ano (Código),Ano,Variável (Código),Variável,Grupos de anos de estudo (Código),Grupos de anos de estudo,Unidade de Medida (Código),Unidade de Medida,Valor
3,Unidade da Federação,11,Rondônia,2000,2000,140,Pessoas de 10 anos ou mais de idade,0,Total,45,Pessoas,1066015
3,Unidade da Federação,11,Rondônia,2000,2000,1000140,Pessoas de 10 anos ou mais de idade - percentual do total geral,0,Total,2,Percentual,100.00
3,Unidade da Federação,12,Acre,2000,2000,140,Pessoas de 10 anos ou mais de idade,0,Total,45,Pessoas,409508
3,Unidade da Federação,12,Acre,2000,2000,1000140,Pessoas de 10 anos ou mais de idade - percentual do total geral,0,Total,2,Percentual,100.00
3,Unidade da Federação,13,Amazonas,2000,2000,140,Pessoas de 10 anos ou mais de idade,0,Total,45,Pessoas,2057340
3,Unidade da Federação,13,Amazonas,2000,2000,1000140,Pessoas de 10 anos ou mais de idade - percentual do total geral,0,Total,2,Percentual,100.00
3,Unidade da Federação,14,Roraima,2000,2000,140,Pessoas de 10 anos ou mais de idade,0,Total,45,Pessoas,238380
3,Unidade da Federação,14,Roraima,2000,2000,1000140,Pessoas de 10 anos ou mais de idade - percentual do total geral,0,Total,2,Percentual,100.00
3,Unidade da Federação,15,Pará,2000,2000,140,Pessoas de 10 anos ou mais de idade,0,Total,45,Pessoas,4650076
3,Unidade da Federação,15,Pará,2000,2000,1000140,Pessoas de 10 anos ou mais de idade - percentual do total geral,0,Total,2,Percentual,100.00
3,Unidade da Federação,16,Amapá,2000,2000,140,Pessoas de 10 anos ou mais de idade,0,Total,45,Pessoas,347992
3,Unidade da Federação,16,Amapá,2000,2000,1000140,Pessoas de 10 anos ou mais de idade - percentual do total geral,0,Total,2,Percentual,100.00
3,Unidade da Federação,17,Tocantins,2000,2000,140,Pessoas de 10 anos ou mais de idade,0,Total,45,Pessoas,888649
3,Unidade da Federação,17,Tocantins,2000,2000,1000140,Pessoas de 10 anos ou mais de idade - percentual do total geral,0,Total,2,Percentual,100.00
3,Unidade da Federação,21,Maranhão,2000,2000,140,Pessoas de 10 anos ou mais de idade,0,Total,45,Pessoas,4282817
3,Unidade da Federação,21,Maranhão,2000,2000,1000140,Pessoas de 10 anos ou mais de idade - percentual do total geral,0,Total,2,Percentual,100.00
3,Unidade da Federação,22,Piauí,2000,2000,140,Pessoas de 10 anos ou mais de idade,0,Total,45,Pessoas,2238662
3,Unidade da Federação,22,Piauí,2000,2000,1000140,Pessoas de 10 anos ou mais de idade - percentual do total geral,0,Total,2,Percentual,100.00
3,Unidade da Federação,23,Ceará,2000,2000,140,Pessoas de 10 anos ou mais de idade,0,Total,45,Pessoas,5805366
3,Unidade da Federação,23,Ceará,2000,2000,1000140,Pessoas de 10 anos ou mais de idade - percentual do total geral,0,Total,2,Percentual,100.00
3,Unidade da Federação,24,Rio Grande do Norte,2000,2000,140,Pessoas de 10 anos ou mais de idade,0,Total,45,Pessoas,2213079
3,Unidade da Federação,24,Rio Grande do Norte,2000,2000,1000140,Pessoas de 10 anos ou mais de idade - percentual do total geral,0,Total,2,Percentual,100.00
3,Unidade da Federação,25,Paraíba,2000,2000,140,Pessoas de 10 anos ou mais de idade,0,Total,45,Pessoas,2750867
3,Unidade da Federação,25,Paraíba,2000,2000,1000140,Pessoas de 10 anos ou mais de idade - percentual do total geral,0,Total,2,Percentual,100.00
3,Unidade da Federação,26,Pernambuco,2000,2000,140,Pessoas de 10 anos ou mais de idade,0,Total,45,Pessoas,6326051
3,Unidade da Federação,26,Pernambuco,2000,2000,1000140,Pessoas de 10 anos ou mais de idade - percentual do total geral,0,Total,2,Percentual,100.00
3,Unidade da Federação,27,Alagoas,2000,2000,140,Pessoas de 10 anos ou mais de idade,0,Total,45,Pessoas,2166539
3,Unidade da Federação,27,Alagoas,2000,2000,1000140,Pessoas de 10 anos ou mais de idade - percentual do total geral,0,Total,2,Percentual,100.00
3,Unidade da Federação,28,Sergipe,2000,2000,140,Pessoas de 10 anos ou mais de idade,0,Total,45,Pessoas,1393236
3,Unidade da Federação,28,Sergipe,2000,2000,1000140,Pessoas de 10 anos ou mais de idade - percentual do total geral,0,Total,2,Percentual,100.00
3,Unidade da Federação,29,Bahia,2000,2000,140,Pessoas de 10 anos ou mais de idade,0,Total,45,Pessoas,10389119
3,Unidade da Federação,29,Bahia,2000,2000,1000140,Pessoas de 10 anos ou mais de idade - percentual do total geral,0,Total,2,Percentual,100.00
3,Unidade da Federação,31,Minas Gerais,2000,2000,140,Pessoas de 10 anos ou mais de idade,0,Total,45,Pessoas,14606291
3,Unidade da Federação,31,Minas Gerais,2000,2000,1000140,Pessoas de 10 anos ou mais de idade - percentual do total geral,0,Total,2,Percentual,100.00
3,Unidade da Federação,32,Espírito Santo,2000,2000,140,Pessoas de 10 anos ou mais de idade,0,Total,45,Pessoas,2524484
3,Unidade da Federação,32,Espírito Santo,2000,2000,1000140,Pessoas de 10 anos ou mais de idade - percentual do total geral,0,Total,2,Percentual,100.00
3,Unidade da Federação,33,Rio de Janeiro,2000,2000,140,Pessoas de 10 anos ou mais de idade,0,Total,45,Pessoas,11975390
3,Unidade da Federação,33,Rio de Janeiro,2000,2000,1000140,Pessoas de 10 anos ou mais de idade - percentual do total geral,0,Total,2,Percentual,100.00
3,Unidade da Federação,35,São Paulo,2000,2000,140,Pessoas de 10 anos ou mais de idade,0,Total,45,Pessoas,30673925
3,Unidade da Federação,35,São Paulo,2000,2000,1000140,Pessoas de 10 anos ou mais de idade - percentual do total geral,0,Total,2,Percentual,100.00
3,Unidade da Federação,41,Paraná,2000,2000,140,Pessoas de 10 anos ou mais de idade,0,Total,45,Pessoas,7753440
3,Unidade da Federação,41,Paraná,2000,2000,1000140,Pessoas de 10 anos ou mais de idade - percentual do total geral,0,Total,2,Percentual,100.00
3,Unidade da Federação,42,Santa Catarina,2000,2000,140,Pessoas de 10 anos ou mais de idade,0,Total,45,Pessoas,4374244
3,Unidade da Federação,42,Santa Catarina,2000,2000,1000140,Pessoas de 10 anos ou mais de idade - percentual do total geral,0,Total,2,Percentual,100.00
3,Unidade da Federação,43,Rio Grande do Sul,2000,2000,140,Pessoas de 10 anos ou mais de idade,0,Total,45,Pessoas,8445139
3,Unidade da Federação,43,Rio Grande do Sul,2000,2000,1000140,Pessoas de 10 anos ou mais de idade - percentual do total geral,0,Total,2,Percentual,100.00
3,Unidade da Federação,50,Mato Grosso do Sul,2000,2000,140,Pessoas de 10 anos ou mais de idade,0,Total,45,Pessoas,1658782
3,Unidade da Federação,50,Mato Grosso do Sul,2000,2000,1000140,Pessoas de 10 anos ou mais de idade - percentual do total geral,0,Total,2,Percentual,100.00
3,Unidade da Federação,51,Mato Grosso,2000,2000,140,Pessoas de 10 anos ou mais de idade,0,Total,45,Pessoas,1982014
3,Unidade da Federação,51,Mato Grosso,2000,2000,1000140,Pessoas de 10 anos ou mais de idade - percentual do total geral,0,Total,2,Percentual,100.00
3,Unidade da Federação,52,Goiás,2000,2000,140,Pessoas de 10 anos ou mais de idade,0,Total,45,Pessoas,4034219
3,Unidade da Federação,52,Goiás,2000,2000,1000140,Pessoas de 10 anos ou mais de idade - percentual do total geral,0,Total,2,Percentual,100.00
3,Unidade da Federação,53,Distrito Federal,2000,2000,140,Pessoas de 10 anos ou mais de idade,0,Total,45,Pessoas,1658731
3,Unidade da Federação,53,Distrito Federal,2000,2000,1000140,Pessoas de 10 anos ou mais de idade - percentual do total geral,0,Total,2,Percentual,100.00
