NC,NN,D1C,D1N,D2C,D2N,D3C,D3N,D4C,D4N,D5C,D5N,D6C,D6N,D7C,D7N,MC,MN,V
Nível Territorial (Código),Nível Territorial,Unidade da Federação (Código),Unidade da Federação,Ano (Código),Ano,Variável (Código),Variável,Situação do domicílio (Código),Situação do domicílio,Sexo (Código),Sexo,Alfabetização (Código),Alfabetização,Condição no domicílio e o compartilhamento da responsabilidade pelo domicílio (Código),Condição no domicílio e o compartilhamento da responsabilidade pelo domicílio,Unidade de Medida (Código),Unidade de Medida,Valor
3,Unidade da Federação,11,Rondônia,2010,2010,140,Pessoas de 10 anos ou mais de idade,0,Total,0,Total,0,Total,0,Total,45,Pessoas,1294647
3,Unidade da Federação,11,Rondônia,2010,2010,1000140,Pessoas de 10 anos ou mais de idade - percentual do total geral,0,Total,0,Total,0,Total,0,Total,2,Percentual,100.00
3,Unidade da Federação,12,Acre,2010,2010,140,Pessoas de 10 anos ou mais de idade,0,Total,0,Total,0,Total,0,Total,45,Pessoas,574036
3,Unidade da Federação,12,Acre,2010,2010,1000140,Pessoas de 10 anos ou mais de idade - percentual do total geral,0,Total,0,Total,0,Total,0,Total,2,Percentual,100.00
3,Unidade da Federação,13,Amazonas,2010,2010,140,Pessoas de 10 anos ou mais de idade,0,Total,0,Total,0,Total,0,Total,45,Pessoas,2728401
3,Unidade da Federação,13,Amazonas,2010,2010,1000140,Pessoas de 10 anos ou mais de idade - percentual do total geral,0,Total,0,Total,0,Total,0,Total,2,Percentual,100.00
3,Unidade da Federação,14,Roraima,2010,2010,140,Pessoas de 10 anos ou mais de idade,0,Total,0,Total,0,Total,0,Total,45,Pessoas,353509
3,Unidade da Federação,14,Roraima,2010,2010,1000140,Pessoas de 10 anos ou mais de idade - percentual do total geral,0,Total,0,Total,0,Total,0,Total,2,Percentual,100.00
3,Unidade da Federação,15,Pará,2010,2010,140,Pessoas de 10 anos ou mais de idade,0,Total,0,Total,0,Total,0,Total,45,Pessoas,6062818
3,Unidade da Federação,15,Pará,2010,2010,1000140,Pessoas de 10 anos ou mais de idade - percentual do total geral,0,Total,0,Total,0,Total,0,Total,2,Percentual,100.00
3,Unidade da Federação,16,Amapá,2010,2010,140,Pessoas de 10 anos ou mais de idade,0,Total,0,Total,0,Total,0,Total,45,Pessoas,526897
3,Unidade da Federação,16,Amapá,2010,2010,1000140,Pessoas de 10 anos ou mais de idade - percentual do total geral,0,Total,0,Total,0,Total,0,Total,2,Percentual,100.00
3,Unidade da Federação,17,Tocantins,2010,2010,140,Pessoas de 10 anos ou mais de idade,0,Total,0,Total,0,Total,0,Total,45,Pessoas,1129733
3,Unidade da Federação,17,Tocantins,2010,2010,1000140,Pessoas de 10 anos ou mais de idade - percentual do total geral,0,Total,0,Total,0,Total,0,Total,2,Percentual,100.00
3,Unidade da Federação,21,Maranhão,2010,2010,140,Pessoas de 10 anos ou mais de idade,0,Total,0,Total,0,Total,0,Total,45,Pessoas,5265740
3,Unidade da Federação,21,Maranhão,2010,2010,1000140,Pessoas de 10 anos ou mais de idade - percentual do total geral,0,Total,0,Total,0,Total,0,Total,2,Percentual,100.00
3,Unidade da Federação,22,Piauí,2010,2010,140,Pessoas de 10 anos ou mais de idade,0,Total,0,Total,0,Total,0,Total,45,Pessoas,2598238
3,Unidade da Federação,22,Piauí,2010,2010,1000140,Pessoas de 10 anos ou mais de idade - percentual do total geral,0,Total,0,Total,0,Total,0,Total,2,Percentual,100.00
3,Unidade da Federação,23,Ceará,2010,2010,140,Pessoas de 10 anos ou mais de idade,0,Total,0,Total,0,Total,0,Total,45,Pessoas,7111438
3,Unidade da Federação,23,Ceará,2010,2010,1000140,Pessoas de 10 anos ou mais de idade - percentual do total geral,0,Total,0,Total,0,Total,0,Total,2,Percentual,100.00
3,Unidade da Federação,24,Rio Grande do Norte,2010,2010,140,Pessoas de 10 anos ou mais de idade,0,Total,0,Total,0,Total,0,Total,45,Pessoas,2675748
3,Unidade da Federação,24,Rio Grande do Norte,2010,2010,1000140,Pessoas de 10 anos ou mais de idade - percentual do total geral,0,Total,0,Total,0,Total,0,Total,2,Percentual,100.00
3,Unidade da Federação,25,Paraíba,2010,2010,140,Pessoas de 10 anos ou mais de idade,0,Total,0,Total,0,Total,0,Total,45,Pessoas,3162340
3,Unidade da Federação,25,Paraíba,2010,2010,1000140,Pessoas de 10 anos ou mais de idade - percentual do total geral,0,Total,0,Total,0,Total,0,Total,2,Percentual,100.00
3,Unidade da Federação,26,Pernambuco,2010,2010,140,Pessoas de 10 anos ou mais de idade,0,Total,0,Total,0,Total,0,Total,45,Pessoas,7375210
3,Unidade da Federação,26,Pernambuco,2010,2010,1000140,Pessoas de 10 anos ou mais de idade - percentual do total geral,0,Total,0,Total,0,Total,0,Total,2,Percentual,100.00
3,Unidade da Federação,27,Alagoas,2010,2010,140,Pessoas de 10 anos ou mais de idade,0,Total,0,Total,0,Total,0,Total,45,Pessoas,2548296
3,Unidade da Federação,27,Alagoas,2010,2010,1000140,Pessoas de 10 anos ou mais de idade - percentual do total geral,0,Total,0,Total,0,Total,0,Total,2,Percentual,100.00
3,Unidade da Federação,28,Sergipe,2010,2010,140,Pessoas de 10 anos ou mais de idade,0,Total,0,Total,0,Total,0,Total,45,Pessoas,1719966
3,Unidade da Federação,28,Sergipe,2010,2010,1000140,Pessoas de 10 anos ou mais de idade - percentual do total geral,0,Total,0,Total,0,Total,0,Total,2,Percentual,100.00
3,Unidade da Federação,29,Bahia,2010,2010,140,Pessoas de 10 anos ou mais de idade,0,Total,0,Total,0,Total,0,Total,45,Pessoas,11766374
3,Unidade da Federação,29,Bahia,2010,2010,1000140,Pessoas de 10 anos ou mais de idade - percentual do total geral,0,Total,0,Total,0,Total,0,Total,2,Percentual,100.00
3,Unidade da Federação,31,Minas Gerais,2010,2010,140,Pessoas de 10 anos ou mais de idade,0,Total,0,Total,0,Total,0,Total,45,Pessoas,16891469
3,Unidade da Federação,31,Minas Gerais,2010,2010,1000140,Pessoas de 10 anos ou mais de idade - percentual do total geral,0,Total,0,Total,0,Total,0,Total,2,Percentual,100.00
3,Unidade da Federação,32,Espírito Santo,2010,2010,140,Pessoas de 10 anos ou mais de idade,0,Total,0,Total,0,Total,0,Total,45,Pessoas,3005616
3,Unidade da Federação,32,Espírito Santo,2010,2010,1000140,Pessoas de 10 anos ou mais de idade - percentual do total geral,0,Total,0,Total,0,Total,0,Total,2,Percentual,100.00
3,Unidade da Federação,33,Rio de Janeiro,2010,2010,140,Pessoas de 10 anos ou mais de idade,0,Total,0,Total,0,Total,0,Total,45,Pessoas,13909323
3,Unidade da Federação,33,Rio de Janeiro,2010,2010,1000140,Pessoas de 10 anos ou mais de idade - percentual do total geral,0,Total,0,Total,0,Total,0,Total,2,Percentual,100.00
3,Unidade da Federação,35,São Paulo,2010,2010,140,Pessoas de 10 anos ou mais de idade,0,Total,0,Total,0,Total,0,Total,45,Pessoas,35726194
3,Unidade da Federação,35,São Paulo,2010,2010,1000140,Pessoas de 10 anos ou mais de idade - percentual do total geral,0,Total,0,Total,0,Total,0,Total,2,Percentual,100.00
3,Unidade da Federação,41,Paraná,2010,2010,140,Pessoas de 10 anos ou mais de idade,0,Total,0,Total,0,Total,0,Total,45,Pessoas,8962097
3,Unidade da Federação,41,Paraná,2010,2010,1000140,Pessoas de 10 anos ou mais de idade - percentual do total geral,0,Total,0,Total,0,Total,0,Total,2,Percentual,100.00
3,Unidade da Federação,42,Santa Catarina,2010,2010,140,Pessoas de 10 anos ou mais de idade,0,Total,0,Total,0,Total,0,Total,45,Pessoas,5405906
3,Unidade da Federação,42,Santa Catarina,2010,2010,1000140,Pessoas de 10 anos ou mais de idade - percentual do total geral,0,Total,0,Total,0,Total,0,Total,2,Percentual,100.00
3,Unidade da Federação,43,Rio Grande do Sul,2010,2010,140,Pessoas de 10 anos ou mais de idade,0,Total,0,Total,0,Total,0,Total,45,Pessoas,9326208
3,Unidade da Federação,43,Rio Grande do Sul,2010,2010,1000140,Pessoas de 10 anos ou mais de idade - percentual do total geral,0,Total,0,Total,0,Total,0,Total,2,Percentual,100.00
3,Unidade da Federação,50,Mato Grosso do Sul,2010,2010,140,Pessoas de 10 anos ou mais de idade,0,Total,0,Total,0,Total,0,Total,45,Pessoas,2059399
3,Unidade da Federação,50,Mato Grosso do Sul,2010,2010,1000140,Pessoas de 10 anos ou mais de idade - percentual do total geral,0,Total,0,Total,0,Total,0,Total,2,Percentual,100.00
3,Unidade da Federação,51,Mato Grosso,2010,2010,140,Pessoas de 10 anos ou mais de idade,0,Total,0,Total,0,Total,0,Total,45,Pessoas,2537090
3,Unidade da Federação,51,Mato Grosso,2010,2010,1000140,Pessoas de 10 anos ou mais de idade - percentual do total geral,0,Total,0,Total,0,Total,0,Total,2,Percentual,100.00
3,Unidade da Federação,52,Goiás,2010,2010,140,Pessoas de 10 anos ou mais de idade,0,Total,0,Total,0,Total,0,Total,45,Pessoas,5093197
3,Unidade da Federação,52,Goiás,2010,2010,1000140,Pessoas de 10 anos ou mais de idade - percentual do total geral,0,Total,0,Total,0,Total,0,Total,2,Percentual,100.00
3,Unidade da Federação,53,Distrito Federal,2010,2010,140,Pessoas de 10 anos ou mais de idade,0,Total,0,Total,0,Total,0,Total,45,Pessoas,2180376
3,Unidade da Federação,53,Distrito Federal,2010,2010,1000140,Pessoas de 10 anos ou mais de idade - percentual do total geral,0,Total,0,Total,0,Total,0,Total,2,Percentual,100.00
