NC,NN,D1C,D1N,D2C,D2N,D3C,D3N,D4C,D4N,D5C,D5N,D6C,D6N,D7C,D7N,D8C,D8N,MC,MN,V
Nível Territorial (Código),Nível Territorial,Unidade da Federação (Código),Unidade da Federação,Ano (Código),Ano,Variável (Código),Variável,Situação do domicílio (Código),Situação do domicílio,Sexo (Código),Sexo,Grupo de idade (Código),Grupo de idade,Cor ou raça (Código),Cor ou raça,Frequência à creche ou escola (Código),Frequência à creche ou escola,Unidade de Medida (Código),Unidade de Medida,Valor
3,Unidade da Federação,11,Rondônia,2010,2010,93,População residente,0,Total,0,Total,0,Total,0,Total,0,Total,45,Pessoas,1562409
3,Unidade da Federação,11,Rondônia,2010,2010,1000093,População residente - percentual do total geral,0,Total,0,Total,0,Total,0,Total,0,Total,2,Percentual,100.00
3,Unidade da Federação,12,Acre,2010,2010,93,População residente,0,Total,0,Total,0,Total,0,Total,0,Total,45,Pessoas,733559
3,Unidade da Federação,12,Acre,2010,2010,1000093,População residente - percentual do total geral,0,Total,0,Total,0,Total,0,Total,0,Total,2,Percentual,100.00
3,Unidade da Federação,13,Amazonas,2010,2010,93,População residente,0,Total,0,Total,0,Total,0,Total,0,Total,45,Pessoas,3483985
3,Unidade da Federação,13,Amazonas,2010,2010,1000093,População residente - percentual do total geral,0,Total,0,Total,0,Total,0,Total,0,Total,2,Percentual,100.00
3,Unidade da Federação,14,Roraima,2010,2010,93,População residente,0,Total,0,Total,0,Total,0,Total,0,Total,45,Pessoas,450479
3,Unidade da Federação,14,Roraima,2010,2010,1000093,População residente - percentual do total geral,0,Total,0,Total,0,Total,0,Total,0,Total,2,Percentual,100.00
3,Unidade da Federação,15,Pará,2010,2010,93,População residente,0,Total,0,Total,0,Total,0,Total,0,Total,45,Pessoas,7581051
3,Unidade da Federação,15,Pará,2010,2010,1000093,População residente - percentual do total geral,0,Total,0,Total,0,Total,0,Total,0,Total,2,Percentual,100.00
3,Unidade da Federação,16,Amapá,2010,2010,93,População residente,0,Total,0,Total,0,Total,0,Total,0,Total,45,Pessoas,669526
3,Unidade da Federação,16,Amapá,2010,2010,1000093,População residente - percentual do total geral,0,Total,0,Total,0,Total,0,Total,0,Total,2,Percentual,100.00
3,Unidade da Federação,17,Tocantins,2010,2010,93,População residente,0,Total,0,Total,0,Total,0,Total,0,Total,45,Pessoas,1383445
3,Unidade da Federação,17,Tocantins,2010,2010,1000093,População residente - percentual do total geral,0,Total,0,Total,0,Total,0,Total,0,Total,2,Percentual,100.00
3,Unidade da Federação,21,Maranhão,2010,2010,93,População residente,0,Total,0,Total,0,Total,0,Total,0,Total,45,Pessoas,6574789
3,Unidade da Federação,21,Maranhão,2010,2010,1000093,População residente - percentual do total geral,0,Total,0,Total,0,Total,0,Total,0,Total,2,Percentual,100.00
3,Unidade da Federação,22,Piauí,2010,2010,93,População residente,0,Total,0,Total,0,Total,0,Total,0,Total,45,Pessoas,3118360
3,Unidade da Federação,22,Piauí,2010,2010,1000093,População residente - percentual do total geral,0,Total,0,Total,0,Total,0,Total,0,Total,2,Percentual,100.00
3,Unidade da Federação,23,Ceará,2010,2010,93,População residente,0,Total,0,Total,0,Total,0,Total,0,Total,45,Pessoas,8452381
3,Unidade da Federação,23,Ceará,2010,2010,1000093,População residente - percentual do total geral,0,Total,0,Total,0,Total,0,Total,0,Total,2,Percentual,100.00
3,Unidade da Federação,24,Rio Grande do Norte,2010,2010,93,População residente,0,Total,0,Total,0,Total,0,Total,0,Total,45,Pessoas,3168027
3,Unidade da Federação,24,Rio Grande do Norte,2010,2010,1000093,População residente - percentual do total geral,0,Total,0,Total,0,Total,0,Total,0,Total,2,Percentual,100.00
3,Unidade da Federação,25,Paraíba,2010,2010,93,População residente,0,Total,0,Total,0,Total,0,Total,0,Total,45,Pessoas,3766528
3,Unidade da Federação,25,Paraíba,2010,2010,1000093,População residente - percentual do total geral,0,Total,0,Total,0,Total,0,Total,0,Total,2,Percentual,100.00
3,Unidade da Federação,26,Pernambuco,2010,2010,93,População residente,0,Total,0,Total,0,Total,0,Total,0,Total,45,Pessoas,8796448
3,Unidade da Federação,26,Pernambuco,2010,2010,1000093,População residente - percentual do total geral,0,Total,0,Total,0,Total,0,Total,0,Total,2,Percentual,100.00
3,Unidade da Federação,27,Alagoas,2010,2010,93,População residente,0,Total,0,Total,0,Total,0,Total,0,Total,45,Pessoas,3120494
3,Unidade da Federação,27,Alagoas,2010,2010,1000093,População residente - percentual do total geral,0,Total,0,Total,0,Total,0,Total,0,Total,2,Percentual,100.00
3,Unidade da Federação,28,Sergipe,2010,2010,93,População residente,0,Total,0,Total,0,Total,0,Total,0,Total,45,Pessoas,2068017
3,Unidade da Federação,28,Sergipe,2010,2010,1000093,População residente - percentual do total geral,0,Total,0,Total,0,Total,0,Total,0,Total,2,Percentual,100.00
3,Unidade da Federação,29,Bahia,2010,2010,93,População residente,0,Total,0,Total,0,Total,0,Total,0,Total,45,Pessoas,14016906
3,Unidade da Federação,29,Bahia,2010,2010,1000093,População residente - percentual do total geral,0,Total,0,Total,0,Total,0,Total,0,Total,2,Percentual,100.00
3,Unidade da Federação,31,Minas Gerais,2010,2010,93,População residente,0,Total,0,Total,0,Total,0,Total,0,Total,45,Pessoas,19597330
3,Unidade da Federação,31,Minas Gerais,2010,2010,1000093,População residente - percentual do total geral,0,Total,0,Total,0,Total,0,Total,0,Total,2,Percentual,100.00
3,Unidade da Federação,32,Espírito Santo,2010,2010,93,População residente,0,Total,0,Total,0,Total,0,Total,0,Total,45,Pessoas,3514952
3,Unidade da Federação,32,Espírito Santo,2010,2010,1000093,População residente - percentual do total geral,0,Total,0,Total,0,Total,0,Total,0,Total,2,Percentual,100.00
3,Unidade da Federação,33,Rio de Janeiro,2010,2010,93,População residente,0,Total,0,Total,0,Total,0,Total,0,Total,45,Pessoas,15989929
3,Unidade da Federação,33,Rio de Janeiro,2010,2010,1000093,População residente - percentual do total geral,0,Total,0,Total,0,Total,0,Total,0,Total,2,Percentual,100.00
3,Unidade da Federação,35,São Paulo,2010,2010,93,População residente,0,Total,0,Total,0,Total,0,Total,0,Total,45,Pessoas,41262199
3,Unidade da Federação,35,São Paulo,2010,2010,1000093,População residente - percentual do total geral,0,Total,0,Total,0,Total,0,Total,0,Total,2,Percentual,100.00
3,Unidade da Federação,41,Paraná,2010,2010,93,População residente,0,Total,0,Total,0,Total,0,Total,0,Total,45,Pessoas,10444526
3,Unidade da Federação,41,Paraná,2010,2010,1000093,População residente - percentual do total geral,0,Total,0,Total,0,Total,0,Total,0,Total,2,Percentual,100.00
3,Unidade da Federação,42,Santa Catarina,2010,2010,93,População residente,0,Total,0,Total,0,Total,0,Total,0,Total,45,Pessoas,6248436
3,Unidade da Federação,42,Santa Catarina,2010,2010,1000093,População residente - percentual do total geral,0,Total,0,Total,0,Total,0,Total,0,Total,2,Percentual,100.00
3,Unidade da Federação,43,Rio Grande do Sul,2010,2010,93,População residente,0,Total,0,Total,0,Total,0,Total,0,Total,45,Pessoas,10693929
3,Unidade da Federação,43,Rio Grande do Sul,2010,2010,1000093,População residente - percentual do total geral,0,Total,0,Total,0,Total,0,Total,0,Total,2,Percentual,100.00
3,Unidade da Federação,50,Mato Grosso do Sul,2010,2010,93,População residente,0,Total,0,Total,0,Total,0,Total,0,Total,45,Pessoas,2449024
3,Unidade da Federação,50,Mato Grosso do Sul,2010,2010,1000093,População residente - percentual do total geral,0,Total,0,Total,0,Total,0,Total,0,Total,2,Percentual,100.00
3,Unidade da Federação,51,Mato Grosso,2010,2010,93,População residente,0,Total,0,Total,0,Total,0,Total,0,Total,45,Pessoas,3035122
3,Unidade da Federação,51,Mato Grosso,2010,2010,1000093,População residente - percentual do total geral,0,Total,0,Total,0,Total,0,Total,0,Total,2,Percentual,100.00
3,Unidade da Federação,52,Goiás,2010,2010,93,População residente,0,Total,0,Total,0,Total,0,Total,0,Total,45,Pessoas,6003788
3,Unidade da Federação,52,Goiás,2010,2010,1000093,População residente - percentual do total geral,0,Total,0,Total,0,Total,0,Total,0,Total,2,Percentual,100.00
3,Unidade da Federação,53,Distrito Federal,2010,2010,93,População residente,0,Total,0,Total,0,Total,0,Total,0,Total,45,Pessoas,2570160
3,Unidade da Federação,53,Distrito Federal,2010,2010,1000093,População residente - percentual do total geral,0,Total,0,Total,0,Total,0,Total,0,Total,2,Percentual,100.00
