NC,NN,D1C,D1N,D2C,D2N,D3C,D3N,D4C,D4N,D5C,D5N,D6C,D6N,MC,MN,V
Nível Territorial (Código),Nível Territorial,Unidade da Federação (Código),Unidade da Federação,Ano (Código),Ano,Variável (Código),Variável,Sexo (Código),Sexo,Nível de instrução mais elevado concluído (Código),Nível de instrução mais elevado concluído,"Áreas gerais, específicas e detalhadas de formação do curso de nível mais elevado concluído (Código)","Áreas gerais, específicas e detalhadas de formação do curso de nível mais elevado concluído",Unidade de Medida (Código),Unidade de Medida,Valor
3,Unidade da Federação,11,Rondônia,2010,2010,1920,Pessoas com pelo menos nível superior de graduação concluído,0,Total,0,Total,0,Total,45,Pessoas,73403
3,Unidade da Federação,11,Rondônia,2010,2010,1001920,Pessoas com pelo menos nível superior de graduação concluído - percentual do total geral,0,Total,0,Total,0,Total,2,Percentual,100.00
3,Unidade da Federação,12,Acre,2010,2010,1920,Pessoas com pelo menos nível superior de graduação concluído,0,Total,0,Total,0,Total,45,Pessoas,33550
3,Unidade da Federação,12,Acre,2010,2010,1001920,Pessoas com pelo menos nível superior de graduação concluído - percentual do total geral,0,Total,0,Total,0,Total,2,Percentual,100.00
3,Unidade da Federação,13,Amazonas,2010,2010,1920,Pessoas com pelo menos nível superior de graduação concluído,0,Total,0,Total,0,Total,45,Pessoas,144851
3,Unidade da Federação,13,Amazonas,2010,2010,1001920,Pessoas com pelo menos nível superior de graduação concluído - percentual do total geral,0,Total,0,Total,0,Total,2,Percentual,100.00
3,Unidade da Federação,14,Roraima,2010,2010,1920,Pessoas com pelo menos nível superior de graduação concluído,0,Total,0,Total,0,Total,45,Pessoas,23633
3,Unidade da Federação,14,Roraima,2010,2010,1001920,Pessoas com pelo menos nível superior de graduação concluído - percentual do total geral,0,Total,0,Total,0,Total,2,Percentual,100.00
3,Unidade da Federação,15,Pará,2010,2010,1920,Pessoas com pelo menos nível superior de graduação concluído,0,Total,0,Total,0,Total,45,Pessoas,247457
3,Unidade da Federação,15,Pará,2010,2010,1001920,Pessoas com pelo menos nível superior de graduação concluído - percentual do total geral,0,Total,0,Total,0,Total,2,Percentual,100.00
3,Unidade da Federação,16,Amapá,2010,2010,1920,Pessoas com pelo menos nível superior de graduação concluído,0,Total,0,Total,0,Total,45,Pessoas,36636
3,Unidade da Federação,16,Amapá,2010,2010,1001920,Pessoas com pelo menos nível superior de graduação concluído - percentual do total geral,0,Total,0,Total,0,Total,2,Percentual,100.00
3,Unidade da Federação,17,Tocantins,2010,2010,1920,Pessoas com pelo menos nível superior de graduação concluído,0,Total,0,Total,0,Total,45,Pessoas,79952
3,Unidade da Federação,17,Tocantins,2010,2010,1001920,Pessoas com pelo menos nível superior de graduação concluído - percentual do total geral,0,Total,0,Total,0,Total,2,Percentual,100.00
3,Unidade da Federação,21,Maranhão,2010,2010,1920,Pessoas com pelo menos nível superior de graduação concluído,0,Total,0,Total,0,Total,45,Pessoas,189918
3,Unidade da Federação,21,Maranhão,2010,2010,1001920,Pessoas com pelo menos nível superior de graduação concluído - percentual do total geral,0,Total,0,Total,0,Total,2,Percentual,100.00
3,Unidade da Federação,22,Piauí,2010,2010,1920,Pessoas com pelo menos nível superior de graduação concluído,0,Total,0,Total,0,Total,45,Pessoas,132757
3,Unidade da Federação,22,Piauí,2010,2010,1001920,Pessoas com pelo menos nível superior de graduação concluído - percentual do total geral,0,Total,0,Total,0,Total,2,Percentual,100.00
3,Unidade da Federação,23,Ceará,2010,2010,1920,Pessoas com pelo menos nível superior de graduação concluído,0,Total,0,Total,0,Total,45,Pessoas,352253
3,Unidade da Federação,23,Ceará,2010,2010,1001920,Pessoas com pelo menos nível superior de graduação concluído - percentual do total geral,0,Total,0,Total,0,Total,2,Percentual,100.00
3,Unidade da Federação,24,Rio Grande do Norte,2010,2010,1920,Pessoas com pelo menos nível superior de graduação concluído,0,Total,0,Total,0,Total,45,Pessoas,158057
3,Unidade da Federação,24,Rio Grande do Norte,2010,2010,1001920,Pessoas com pelo menos nível superior de graduação concluído - percentual do total geral,0,Total,0,Total,0,Total,2,Percentual,100.00
3,Unidade da Federação,25,Paraíba,2010,2010,1920,Pessoas com pelo menos nível superior de graduação concluído,0,Total,0,Total,0,Total,45,Pessoas,180958
3,Unidade da Federação,25,Paraíba,2010,2010,1001920,Pessoas com pelo menos nível superior de graduação concluído - percentual do total geral,0,Total,0,Total,0,Total,2,Percentual,100.00
3,Unidade da Federação,26,Pernambuco,2010,2010,1920,Pessoas com pelo menos nível superior de graduação concluído,0,Total,0,Total,0,Total,45,Pessoas,418856
3,Unidade da Federação,26,Pernambuco,2010,2010,1001920,Pessoas com pelo menos nível superior de graduação concluído - percentual do total geral,0,Total,0,Total,0,Total,2,Percentual,100.00
3,Unidade da Federação,27,Alagoas,2010,2010,1920,Pessoas com pelo menos nível superior de graduação concluído,0,Total,0,Total,0,Total,45,Pessoas,118733
3,Unidade da Federação,27,Alagoas,2010,2010,1001920,Pessoas com pelo menos nível superior de graduação concluído - percentual do total geral,0,Total,0,Total,0,Total,2,Percentual,100.00
3,Unidade da Federação,28,Sergipe,2010,2010,1920,Pessoas com pelo menos nível superior de graduação concluído,0,Total,0,Total,0,Total,45,Pessoas,102394
3,Unidade da Federação,28,Sergipe,2010,2010,1001920,Pessoas com pelo menos nível superior de graduação concluído - percentual do total geral,0,Total,0,Total,0,Total,2,Percentual,100.00
3,Unidade da Federação,29,Bahia,2010,2010,1920,Pessoas com pelo menos nível superior de graduação concluído,0,Total,0,Total,0,Total,45,Pessoas,532492
3,Unidade da Federação,29,Bahia,2010,2010,1001920,Pessoas com pelo menos nível superior de graduação concluído - percentual do total geral,0,Total,0,Total,0,Total,2,Percentual,100.00
3,Unidade da Federação,31,Minas Gerais,2010,2010,1920,Pessoas com pelo menos nível superior de graduação concluído,0,Total,0,Total,0,Total,45,Pessoas,1342285
3,Unidade da Federação,31,Minas Gerais,2010,2010,1001920,Pessoas com pelo menos nível superior de graduação concluído - percentual do total geral,0,Total,0,Total,0,Total,2,Percentual,100.00
3,Unidade da Federação,32,Espírito Santo,2010,2010,1920,Pessoas com pelo menos nível superior de graduação concluído,0,Total,0,Total,0,Total,45,Pessoas,250877
3,Unidade da Federação,32,Espírito Santo,2010,2010,1001920,Pessoas com pelo menos nível superior de graduação concluído - percentual do total geral,0,Total,0,Total,0,Total,2,Percentual,100.00
3,Unidade da Federação,33,Rio de Janeiro,2010,2010,1920,Pessoas com pelo menos nível superior de graduação concluído,0,Total,0,Total,0,Total,45,Pessoas,1516460
3,Unidade da Federação,33,Rio de Janeiro,2010,2010,1001920,Pessoas com pelo menos nível superior de graduação concluído - percentual do total geral,0,Total,0,Total,0,Total,2,Percentual,100.00
3,Unidade da Federação,35,São Paulo,2010,2010,1920,Pessoas com pelo menos nível superior de graduação concluído,0,Total,0,Total,0,Total,45,Pessoas,4171221
3,Unidade da Federação,35,São Paulo,2010,2010,1001920,Pessoas com pelo menos nível superior de graduação concluído - percentual do total geral,0,Total,0,Total,0,Total,2,Percentual,100.00
3,Unidade da Federação,41,Paraná,2010,2010,1920,Pessoas com pelo menos nível superior de graduação concluído,0,Total,0,Total,0,Total,45,Pessoas,869660
3,Unidade da Federação,41,Paraná,2010,2010,1001920,Pessoas com pelo menos nível superior de graduação concluído - percentual do total geral,0,Total,0,Total,0,Total,2,Percentual,100.00
3,Unidade da Federação,42,Santa Catarina,2010,2010,1920,Pessoas com pelo menos nível superior de graduação concluído,0,Total,0,Total,0,Total,45,Pessoas,524209
3,Unidade da Federação,42,Santa Catarina,2010,2010,1001920,Pessoas com pelo menos nível superior de graduação concluído - percentual do total geral,0,Total,0,Total,0,Total,2,Percentual,100.00
3,Unidade da Federação,43,Rio Grande do Sul,2010,2010,1920,Pessoas com pelo menos nível superior de graduação concluído,0,Total,0,Total,0,Total,45,Pessoas,808062
3,Unidade da Federação,43,Rio Grande do Sul,2010,2010,1001920,Pessoas com pelo menos nível superior de graduação concluído - percentual do total geral,0,Total,0,Total,0,Total,2,Percentual,100.00
3,Unidade da Federação,50,Mato Grosso do Sul,2010,2010,1920,Pessoas com pelo menos nível superior de graduação concluído,0,Total,0,Total,0,Total,45,Pessoas,182633
3,Unidade da Federação,50,Mato Grosso do Sul,2010,2010,1001920,Pessoas com pelo menos nível superior de graduação concluído - percentual do total geral,0,Total,0,Total,0,Total,2,Percentual,100.00
3,Unidade da Federação,51,Mato Grosso,2010,2010,1920,Pessoas com pelo menos nível superior de graduação concluído,0,Total,0,Total,0,Total,45,Pessoas,195040
3,Unidade da Federação,51,Mato Grosso,2010,2010,1001920,Pessoas com pelo menos nível superior de graduação concluído - percentual do total geral,0,Total,0,Total,0,Total,2,Percentual,100.00
3,Unidade da Federação,52,Goiás,2010,2010,1920,Pessoas com pelo menos nível superior de graduação concluído,0,Total,0,Total,0,Total,45,Pessoas,394491
3,Unidade da Federação,52,Goiás,2010,2010,1001920,Pessoas com pelo menos nível superior de graduação concluído - percentual do total geral,0,Total,0,Total,0,Total,2,Percentual,100.00
3,Unidade da Federação,53,Distrito Federal,2010,2010,1920,Pessoas com pelo menos nível superior de graduação concluído,0,Total,0,Total,0,Total,45,Pessoas,382917
3,Unidade da Federação,53,Distrito Federal,2010,2010,1001920,Pessoas com pelo menos nível superior de graduação concluído - percentual do total geral,0,Total,0,Total,0,Total,2,Percentual,100.00
