NC,NN,D1C,D1N,D2C,D2N,D3C,D3N,D4C,D4N,D5C,D5N,MC,MN,V
Nível Territorial (Código),Nível Territorial,Unidade da Federação (Código),Unidade da Federação,Ano (Código),Ano,Variável (Código),Variável,Sexo (Código),Sexo,Nível de instrução (Código),Nível de instrução,Unidade de Medida (Código),Unidade de Medida,Valor
3,Unidade da Federação,11,Rondônia,2010,2010,1643,Pessoas de 25 anos ou mais de idade,0,Total,0,Total,45,Pessoas,831875
3,Unidade da Federação,11,Rondônia,2010,2010,1001643,Pessoas de 25 anos ou mais de idade - percentual do total geral,0,Total,0,Total,2,Percentual,100.00
3,Unidade da Federação,12,Acre,2010,2010,1643,Pessoas de 25 anos ou mais de idade,0,Total,0,Total,45,Pessoas,338884
3,Unidade da Federação,12,Acre,2010,2010,1001643,Pessoas de 25 anos ou mais de idade - percentual do total geral,0,Total,0,Total,2,Percentual,100.00
3,Unidade da Federação,13,Amazonas,2010,2010,1643,Pessoas de 25 anos ou mais de idade,0,Total,0,Total,45,Pessoas,1623439
3,Unidade da Federação,13,Amazonas,2010,2010,1001643,Pessoas de 25 anos ou mais de idade - percentual do total geral,0,Total,0,Total,2,Percentual,100.00
3,Unidade da Federação,14,Roraima,2010,2010,1643,Pessoas de 25 anos ou mais de idade,0,Total,0,Total,45,Pessoas,210997
3,Unidade da Federação,14,Roraima,2010,2010,1001643,Pessoas de 25 anos ou mais de idade - percentual do total geral,0,Total,0,Total,2,Percentual,100.00
3,Unidade da Federação,15,Pará,2010,2010,1643,Pessoas de 25 anos ou mais de idade,0,Total,0,Total,45,Pessoas,3689490
3,Unidade da Federação,15,Pará,2010,2010,1001643,Pessoas de 25 anos ou mais de idade - percentual do total geral,0,Total,0,Total,2,Percentual,100.00
3,Unidade da Federação,16,Amapá,2010,2010,1643,Pessoas de 25 anos ou mais de idade,0,Total,0,Total,45,Pessoas,306119
3,Unidade da Federação,16,Amapá,2010,2010,1001643,Pessoas de 25 anos ou mais de idade - percentual do total geral,0,Total,0,Total,2,Percentual,100.00
3,Unidade da Federação,17,Tocantins,2010,2010,1643,Pessoas de 25 anos ou mais de idade,0,Total,0,Total,45,Pessoas,714310
3,Unidade da Federação,17,Tocantins,2010,2010,1001643,Pessoas de 25 anos ou mais de idade - percentual do total geral,0,Total,0,Total,2,Percentual,100.00
3,Unidade da Federação,21,Maranhão,2010,2010,1643,Pessoas de 25 anos ou mais de idade,0,Total,0,Total,45,Pessoas,3200924
3,Unidade da Federação,21,Maranhão,2010,2010,1001643,Pessoas de 25 anos ou mais de idade - percentual do total geral,0,Total,0,Total,2,Percentual,100.00
3,Unidade da Federação,22,Piauí,2010,2010,1643,Pessoas de 25 anos ou mais de idade,0,Total,0,Total,45,Pessoas,1684629
3,Unidade da Federação,22,Piauí,2010,2010,1001643,Pessoas de 25 anos ou mais de idade - percentual do total geral,0,Total,0,Total,2,Percentual,100.00
3,Unidade da Federação,23,Ceará,2010,2010,1643,Pessoas de 25 anos ou mais de idade,0,Total,0,Total,45,Pessoas,4594325
3,Unidade da Federação,23,Ceará,2010,2010,1001643,Pessoas de 25 anos ou mais de idade - percentual do total geral,0,Total,0,Total,2,Percentual,100.00
3,Unidade da Federação,24,Rio Grande do Norte,2010,2010,1643,Pessoas de 25 anos ou mais de idade,0,Total,0,Total,45,Pessoas,1775976
3,Unidade da Federação,24,Rio Grande do Norte,2010,2010,1001643,Pessoas de 25 anos ou mais de idade - percentual do total geral,0,Total,0,Total,2,Percentual,100.00
3,Unidade da Federação,25,Paraíba,2010,2010,1643,Pessoas de 25 anos ou mais de idade,0,Total,0,Total,45,Pessoas,2113659
3,Unidade da Federação,25,Paraíba,2010,2010,1001643,Pessoas de 25 anos ou mais de idade - percentual do total geral,0,Total,0,Total,2,Percentual,100.00
3,Unidade da Federação,26,Pernambuco,2010,2010,1643,Pessoas de 25 anos ou mais de idade,0,Total,0,Total,45,Pessoas,4907623
3,Unidade da Federação,26,Pernambuco,2010,2010,1001643,Pessoas de 25 anos ou mais de idade - percentual do total geral,0,Total,0,Total,2,Percentual,100.00
3,Unidade da Federação,27,Alagoas,2010,2010,1643,Pessoas de 25 anos ou mais de idade,0,Total,0,Total,45,Pessoas,1607189
3,Unidade da Federação,27,Alagoas,2010,2010,1001643,Pessoas de 25 anos ou mais de idade - percentual do total geral,0,Total,0,Total,2,Percentual,100.00
3,Unidade da Federação,28,Sergipe,2010,2010,1643,Pessoas de 25 anos ou mais de idade,0,Total,0,Total,45,Pessoas,1109026
3,Unidade da Federação,28,Sergipe,2010,2010,1001643,Pessoas de 25 anos ou mais de idade - percentual do total geral,0,Total,0,Total,2,Percentual,100.00
3,Unidade da Federação,29,Bahia,2010,2010,1643,Pessoas de 25 anos ou mais de idade,0,Total,0,Total,45,Pessoas,7794520
3,Unidade da Federação,29,Bahia,2010,2010,1001643,Pessoas de 25 anos ou mais de idade - percentual do total geral,0,Total,0,Total,2,Percentual,100.00
3,Unidade da Federação,31,Minas Gerais,2010,2010,1643,Pessoas de 25 anos ou mais de idade,0,Total,0,Total,45,Pessoas,11751370
3,Unidade da Federação,31,Minas Gerais,2010,2010,1001643,Pessoas de 25 anos ou mais de idade - percentual do total geral,0,Total,0,Total,2,Percentual,100.00
3,Unidade da Federação,32,Espírito Santo,2010,2010,1643,Pessoas de 25 anos ou mais de idade,0,Total,0,Total,45,Pessoas,2078588
3,Unidade da Federação,32,Espírito Santo,2010,2010,1001643,Pessoas de 25 anos ou mais de idade - percentual do total geral,0,Total,0,Total,2,Percentual,100.00
3,Unidade da Federação,33,Rio de Janeiro,2010,2010,1643,Pessoas de 25 anos ou mais de idade,0,Total,0,Total,45,Pessoas,10030080
3,Unidade da Federação,33,Rio de Janeiro,2010,2010,1001643,Pessoas de 25 anos ou mais de idade - percentual do total geral,0,Total,0,Total,2,Percentual,100.00
3,Unidade da Federação,35,São Paulo,2010,2010,1643,Pessoas de 25 anos ou mais de idade,0,Total,0,Total,45,Pessoas,25457980
3,Unidade da Federação,35,São Paulo,2010,2010,1001643,Pessoas de 25 anos ou mais de idade - percentual do total geral,0,Total,0,Total,2,Percentual,100.00
3,Unidade da Federação,41,Paraná,2010,2010,1643,Pessoas de 25 anos ou mais de idade,0,Total,0,Total,45,Pessoas,6224290
3,Unidade da Federação,41,Paraná,2010,2010,1001643,Pessoas de 25 anos ou mais de idade - percentual do total geral,0,Total,0,Total,2,Percentual,100.00
3,Unidade da Federação,42,Santa Catarina,2010,2010,1643,Pessoas de 25 anos ou mais de idade,0,Total,0,Total,45,Pessoas,3774314
3,Unidade da Federação,42,Santa Catarina,2010,2010,1001643,Pessoas de 25 anos ou mais de idade - percentual do total geral,0,Total,0,Total,2,Percentual,100.00
3,Unidade da Federação,43,Rio Grande do Sul,2010,2010,1643,Pessoas de 25 anos ou mais de idade,0,Total,0,Total,45,Pessoas,6719221
3,Unidade da Federação,43,Rio Grande do Sul,2010,2010,1001643,Pessoas de 25 anos ou mais de idade - percentual do total geral,0,Total,0,Total,2,Percentual,100.00
3,Unidade da Federação,50,Mato Grosso do Sul,2010,2010,1643,Pessoas de 25 anos ou mais de idade,0,Total,0,Total,45,Pessoas,1391714
3,Unidade da Federação,50,Mato Grosso do Sul,2010,2010,1001643,Pessoas de 25 anos ou mais de idade - percentual do total geral,0,Total,0,Total,2,Percentual,100.00
3,Unidade da Federação,51,Mato Grosso,2010,2010,1643,Pessoas de 25 anos ou mais de idade,0,Total,0,Total,45,Pessoas,1685847
3,Unidade da Federação,51,Mato Grosso,2010,2010,1001643,Pessoas de 25 anos ou mais de idade - percentual do total geral,0,Total,0,Total,2,Percentual,100.00
3,Unidade da Federação,52,Goiás,2010,2010,1643,Pessoas de 25 anos ou mais de idade,0,Total,0,Total,45,Pessoas,3474013
3,Unidade da Federação,52,Goiás,2010,2010,1001643,Pessoas de 25 anos ou mais de idade - percentual do total geral,0,Total,0,Total,2,Percentual,100.00
3,Unidade da Federação,53,Distrito Federal,2010,2010,1643,Pessoas de 25 anos ou mais de idade,0,Total,0,Total,45,Pessoas,1496112
3,Unidade da Federação,53,Distrito Federal,2010,2010,1001643,Pessoas de 25 anos ou mais de idade - percentual do total geral,0,Total,0,Total,2,Percentual,100.00
