NC,NN,D1C,D1N,D2C,D2N,D3C,D3N,D4C,D4N,D5C,D5N,D6C,D6N,MC,MN,V
Nível Territorial (Código),Nível Territorial,Unidade da Federação (Código),Unidade da Federação,Ano (Código),Ano,Variável (Código),Variável,Situação do domicílio (Código),Situação do domicílio,Sexo (Código),Sexo,Alfabetização (Código),Alfabetização,Unidade de Medida (Código),Unidade de Medida,Valor
3,Unidade da Federação,11,Rondônia,2010,2010,140,Pessoas de 10 anos ou mais de idade,6795,Total,6794,Total,93024,Total,45,Pessoas,1294647
3,Unidade da Federação,11,Rondônia,2010,2010,1000140,Pessoas de 10 anos ou mais de idade - percentual do total geral,6795,Total,6794,Total,93024,Total,2,Percentual,100.00
3,Unidade da Federação,11,Rondônia,2010,2010,841,"Pessoas de 10 anos ou mais de idade, com rendimento",6795,Total,6794,Total,93024,Total,45,Pessoas,790053
3,Unidade da Federação,11,Rondônia,2010,2010,1000841,"Pessoas de 10 anos ou mais de idade, com rendimento - percentual do total geral",6795,Total,6794,Total,93024,Total,2,Percentual,100.00
3,Unidade da Federação,11,Rondônia,2010,2010,58,Valor do rendimento nominal médio mensal das pessoas de 10 anos ou mais de idade,6795,Total,6794,Total,93024,Total,38,Reais,656.03
3,Unidade da Federação,11,Rondônia,2010,2010,842,"Valor do rendimento nominal médio mensal das pessoas de 10 anos ou mais de idade, com rendimento",6795,Total,6794,Total,93024,Total,38,Reais,1075.03
3,Unidade da Federação,11,Rondônia,2010,2010,71,Valor do rendimento nominal mediano mensal das pessoas de 10 anos ou mais de idade,6795,Total,6794,Total,93024,Total,38,Reais,500.00
3,Unidade da Federação,11,Rondônia,2010,2010,843,"Valor do rendimento nominal mediano mensal das pessoas de 10 anos ou mais de idade, com rendimento",6795,Total,6794,Total,93024,Total,38,Reais,600.00
3,Unidade da Federação,12,Acre,2010,2010,140,Pessoas de 10 anos ou mais de idade,6795,Total,6794,Total,93024,Total,45,Pessoas,574036
3,Unidade da Federação,12,Acre,2010,2010,1000140,Pessoas de 10 anos ou mais de idade - percentual do total geral,6795,Total,6794,Total,93024,Total,2,Percentual,100.00
3,Unidade da Federação,12,Acre,2010,2010,841,"Pessoas de 10 anos ou mais de idade, com rendimento",6795,Total,6794,Total,93024,Total,45,Pessoas,313579
3,Unidade da Federação,12,Acre,2010,2010,1000841,"Pessoas de 10 anos ou mais de idade, com rendimento - percentual do total geral",6795,Total,6794,Total,93024,Total,2,Percentual,100.00
3,Unidade da Federação,12,Acre,2010,2010,58,Valor do rendimento nominal médio mensal das pessoas de 10 anos ou mais de idade,6795,Total,6794,Total,93024,Total,38,Reais,555.00
3,Unidade da Federação,12,Acre,2010,2010,842,"Valor do rendimento nominal médio mensal das pessoas de 10 anos ou mais de idade, com rendimento",6795,Total,6794,Total,93024,Total,38,Reais,1015.98
3,Unidade da Federação,12,Acre,2010,2010,71,Valor do rendimento nominal mediano mensal das pessoas de 10 anos ou mais de idade,6795,Total,6794,Total,93024,Total,38,Reais,135.00
3,Unidade da Federação,12,Acre,2010,2010,843,"Valor do rendimento nominal mediano mensal das pessoas de 10 anos ou mais de idade, com rendimento",6795,Total,6794,Total,93024,Total,38,Reais,510.00
3,Unidade da Federação,13,Amazonas,2010,2010,140,Pessoas de 10 anos ou mais de idade,6795,Total,6794,Total,93024,Total,45,Pessoas,2728401
3,Unidade da Federação,13,Amazonas,2010,2010,1000140,Pessoas de 10 anos ou mais de idade - percentual do total geral,6795,Total,6794,Total,93024,Total,2,Percentual,100.00
3,Unidade da Federação,13,Amazonas,2010,2010,841,"Pessoas de 10 anos ou mais de idade, com rendimento",6795,Total,6794,Total,93024,Total,45,Pessoas,1413418
3,Unidade da Federação,13,Amazonas,2010,2010,1000841,"Pessoas de 10 anos ou mais de idade, com rendimento - percentual do total geral",6795,Total,6794,Total,93024,Total,2,Percentual,100.00
3,Unidade da Federação,13,Amazonas,2010,2010,58,Valor do rendimento nominal médio mensal das pessoas de 10 anos ou mais de idade,6795,Total,6794,Total,93024,Total,38,Reais,539.23
3,Unidade da Federação,13,Amazonas,2010,2010,842,"Valor do rendimento nominal médio mensal das pessoas de 10 anos ou mais de idade, com rendimento",6795,Total,6794,Total,93024,Total,38,Reais,1040.90
3,Unidade da Federação,13,Amazonas,2010,2010,71,Valor do rendimento nominal mediano mensal das pessoas de 10 anos ou mais de idade,6795,Total,6794,Total,93024,Total,38,Reais,95.00
3,Unidade da Federação,13,Amazonas,2010,2010,843,"Valor do rendimento nominal mediano mensal das pessoas de 10 anos ou mais de idade, com rendimento",6795,Total,6794,Total,93024,Total,38,Reais,510.00
3,Unidade da Federação,14,Roraima,2010,2010,140,Pessoas de 10 anos ou mais de idade,6795,Total,6794,Total,93024,Total,45,Pessoas,353509
3,Unidade da Federação,14,Roraima,2010,2010,1000140,Pessoas de 10 anos ou mais de idade - percentual do total geral,6795,Total,6794,Total,93024,Total,2,Percentual,100.00
3,Unidade da Federação,14,Roraima,2010,2010,841,"Pessoas de 10 anos ou mais de idade, com rendimento",6795,Total,6794,Total,93024,Total,45,Pessoas,191562
3,Unidade da Federação,14,Roraima,2010,2010,1000841,"Pessoas de 10 anos ou mais de idade, com rendimento - percentual do total geral",6795,Total,6794,Total,93024,Total,2,Percentual,100.00
3,Unidade da Federação,14,Roraima,2010,2010,58,Valor do rendimento nominal médio mensal das pessoas de 10 anos ou mais de idade,6795,Total,6794,Total,93024,Total,38,Reais,634.11
3,Unidade da Federação,14,Roraima,2010,2010,842,"Valor do rendimento nominal médio mensal das pessoas de 10 anos ou mais de idade, com rendimento",6795,Total,6794,Total,93024,Total,38,Reais,1170.19
3,Unidade da Federação,14,Roraima,2010,2010,71,Valor do rendimento nominal mediano mensal das pessoas de 10 anos ou mais de idade,6795,Total,6794,Total,93024,Total,38,Reais,200.00
3,Unidade da Federação,14,Roraima,2010,2010,843,"Valor do rendimento nominal mediano mensal das pessoas de 10 anos ou mais de idade, com rendimento",6795,Total,6794,Total,93024,Total,38,Reais,510.00
3,Unidade da Federação,15,Pará,2010,2010,140,Pessoas de 10 anos ou mais de idade,6795,Total,6794,Total,93024,Total,45,Pessoas,6062818
3,Unidade da Federação,15,Pará,2010,2010,1000140,Pessoas de 10 anos ou mais de idade - percentual do total geral,6795,Total,6794,Total,93024,Total,2,Percentual,100.00
3,Unidade da Federação,15,Pará,2010,2010,841,"Pessoas de 10 anos ou mais de idade, com rendimento",6795,Total,6794,Total,93024,Total,45,Pessoas,3230637
3,Unidade da Federação,15,Pará,2010,2010,1000841,"Pessoas de 10 anos ou mais de idade, com rendimento - percentual do total geral",6795,Total,6794,Total,93024,Total,2,Percentual,100.00
3,Unidade da Federação,15,Pará,2010,2010,58,Valor do rendimento nominal médio mensal das pessoas de 10 anos ou mais de idade,6795,Total,6794,Total,93024,Total,38,Reais,449.51
3,Unidade da Federação,15,Pará,2010,2010,842,"Valor do rendimento nominal médio mensal das pessoas de 10 anos ou mais de idade, com rendimento",6795,Total,6794,Total,93024,Total,38,Reais,843.57
3,Unidade da Federação,15,Pará,2010,2010,71,Valor do rendimento nominal mediano mensal das pessoas de 10 anos ou mais de idade,6795,Total,6794,Total,93024,Total,38,Reais,100.00
3,Unidade da Federação,15,Pará,2010,2010,843,"Valor do rendimento nominal mediano mensal das pessoas de 10 anos ou mais de idade, com rendimento",6795,Total,6794,Total,93024,Total,38,Reais,510.00
3,Unidade da Federação,16,Amapá,2010,2010,140,Pessoas de 10 anos ou mais de idade,6795,Total,6794,Total,93024,Total,45,Pessoas,526897
3,Unidade da Federação,16,Amapá,2010,2010,1000140,Pessoas de 10 anos ou mais de idade - percentual do total geral,6795,Total,6794,Total,93024,Total,2,Percentual,100.00
3,Unidade da Federação,16,Amapá,2010,2010,841,"Pessoas de 10 anos ou mais de idade, com rendimento",6795,Total,6794,Total,93024,Total,45,Pessoas,287632
3,Unidade da Federação,16,Amapá,2010,2010,1000841,"Pessoas de 10 anos ou mais de idade, com rendimento - percentual do total geral",6795,Total,6794,Total,93024,Total,2,Percentual,100.00
3,Unidade da Federação,16,Amapá,2010,2010,58,Valor do rendimento nominal médio mensal das pessoas de 10 anos ou mais de idade,6795,Total,6794,Total,93024,Total,38,Reais,637.47
3,Unidade da Federação,16,Amapá,2010,2010,842,"Valor do rendimento nominal médio mensal das pessoas de 10 anos ou mais de idade, com rendimento",6795,Total,6794,Total,93024,Total,38,Reais,1167.74
3,Unidade da Federação,16,Amapá,2010,2010,71,Valor do rendimento nominal mediano mensal das pessoas de 10 anos ou mais de idade,6795,Total,6794,Total,93024,Total,38,Reais,200.00
3,Unidade da Federação,16,Amapá,2010,2010,843,"Valor do rendimento nominal mediano mensal das pessoas de 10 anos ou mais de idade, com rendimento",6795,Total,6794,Total,93024,Total,38,Reais,550.00
3,Unidade da Federação,17,Tocantins,2010,2010,140,Pessoas de 10 anos ou mais de idade,6795,Total,6794,Total,93024,Total,45,Pessoas,1129733
3,Unidade da Federação,17,Tocantins,2010,2010,1000140,Pessoas de 10 anos ou mais de idade - percentual do total geral,6795,Total,6794,Total,93024,Total,2,Percentual,100.00
3,Unidade da Federação,17,Tocantins,2010,2010,841,"Pessoas de 10 anos ou mais de idade, com rendimento",6795,Total,6794,Total,93024,Total,45,Pessoas,688979
3,Unidade da Federação,17,Tocantins,2010,2010,1000841,"Pessoas de 10 anos ou mais de idade, com rendimento - percentual do total geral",6795,Total,6794,Total,93024,Total,2,Percentual,100.00
3,Unidade da Federação,17,Tocantins,2010,2010,58,Valor do rendimento nominal médio mensal das pessoas de 10 anos ou mais de idade,6795,Total,6794,Total,93024,Total,38,Reais,598.39
3,Unidade da Federação,17,Tocantins,2010,2010,842,"Valor do rendimento nominal médio mensal das pessoas de 10 anos ou mais de idade, com rendimento",6795,Total,6794,Total,93024,Total,38,Reais,981.19
3,Unidade da Federação,17,Tocantins,2010,2010,71,Valor do rendimento nominal mediano mensal das pessoas de 10 anos ou mais de idade,6795,Total,6794,Total,93024,Total,38,Reais,300.00
3,Unidade da Federação,17,Tocantins,2010,2010,843,"Valor do rendimento nominal mediano mensal das pessoas de 10 anos ou mais de idade, com rendimento",6795,Total,6794,Total,93024,Total,38,Reais,510.00
3,Unidade da Federação,21,Maranhão,2010,2010,140,Pessoas de 10 anos ou mais de idade,6795,Total,6794,Total,93024,Total,45,Pessoas,5265740
3,Unidade da Federação,21,Maranhão,2010,2010,1000140,Pessoas de 10 anos ou mais de idade - percentual do total geral,6795,Total,6794,Total,93024,Total,2,Percentual,100.00
3,Unidade da Federação,21,Maranhão,2010,2010,841,"Pessoas de 10 anos ou mais de idade, com rendimento",6795,Total,6794,Total,93024,Total,45,Pessoas,2813116
3,Unidade da Federação,21,Maranhão,2010,2010,1000841,"Pessoas de 10 anos ou mais de idade, com rendimento - percentual do total geral",6795,Total,6794,Total,93024,Total,2,Percentual,100.00
3,Unidade da Federação,21,Maranhão,2010,2010,58,Valor do rendimento nominal médio mensal das pessoas de 10 anos ou mais de idade,6795,Total,6794,Total,93024,Total,38,Reais,369.95
3,Unidade da Federação,21,Maranhão,2010,2010,842,"Valor do rendimento nominal médio mensal das pessoas de 10 anos ou mais de idade, com rendimento",6795,Total,6794,Total,93024,Total,38,Reais,692.50
3,Unidade da Federação,21,Maranhão,2010,2010,71,Valor do rendimento nominal mediano mensal das pessoas de 10 anos ou mais de idade,6795,Total,6794,Total,93024,Total,38,Reais,90.00
3,Unidade da Federação,21,Maranhão,2010,2010,843,"Valor do rendimento nominal mediano mensal das pessoas de 10 anos ou mais de idade, com rendimento",6795,Total,6794,Total,93024,Total,38,Reais,510.00
3,Unidade da Federação,22,Piauí,2010,2010,140,Pessoas de 10 anos ou mais de idade,6795,Total,6794,Total,93024,Total,45,Pessoas,2598238
3,Unidade da Federação,22,Piauí,2010,2010,1000140,Pessoas de 10 anos ou mais de idade - percentual do total geral,6795,Total,6794,Total,93024,Total,2,Percentual,100.00
3,Unidade da Federação,22,Piauí,2010,2010,841,"Pessoas de 10 anos ou mais de idade, com rendimento",6795,Total,6794,Total,93024,Total,45,Pessoas,1499265
3,Unidade da Federação,22,Piauí,2010,2010,1000841,"Pessoas de 10 anos ou mais de idade, com rendimento - percentual do total geral",6795,Total,6794,Total,93024,Total,2,Percentual,100.00
3,Unidade da Federação,22,Piauí,2010,2010,58,Valor do rendimento nominal médio mensal das pessoas de 10 anos ou mais de idade,6795,Total,6794,Total,93024,Total,38,Reais,421.85
3,Unidade da Federação,22,Piauí,2010,2010,842,"Valor do rendimento nominal médio mensal das pessoas de 10 anos ou mais de idade, com rendimento",6795,Total,6794,Total,93024,Total,38,Reais,731.08
3,Unidade da Federação,22,Piauí,2010,2010,71,Valor do rendimento nominal mediano mensal das pessoas de 10 anos ou mais de idade,6795,Total,6794,Total,93024,Total,38,Reais,112.00
3,Unidade da Federação,22,Piauí,2010,2010,843,"Valor do rendimento nominal mediano mensal das pessoas de 10 anos ou mais de idade, com rendimento",6795,Total,6794,Total,93024,Total,38,Reais,510.00
3,Unidade da Federação,23,Ceará,2010,2010,140,Pessoas de 10 anos ou mais de idade,6795,Total,6794,Total,93024,Total,45,Pessoas,7111438
3,Unidade da Federação,23,Ceará,2010,2010,1000140,Pessoas de 10 anos ou mais de idade - percentual do total geral,6795,Total,6794,Total,93024,Total,2,Percentual,100.00
3,Unidade da Federação,23,Ceará,2010,2010,841,"Pessoas de 10 anos ou mais de idade, com rendimento",6795,Total,6794,Total,93024,Total,45,Pessoas,4175994
3,Unidade da Federação,23,Ceará,2010,2010,1000841,"Pessoas de 10 anos ou mais de idade, com rendimento - percentual do total geral",6795,Total,6794,Total,93024,Total,2,Percentual,100.00
3,Unidade da Federação,23,Ceará,2010,2010,58,Valor do rendimento nominal médio mensal das pessoas de 10 anos ou mais de idade,6795,Total,6794,Total,93024,Total,38,Reais,452.42
3,Unidade da Federação,23,Ceará,2010,2010,842,"Valor do rendimento nominal médio mensal das pessoas de 10 anos ou mais de idade, com rendimento",6795,Total,6794,Total,93024,Total,38,Reais,770.43
3,Unidade da Federação,23,Ceará,2010,2010,71,Valor do rendimento nominal mediano mensal das pessoas de 10 anos ou mais de idade,6795,Total,6794,Total,93024,Total,38,Reais,134.00
3,Unidade da Federação,23,Ceará,2010,2010,843,"Valor do rendimento nominal mediano mensal das pessoas de 10 anos ou mais de idade, com rendimento",6795,Total,6794,Total,93024,Total,38,Reais,510.00
3,Unidade da Federação,24,Rio Grande do Norte,2010,2010,140,Pessoas de 10 anos ou mais de idade,6795,Total,6794,Total,93024,Total,45,Pessoas,2675748
3,Unidade da Federação,24,Rio Grande do Norte,2010,2010,1000140,Pessoas de 10 anos ou mais de idade - percentual do total geral,6795,Total,6794,Total,93024,Total,2,Percentual,100.00
3,Unidade da Federação,24,Rio Grande do Norte,2010,2010,841,"Pessoas de 10 anos ou mais de idade, com rendimento",6795,Total,6794,Total,93024,Total,45,Pessoas,1596486
3,Unidade da Federação,24,Rio Grande do Norte,2010,2010,1000841,"Pessoas de 10 anos ou mais de idade, com rendimento - percentual do total geral",6795,Total,6794,Total,93024,Total,2,Percentual,100.00
3,Unidade da Federação,24,Rio Grande do Norte,2010,2010,58,Valor do rendimento nominal médio mensal das pessoas de 10 anos ou mais de idade,6795,Total,6794,Total,93024,Total,38,Reais,543.18
3,Unidade da Federação,24,Rio Grande do Norte,2010,2010,842,"Valor do rendimento nominal médio mensal das pessoas de 10 anos ou mais de idade, com rendimento",6795,Total,6794,Total,93024,Total,38,Reais,910.37
3,Unidade da Federação,24,Rio Grande do Norte,2010,2010,71,Valor do rendimento nominal mediano mensal das pessoas de 10 anos ou mais de idade,6795,Total,6794,Total,93024,Total,38,Reais,200.00
3,Unidade da Federação,24,Rio Grande do Norte,2010,2010,843,"Valor do rendimento nominal mediano mensal das pessoas de 10 anos ou mais de idade, com rendimento",6795,Total,6794,Total,93024,Total,38,Reais,510.00
3,Unidade da Federação,25,Paraíba,2010,2010,140,Pessoas de 10 anos ou mais de idade,6795,Total,6794,Total,93024,Total,45,Pessoas,3162340
3,Unidade da Federação,25,Paraíba,2010,2010,1000140,Pessoas de 10 anos ou mais de idade - percentual do total geral,6795,Total,6794,Total,93024,Total,2,Percentual,100.00
3,Unidade da Federação,25,Paraíba,2010,2010,841,"Pessoas de 10 anos ou mais de idade, com rendimento",6795,Total,6794,Total,93024,Total,45,Pessoas,1876605
3,Unidade da Federação,25,Paraíba,2010,2010,1000841,"Pessoas de 10 anos ou mais de idade, com rendimento - percentual do total geral",6795,Total,6794,Total,93024,Total,2,Percentual,100.00
3,Unidade da Federação,25,Paraíba,2010,2010,58,Valor do rendimento nominal médio mensal das pessoas de 10 anos ou mais de idade,6795,Total,6794,Total,93024,Total,38,Reais,473.00
3,Unidade da Federação,25,Paraíba,2010,2010,842,"Valor do rendimento nominal médio mensal das pessoas de 10 anos ou mais de idade, com rendimento",6795,Total,6794,Total,93024,Total,38,Reais,797.07
3,Unidade da Federação,25,Paraíba,2010,2010,71,Valor do rendimento nominal mediano mensal das pessoas de 10 anos ou mais de idade,6795,Total,6794,Total,93024,Total,38,Reais,150.00
3,Unidade da Federação,25,Paraíba,2010,2010,843,"Valor do rendimento nominal mediano mensal das pessoas de 10 anos ou mais de idade, com rendimento",6795,Total,6794,Total,93024,Total,38,Reais,510.00
3,Unidade da Federação,26,Pernambuco,2010,2010,140,Pessoas de 10 anos ou mais de idade,6795,Total,6794,Total,93024,Total,45,Pessoas,7375210
3,Unidade da Federação,26,Pernambuco,2010,2010,1000140,Pessoas de 10 anos ou mais de idade - percentual do total geral,6795,Total,6794,Total,93024,Total,2,Percentual,100.00
3,Unidade da Federação,26,Pernambuco,2010,2010,841,"Pessoas de 10 anos ou mais de idade, com rendimento",6795,Total,6794,Total,93024,Total,45,Pessoas,4254374
3,Unidade da Federação,26,Pernambuco,2010,2010,1000841,"Pessoas de 10 anos ou mais de idade, com rendimento - percentual do total geral",6795,Total,6794,Total,93024,Total,2,Percentual,100.00
3,Unidade da Federação,26,Pernambuco,2010,2010,58,Valor do rendimento nominal médio mensal das pessoas de 10 anos ou mais de idade,6795,Total,6794,Total,93024,Total,38,Reais,500.58
3,Unidade da Federação,26,Pernambuco,2010,2010,842,"Valor do rendimento nominal médio mensal das pessoas de 10 anos ou mais de idade, com rendimento",6795,Total,6794,Total,93024,Total,38,Reais,867.78
3,Unidade da Federação,26,Pernambuco,2010,2010,71,Valor do rendimento nominal mediano mensal das pessoas de 10 anos ou mais de idade,6795,Total,6794,Total,93024,Total,38,Reais,150.00
3,Unidade da Federação,26,Pernambuco,2010,2010,843,"Valor do rendimento nominal mediano mensal das pessoas de 10 anos ou mais de idade, com rendimento",6795,Total,6794,Total,93024,Total,38,Reais,510.00
3,Unidade da Federação,27,Alagoas,2010,2010,140,Pessoas de 10 anos ou mais de idade,6795,Total,6794,Total,93024,Total,45,Pessoas,2548296
3,Unidade da Federação,27,Alagoas,2010,2010,1000140,Pessoas de 10 anos ou mais de idade - percentual do total geral,6795,Total,6794,Total,93024,Total,2,Percentual,100.00
3,Unidade da Federação,27,Alagoas,2010,2010,841,"Pessoas de 10 anos ou mais de idade, com rendimento",6795,Total,6794,Total,93024,Total,45,Pessoas,1380414
3,Unidade da Federação,27,Alagoas,2010,2010,1000841,"Pessoas de 10 anos ou mais de idade, com rendimento - percentual do total geral",6795,Total,6794,Total,93024,Total,2,Percentual,100.00
3,Unidade da Federação,27,Alagoas,2010,2010,58,Valor do rendimento nominal médio mensal das pessoas de 10 anos ou mais de idade,6795,Total,6794,Total,93024,Total,38,Reais,436.15
3,Unidade da Federação,27,Alagoas,2010,2010,842,"Valor do rendimento nominal médio mensal das pessoas de 10 anos ou mais de idade, com rendimento",6795,Total,6794,Total,93024,Total,38,Reais,805.14
3,Unidade da Federação,27,Alagoas,2010,2010,71,Valor do rendimento nominal mediano mensal das pessoas de 10 anos ou mais de idade,6795,Total,6794,Total,93024,Total,38,Reais,100.00
3,Unidade da Federação,27,Alagoas,2010,2010,843,"Valor do rendimento nominal mediano mensal das pessoas de 10 anos ou mais de idade, com rendimento",6795,Total,6794,Total,93024,Total,38,Reais,510.00
3,Unidade da Federação,28,Sergipe,2010,2010,140,Pessoas de 10 anos ou mais de idade,6795,Total,6794,Total,93024,Total,45,Pessoas,1719966
3,Unidade da Federação,28,Sergipe,2010,2010,1000140,Pessoas de 10 anos ou mais de idade - percentual do total geral,6795,Total,6794,Total,93024,Total,2,Percentual,100.00
3,Unidade da Federação,28,Sergipe,2010,2010,841,"Pessoas de 10 anos ou mais de idade, com rendimento",6795,Total,6794,Total,93024,Total,45,Pessoas,1007803
3,Unidade da Federação,28,Sergipe,2010,2010,1000841,"Pessoas de 10 anos ou mais de idade, com rendimento - percentual do total geral",6795,Total,6794,Total,93024,Total,2,Percentual,100.00
3,Unidade da Federação,28,Sergipe,2010,2010,58,Valor do rendimento nominal médio mensal das pessoas de 10 anos ou mais de idade,6795,Total,6794,Total,93024,Total,38,Reais,522.04
3,Unidade da Federação,28,Sergipe,2010,2010,842,"Valor do rendimento nominal médio mensal das pessoas de 10 anos ou mais de idade, com rendimento",6795,Total,6794,Total,93024,Total,38,Reais,890.94
3,Unidade da Federação,28,Sergipe,2010,2010,71,Valor do rendimento nominal mediano mensal das pessoas de 10 anos ou mais de idade,6795,Total,6794,Total,93024,Total,38,Reais,190.00
3,Unidade da Federação,28,Sergipe,2010,2010,843,"Valor do rendimento nominal mediano mensal das pessoas de 10 anos ou mais de idade, com rendimento",6795,Total,6794,Total,93024,Total,38,Reais,510.00
3,Unidade da Federação,29,Bahia,2010,2010,140,Pessoas de 10 anos ou mais de idade,6795,Total,6794,Total,93024,Total,45,Pessoas,11766374
3,Unidade da Federação,29,Bahia,2010,2010,1000140,Pessoas de 10 anos ou mais de idade - percentual do total geral,6795,Total,6794,Total,93024,Total,2,Percentual,100.00
3,Unidade da Federação,29,Bahia,2010,2010,841,"Pessoas de 10 anos ou mais de idade, com rendimento",6795,Total,6794,Total,93024,Total,45,Pessoas,6898280
3,Unidade da Federação,29,Bahia,2010,2010,1000841,"Pessoas de 10 anos ou mais de idade, com rendimento - percentual do total geral",6795,Total,6794,Total,93024,Total,2,Percentual,100.00
3,Unidade da Federação,29,Bahia,2010,2010,58,Valor do rendimento nominal médio mensal das pessoas de 10 anos ou mais de idade,6795,Total,6794,Total,93024,Total,38,Reais,477.19
3,Unidade da Federação,29,Bahia,2010,2010,842,"Valor do rendimento nominal médio mensal das pessoas de 10 anos ou mais de idade, com rendimento",6795,Total,6794,Total,93024,Total,38,Reais,813.94
3,Unidade da Federação,29,Bahia,2010,2010,71,Valor do rendimento nominal mediano mensal das pessoas de 10 anos ou mais de idade,6795,Total,6794,Total,93024,Total,38,Reais,150.00
3,Unidade da Federação,29,Bahia,2010,2010,843,"Valor do rendimento nominal mediano mensal das pessoas de 10 anos ou mais de idade, com rendimento",6795,Total,6794,Total,93024,Total,38,Reais,510.00
3,Unidade da Federação,31,Minas Gerais,2010,2010,140,Pessoas de 10 anos ou mais de idade,6795,Total,6794,Total,93024,Total,45,Pessoas,16891469
3,Unidade da Federação,31,Minas Gerais,2010,2010,1000140,Pessoas de 10 anos ou mais de idade - percentual do total geral,6795,Total,6794,Total,93024,Total,2,Percentual,100.00
3,Unidade da Federação,31,Minas Gerais,2010,2010,841,"Pessoas de 10 anos ou mais de idade, com rendimento",6795,Total,6794,Total,93024,Total,45,Pessoas,11089007
3,Unidade da Federação,31,Minas Gerais,2010,2010,1000841,"Pessoas de 10 anos ou mais de idade, com rendimento - percentual do total geral",6795,Total,6794,Total,93024,Total,2,Percentual,100.00
3,Unidade da Federação,31,Minas Gerais,2010,2010,58,Valor do rendimento nominal médio mensal das pessoas de 10 anos ou mais de idade,6795,Total,6794,Total,93024,Total,38,Reais,723.16
3,Unidade da Federação,31,Minas Gerais,2010,2010,842,"Valor do rendimento nominal médio mensal das pessoas de 10 anos ou mais de idade, com rendimento",6795,Total,6794,Total,93024,Total,38,Reais,1101.56
3,Unidade da Federação,31,Minas Gerais,2010,2010,71,Valor do rendimento nominal mediano mensal das pessoas de 10 anos ou mais de idade,6795,Total,6794,Total,93024,Total,38,Reais,510.00
3,Unidade da Federação,31,Minas Gerais,2010,2010,843,"Valor do rendimento nominal mediano mensal das pessoas de 10 anos ou mais de idade, com rendimento",6795,Total,6794,Total,93024,Total,38,Reais,576.00
3,Unidade da Federação,32,Espírito Santo,2010,2010,140,Pessoas de 10 anos ou mais de idade,6795,Total,6794,Total,93024,Total,45,Pessoas,3005616
3,Unidade da Federação,32,Espírito Santo,2010,2010,1000140,Pessoas de 10 anos ou mais de idade - percentual do total geral,6795,Total,6794,Total,93024,Total,2,Percentual,100.00
3,Unidade da Federação,32,Espírito Santo,2010,2010,841,"Pessoas de 10 anos ou mais de idade, com rendimento",6795,Total,6794,Total,93024,Total,45,Pessoas,1963007
3,Unidade da Federação,32,Espírito Santo,2010,2010,1000841,"Pessoas de 10 anos ou mais de idade, com rendimento - percentual do total geral",6795,Total,6794,Total,93024,Total,2,Percentual,100.00
3,Unidade da Federação,32,Espírito Santo,2010,2010,58,Valor do rendimento nominal médio mensal das pessoas de 10 anos ou mais de idade,6795,Total,6794,Total,93024,Total,38,Reais,783.84
3,Unidade da Federação,32,Espírito Santo,2010,2010,842,"Valor do rendimento nominal médio mensal das pessoas de 10 anos ou mais de idade, com rendimento",6795,Total,6794,Total,93024,Total,38,Reais,1200.16
3,Unidade da Federação,32,Espírito Santo,2010,2010,71,Valor do rendimento nominal mediano mensal das pessoas de 10 anos ou mais de idade,6795,Total,6794,Total,93024,Total,38,Reais,510.00
3,Unidade da Federação,32,Espírito Santo,2010,2010,843,"Valor do rendimento nominal mediano mensal das pessoas de 10 anos ou mais de idade, com rendimento",6795,Total,6794,Total,93024,Total,38,Reais,600.00
3,Unidade da Federação,33,Rio de Janeiro,2010,2010,140,Pessoas de 10 anos ou mais de idade,6795,Total,6794,Total,93024,Total,45,Pessoas,13909323
3,Unidade da Federação,33,Rio de Janeiro,2010,2010,1000140,Pessoas de 10 anos ou mais de idade - percentual do total geral,6795,Total,6794,Total,93024,Total,2,Percentual,100.00
3,Unidade da Federação,33,Rio de Janeiro,2010,2010,841,"Pessoas de 10 anos ou mais de idade, com rendimento",6795,Total,6794,Total,93024,Total,45,Pessoas,8844984
3,Unidade da Federação,33,Rio de Janeiro,2010,2010,1000841,"Pessoas de 10 anos ou mais de idade, com rendimento - percentual do total geral",6795,Total,6794,Total,93024,Total,2,Percentual,100.00
3,Unidade da Federação,33,Rio de Janeiro,2010,2010,58,Valor do rendimento nominal médio mensal das pessoas de 10 anos ou mais de idade,6795,Total,6794,Total,93024,Total,38,Reais,949.29
3,Unidade da Federação,33,Rio de Janeiro,2010,2010,842,"Valor do rendimento nominal médio mensal das pessoas de 10 anos ou mais de idade, com rendimento",6795,Total,6794,Total,93024,Total,38,Reais,1492.82
3,Unidade da Federação,33,Rio de Janeiro,2010,2010,71,Valor do rendimento nominal mediano mensal das pessoas de 10 anos ou mais de idade,6795,Total,6794,Total,93024,Total,38,Reais,510.00
3,Unidade da Federação,33,Rio de Janeiro,2010,2010,843,"Valor do rendimento nominal mediano mensal das pessoas de 10 anos ou mais de idade, com rendimento",6795,Total,6794,Total,93024,Total,38,Reais,800.00
3,Unidade da Federação,35,São Paulo,2010,2010,140,Pessoas de 10 anos ou mais de idade,6795,Total,6794,Total,93024,Total,45,Pessoas,35726194
3,Unidade da Federação,35,São Paulo,2010,2010,1000140,Pessoas de 10 anos ou mais de idade - percentual do total geral,6795,Total,6794,Total,93024,Total,2,Percentual,100.00
3,Unidade da Federação,35,São Paulo,2010,2010,841,"Pessoas de 10 anos ou mais de idade, com rendimento",6795,Total,6794,Total,93024,Total,45,Pessoas,23231768
3,Unidade da Federação,35,São Paulo,2010,2010,1000841,"Pessoas de 10 anos ou mais de idade, com rendimento - percentual do total geral",6795,Total,6794,Total,93024,Total,2,Percentual,100.00
3,Unidade da Federação,35,São Paulo,2010,2010,58,Valor do rendimento nominal médio mensal das pessoas de 10 anos ou mais de idade,6795,Total,6794,Total,93024,Total,38,Reais,987.08
3,Unidade da Federação,35,São Paulo,2010,2010,842,"Valor do rendimento nominal médio mensal das pessoas de 10 anos ou mais de idade, com rendimento",6795,Total,6794,Total,93024,Total,38,Reais,1517.95
3,Unidade da Federação,35,São Paulo,2010,2010,71,Valor do rendimento nominal mediano mensal das pessoas de 10 anos ou mais de idade,6795,Total,6794,Total,93024,Total,38,Reais,510.00
3,Unidade da Federação,35,São Paulo,2010,2010,843,"Valor do rendimento nominal mediano mensal das pessoas de 10 anos ou mais de idade, com rendimento",6795,Total,6794,Total,93024,Total,38,Reais,900.00
3,Unidade da Federação,41,Paraná,2010,2010,140,Pessoas de 10 anos ou mais de idade,6795,Total,6794,Total,93024,Total,45,Pessoas,8962097
3,Unidade da Federação,41,Paraná,2010,2010,1000140,Pessoas de 10 anos ou mais de idade - percentual do total geral,6795,Total,6794,Total,93024,Total,2,Percentual,100.00
3,Unidade da Federação,41,Paraná,2010,2010,841,"Pessoas de 10 anos ou mais de idade, com rendimento",6795,Total,6794,Total,93024,Total,45,Pessoas,6074396
3,Unidade da Federação,41,Paraná,2010,2010,1000841,"Pessoas de 10 anos ou mais de idade, com rendimento - percentual do total geral",6795,Total,6794,Total,93024,Total,2,Percentual,100.00
3,Unidade da Federação,41,Paraná,2010,2010,58,Valor do rendimento nominal médio mensal das pessoas de 10 anos ou mais de idade,6795,Total,6794,Total,93024,Total,38,Reais,850.75
3,Unidade da Federação,41,Paraná,2010,2010,842,"Valor do rendimento nominal médio mensal das pessoas de 10 anos ou mais de idade, com rendimento",6795,Total,6794,Total,93024,Total,38,Reais,1255.19
3,Unidade da Federação,41,Paraná,2010,2010,71,Valor do rendimento nominal mediano mensal das pessoas de 10 anos ou mais de idade,6795,Total,6794,Total,93024,Total,38,Reais,510.00
3,Unidade da Federação,41,Paraná,2010,2010,843,"Valor do rendimento nominal mediano mensal das pessoas de 10 anos ou mais de idade, com rendimento",6795,Total,6794,Total,93024,Total,38,Reais,743.00
3,Unidade da Federação,42,Santa Catarina,2010,2010,140,Pessoas de 10 anos ou mais de idade,6795,Total,6794,Total,93024,Total,45,Pessoas,5405906
3,Unidade da Federação,42,Santa Catarina,2010,2010,1000140,Pessoas de 10 anos ou mais de idade - percentual do total geral,6795,Total,6794,Total,93024,Total,2,Percentual,100.00
3,Unidade da Federação,42,Santa Catarina,2010,2010,841,"Pessoas de 10 anos ou mais de idade, com rendimento",6795,Total,6794,Total,93024,Total,45,Pessoas,3906566
3,Unidade da Federação,42,Santa Catarina,2010,2010,1000841,"Pessoas de 10 anos ou mais de idade, com rendimento - percentual do total geral",6795,Total,6794,Total,93024,Total,2,Percentual,100.00
3,Unidade da Federação,42,Santa Catarina,2010,2010,58,Valor do rendimento nominal médio mensal das pessoas de 10 anos ou mais de idade,6795,Total,6794,Total,93024,Total,38,Reais,957.09
3,Unidade da Federação,42,Santa Catarina,2010,2010,842,"Valor do rendimento nominal médio mensal das pessoas de 10 anos ou mais de idade, com rendimento",6795,Total,6794,Total,93024,Total,38,Reais,1324.43
3,Unidade da Federação,42,Santa Catarina,2010,2010,71,Valor do rendimento nominal mediano mensal das pessoas de 10 anos ou mais de idade,6795,Total,6794,Total,93024,Total,38,Reais,600.00
3,Unidade da Federação,42,Santa Catarina,2010,2010,843,"Valor do rendimento nominal mediano mensal das pessoas de 10 anos ou mais de idade, com rendimento",6795,Total,6794,Total,93024,Total,38,Reais,850.00
3,Unidade da Federação,43,Rio Grande do Sul,2010,2010,140,Pessoas de 10 anos ou mais de idade,6795,Total,6794,Total,93024,Total,45,Pessoas,9326208
3,Unidade da Federação,43,Rio Grande do Sul,2010,2010,1000140,Pessoas de 10 anos ou mais de idade - percentual do total geral,6795,Total,6794,Total,93024,Total,2,Percentual,100.00
3,Unidade da Federação,43,Rio Grande do Sul,2010,2010,841,"Pessoas de 10 anos ou mais de idade, com rendimento",6795,Total,6794,Total,93024,Total,45,Pessoas,6631379
3,Unidade da Federação,43,Rio Grande do Sul,2010,2010,1000841,"Pessoas de 10 anos ou mais de idade, com rendimento - percentual do total geral",6795,Total,6794,Total,93024,Total,2,Percentual,100.00
3,Unidade da Federação,43,Rio Grande do Sul,2010,2010,58,Valor do rendimento nominal médio mensal das pessoas de 10 anos ou mais de idade,6795,Total,6794,Total,93024,Total,38,Reais,908.59
3,Unidade da Federação,43,Rio Grande do Sul,2010,2010,842,"Valor do rendimento nominal médio mensal das pessoas de 10 anos ou mais de idade, com rendimento",6795,Total,6794,Total,93024,Total,38,Reais,1277.82
3,Unidade da Federação,43,Rio Grande do Sul,2010,2010,71,Valor do rendimento nominal mediano mensal das pessoas de 10 anos ou mais de idade,6795,Total,6794,Total,93024,Total,38,Reais,510.00
3,Unidade da Federação,43,Rio Grande do Sul,2010,2010,843,"Valor do rendimento nominal mediano mensal das pessoas de 10 anos ou mais de idade, com rendimento",6795,Total,6794,Total,93024,Total,38,Reais,750.00
3,Unidade da Federação,50,Mato Grosso do Sul,2010,2010,140,Pessoas de 10 anos ou mais de idade,6795,Total,6794,Total,93024,Total,45,Pessoas,2059399
3,Unidade da Federação,50,Mato Grosso do Sul,2010,2010,1000140,Pessoas de 10 anos ou mais de idade - percentual do total geral,6795,Total,6794,Total,93024,Total,2,Percentual,100.00
3,Unidade da Federação,50,Mato Grosso do Sul,2010,2010,841,"Pessoas de 10 anos ou mais de idade, com rendimento",6795,Total,6794,Total,93024,Total,45,Pessoas,1345452
3,Unidade da Federação,50,Mato Grosso do Sul,2010,2010,1000841,"Pessoas de 10 anos ou mais de idade, com rendimento - percentual do total geral",6795,Total,6794,Total,93024,Total,2,Percentual,100.00
3,Unidade da Federação,50,Mato Grosso do Sul,2010,2010,58,Valor do rendimento nominal médio mensal das pessoas de 10 anos ou mais de idade,6795,Total,6794,Total,93024,Total,38,Reais,778.47
3,Unidade da Federação,50,Mato Grosso do Sul,2010,2010,842,"Valor do rendimento nominal médio mensal das pessoas de 10 anos ou mais de idade, com rendimento",6795,Total,6794,Total,93024,Total,38,Reais,1191.55
3,Unidade da Federação,50,Mato Grosso do Sul,2010,2010,71,Valor do rendimento nominal mediano mensal das pessoas de 10 anos ou mais de idade,6795,Total,6794,Total,93024,Total,38,Reais,510.00
3,Unidade da Federação,50,Mato Grosso do Sul,2010,2010,843,"Valor do rendimento nominal mediano mensal das pessoas de 10 anos ou mais de idade, com rendimento",6795,Total,6794,Total,93024,Total,38,Reais,635.00
3,Unidade da Federação,51,Mato Grosso,2010,2010,140,Pessoas de 10 anos ou mais de idade,6795,Total,6794,Total,93024,Total,45,Pessoas,2537090
3,Unidade da Federação,51,Mato Grosso,2010,2010,1000140,Pessoas de 10 anos ou mais de idade - percentual do total geral,6795,Total,6794,Total,93024,Total,2,Percentual,100.00
3,Unidade da Federação,51,Mato Grosso,2010,2010,841,"Pessoas de 10 anos ou mais de idade, com rendimento",6795,Total,6794,Total,93024,Total,45,Pessoas,1595897
3,Unidade da Federação,51,Mato Grosso,2010,2010,1000841,"Pessoas de 10 anos ou mais de idade, com rendimento - percentual do total geral",6795,Total,6794,Total,93024,Total,2,Percentual,100.00
3,Unidade da Federação,51,Mato Grosso,2010,2010,58,Valor do rendimento nominal médio mensal das pessoas de 10 anos ou mais de idade,6795,Total,6794,Total,93024,Total,38,Reais,744.89
3,Unidade da Federação,51,Mato Grosso,2010,2010,842,"Valor do rendimento nominal médio mensal das pessoas de 10 anos ou mais de idade, com rendimento",6795,Total,6794,Total,93024,Total,38,Reais,1184.19
3,Unidade da Federação,51,Mato Grosso,2010,2010,71,Valor do rendimento nominal mediano mensal das pessoas de 10 anos ou mais de idade,6795,Total,6794,Total,93024,Total,38,Reais,510.00
3,Unidade da Federação,51,Mato Grosso,2010,2010,843,"Valor do rendimento nominal mediano mensal das pessoas de 10 anos ou mais de idade, com rendimento",6795,Total,6794,Total,93024,Total,38,Reais,700.00
3,Unidade da Federação,52,Goiás,2010,2010,140,Pessoas de 10 anos ou mais de idade,6795,Total,6794,Total,93024,Total,45,Pessoas,5093197
3,Unidade da Federação,52,Goiás,2010,2010,1000140,Pessoas de 10 anos ou mais de idade - percentual do total geral,6795,Total,6794,Total,93024,Total,2,Percentual,100.00
3,Unidade da Federação,52,Goiás,2010,2010,841,"Pessoas de 10 anos ou mais de idade, com rendimento",6795,Total,6794,Total,93024,Total,45,Pessoas,3375342
3,Unidade da Federação,52,Goiás,2010,2010,1000841,"Pessoas de 10 anos ou mais de idade, com rendimento - percentual do total geral",6795,Total,6794,Total,93024,Total,2,Percentual,100.00
3,Unidade da Federação,52,Goiás,2010,2010,58,Valor do rendimento nominal médio mensal das pessoas de 10 anos ou mais de idade,6795,Total,6794,Total,93024,Total,38,Reais,782.63
3,Unidade da Federação,52,Goiás,2010,2010,842,"Valor do rendimento nominal médio mensal das pessoas de 10 anos ou mais de idade, com rendimento",6795,Total,6794,Total,93024,Total,38,Reais,1180.94
3,Unidade da Federação,52,Goiás,2010,2010,71,Valor do rendimento nominal mediano mensal das pessoas de 10 anos ou mais de idade,6795,Total,6794,Total,93024,Total,38,Reais,510.00
3,Unidade da Federação,52,Goiás,2010,2010,843,"Valor do rendimento nominal mediano mensal das pessoas de 10 anos ou mais de idade, com rendimento",6795,Total,6794,Total,93024,Total,38,Reais,650.00
3,Unidade da Federação,53,Distrito Federal,2010,2010,140,Pessoas de 10 anos ou mais de idade,6795,Total,6794,Total,93024,Total,45,Pessoas,2180376
3,Unidade da Federação,53,Distrito Federal,2010,2010,1000140,Pessoas de 10 anos ou mais de idade - percentual do total geral,6795,Total,6794,Total,93024,Total,2,Percentual,100.00
3,Unidade da Federação,53,Distrito Federal,2010,2010,841,"Pessoas de 10 anos ou mais de idade, com rendimento",6795,Total,6794,Total,93024,Total,45,Pessoas,1424934
3,Unidade da Federação,53,Distrito Federal,2010,2010,1000841,"Pessoas de 10 anos ou mais de idade, com rendimento - percentual do total geral",6795,Total,6794,Total,93024,Total,2,Percentual,100.00
3,Unidade da Federação,53,Distrito Federal,2010,2010,58,Valor do rendimento nominal médio mensal das pessoas de 10 anos ou mais de idade,6795,Total,6794,Total,93024,Total,38,Reais,1610.95
3,Unidade da Federação,53,Distrito Federal,2010,2010,842,"Valor do rendimento nominal médio mensal das pessoas de 10 anos ou mais de idade, com rendimento",6795,Total,6794,Total,93024,Total,38,Reais,2465.01
3,Unidade da Federação,53,Distrito Federal,2010,2010,71,Valor do rendimento nominal mediano mensal das pessoas de 10 anos ou mais de idade,6795,Total,6794,Total,93024,Total,38,Reais,510.00
3,Unidade da Federação,53,Distrito Federal,2010,2010,843,"Valor do rendimento nominal mediano mensal das pessoas de 10 anos ou mais de idade, com rendimento",6795,Total,6794,Total,93024,Total,38,Reais,1000.00
