NC,NN,D1C,D1N,D2C,D2N,D3C,D3N,D4C,D4N,D5C,D5N,MC,MN,V
Nível Territorial (Código),Nível Territorial,Unidade da Federação (Código),Unidade da Federação,Ano (Código),Ano,Variável (Código),Variável,Idade (Código),Idade,Condição de atividade e condição de ocupação (Código),Condição de atividade e condição de ocupação,Unidade de Medida (Código),Unidade de Medida,Valor
3,Unidade da Federação,11,Rondônia,2010,2010,140,Pessoas de 10 anos ou mais de idade,0,Total,0,Total,45,Pessoas,1294956
3,Unidade da Federação,11,Rondônia,2010,2010,1000140,Pessoas de 10 anos ou mais de idade - percentual do total geral,0,Total,0,Total,2,Percentual,100.00
3,Unidade da Federação,12,Acre,2010,2010,140,Pessoas de 10 anos ou mais de idade,0,Total,0,Total,45,Pessoas,573909
3,Unidade da Federação,12,Acre,2010,2010,1000140,Pessoas de 10 anos ou mais de idade - percentual do total geral,0,Total,0,Total,2,Percentual,100.00
3,Unidade da Federação,13,Amazonas,2010,2010,140,Pessoas de 10 anos ou mais de idade,0,Total,0,Total,45,Pessoas,2728336
3,Unidade da Federação,13,Amazonas,2010,2010,1000140,Pessoas de 10 anos ou mais de idade - percentual do total geral,0,Total,0,Total,2,Percentual,100.00
3,Unidade da Federação,14,Roraima,2010,2010,140,Pessoas de 10 anos ou mais de idade,0,Total,0,Total,45,Pessoas,353679
3,Unidade da Federação,14,Roraima,2010,2010,1000140,Pessoas de 10 anos ou mais de idade - percentual do total geral,0,Total,0,Total,2,Percentual,100.00
3,Unidade da Federação,15,Pará,2010,2010,140,Pessoas de 10 anos ou mais de idade,0,Total,0,Total,45,Pessoas,6062304
3,Unidade da Federação,15,Pará,2010,2010,1000140,Pessoas de 10 anos ou mais de idade - percentual do total geral,0,Total,0,Total,2,Percentual,100.00
3,Unidade da Federação,16,Amapá,2010,2010,140,Pessoas de 10 anos ou mais de idade,0,Total,0,Total,45,Pessoas,526975
3,Unidade da Federação,16,Amapá,2010,2010,1000140,Pessoas de 10 anos ou mais de idade - percentual do total geral,0,Total,0,Total,2,Percentual,100.00
3,Unidade da Federação,17,Tocantins,2010,2010,140,Pessoas de 10 anos ou mais de idade,0,Total,0,Total,45,Pessoas,1129714
3,Unidade da Federação,17,Tocantins,2010,2010,1000140,Pessoas de 10 anos ou mais de idade - percentual do total geral,0,Total,0,Total,2,Percentual,100.00
3,Unidade da Federação,21,Maranhão,2010,2010,140,Pessoas de 10 anos ou mais de idade,0,Total,0,Total,45,Pessoas,5264736
3,Unidade da Federação,21,Maranhão,2010,2010,1000140,Pessoas de 10 anos ou mais de idade - percentual do total geral,0,Total,0,Total,2,Percentual,100.00
3,Unidade da Federação,22,Piauí,2010,2010,140,Pessoas de 10 anos ou mais de idade,0,Total,0,Total,45,Pessoas,2597953
3,Unidade da Federação,22,Piauí,2010,2010,1000140,Pessoas de 10 anos ou mais de idade - percentual do total geral,0,Total,0,Total,2,Percentual,100.00
3,Unidade da Federação,23,Ceará,2010,2010,140,Pessoas de 10 anos ou mais de idade,0,Total,0,Total,45,Pessoas,7111302
3,Unidade da Federação,23,Ceará,2010,2010,1000140,Pessoas de 10 anos ou mais de idade - percentual do total geral,0,Total,0,Total,2,Percentual,100.00
3,Unidade da Federação,24,Rio Grande do Norte,2010,2010,140,Pessoas de 10 anos ou mais de idade,0,Total,0,Total,45,Pessoas,2676308
3,Unidade da Federação,24,Rio Grande do Norte,2010,2010,1000140,Pessoas de 10 anos ou mais de idade - percentual do total geral,0,Total,0,Total,2,Percentual,100.00
3,Unidade da Federação,25,Paraíba,2010,2010,140,Pessoas de 10 anos ou mais de idade,0,Total,0,Total,45,Pessoas,3161232
3,Unidade da Federação,25,Paraíba,2010,2010,1000140,Pessoas de 10 anos ou mais de idade - percentual do total geral,0,Total,0,Total,2,Percentual,100.00
3,Unidade da Federação,26,Pernambuco,2010,2010,140,Pessoas de 10 anos ou mais de idade,0,Total,0,Total,45,Pessoas,7373671
3,Unidade da Federação,26,Pernambuco,2010,2010,1000140,Pessoas de 10 anos ou mais de idade - percentual do total geral,0,Total,0,Total,2,Percentual,100.00
3,Unidade da Federação,27,Alagoas,2010,2010,140,Pessoas de 10 anos ou mais de idade,0,Total,0,Total,45,Pessoas,2547711
3,Unidade da Federação,27,Alagoas,2010,2010,1000140,Pessoas de 10 anos ou mais de idade - percentual do total geral,0,Total,0,Total,2,Percentual,100.00
3,Unidade da Federação,28,Sergipe,2010,2010,140,Pessoas de 10 anos ou mais de idade,0,Total,0,Total,45,Pessoas,1720016
3,Unidade da Federação,28,Sergipe,2010,2010,1000140,Pessoas de 10 anos ou mais de idade - percentual do total geral,0,Total,0,Total,2,Percentual,100.00
3,Unidade da Federação,29,Bahia,2010,2010,140,Pessoas de 10 anos ou mais de idade,0,Total,0,Total,45,Pessoas,11764109
3,Unidade da Federação,29,Bahia,2010,2010,1000140,Pessoas de 10 anos ou mais de idade - percentual do total geral,0,Total,0,Total,2,Percentual,100.00
3,Unidade da Federação,31,Minas Gerais,2010,2010,140,Pessoas de 10 anos ou mais de idade,0,Total,0,Total,45,Pessoas,16890981
3,Unidade da Federação,31,Minas Gerais,2010,2010,1000140,Pessoas de 10 anos ou mais de idade - percentual do total geral,0,Total,0,Total,2,Percentual,100.00
3,Unidade da Federação,32,Espírito Santo,2010,2010,140,Pessoas de 10 anos ou mais de idade,0,Total,0,Total,45,Pessoas,3005851
3,Unidade da Federação,32,Espírito Santo,2010,2010,1000140,Pessoas de 10 anos ou mais de idade - percentual do total geral,0,Total,0,Total,2,Percentual,100.00
3,Unidade da Federação,33,Rio de Janeiro,2010,2010,140,Pessoas de 10 anos ou mais de idade,0,Total,0,Total,45,Pessoas,13908173
3,Unidade da Federação,33,Rio de Janeiro,2010,2010,1000140,Pessoas de 10 anos ou mais de idade - percentual do total geral,0,Total,0,Total,2,Percentual,100.00
3,Unidade da Federação,35,São Paulo,2010,2010,140,Pessoas de 10 anos ou mais de idade,0,Total,0,Total,45,Pessoas,35723254
3,Unidade da Federação,35,São Paulo,2010,2010,1000140,Pessoas de 10 anos ou mais de idade - percentual do total geral,0,Total,0,Total,2,Percentual,100.00
3,Unidade da Federação,41,Paraná,2010,2010,140,Pessoas de 10 anos ou mais de idade,0,Total,0,Total,45,Pessoas,8962586
3,Unidade da Federação,41,Paraná,2010,2010,1000140,Pessoas de 10 anos ou mais de idade - percentual do total geral,0,Total,0,Total,2,Percentual,100.00
3,Unidade da Federação,42,Santa Catarina,2010,2010,140,Pessoas de 10 anos ou mais de idade,0,Total,0,Total,45,Pessoas,5404884
3,Unidade da Federação,42,Santa Catarina,2010,2010,1000140,Pessoas de 10 anos ou mais de idade - percentual do total geral,0,Total,0,Total,2,Percentual,100.00
3,Unidade da Federação,43,Rio Grande do Sul,2010,2010,140,Pessoas de 10 anos ou mais de idade,0,Total,0,Total,45,Pessoas,9327696
3,Unidade da Federação,43,Rio Grande do Sul,2010,2010,1000140,Pessoas de 10 anos ou mais de idade - percentual do total geral,0,Total,0,Total,2,Percentual,100.00
3,Unidade da Federação,50,Mato Grosso do Sul,2010,2010,140,Pessoas de 10 anos ou mais de idade,0,Total,0,Total,45,Pessoas,2059723
3,Unidade da Federação,50,Mato Grosso do Sul,2010,2010,1000140,Pessoas de 10 anos ou mais de idade - percentual do total geral,0,Total,0,Total,2,Percentual,100.00
3,Unidade da Federação,51,Mato Grosso,2010,2010,140,Pessoas de 10 anos ou mais de idade,0,Total,0,Total,45,Pessoas,2537660
3,Unidade da Federação,51,Mato Grosso,2010,2010,1000140,Pessoas de 10 anos ou mais de idade - percentual do total geral,0,Total,0,Total,2,Percentual,100.00
3,Unidade da Federação,52,Goiás,2010,2010,140,Pessoas de 10 anos ou mais de idade,0,Total,0,Total,45,Pessoas,5092674
3,Unidade da Federação,52,Goiás,2010,2010,1000140,Pessoas de 10 anos ou mais de idade - percentual do total geral,0,Total,0,Total,2,Percentual,100.00
3,Unidade da Federação,53,Distrito Federal,2010,2010,140,Pessoas de 10 anos ou mais de idade,0,Total,0,Total,45,Pessoas,2180903
3,Unidade da Federação,53,Distrito Federal,2010,2010,1000140,Pessoas de 10 anos ou mais de idade - percentual do total geral,0,Total,0,Total,2,Percentual,100.00
