NC,NN,D1C,D1N,D2C,D2N,D3C,D3N,D4C,D4N,MC,MN,V
Nível Territorial (Código),Nível Territorial,Unidade da Federação (Código),Unidade da Federação,Ano (Código),Ano,Variável (Código),Variável,Grupos de horas habitualmente trabalhadas por semana no trabalho principal (Código),Grupos de horas habitualmente trabalhadas por semana no trabalho principal,Unidade de Medida (Código),Unidade de Medida,Valor
3,Unidade da Federação,11,Rondônia,2010,2010,916,"Pessoas de 10 anos ou mais de idade, ocupadas na semana de referência",0,Total,45,Pessoas,731813
3,Unidade da Federação,11,Rondônia,2010,2010,1000916,"Pessoas de 10 anos ou mais de idade, ocupadas na semana de referência - percentual do total geral",0,Total,2,Percentual,100.00
3,Unidade da Federação,12,Acre,2010,2010,916,"Pessoas de 10 anos ou mais de idade, ocupadas na semana de referência",0,Total,45,Pessoas,278924
3,Unidade da Federação,12,Acre,2010,2010,1000916,"Pessoas de 10 anos ou mais de idade, ocupadas na semana de referência - percentual do total geral",0,Total,2,Percentual,100.00
3,Unidade da Federação,13,Amazonas,2010,2010,916,"Pessoas de 10 anos ou mais de idade, ocupadas na semana de referência",0,Total,45,Pessoas,1323402
3,Unidade da Federação,13,Amazonas,2010,2010,1000916,"Pessoas de 10 anos ou mais de idade, ocupadas na semana de referência - percentual do total geral",0,Total,2,Percentual,100.00
3,Unidade da Federação,14,Roraima,2010,2010,916,"Pessoas de 10 anos ou mais de idade, ocupadas na semana de referência",0,Total,45,Pessoas,180733
3,Unidade da Federação,14,Roraima,2010,2010,1000916,"Pessoas de 10 anos ou mais de idade, ocupadas na semana de referência - percentual do total geral",0,Total,2,Percentual,100.00
3,Unidade da Federação,15,Pará,2010,2010,916,"Pessoas de 10 anos ou mais de idade, ocupadas na semana de referência",0,Total,45,Pessoas,2896891
3,Unidade da Federação,15,Pará,2010,2010,1000916,"Pessoas de 10 anos ou mais de idade, ocupadas na semana de referência - percentual do total geral",0,Total,2,Percentual,100.00
3,Unidade da Federação,16,Amapá,2010,2010,916,"Pessoas de 10 anos ou mais de idade, ocupadas na semana de referência",0,Total,45,Pessoas,260819
3,Unidade da Federação,16,Amapá,2010,2010,1000916,"Pessoas de 10 anos ou mais de idade, ocupadas na semana de referência - percentual do total geral",0,Total,2,Percentual,100.00
3,Unidade da Federação,17,Tocantins,2010,2010,916,"Pessoas de 10 anos ou mais de idade, ocupadas na semana de referência",0,Total,45,Pessoas,583109
3,Unidade da Federação,17,Tocantins,2010,2010,1000916,"Pessoas de 10 anos ou mais de idade, ocupadas na semana de referência - percentual do total geral",0,Total,2,Percentual,100.00
3,Unidade da Federação,21,Maranhão,2010,2010,916,"Pessoas de 10 anos ou mais de idade, ocupadas na semana de referência",0,Total,45,Pessoas,2359338
3,Unidade da Federação,21,Maranhão,2010,2010,1000916,"Pessoas de 10 anos ou mais de idade, ocupadas na semana de referência - percentual do total geral",0,Total,2,Percentual,100.00
3,Unidade da Federação,22,Piauí,2010,2010,916,"Pessoas de 10 anos ou mais de idade, ocupadas na semana de referência",0,Total,45,Pessoas,1213742
3,Unidade da Federação,22,Piauí,2010,2010,1000916,"Pessoas de 10 anos ou mais de idade, ocupadas na semana de referência - percentual do total geral",0,Total,2,Percentual,100.00
3,Unidade da Federação,23,Ceará,2010,2010,916,"Pessoas de 10 anos ou mais de idade, ocupadas na semana de referência",0,Total,45,Pessoas,3358738
3,Unidade da Federação,23,Ceará,2010,2010,1000916,"Pessoas de 10 anos ou mais de idade, ocupadas na semana de referência - percentual do total geral",0,Total,2,Percentual,100.00
3,Unidade da Federação,24,Rio Grande do Norte,2010,2010,916,"Pessoas de 10 anos ou mais de idade, ocupadas na semana de referência",0,Total,45,Pessoas,1237237
3,Unidade da Federação,24,Rio Grande do Norte,2010,2010,1000916,"Pessoas de 10 anos ou mais de idade, ocupadas na semana de referência - percentual do total geral",0,Total,2,Percentual,100.00
3,Unidade da Federação,25,Paraíba,2010,2010,916,"Pessoas de 10 anos ou mais de idade, ocupadas na semana de referência",0,Total,45,Pessoas,1477493
3,Unidade da Federação,25,Paraíba,2010,2010,1000916,"Pessoas de 10 anos ou mais de idade, ocupadas na semana de referência - percentual do total geral",0,Total,2,Percentual,100.00
3,Unidade da Federação,26,Pernambuco,2010,2010,916,"Pessoas de 10 anos ou mais de idade, ocupadas na semana de referência",0,Total,45,Pessoas,3401647
3,Unidade da Federação,26,Pernambuco,2010,2010,1000916,"Pessoas de 10 anos ou mais de idade, ocupadas na semana de referência - percentual do total geral",0,Total,2,Percentual,100.00
3,Unidade da Federação,27,Alagoas,2010,2010,916,"Pessoas de 10 anos ou mais de idade, ocupadas na semana de referência",0,Total,45,Pessoas,1119783
3,Unidade da Federação,27,Alagoas,2010,2010,1000916,"Pessoas de 10 anos ou mais de idade, ocupadas na semana de referência - percentual do total geral",0,Total,2,Percentual,100.00
3,Unidade da Federação,28,Sergipe,2010,2010,916,"Pessoas de 10 anos ou mais de idade, ocupadas na semana de referência",0,Total,45,Pessoas,831659
3,Unidade da Federação,28,Sergipe,2010,2010,1000916,"Pessoas de 10 anos ou mais de idade, ocupadas na semana de referência - percentual do total geral",0,Total,2,Percentual,100.00
3,Unidade da Federação,29,Bahia,2010,2010,916,"Pessoas de 10 anos ou mais de idade, ocupadas na semana de referência",0,Total,45,Pessoas,5838777
3,Unidade da Federação,29,Bahia,2010,2010,1000916,"Pessoas de 10 anos ou mais de idade, ocupadas na semana de referência - percentual do total geral",0,Total,2,Percentual,100.00
3,Unidade da Federação,31,Minas Gerais,2010,2010,916,"Pessoas de 10 anos ou mais de idade, ocupadas na semana de referência",0,Total,45,Pessoas,9263763
3,Unidade da Federação,31,Minas Gerais,2010,2010,1000916,"Pessoas de 10 anos ou mais de idade, ocupadas na semana de referência - percentual do total geral",0,Total,2,Percentual,100.00
3,Unidade da Federação,32,Espírito Santo,2010,2010,916,"Pessoas de 10 anos ou mais de idade, ocupadas na semana de referência",0,Total,45,Pessoas,1696224
3,Unidade da Federação,32,Espírito Santo,2010,2010,1000916,"Pessoas de 10 anos ou mais de idade, ocupadas na semana de referência - percentual do total geral",0,Total,2,Percentual,100.00
3,Unidade da Federação,33,Rio de Janeiro,2010,2010,916,"Pessoas de 10 anos ou mais de idade, ocupadas na semana de referência",0,Total,45,Pessoas,7152916
3,Unidade da Federação,33,Rio de Janeiro,2010,2010,1000916,"Pessoas de 10 anos ou mais de idade, ocupadas na semana de referência - percentual do total geral",0,Total,2,Percentual,100.00
3,Unidade da Federação,35,São Paulo,2010,2010,916,"Pessoas de 10 anos ou mais de idade, ocupadas na semana de referência",0,Total,45,Pessoas,19994370
3,Unidade da Federação,35,São Paulo,2010,2010,1000916,"Pessoas de 10 anos ou mais de idade, ocupadas na semana de referência - percentual do total geral",0,Total,2,Percentual,100.00
3,Unidade da Federação,41,Paraná,2010,2010,916,"Pessoas de 10 anos ou mais de idade, ocupadas na semana de referência",0,Total,45,Pessoas,5308973
3,Unidade da Federação,41,Paraná,2010,2010,1000916,"Pessoas de 10 anos ou mais de idade, ocupadas na semana de referência - percentual do total geral",0,Total,2,Percentual,100.00
3,Unidade da Federação,42,Santa Catarina,2010,2010,916,"Pessoas de 10 anos ou mais de idade, ocupadas na semana de referência",0,Total,45,Pessoas,3409302
3,Unidade da Federação,42,Santa Catarina,2010,2010,1000916,"Pessoas de 10 anos ou mais de idade, ocupadas na semana de referência - percentual do total geral",0,Total,2,Percentual,100.00
3,Unidade da Federação,43,Rio Grande do Sul,2010,2010,916,"Pessoas de 10 anos ou mais de idade, ocupadas na semana de referência",0,Total,45,Pessoas,5534006
3,Unidade da Federação,43,Rio Grande do Sul,2010,2010,1000916,"Pessoas de 10 anos ou mais de idade, ocupadas na semana de referência - percentual do total geral",0,Total,2,Percentual,100.00
3,Unidade da Federação,50,Mato Grosso do Sul,2010,2010,916,"Pessoas de 10 anos ou mais de idade, ocupadas na semana de referência",0,Total,45,Pessoas,1181215
3,Unidade da Federação,50,Mato Grosso do Sul,2010,2010,1000916,"Pessoas de 10 anos ou mais de idade, ocupadas na semana de referência - percentual do total geral",0,Total,2,Percentual,100.00
3,Unidade da Federação,51,Mato Grosso,2010,2010,916,"Pessoas de 10 anos ou mais de idade, ocupadas na semana de referência",0,Total,45,Pessoas,1448558
3,Unidade da Federação,51,Mato Grosso,2010,2010,1000916,"Pessoas de 10 anos ou mais de idade, ocupadas na semana de referência - percentual do total geral",0,Total,2,Percentual,100.00
3,Unidade da Federação,52,Goiás,2010,2010,916,"Pessoas de 10 anos ou mais de idade, ocupadas na semana de referência",0,Total,45,Pessoas,2959271
3,Unidade da Federação,52,Goiás,2010,2010,1000916,"Pessoas de 10 anos ou mais de idade, ocupadas na semana de referência - percentual do total geral",0,Total,2,Percentual,100.00
3,Unidade da Federação,53,Distrito Federal,2010,2010,916,"Pessoas de 10 anos ou mais de idade, ocupadas na semana de referência",0,Total,45,Pessoas,1287510
3,Unidade da Federação,53,Distrito Federal,2010,2010,1000916,"Pessoas de 10 anos ou mais de idade, ocupadas na semana de referência - percentual do total geral",0,Total,2,Percentual,100.00
