NC,NN,D1C,D1N,D2C,D2N,D3C,D3N,D4C,D4N,D5C,D5N,MC,MN,V
Nível Territorial (Código),Nível Territorial,Unidade da Federação (Código),Unidade da Federação,Ano (Código),Ano,Variável (Código),Variável,Grupo de idade (Código),Grupo de idade,Situação de ocupação na semana de referência (Código),Situação de ocupação na semana de referência,Unidade de Medida (Código),Unidade de Medida,Valor
3,Unidade da Federação,11,Rondônia,2010,2010,3624,Taxa de analfabetismo das pessoas de 10 a 17 anos de idade,95253,Total,100543,Total,2,%,1.5
3,Unidade da Federação,11,Rondônia,2010,2010,3625,Percentual de pessoas que não frequentavam escola na população de 10 a 17 anos de idade,95253,Total,100543,Total,2,%,9.6
3,Unidade da Federação,12,Acre,2010,2010,3624,Taxa de analfabetismo das pessoas de 10 a 17 anos de idade,95253,Total,100543,Total,2,%,6.6
3,Unidade da Federação,12,Acre,2010,2010,3625,Percentual de pessoas que não frequentavam escola na população de 10 a 17 anos de idade,95253,Total,100543,Total,2,%,12.9
3,Unidade da Federação,13,Amazonas,2010,2010,3624,Taxa de analfabetismo das pessoas de 10 a 17 anos de idade,95253,Total,100543,Total,2,%,6.8
3,Unidade da Federação,13,Amazonas,2010,2010,3625,Percentual de pessoas que não frequentavam escola na população de 10 a 17 anos de idade,95253,Total,100543,Total,2,%,12.2
3,Unidade da Federação,14,Roraima,2010,2010,3624,Taxa de analfabetismo das pessoas de 10 a 17 anos de idade,95253,Total,100543,Total,2,%,5.0
3,Unidade da Federação,14,Roraima,2010,2010,3625,Percentual de pessoas que não frequentavam escola na população de 10 a 17 anos de idade,95253,Total,100543,Total,2,%,11.2
3,Unidade da Federação,15,Pará,2010,2010,3624,Taxa de analfabetismo das pessoas de 10 a 17 anos de idade,95253,Total,100543,Total,2,%,5.9
3,Unidade da Federação,15,Pará,2010,2010,3625,Percentual de pessoas que não frequentavam escola na população de 10 a 17 anos de idade,95253,Total,100543,Total,2,%,10.1
3,Unidade da Federação,16,Amapá,2010,2010,3624,Taxa de analfabetismo das pessoas de 10 a 17 anos de idade,95253,Total,100543,Total,2,%,3.7
3,Unidade da Federação,16,Amapá,2010,2010,3625,Percentual de pessoas que não frequentavam escola na população de 10 a 17 anos de idade,95253,Total,100543,Total,2,%,8.6
3,Unidade da Federação,17,Tocantins,2010,2010,3624,Taxa de analfabetismo das pessoas de 10 a 17 anos de idade,95253,Total,100543,Total,2,%,2.9
3,Unidade da Federação,17,Tocantins,2010,2010,3625,Percentual de pessoas que não frequentavam escola na população de 10 a 17 anos de idade,95253,Total,100543,Total,2,%,7.4
3,Unidade da Federação,21,Maranhão,2010,2010,3624,Taxa de analfabetismo das pessoas de 10 a 17 anos de idade,95253,Total,100543,Total,2,%,7.0
3,Unidade da Federação,21,Maranhão,2010,2010,3625,Percentual de pessoas que não frequentavam escola na população de 10 a 17 anos de idade,95253,Total,100543,Total,2,%,8.7
3,Unidade da Federação,22,Piauí,2010,2010,3624,Taxa de analfabetismo das pessoas de 10 a 17 anos de idade,95253,Total,100543,Total,2,%,5.9
3,Unidade da Federação,22,Piauí,2010,2010,3625,Percentual de pessoas que não frequentavam escola na população de 10 a 17 anos de idade,95253,Total,100543,Total,2,%,7.2
3,Unidade da Federação,23,Ceará,2010,2010,3624,Taxa de analfabetismo das pessoas de 10 a 17 anos de idade,95253,Total,100543,Total,2,%,3.9
3,Unidade da Federação,23,Ceará,2010,2010,3625,Percentual de pessoas que não frequentavam escola na população de 10 a 17 anos de idade,95253,Total,100543,Total,2,%,9.3
3,Unidade da Federação,24,Rio Grande do Norte,2010,2010,3624,Taxa de analfabetismo das pessoas de 10 a 17 anos de idade,95253,Total,100543,Total,2,%,5.6
3,Unidade da Federação,24,Rio Grande do Norte,2010,2010,3625,Percentual de pessoas que não frequentavam escola na população de 10 a 17 anos de idade,95253,Total,100543,Total,2,%,8.7
3,Unidade da Federação,25,Paraíba,2010,2010,3624,Taxa de analfabetismo das pessoas de 10 a 17 anos de idade,95253,Total,100543,Total,2,%,5.0
3,Unidade da Federação,25,Paraíba,2010,2010,3625,Percentual de pessoas que não frequentavam escola na população de 10 a 17 anos de idade,95253,Total,100543,Total,2,%,9.0
3,Unidade da Federação,26,Pernambuco,2010,2010,3624,Taxa de analfabetismo das pessoas de 10 a 17 anos de idade,95253,Total,100543,Total,2,%,5.2
3,Unidade da Federação,26,Pernambuco,2010,2010,3625,Percentual de pessoas que não frequentavam escola na população de 10 a 17 anos de idade,95253,Total,100543,Total,2,%,9.3
3,Unidade da Federação,27,Alagoas,2010,2010,3624,Taxa de analfabetismo das pessoas de 10 a 17 anos de idade,95253,Total,100543,Total,2,%,7.9
3,Unidade da Federação,27,Alagoas,2010,2010,3625,Percentual de pessoas que não frequentavam escola na população de 10 a 17 anos de idade,95253,Total,100543,Total,2,%,10.1
3,Unidade da Federação,28,Sergipe,2010,2010,3624,Taxa de analfabetismo das pessoas de 10 a 17 anos de idade,95253,Total,100543,Total,2,%,5.1
3,Unidade da Federação,28,Sergipe,2010,2010,3625,Percentual de pessoas que não frequentavam escola na população de 10 a 17 anos de idade,95253,Total,100543,Total,2,%,7.4
3,Unidade da Federação,29,Bahia,2010,2010,3624,Taxa de analfabetismo das pessoas de 10 a 17 anos de idade,95253,Total,100543,Total,2,%,4.5
3,Unidade da Federação,29,Bahia,2010,2010,3625,Percentual de pessoas que não frequentavam escola na população de 10 a 17 anos de idade,95253,Total,100543,Total,2,%,8.3
3,Unidade da Federação,31,Minas Gerais,2010,2010,3624,Taxa de analfabetismo das pessoas de 10 a 17 anos de idade,95253,Total,100543,Total,2,%,1.4
3,Unidade da Federação,31,Minas Gerais,2010,2010,3625,Percentual de pessoas que não frequentavam escola na população de 10 a 17 anos de idade,95253,Total,100543,Total,2,%,8.1
3,Unidade da Federação,32,Espírito Santo,2010,2010,3624,Taxa de analfabetismo das pessoas de 10 a 17 anos de idade,95253,Total,100543,Total,2,%,1.5
3,Unidade da Federação,32,Espírito Santo,2010,2010,3625,Percentual de pessoas que não frequentavam escola na população de 10 a 17 anos de idade,95253,Total,100543,Total,2,%,9.2
3,Unidade da Federação,33,Rio de Janeiro,2010,2010,3624,Taxa de analfabetismo das pessoas de 10 a 17 anos de idade,95253,Total,100543,Total,2,%,1.6
3,Unidade da Federação,33,Rio de Janeiro,2010,2010,3625,Percentual de pessoas que não frequentavam escola na população de 10 a 17 anos de idade,95253,Total,100543,Total,2,%,6.9
3,Unidade da Federação,35,São Paulo,2010,2010,3624,Taxa de analfabetismo das pessoas de 10 a 17 anos de idade,95253,Total,100543,Total,2,%,1.1
3,Unidade da Federação,35,São Paulo,2010,2010,3625,Percentual de pessoas que não frequentavam escola na população de 10 a 17 anos de idade,95253,Total,100543,Total,2,%,7.6
3,Unidade da Federação,41,Paraná,2010,2010,3624,Taxa de analfabetismo das pessoas de 10 a 17 anos de idade,95253,Total,100543,Total,2,%,1.0
3,Unidade da Federação,41,Paraná,2010,2010,3625,Percentual de pessoas que não frequentavam escola na população de 10 a 17 anos de idade,95253,Total,100543,Total,2,%,9.2
3,Unidade da Federação,42,Santa Catarina,2010,2010,3624,Taxa de analfabetismo das pessoas de 10 a 17 anos de idade,95253,Total,100543,Total,2,%,0.9
3,Unidade da Federação,42,Santa Catarina,2010,2010,3625,Percentual de pessoas que não frequentavam escola na população de 10 a 17 anos de idade,95253,Total,100543,Total,2,%,9.1
3,Unidade da Federação,43,Rio Grande do Sul,2010,2010,3624,Taxa de analfabetismo das pessoas de 10 a 17 anos de idade,95253,Total,100543,Total,2,%,1.2
3,Unidade da Federação,43,Rio Grande do Sul,2010,2010,3625,Percentual de pessoas que não frequentavam escola na população de 10 a 17 anos de idade,95253,Total,100543,Total,2,%,8.0
3,Unidade da Federação,50,Mato Grosso do Sul,2010,2010,3624,Taxa de analfabetismo das pessoas de 10 a 17 anos de idade,95253,Total,100543,Total,2,%,1.3
3,Unidade da Federação,50,Mato Grosso do Sul,2010,2010,3625,Percentual de pessoas que não frequentavam escola na população de 10 a 17 anos de idade,95253,Total,100543,Total,2,%,9.9
3,Unidade da Federação,51,Mato Grosso,2010,2010,3624,Taxa de analfabetismo das pessoas de 10 a 17 anos de idade,95253,Total,100543,Total,2,%,1.8
3,Unidade da Federação,51,Mato Grosso,2010,2010,3625,Percentual de pessoas que não frequentavam escola na população de 10 a 17 anos de idade,95253,Total,100543,Total,2,%,9.3
3,Unidade da Federação,52,Goiás,2010,2010,3624,Taxa de analfabetismo das pessoas de 10 a 17 anos de idade,95253,Total,100543,Total,2,%,1.3
3,Unidade da Federação,52,Goiás,2010,2010,3625,Percentual de pessoas que não frequentavam escola na população de 10 a 17 anos de idade,95253,Total,100543,Total,2,%,8.1
3,Unidade da Federação,53,Distrito Federal,2010,2010,3624,Taxa de analfabetismo das pessoas de 10 a 17 anos de idade,95253,Total,100543,Total,2,%,1.0
3,Unidade da Federação,53,Distrito Federal,2010,2010,3625,Percentual de pessoas que não frequentavam escola na população de 10 a 17 anos de idade,95253,Total,100543,Total,2,%,6.0
