NC,NN,D1C,D1N,D2C,D2N,D3C,D3N,D4C,D4N,D5C,D5N,MC,MN,V
Nível Territorial (Código),Nível Territorial,Unidade da Federação (Código),Unidade da Federação,Ano (Código),Ano,Variável (Código),Variável,Situação do domicílio (Código),Situação do domicílio,Grupo de idade (Código),Grupo de idade,Unidade de Medida (Código),Unidade de Medida,Valor
3,Unidade da Federação,11,Rondônia,2010,2010,3622,Pessoas de 10 a 17 anos de idade que não frequentavam escola,6795,Total,95253,Total,45,Pessoas,24293
3,Unidade da Federação,11,Rondônia,2010,2010,3625,Percentual de pessoas que não frequentavam escola na população de 10 a 17 anos de idade,6795,Total,95253,Total,2,%,9.6
3,Unidade da Federação,12,Acre,2010,2010,3622,Pessoas de 10 a 17 anos de idade que não frequentavam escola,6795,Total,95253,Total,45,Pessoas,17516
3,Unidade da Federação,12,Acre,2010,2010,3625,Percentual de pessoas que não frequentavam escola na população de 10 a 17 anos de idade,6795,Total,95253,Total,2,%,12.9
3,Unidade da Federação,13,Amazonas,2010,2010,3622,Pessoas de 10 a 17 anos de idade que não frequentavam escola,6795,Total,95253,Total,45,Pessoas,76865
3,Unidade da Federação,13,Amazonas,2010,2010,3625,Percentual de pessoas que não frequentavam escola na população de 10 a 17 anos de idade,6795,Total,95253,Total,2,%,12.2
3,Unidade da Federação,14,Roraima,2010,2010,3622,Pessoas de 10 a 17 anos de idade que não frequentavam escola,6795,Total,95253,Total,45,Pessoas,9148
3,Unidade da Federação,14,Roraima,2010,2010,3625,Percentual de pessoas que não frequentavam escola na população de 10 a 17 anos de idade,6795,Total,95253,Total,2,%,11.2
3,Unidade da Federação,15,Pará,2010,2010,3622,Pessoas de 10 a 17 anos de idade que não frequentavam escola,6795,Total,95253,Total,45,Pessoas,133515
3,Unidade da Federação,15,Pará,2010,2010,3625,Percentual de pessoas que não frequentavam escola na população de 10 a 17 anos de idade,6795,Total,95253,Total,2,%,10.1
3,Unidade da Federação,16,Amapá,2010,2010,3622,Pessoas de 10 a 17 anos de idade que não frequentavam escola,6795,Total,95253,Total,45,Pessoas,10737
3,Unidade da Federação,16,Amapá,2010,2010,3625,Percentual de pessoas que não frequentavam escola na população de 10 a 17 anos de idade,6795,Total,95253,Total,2,%,8.6
3,Unidade da Federação,17,Tocantins,2010,2010,3622,Pessoas de 10 a 17 anos de idade que não frequentavam escola,6795,Total,95253,Total,45,Pessoas,17108
3,Unidade da Federação,17,Tocantins,2010,2010,3625,Percentual de pessoas que não frequentavam escola na população de 10 a 17 anos de idade,6795,Total,95253,Total,2,%,7.4
3,Unidade da Federação,21,Maranhão,2010,2010,3622,Pessoas de 10 a 17 anos de idade que não frequentavam escola,6795,Total,95253,Total,45,Pessoas,99276
3,Unidade da Federação,21,Maranhão,2010,2010,3625,Percentual de pessoas que não frequentavam escola na população de 10 a 17 anos de idade,6795,Total,95253,Total,2,%,8.7
3,Unidade da Federação,22,Piauí,2010,2010,3622,Pessoas de 10 a 17 anos de idade que não frequentavam escola,6795,Total,95253,Total,45,Pessoas,35306
3,Unidade da Federação,22,Piauí,2010,2010,3625,Percentual de pessoas que não frequentavam escola na população de 10 a 17 anos de idade,6795,Total,95253,Total,2,%,7.2
3,Unidade da Federação,23,Ceará,2010,2010,3622,Pessoas de 10 a 17 anos de idade que não frequentavam escola,6795,Total,95253,Total,45,Pessoas,128283
3,Unidade da Federação,23,Ceará,2010,2010,3625,Percentual de pessoas que não frequentavam escola na população de 10 a 17 anos de idade,6795,Total,95253,Total,2,%,9.3
3,Unidade da Federação,24,Rio Grande do Norte,2010,2010,3622,Pessoas de 10 a 17 anos de idade que não frequentavam escola,6795,Total,95253,Total,45,Pessoas,41384
3,Unidade da Federação,24,Rio Grande do Norte,2010,2010,3625,Percentual de pessoas que não frequentavam escola na população de 10 a 17 anos de idade,6795,Total,95253,Total,2,%,8.7
3,Unidade da Federação,25,Paraíba,2010,2010,3622,Pessoas de 10 a 17 anos de idade que não frequentavam escola,6795,Total,95253,Total,45,Pessoas,50960
3,Unidade da Federação,25,Paraíba,2010,2010,3625,Percentual de pessoas que não frequentavam escola na população de 10 a 17 anos de idade,6795,Total,95253,Total,2,%,9.0
3,Unidade da Federação,26,Pernambuco,2010,2010,3622,Pessoas de 10 a 17 anos de idade que não frequentavam escola,6795,Total,95253,Total,45,Pessoas,123166
3,Unidade da Federação,26,Pernambuco,2010,2010,3625,Percentual de pessoas que não frequentavam escola na população de 10 a 17 anos de idade,6795,Total,95253,Total,2,%,9.3
3,Unidade da Federação,27,Alagoas,2010,2010,3622,Pessoas de 10 a 17 anos de idade que não frequentavam escola,6795,Total,95253,Total,45,Pessoas,53526
3,Unidade da Federação,27,Alagoas,2010,2010,3625,Percentual de pessoas que não frequentavam escola na população de 10 a 17 anos de idade,6795,Total,95253,Total,2,%,10.1
3,Unidade da Federação,28,Sergipe,2010,2010,3622,Pessoas de 10 a 17 anos de idade que não frequentavam escola,6795,Total,95253,Total,45,Pessoas,24707
3,Unidade da Federação,28,Sergipe,2010,2010,3625,Percentual de pessoas que não frequentavam escola na população de 10 a 17 anos de idade,6795,Total,95253,Total,2,%,7.4
3,Unidade da Federação,29,Bahia,2010,2010,3622,Pessoas de 10 a 17 anos de idade que não frequentavam escola,6795,Total,95253,Total,45,Pessoas,180097
3,Unidade da Federação,29,Bahia,2010,2010,3625,Percentual de pessoas que não frequentavam escola na população de 10 a 17 anos de idade,6795,Total,95253,Total,2,%,8.3
3,Unidade da Federação,31,Minas Gerais,2010,2010,3622,Pessoas de 10 a 17 anos de idade que não frequentavam escola,6795,Total,95253,Total,45,Pessoas,220879
3,Unidade da Federação,31,Minas Gerais,2010,2010,3625,Percentual de pessoas que não frequentavam escola na população de 10 a 17 anos de idade,6795,Total,95253,Total,2,%,8.1
3,Unidade da Federação,32,Espírito Santo,2010,2010,3622,Pessoas de 10 a 17 anos de idade que não frequentavam escola,6795,Total,95253,Total,45,Pessoas,44579
3,Unidade da Federação,32,Espírito Santo,2010,2010,3625,Percentual de pessoas que não frequentavam escola na população de 10 a 17 anos de idade,6795,Total,95253,Total,2,%,9.2
3,Unidade da Federação,33,Rio de Janeiro,2010,2010,3622,Pessoas de 10 a 17 anos de idade que não frequentavam escola,6795,Total,95253,Total,45,Pessoas,144265
3,Unidade da Federação,33,Rio de Janeiro,2010,2010,3625,Percentual de pessoas que não frequentavam escola na população de 10 a 17 anos de idade,6795,Total,95253,Total,2,%,6.9
3,Unidade da Federação,35,São Paulo,2010,2010,3622,Pessoas de 10 a 17 anos de idade que não frequentavam escola,6795,Total,95253,Total,45,Pessoas,402816
3,Unidade da Federação,35,São Paulo,2010,2010,3625,Percentual de pessoas que não frequentavam escola na população de 10 a 17 anos de idade,6795,Total,95253,Total,2,%,7.6
3,Unidade da Federação,41,Paraná,2010,2010,3622,Pessoas de 10 a 17 anos de idade que não frequentavam escola,6795,Total,95253,Total,45,Pessoas,136330
3,Unidade da Federação,41,Paraná,2010,2010,3625,Percentual de pessoas que não frequentavam escola na população de 10 a 17 anos de idade,6795,Total,95253,Total,2,%,9.2
3,Unidade da Federação,42,Santa Catarina,2010,2010,3622,Pessoas de 10 a 17 anos de idade que não frequentavam escola,6795,Total,95253,Total,45,Pessoas,77113
3,Unidade da Federação,42,Santa Catarina,2010,2010,3625,Percentual de pessoas que não frequentavam escola na população de 10 a 17 anos de idade,6795,Total,95253,Total,2,%,9.1
3,Unidade da Federação,43,Rio Grande do Sul,2010,2010,3622,Pessoas de 10 a 17 anos de idade que não frequentavam escola,6795,Total,95253,Total,45,Pessoas,111693
3,Unidade da Federação,43,Rio Grande do Sul,2010,2010,3625,Percentual de pessoas que não frequentavam escola na população de 10 a 17 anos de idade,6795,Total,95253,Total,2,%,8.0
3,Unidade da Federação,50,Mato Grosso do Sul,2010,2010,3622,Pessoas de 10 a 17 anos de idade que não frequentavam escola,6795,Total,95253,Total,45,Pessoas,35990
3,Unidade da Federação,50,Mato Grosso do Sul,2010,2010,3625,Percentual de pessoas que não frequentavam escola na população de 10 a 17 anos de idade,6795,Total,95253,Total,2,%,9.9
3,Unidade da Federação,51,Mato Grosso,2010,2010,3622,Pessoas de 10 a 17 anos de idade que não frequentavam escola,6795,Total,95253,Total,45,Pessoas,42460
3,Unidade da Federação,51,Mato Grosso,2010,2010,3625,Percentual de pessoas que não frequentavam escola na população de 10 a 17 anos de idade,6795,Total,95253,Total,2,%,9.3
3,Unidade da Federação,52,Goiás,2010,2010,3622,Pessoas de 10 a 17 anos de idade que não frequentavam escola,6795,Total,95253,Total,45,Pessoas,69607
3,Unidade da Federação,52,Goiás,2010,2010,3625,Percentual de pessoas que não frequentavam escola na população de 10 a 17 anos de idade,6795,Total,95253,Total,2,%,8.1
3,Unidade da Federação,53,Distrito Federal,2010,2010,3622,Pessoas de 10 a 17 anos de idade que não frequentavam escola,6795,Total,95253,Total,45,Pessoas,20952
3,Unidade da Federação,53,Distrito Federal,2010,2010,3625,Percentual de pessoas que não frequentavam escola na população de 10 a 17 anos de idade,6795,Total,95253,Total,2,%,6.0
