NC,NN,D1C,D1N,D2C,D2N,D3C,D3N,D4C,D4N,D5C,D5N,MC,MN,V
Nível Territorial (Código),Nível Territorial,Unidade da Federação (Código),Unidade da Federação,Ano (Código),Ano,Variável (Código),Variável,Sexo (Código),Sexo,Grupo de idade (Código),Grupo de idade,Unidade de Medida (Código),Unidade de Medida,Valor
3,Unidade da Federação,11,Rondônia,2010,2010,3920,"Percentual de pessoas de 10 anos ou mais de idade, distribuído pelos grupos de idade",6794,Total,95253,Total,2,%,100.0
3,Unidade da Federação,11,Rondônia,2010,2010,3921,"Percentual de pessoas de 10 anos ou mais de idade, ocupadas na semana de referência, distribuído pelos grupos de idade",6794,Total,95253,Total,2,%,100.0
3,Unidade da Federação,12,Acre,2010,2010,3920,"Percentual de pessoas de 10 anos ou mais de idade, distribuído pelos grupos de idade",6794,Total,95253,Total,2,%,100.0
3,Unidade da Federação,12,Acre,2010,2010,3921,"Percentual de pessoas de 10 anos ou mais de idade, ocupadas na semana de referência, distribuído pelos grupos de idade",6794,Total,95253,Total,2,%,100.0
3,Unidade da Federação,13,Amazonas,2010,2010,3920,"Percentual de pessoas de 10 anos ou mais de idade, distribuído pelos grupos de idade",6794,Total,95253,Total,2,%,100.0
3,Unidade da Federação,13,Amazonas,2010,2010,3921,"Percentual de pessoas de 10 anos ou mais de idade, ocupadas na semana de referência, distribuído pelos grupos de idade",6794,Total,95253,Total,2,%,100.0
3,Unidade da Federação,14,Roraima,2010,2010,3920,"Percentual de pessoas de 10 anos ou mais de idade, distribuído pelos grupos de idade",6794,Total,95253,Total,2,%,100.0
3,Unidade da Federação,14,Roraima,2010,2010,3921,"Percentual de pessoas de 10 anos ou mais de idade, ocupadas na semana de referência, distribuído pelos grupos de idade",6794,Total,95253,Total,2,%,100.0
3,Unidade da Federação,15,Pará,2010,2010,3920,"Percentual de pessoas de 10 anos ou mais de idade, distribuído pelos grupos de idade",6794,Total,95253,Total,2,%,100.0
3,Unidade da Federação,15,Pará,2010,2010,3921,"Percentual de pessoas de 10 anos ou mais de idade, ocupadas na semana de referência, distribuído pelos grupos de idade",6794,Total,95253,Total,2,%,100.0
3,Unidade da Federação,16,Amapá,2010,2010,3920,"Percentual de pessoas de 10 anos ou mais de idade, distribuído pelos grupos de idade",6794,Total,95253,Total,2,%,100.0
3,Unidade da Federação,16,Amapá,2010,2010,3921,"Percentual de pessoas de 10 anos ou mais de idade, ocupadas na semana de referência, distribuído pelos grupos de idade",6794,Total,95253,Total,2,%,100.0
3,Unidade da Federação,17,Tocantins,2010,2010,3920,"Percentual de pessoas de 10 anos ou mais de idade, distribuído pelos grupos de idade",6794,Total,95253,Total,2,%,100.0
3,Unidade da Federação,17,Tocantins,2010,2010,3921,"Percentual de pessoas de 10 anos ou mais de idade, ocupadas na semana de referência, distribuído pelos grupos de idade",6794,Total,95253,Total,2,%,100.0
3,Unidade da Federação,21,Maranhão,2010,2010,3920,"Percentual de pessoas de 10 anos ou mais de idade, distribuído pelos grupos de idade",6794,Total,95253,Total,2,%,100.0
3,Unidade da Federação,21,Maranhão,2010,2010,3921,"Percentual de pessoas de 10 anos ou mais de idade, ocupadas na semana de referência, distribuído pelos grupos de idade",6794,Total,95253,Total,2,%,100.0
3,Unidade da Federação,22,Piauí,2010,2010,3920,"Percentual de pessoas de 10 anos ou mais de idade, distribuído pelos grupos de idade",6794,Total,95253,Total,2,%,100.0
3,Unidade da Federação,22,Piauí,2010,2010,3921,"Percentual de pessoas de 10 anos ou mais de idade, ocupadas na semana de referência, distribuído pelos grupos de idade",6794,Total,95253,Total,2,%,100.0
3,Unidade da Federação,23,Ceará,2010,2010,3920,"Percentual de pessoas de 10 anos ou mais de idade, distribuído pelos grupos de idade",6794,Total,95253,Total,2,%,100.0
3,Unidade da Federação,23,Ceará,2010,2010,3921,"Percentual de pessoas de 10 anos ou mais de idade, ocupadas na semana de referência, distribuído pelos grupos de idade",6794,Total,95253,Total,2,%,100.0
3,Unidade da Federação,24,Rio Grande do Norte,2010,2010,3920,"Percentual de pessoas de 10 anos ou mais de idade, distribuído pelos grupos de idade",6794,Total,95253,Total,2,%,100.0
3,Unidade da Federação,24,Rio Grande do Norte,2010,2010,3921,"Percentual de pessoas de 10 anos ou mais de idade, ocupadas na semana de referência, distribuído pelos grupos de idade",6794,Total,95253,Total,2,%,100.0
3,Unidade da Federação,25,Paraíba,2010,2010,3920,"Percentual de pessoas de 10 anos ou mais de idade, distribuído pelos grupos de idade",6794,Total,95253,Total,2,%,100.0
3,Unidade da Federação,25,Paraíba,2010,2010,3921,"Percentual de pessoas de 10 anos ou mais de idade, ocupadas na semana de referência, distribuído pelos grupos de idade",6794,Total,95253,Total,2,%,100.0
3,Unidade da Federação,26,Pernambuco,2010,2010,3920,"Percentual de pessoas de 10 anos ou mais de idade, distribuído pelos grupos de idade",6794,Total,95253,Total,2,%,100.0
3,Unidade da Federação,26,Pernambuco,2010,2010,3921,"Percentual de pessoas de 10 anos ou mais de idade, ocupadas na semana de referência, distribuído pelos grupos de idade",6794,Total,95253,Total,2,%,100.0
3,Unidade da Federação,27,Alagoas,2010,2010,3920,"Percentual de pessoas de 10 anos ou mais de idade, distribuído pelos grupos de idade",6794,Total,95253,Total,2,%,100.0
3,Unidade da Federação,27,Alagoas,2010,2010,3921,"Percentual de pessoas de 10 anos ou mais de idade, ocupadas na semana de referência, distribuído pelos grupos de idade",6794,Total,95253,Total,2,%,100.0
3,Unidade da Federação,28,Sergipe,2010,2010,3920,"Percentual de pessoas de 10 anos ou mais de idade, distribuído pelos grupos de idade",6794,Total,95253,Total,2,%,100.0
3,Unidade da Federação,28,Sergipe,2010,2010,3921,"Percentual de pessoas de 10 anos ou mais de idade, ocupadas na semana de referência, distribuído pelos grupos de idade",6794,Total,95253,Total,2,%,100.0
3,Unidade da Federação,29,Bahia,2010,2010,3920,"Percentual de pessoas de 10 anos ou mais de idade, distribuído pelos grupos de idade",6794,Total,95253,Total,2,%,100.0
3,Unidade da Federação,29,Bahia,2010,2010,3921,"Percentual de pessoas de 10 anos ou mais de idade, ocupadas na semana de referência, distribuído pelos grupos de idade",6794,Total,95253,Total,2,%,100.0
3,Unidade da Federação,31,Minas Gerais,2010,2010,3920,"Percentual de pessoas de 10 anos ou mais de idade, distribuído pelos grupos de idade",6794,Total,95253,Total,2,%,100.0
3,Unidade da Federação,31,Minas Gerais,2010,2010,3921,"Percentual de pessoas de 10 anos ou mais de idade, ocupadas na semana de referência, distribuído pelos grupos de idade",6794,Total,95253,Total,2,%,100.0
3,Unidade da Federação,32,Espírito Santo,2010,2010,3920,"Percentual de pessoas de 10 anos ou mais de idade, distribuído pelos grupos de idade",6794,Total,95253,Total,2,%,100.0
3,Unidade da Federação,32,Espírito Santo,2010,2010,3921,"Percentual de pessoas de 10 anos ou mais de idade, ocupadas na semana de referência, distribuído pelos grupos de idade",6794,Total,95253,Total,2,%,100.0
3,Unidade da Federação,33,Rio de Janeiro,2010,2010,3920,"Percentual de pessoas de 10 anos ou mais de idade, distribuído pelos grupos de idade",6794,Total,95253,Total,2,%,100.0
3,Unidade da Federação,33,Rio de Janeiro,2010,2010,3921,"Percentual de pessoas de 10 anos ou mais de idade, ocupadas na semana de referência, distribuído pelos grupos de idade",6794,Total,95253,Total,2,%,100.0
3,Unidade da Federação,35,São Paulo,2010,2010,3920,"Percentual de pessoas de 10 anos ou mais de idade, distribuído pelos grupos de idade",6794,Total,95253,Total,2,%,100.0
3,Unidade da Federação,35,São Paulo,2010,2010,3921,"Percentual de pessoas de 10 anos ou mais de idade, ocupadas na semana de referência, distribuído pelos grupos de idade",6794,Total,95253,Total,2,%,100.0
3,Unidade da Federação,41,Paraná,2010,2010,3920,"Percentual de pessoas de 10 anos ou mais de idade, distribuído pelos grupos de idade",6794,Total,95253,Total,2,%,100.0
3,Unidade da Federação,41,Paraná,2010,2010,3921,"Percentual de pessoas de 10 anos ou mais de idade, ocupadas na semana de referência, distribuído pelos grupos de idade",6794,Total,95253,Total,2,%,100.0
3,Unidade da Federação,42,Santa Catarina,2010,2010,3920,"Percentual de pessoas de 10 anos ou mais de idade, distribuído pelos grupos de idade",6794,Total,95253,Total,2,%,100.0
3,Unidade da Federação,42,Santa Catarina,2010,2010,3921,"Percentual de pessoas de 10 anos ou mais de idade, ocupadas na semana de referência, distribuído pelos grupos de idade",6794,Total,95253,Total,2,%,100.0
3,Unidade da Federação,43,Rio Grande do Sul,2010,2010,3920,"Percentual de pessoas de 10 anos ou mais de idade, distribuído pelos grupos de idade",6794,Total,95253,Total,2,%,100.0
3,Unidade da Federação,43,Rio Grande do Sul,2010,2010,3921,"Percentual de pessoas de 10 anos ou mais de idade, ocupadas na semana de referência, distribuído pelos grupos de idade",6794,Total,95253,Total,2,%,100.0
3,Unidade da Federação,50,Mato Grosso do Sul,2010,2010,3920,"Percentual de pessoas de 10 anos ou mais de idade, distribuído pelos grupos de idade",6794,Total,95253,Total,2,%,100.0
3,Unidade da Federação,50,Mato Grosso do Sul,2010,2010,3921,"Percentual de pessoas de 10 anos ou mais de idade, ocupadas na semana de referência, distribuído pelos grupos de idade",6794,Total,95253,Total,2,%,100.0
3,Unidade da Federação,51,Mato Grosso,2010,2010,3920,"Percentual de pessoas de 10 anos ou mais de idade, distribuído pelos grupos de idade",6794,Total,95253,Total,2,%,100.0
3,Unidade da Federação,51,Mato Grosso,2010,2010,3921,"Percentual de pessoas de 10 anos ou mais de idade, ocupadas na semana de referência, distribuído pelos grupos de idade",6794,Total,95253,Total,2,%,100.0
3,Unidade da Federação,52,Goiás,2010,2010,3920,"Percentual de pessoas de 10 anos ou mais de idade, distribuído pelos grupos de idade",6794,Total,95253,Total,2,%,100.0
3,Unidade da Federação,52,Goiás,2010,2010,3921,"Percentual de pessoas de 10 anos ou mais de idade, ocupadas na semana de referência, distribuído pelos grupos de idade",6794,Total,95253,Total,2,%,100.0
3,Unidade da Federação,53,Distrito Federal,2010,2010,3920,"Percentual de pessoas de 10 anos ou mais de idade, distribuído pelos grupos de idade",6794,Total,95253,Total,2,%,100.0
3,Unidade da Federação,53,Distrito Federal,2010,2010,3921,"Percentual de pessoas de 10 anos ou mais de idade, ocupadas na semana de referência, distribuído pelos grupos de idade",6794,Total,95253,Total,2,%,100.0
