NC,NN,D1C,D1N,D2C,D2N,D3C,D3N,D4C,D4N,D5C,D5N,MC,MN,V
Nível Territorial (Código),Nível Territorial,Unidade da Federação (Código),Unidade da Federação,Ano (Código),Ano,Variável (Código),Variável,Grupo de idade (Código),Grupo de idade,Frequência à escola (Código),Frequência à escola,Unidade de Medida (Código),Unidade de Medida,Valor
3,Unidade da Federação,11,Rondônia,2010,2010,3623,"Nível da ocupação, na semana de referência, das pessoas de 10 a 17 anos de idade",95253,Total,100553,Total,2,%,18.2
3,Unidade da Federação,12,Acre,2010,2010,3623,"Nível da ocupação, na semana de referência, das pessoas de 10 a 17 anos de idade",95253,Total,100553,Total,2,%,12.1
3,Unidade da Federação,13,Amazonas,2010,2010,3623,"Nível da ocupação, na semana de referência, das pessoas de 10 a 17 anos de idade",95253,Total,100553,Total,2,%,13.1
3,Unidade da Federação,14,Roraima,2010,2010,3623,"Nível da ocupação, na semana de referência, das pessoas de 10 a 17 anos de idade",95253,Total,100553,Total,2,%,13.8
3,Unidade da Federação,15,Pará,2010,2010,3623,"Nível da ocupação, na semana de referência, das pessoas de 10 a 17 anos de idade",95253,Total,100553,Total,2,%,13.6
3,Unidade da Federação,16,Amapá,2010,2010,3623,"Nível da ocupação, na semana de referência, das pessoas de 10 a 17 anos de idade",95253,Total,100553,Total,2,%,9.9
3,Unidade da Federação,17,Tocantins,2010,2010,3623,"Nível da ocupação, na semana de referência, das pessoas de 10 a 17 anos de idade",95253,Total,100553,Total,2,%,13.2
3,Unidade da Federação,21,Maranhão,2010,2010,3623,"Nível da ocupação, na semana de referência, das pessoas de 10 a 17 anos de idade",95253,Total,100553,Total,2,%,12.7
3,Unidade da Federação,22,Piauí,2010,2010,3623,"Nível da ocupação, na semana de referência, das pessoas de 10 a 17 anos de idade",95253,Total,100553,Total,2,%,12.6
3,Unidade da Federação,23,Ceará,2010,2010,3623,"Nível da ocupação, na semana de referência, das pessoas de 10 a 17 anos de idade",95253,Total,100553,Total,2,%,11.7
3,Unidade da Federação,24,Rio Grande do Norte,2010,2010,3623,"Nível da ocupação, na semana de referência, das pessoas de 10 a 17 anos de idade",95253,Total,100553,Total,2,%,9.1
3,Unidade da Federação,25,Paraíba,2010,2010,3623,"Nível da ocupação, na semana de referência, das pessoas de 10 a 17 anos de idade",95253,Total,100553,Total,2,%,12.3
3,Unidade da Federação,26,Pernambuco,2010,2010,3623,"Nível da ocupação, na semana de referência, das pessoas de 10 a 17 anos de idade",95253,Total,100553,Total,2,%,11.1
3,Unidade da Federação,27,Alagoas,2010,2010,3623,"Nível da ocupação, na semana de referência, das pessoas de 10 a 17 anos de idade",95253,Total,100553,Total,2,%,12.0
3,Unidade da Federação,28,Sergipe,2010,2010,3623,"Nível da ocupação, na semana de referência, das pessoas de 10 a 17 anos de idade",95253,Total,100553,Total,2,%,11.1
3,Unidade da Federação,29,Bahia,2010,2010,3623,"Nível da ocupação, na semana de referência, das pessoas de 10 a 17 anos de idade",95253,Total,100553,Total,2,%,13.5
3,Unidade da Federação,31,Minas Gerais,2010,2010,3623,"Nível da ocupação, na semana de referência, das pessoas de 10 a 17 anos de idade",95253,Total,100553,Total,2,%,12.8
3,Unidade da Federação,32,Espírito Santo,2010,2010,3623,"Nível da ocupação, na semana de referência, das pessoas de 10 a 17 anos de idade",95253,Total,100553,Total,2,%,13.4
3,Unidade da Federação,33,Rio de Janeiro,2010,2010,3623,"Nível da ocupação, na semana de referência, das pessoas de 10 a 17 anos de idade",95253,Total,100553,Total,2,%,6.7
3,Unidade da Federação,35,São Paulo,2010,2010,3623,"Nível da ocupação, na semana de referência, das pessoas de 10 a 17 anos de idade",95253,Total,100553,Total,2,%,10.4
3,Unidade da Federação,41,Paraná,2010,2010,3623,"Nível da ocupação, na semana de referência, das pessoas de 10 a 17 anos de idade",95253,Total,100553,Total,2,%,16.3
3,Unidade da Federação,42,Santa Catarina,2010,2010,3623,"Nível da ocupação, na semana de referência, das pessoas de 10 a 17 anos de idade",95253,Total,100553,Total,2,%,18.9
3,Unidade da Federação,43,Rio Grande do Sul,2010,2010,3623,"Nível da ocupação, na semana de referência, das pessoas de 10 a 17 anos de idade",95253,Total,100553,Total,2,%,15.6
3,Unidade da Federação,50,Mato Grosso do Sul,2010,2010,3623,"Nível da ocupação, na semana de referência, das pessoas de 10 a 17 anos de idade",95253,Total,100553,Total,2,%,13.9
3,Unidade da Federação,51,Mato Grosso,2010,2010,3623,"Nível da ocupação, na semana de referência, das pessoas de 10 a 17 anos de idade",95253,Total,100553,Total,2,%,15.3
3,Unidade da Federação,52,Goiás,2010,2010,3623,"Nível da ocupação, na semana de referência, das pessoas de 10 a 17 anos de idade",95253,Total,100553,Total,2,%,15.5
3,Unidade da Federação,53,Distrito Federal,2010,2010,3623,"Nível da ocupação, na semana de referência, das pessoas de 10 a 17 anos de idade",95253,Total,100553,Total,2,%,8.5
