NC,NN,D1C,D1N,D2C,D2N,D3C,D3N,D4C,D4N,D5C,D5N,MC,MN,V
Nível Territorial (Código),Nível Territorial,Unidade da Federação (Código),Unidade da Federação,Ano (Código),Ano,Variável (Código),Variável,Grupo de idade (Código),Grupo de idade,Local da escola que frequentavam (Código),Local da escola que frequentavam,Unidade de Medida (Código),Unidade de Medida,Valor
3,Unidade da Federação,11,Rondônia,2010,2010,3931,Pessoas de 10 a 17 anos de idade que frequentavam escola,95253,Total,31579,Total,45,Pessoas,227903
3,Unidade da Federação,11,Rondônia,2010,2010,3932,"Percentual de pessoas que frequentavam escola na população de 10 a 17 anos de idade, distribuído pelo local da escola que frequentavam",95253,Total,31579,Total,2,%,100.0
3,Unidade da Federação,12,Acre,2010,2010,3931,Pessoas de 10 a 17 anos de idade que frequentavam escola,95253,Total,31579,Total,45,Pessoas,118603
3,Unidade da Federação,12,Acre,2010,2010,3932,"Percentual de pessoas que frequentavam escola na população de 10 a 17 anos de idade, distribuído pelo local da escola que frequentavam",95253,Total,31579,Total,2,%,100.0
3,Unidade da Federação,13,Amazonas,2010,2010,3931,Pessoas de 10 a 17 anos de idade que frequentavam escola,95253,Total,31579,Total,45,Pessoas,551384
3,Unidade da Federação,13,Amazonas,2010,2010,3932,"Percentual de pessoas que frequentavam escola na população de 10 a 17 anos de idade, distribuído pelo local da escola que frequentavam",95253,Total,31579,Total,2,%,100.0
3,Unidade da Federação,14,Roraima,2010,2010,3931,Pessoas de 10 a 17 anos de idade que frequentavam escola,95253,Total,31579,Total,45,Pessoas,72308
3,Unidade da Federação,14,Roraima,2010,2010,3932,"Percentual de pessoas que frequentavam escola na população de 10 a 17 anos de idade, distribuído pelo local da escola que frequentavam",95253,Total,31579,Total,2,%,100.0
3,Unidade da Federação,15,Pará,2010,2010,3931,Pessoas de 10 a 17 anos de idade que frequentavam escola,95253,Total,31579,Total,45,Pessoas,1189490
3,Unidade da Federação,15,Pará,2010,2010,3932,"Percentual de pessoas que frequentavam escola na população de 10 a 17 anos de idade, distribuído pelo local da escola que frequentavam",95253,Total,31579,Total,2,%,100.0
3,Unidade da Federação,16,Amapá,2010,2010,3931,Pessoas de 10 a 17 anos de idade que frequentavam escola,95253,Total,31579,Total,45,Pessoas,113655
3,Unidade da Federação,16,Amapá,2010,2010,3932,"Percentual de pessoas que frequentavam escola na população de 10 a 17 anos de idade, distribuído pelo local da escola que frequentavam",95253,Total,31579,Total,2,%,100.0
3,Unidade da Federação,17,Tocantins,2010,2010,3931,Pessoas de 10 a 17 anos de idade que frequentavam escola,95253,Total,31579,Total,45,Pessoas,212871
3,Unidade da Federação,17,Tocantins,2010,2010,3932,"Percentual de pessoas que frequentavam escola na população de 10 a 17 anos de idade, distribuído pelo local da escola que frequentavam",95253,Total,31579,Total,2,%,100.0
3,Unidade da Federação,21,Maranhão,2010,2010,3931,Pessoas de 10 a 17 anos de idade que frequentavam escola,95253,Total,31579,Total,45,Pessoas,1041011
3,Unidade da Federação,21,Maranhão,2010,2010,3932,"Percentual de pessoas que frequentavam escola na população de 10 a 17 anos de idade, distribuído pelo local da escola que frequentavam",95253,Total,31579,Total,2,%,100.0
3,Unidade da Federação,22,Piauí,2010,2010,3931,Pessoas de 10 a 17 anos de idade que frequentavam escola,95253,Total,31579,Total,45,Pessoas,458380
3,Unidade da Federação,22,Piauí,2010,2010,3932,"Percentual de pessoas que frequentavam escola na população de 10 a 17 anos de idade, distribuído pelo local da escola que frequentavam",95253,Total,31579,Total,2,%,100.0
3,Unidade da Federação,23,Ceará,2010,2010,3931,Pessoas de 10 a 17 anos de idade que frequentavam escola,95253,Total,31579,Total,45,Pessoas,1244172
3,Unidade da Federação,23,Ceará,2010,2010,3932,"Percentual de pessoas que frequentavam escola na população de 10 a 17 anos de idade, distribuído pelo local da escola que frequentavam",95253,Total,31579,Total,2,%,100.0
3,Unidade da Federação,24,Rio Grande do Norte,2010,2010,3931,Pessoas de 10 a 17 anos de idade que frequentavam escola,95253,Total,31579,Total,45,Pessoas,436763
3,Unidade da Federação,24,Rio Grande do Norte,2010,2010,3932,"Percentual de pessoas que frequentavam escola na população de 10 a 17 anos de idade, distribuído pelo local da escola que frequentavam",95253,Total,31579,Total,2,%,100.0
3,Unidade da Federação,25,Paraíba,2010,2010,3931,Pessoas de 10 a 17 anos de idade que frequentavam escola,95253,Total,31579,Total,45,Pessoas,512868
3,Unidade da Federação,25,Paraíba,2010,2010,3932,"Percentual de pessoas que frequentavam escola na população de 10 a 17 anos de idade, distribuído pelo local da escola que frequentavam",95253,Total,31579,Total,2,%,100.0
3,Unidade da Federação,26,Pernambuco,2010,2010,3931,Pessoas de 10 a 17 anos de idade que frequentavam escola,95253,Total,31579,Total,45,Pessoas,1206064
3,Unidade da Federação,26,Pernambuco,2010,2010,3932,"Percentual de pessoas que frequentavam escola na população de 10 a 17 anos de idade, distribuído pelo local da escola que frequentavam",95253,Total,31579,Total,2,%,100.0
3,Unidade da Federação,27,Alagoas,2010,2010,3931,Pessoas de 10 a 17 anos de idade que frequentavam escola,95253,Total,31579,Total,45,Pessoas,478660
3,Unidade da Federação,27,Alagoas,2010,2010,3932,"Percentual de pessoas que frequentavam escola na população de 10 a 17 anos de idade, distribuído pelo local da escola que frequentavam",95253,Total,31579,Total,2,%,100.0
3,Unidade da Federação,28,Sergipe,2010,2010,3931,Pessoas de 10 a 17 anos de idade que frequentavam escola,95253,Total,31579,Total,45,Pessoas,309383
3,Unidade da Federação,28,Sergipe,2010,2010,3932,"Percentual de pessoas que frequentavam escola na população de 10 a 17 anos de idade, distribuído pelo local da escola que frequentavam",95253,Total,31579,Total,2,%,100.0
3,Unidade da Federação,29,Bahia,2010,2010,3931,Pessoas de 10 a 17 anos de idade que frequentavam escola,95253,Total,31579,Total,45,Pessoas,1977692
3,Unidade da Federação,29,Bahia,2010,2010,3932,"Percentual de pessoas que frequentavam escola na população de 10 a 17 anos de idade, distribuído pelo local da escola que frequentavam",95253,Total,31579,Total,2,%,100.0
3,Unidade da Federação,31,Minas Gerais,2010,2010,3931,Pessoas de 10 a 17 anos de idade que frequentavam escola,95253,Total,31579,Total,45,Pessoas,2510658
3,Unidade da Federação,31,Minas Gerais,2010,2010,3932,"Percentual de pessoas que frequentavam escola na população de 10 a 17 anos de idade, distribuído pelo local da escola que frequentavam",95253,Total,31579,Total,2,%,100.0
3,Unidade da Federação,32,Espírito Santo,2010,2010,3931,Pessoas de 10 a 17 anos de idade que frequentavam escola,95253,Total,31579,Total,45,Pessoas,439717
3,Unidade da Federação,32,Espírito Santo,2010,2010,3932,"Percentual de pessoas que frequentavam escola na população de 10 a 17 anos de idade, distribuído pelo local da escola que frequentavam",95253,Total,31579,Total,2,%,100.0
3,Unidade da Federação,33,Rio de Janeiro,2010,2010,3931,Pessoas de 10 a 17 anos de idade que frequentavam escola,95253,Total,31579,Total,45,Pessoas,1931943
3,Unidade da Federação,33,Rio de Janeiro,2010,2010,3932,"Percentual de pessoas que frequentavam escola na população de 10 a 17 anos de idade, distribuído pelo local da escola que frequentavam",95253,Total,31579,Total,2,%,100.0
3,Unidade da Federação,35,São Paulo,2010,2010,3931,Pessoas de 10 a 17 anos de idade que frequentavam escola,95253,Total,31579,Total,45,Pessoas,4912267
3,Unidade da Federação,35,São Paulo,2010,2010,3932,"Percentual de pessoas que frequentavam escola na população de 10 a 17 anos de idade, distribuído pelo local da escola que frequentavam",95253,Total,31579,Total,2,%,100.0
3,Unidade da Federação,41,Paraná,2010,2010,3931,Pessoas de 10 a 17 anos de idade que frequentavam escola,95253,Total,31579,Total,45,Pessoas,1339216
3,Unidade da Federação,41,Paraná,2010,2010,3932,"Percentual de pessoas que frequentavam escola na população de 10 a 17 anos de idade, distribuído pelo local da escola que frequentavam",95253,Total,31579,Total,2,%,100.0
3,Unidade da Federação,42,Santa Catarina,2010,2010,3931,Pessoas de 10 a 17 anos de idade que frequentavam escola,95253,Total,31579,Total,45,Pessoas,769215
3,Unidade da Federação,42,Santa Catarina,2010,2010,3932,"Percentual de pessoas que frequentavam escola na população de 10 a 17 anos de idade, distribuído pelo local da escola que frequentavam",95253,Total,31579,Total,2,%,100.0
3,Unidade da Federação,43,Rio Grande do Sul,2010,2010,3931,Pessoas de 10 a 17 anos de idade que frequentavam escola,95253,Total,31579,Total,45,Pessoas,1281101
3,Unidade da Federação,43,Rio Grande do Sul,2010,2010,3932,"Percentual de pessoas que frequentavam escola na população de 10 a 17 anos de idade, distribuído pelo local da escola que frequentavam",95253,Total,31579,Total,2,%,100.0
3,Unidade da Federação,50,Mato Grosso do Sul,2010,2010,3931,Pessoas de 10 a 17 anos de idade que frequentavam escola,95253,Total,31579,Total,45,Pessoas,325776
3,Unidade da Federação,50,Mato Grosso do Sul,2010,2010,3932,"Percentual de pessoas que frequentavam escola na população de 10 a 17 anos de idade, distribuído pelo local da escola que frequentavam",95253,Total,31579,Total,2,%,100.0
3,Unidade da Federação,51,Mato Grosso,2010,2010,3931,Pessoas de 10 a 17 anos de idade que frequentavam escola,95253,Total,31579,Total,45,Pessoas,412771
3,Unidade da Federação,51,Mato Grosso,2010,2010,3932,"Percentual de pessoas que frequentavam escola na população de 10 a 17 anos de idade, distribuído pelo local da escola que frequentavam",95253,Total,31579,Total,2,%,100.0
3,Unidade da Federação,52,Goiás,2010,2010,3931,Pessoas de 10 a 17 anos de idade que frequentavam escola,95253,Total,31579,Total,45,Pessoas,785549
3,Unidade da Federação,52,Goiás,2010,2010,3932,"Percentual de pessoas que frequentavam escola na população de 10 a 17 anos de idade, distribuído pelo local da escola que frequentavam",95253,Total,31579,Total,2,%,100.0
3,Unidade da Federação,53,Distrito Federal,2010,2010,3931,Pessoas de 10 a 17 anos de idade que frequentavam escola,95253,Total,31579,Total,45,Pessoas,329011
3,Unidade da Federação,53,Distrito Federal,2010,2010,3932,"Percentual de pessoas que frequentavam escola na população de 10 a 17 anos de idade, distribuído pelo local da escola que frequentavam",95253,Total,31579,Total,2,%,100.0
