NC,NN,D1C,D1N,D2C,D2N,D3C,D3N,D4C,D4N,D5C,D5N,D6C,D6N,MC,MN,V
Nível Territorial (Código),Nível Territorial,Unidade da Federação (Código),Unidade da Federação,Ano (Código),Ano,Variável (Código),Variável,Sexo (Código),Sexo,Grupo de idade (Código),Grupo de idade,Situação de ocupação na semana de referência (Código),Situação de ocupação na semana de referência,Unidade de Medida (Código),Unidade de Medida,Valor
3,Unidade da Federação,11,Rondônia,2010,2010,3933,"Número médio de horas habitualmente trabalhadas por semana no trabalho principal das pessoas de 14 a 17 anos de idade, ocupadas na semana de referência",6794,Total,95253,Total,100543,Total,1574,Horas,29.3
3,Unidade da Federação,12,Acre,2010,2010,3933,"Número médio de horas habitualmente trabalhadas por semana no trabalho principal das pessoas de 14 a 17 anos de idade, ocupadas na semana de referência",6794,Total,95253,Total,100543,Total,1574,Horas,26.8
3,Unidade da Federação,13,Amazonas,2010,2010,3933,"Número médio de horas habitualmente trabalhadas por semana no trabalho principal das pessoas de 14 a 17 anos de idade, ocupadas na semana de referência",6794,Total,95253,Total,100543,Total,1574,Horas,29.6
3,Unidade da Federação,14,Roraima,2010,2010,3933,"Número médio de horas habitualmente trabalhadas por semana no trabalho principal das pessoas de 14 a 17 anos de idade, ocupadas na semana de referência",6794,Total,95253,Total,100543,Total,1574,Horas,25.3
3,Unidade da Federação,15,Pará,2010,2010,3933,"Número médio de horas habitualmente trabalhadas por semana no trabalho principal das pessoas de 14 a 17 anos de idade, ocupadas na semana de referência",6794,Total,95253,Total,100543,Total,1574,Horas,29.8
3,Unidade da Federação,16,Amapá,2010,2010,3933,"Número médio de horas habitualmente trabalhadas por semana no trabalho principal das pessoas de 14 a 17 anos de idade, ocupadas na semana de referência",6794,Total,95253,Total,100543,Total,1574,Horas,28.6
3,Unidade da Federação,17,Tocantins,2010,2010,3933,"Número médio de horas habitualmente trabalhadas por semana no trabalho principal das pessoas de 14 a 17 anos de idade, ocupadas na semana de referência",6794,Total,95253,Total,100543,Total,1574,Horas,31.3
3,Unidade da Federação,21,Maranhão,2010,2010,3933,"Número médio de horas habitualmente trabalhadas por semana no trabalho principal das pessoas de 14 a 17 anos de idade, ocupadas na semana de referência",6794,Total,95253,Total,100543,Total,1574,Horas,29.6
3,Unidade da Federação,22,Piauí,2010,2010,3933,"Número médio de horas habitualmente trabalhadas por semana no trabalho principal das pessoas de 14 a 17 anos de idade, ocupadas na semana de referência",6794,Total,95253,Total,100543,Total,1574,Horas,28.1
3,Unidade da Federação,23,Ceará,2010,2010,3933,"Número médio de horas habitualmente trabalhadas por semana no trabalho principal das pessoas de 14 a 17 anos de idade, ocupadas na semana de referência",6794,Total,95253,Total,100543,Total,1574,Horas,29.0
3,Unidade da Federação,24,Rio Grande do Norte,2010,2010,3933,"Número médio de horas habitualmente trabalhadas por semana no trabalho principal das pessoas de 14 a 17 anos de idade, ocupadas na semana de referência",6794,Total,95253,Total,100543,Total,1574,Horas,29.0
3,Unidade da Federação,25,Paraíba,2010,2010,3933,"Número médio de horas habitualmente trabalhadas por semana no trabalho principal das pessoas de 14 a 17 anos de idade, ocupadas na semana de referência",6794,Total,95253,Total,100543,Total,1574,Horas,28.0
3,Unidade da Federação,26,Pernambuco,2010,2010,3933,"Número médio de horas habitualmente trabalhadas por semana no trabalho principal das pessoas de 14 a 17 anos de idade, ocupadas na semana de referência",6794,Total,95253,Total,100543,Total,1574,Horas,29.8
3,Unidade da Federação,27,Alagoas,2010,2010,3933,"Número médio de horas habitualmente trabalhadas por semana no trabalho principal das pessoas de 14 a 17 anos de idade, ocupadas na semana de referência",6794,Total,95253,Total,100543,Total,1574,Horas,28.7
3,Unidade da Federação,28,Sergipe,2010,2010,3933,"Número médio de horas habitualmente trabalhadas por semana no trabalho principal das pessoas de 14 a 17 anos de idade, ocupadas na semana de referência",6794,Total,95253,Total,100543,Total,1574,Horas,27.5
3,Unidade da Federação,29,Bahia,2010,2010,3933,"Número médio de horas habitualmente trabalhadas por semana no trabalho principal das pessoas de 14 a 17 anos de idade, ocupadas na semana de referência",6794,Total,95253,Total,100543,Total,1574,Horas,26.3
3,Unidade da Federação,31,Minas Gerais,2010,2010,3933,"Número médio de horas habitualmente trabalhadas por semana no trabalho principal das pessoas de 14 a 17 anos de idade, ocupadas na semana de referência",6794,Total,95253,Total,100543,Total,1574,Horas,31.8
3,Unidade da Federação,32,Espírito Santo,2010,2010,3933,"Número médio de horas habitualmente trabalhadas por semana no trabalho principal das pessoas de 14 a 17 anos de idade, ocupadas na semana de referência",6794,Total,95253,Total,100543,Total,1574,Horas,30.1
3,Unidade da Federação,33,Rio de Janeiro,2010,2010,3933,"Número médio de horas habitualmente trabalhadas por semana no trabalho principal das pessoas de 14 a 17 anos de idade, ocupadas na semana de referência",6794,Total,95253,Total,100543,Total,1574,Horas,29.5
3,Unidade da Federação,35,São Paulo,2010,2010,3933,"Número médio de horas habitualmente trabalhadas por semana no trabalho principal das pessoas de 14 a 17 anos de idade, ocupadas na semana de referência",6794,Total,95253,Total,100543,Total,1574,Horas,33.0
3,Unidade da Federação,41,Paraná,2010,2010,3933,"Número médio de horas habitualmente trabalhadas por semana no trabalho principal das pessoas de 14 a 17 anos de idade, ocupadas na semana de referência",6794,Total,95253,Total,100543,Total,1574,Horas,31.8
3,Unidade da Federação,42,Santa Catarina,2010,2010,3933,"Número médio de horas habitualmente trabalhadas por semana no trabalho principal das pessoas de 14 a 17 anos de idade, ocupadas na semana de referência",6794,Total,95253,Total,100543,Total,1574,Horas,33.2
3,Unidade da Federação,43,Rio Grande do Sul,2010,2010,3933,"Número médio de horas habitualmente trabalhadas por semana no trabalho principal das pessoas de 14 a 17 anos de idade, ocupadas na semana de referência",6794,Total,95253,Total,100543,Total,1574,Horas,30.8
3,Unidade da Federação,50,Mato Grosso do Sul,2010,2010,3933,"Número médio de horas habitualmente trabalhadas por semana no trabalho principal das pessoas de 14 a 17 anos de idade, ocupadas na semana de referência",6794,Total,95253,Total,100543,Total,1574,Horas,32.3
3,Unidade da Federação,51,Mato Grosso,2010,2010,3933,"Número médio de horas habitualmente trabalhadas por semana no trabalho principal das pessoas de 14 a 17 anos de idade, ocupadas na semana de referência",6794,Total,95253,Total,100543,Total,1574,Horas,32.0
3,Unidade da Federação,52,Goiás,2010,2010,3933,"Número médio de horas habitualmente trabalhadas por semana no trabalho principal das pessoas de 14 a 17 anos de idade, ocupadas na semana de referência",6794,Total,95253,Total,100543,Total,1574,Horas,32.6
3,Unidade da Federação,53,Distrito Federal,2010,2010,3933,"Número médio de horas habitualmente trabalhadas por semana no trabalho principal das pessoas de 14 a 17 anos de idade, ocupadas na semana de referência",6794,Total,95253,Total,100543,Total,1574,Horas,26.6
