NC,NN,D1C,D1N,D2C,D2N,D3C,D3N,D4C,D4N,D5C,D5N,D6C,D6N,MC,MN,V
Nível Territorial (Código),Nível Territorial,Unidade da Federação (Código),Unidade da Federação,Ano (Código),Ano,Variável (Código),Variável,Grupo de idade (Código),Grupo de idade,Classes de rendimento mensal do trabalho principal (Código),Classes de rendimento mensal do trabalho principal,Situação de ocupação na semana de referência (Código),Situação de ocupação na semana de referência,Unidade de Medida (Código),Unidade de Medida,Valor
3,Unidade da Federação,11,Rondônia,2010,2010,3706,"Pessoas de 14 a 17 anos de idade, ocupadas na semana de referência",95253,Total,100600,Total,100543,Total,45,Pessoas,34601
3,Unidade da Federação,11,Rondônia,2010,2010,3947,"Percentual de pessoas de 14 a 17 anos de idade, ocupadas na semana de referência, distribuído pelas classes de rendimento mensal do trabalho principal",95253,Total,100600,Total,100543,Total,2,%,100.0
3,Unidade da Federação,12,Acre,2010,2010,3706,"Pessoas de 14 a 17 anos de idade, ocupadas na semana de referência",95253,Total,100600,Total,100543,Total,45,Pessoas,10653
3,Unidade da Federação,12,Acre,2010,2010,3947,"Percentual de pessoas de 14 a 17 anos de idade, ocupadas na semana de referência, distribuído pelas classes de rendimento mensal do trabalho principal",95253,Total,100600,Total,100543,Total,2,%,100.0
3,Unidade da Federação,13,Amazonas,2010,2010,3706,"Pessoas de 14 a 17 anos de idade, ocupadas na semana de referência",95253,Total,100600,Total,100543,Total,45,Pessoas,55008
3,Unidade da Federação,13,Amazonas,2010,2010,3947,"Percentual de pessoas de 14 a 17 anos de idade, ocupadas na semana de referência, distribuído pelas classes de rendimento mensal do trabalho principal",95253,Total,100600,Total,100543,Total,2,%,100.0
3,Unidade da Federação,14,Roraima,2010,2010,3706,"Pessoas de 14 a 17 anos de idade, ocupadas na semana de referência",95253,Total,100600,Total,100543,Total,45,Pessoas,7837
3,Unidade da Federação,14,Roraima,2010,2010,3947,"Percentual de pessoas de 14 a 17 anos de idade, ocupadas na semana de referência, distribuído pelas classes de rendimento mensal do trabalho principal",95253,Total,100600,Total,100543,Total,2,%,100.0
3,Unidade da Federação,15,Pará,2010,2010,3706,"Pessoas de 14 a 17 anos de idade, ocupadas na semana de referência",95253,Total,100600,Total,100543,Total,45,Pessoas,124848
3,Unidade da Federação,15,Pará,2010,2010,3947,"Percentual de pessoas de 14 a 17 anos de idade, ocupadas na semana de referência, distribuído pelas classes de rendimento mensal do trabalho principal",95253,Total,100600,Total,100543,Total,2,%,100.0
3,Unidade da Federação,16,Amapá,2010,2010,3706,"Pessoas de 14 a 17 anos de idade, ocupadas na semana de referência",95253,Total,100600,Total,100543,Total,45,Pessoas,8807
3,Unidade da Federação,16,Amapá,2010,2010,3947,"Percentual de pessoas de 14 a 17 anos de idade, ocupadas na semana de referência, distribuído pelas classes de rendimento mensal do trabalho principal",95253,Total,100600,Total,100543,Total,2,%,100.0
3,Unidade da Federação,17,Tocantins,2010,2010,3706,"Pessoas de 14 a 17 anos de idade, ocupadas na semana de referência",95253,Total,100600,Total,100543,Total,45,Pessoas,23625
3,Unidade da Federação,17,Tocantins,2010,2010,3947,"Percentual de pessoas de 14 a 17 anos de idade, ocupadas na semana de referência, distribuído pelas classes de rendimento mensal do trabalho principal",95253,Total,100600,Total,100543,Total,2,%,100.0
3,Unidade da Federação,21,Maranhão,2010,2010,3706,"Pessoas de 14 a 17 anos de idade, ocupadas na semana de referência",95253,Total,100600,Total,100543,Total,45,Pessoas,102011
3,Unidade da Federação,21,Maranhão,2010,2010,3947,"Percentual de pessoas de 14 a 17 anos de idade, ocupadas na semana de referência, distribuído pelas classes de rendimento mensal do trabalho principal",95253,Total,100600,Total,100543,Total,2,%,100.0
3,Unidade da Federação,22,Piauí,2010,2010,3706,"Pessoas de 14 a 17 anos de idade, ocupadas na semana de referência",95253,Total,100600,Total,100543,Total,45,Pessoas,45271
3,Unidade da Federação,22,Piauí,2010,2010,3947,"Percentual de pessoas de 14 a 17 anos de idade, ocupadas na semana de referência, distribuído pelas classes de rendimento mensal do trabalho principal",95253,Total,100600,Total,100543,Total,2,%,100.0
3,Unidade da Federação,23,Ceará,2010,2010,3706,"Pessoas de 14 a 17 anos de idade, ocupadas na semana de referência",95253,Total,100600,Total,100543,Total,45,Pessoas,122089
3,Unidade da Federação,23,Ceará,2010,2010,3947,"Percentual de pessoas de 14 a 17 anos de idade, ocupadas na semana de referência, distribuído pelas classes de rendimento mensal do trabalho principal",95253,Total,100600,Total,100543,Total,2,%,100.0
3,Unidade da Federação,24,Rio Grande do Norte,2010,2010,3706,"Pessoas de 14 a 17 anos de idade, ocupadas na semana de referência",95253,Total,100600,Total,100543,Total,45,Pessoas,33906
3,Unidade da Federação,24,Rio Grande do Norte,2010,2010,3947,"Percentual de pessoas de 14 a 17 anos de idade, ocupadas na semana de referência, distribuído pelas classes de rendimento mensal do trabalho principal",95253,Total,100600,Total,100543,Total,2,%,100.0
3,Unidade da Federação,25,Paraíba,2010,2010,3706,"Pessoas de 14 a 17 anos de idade, ocupadas na semana de referência",95253,Total,100600,Total,100543,Total,45,Pessoas,51135
3,Unidade da Federação,25,Paraíba,2010,2010,3947,"Percentual de pessoas de 14 a 17 anos de idade, ocupadas na semana de referência, distribuído pelas classes de rendimento mensal do trabalho principal",95253,Total,100600,Total,100543,Total,2,%,100.0
3,Unidade da Federação,26,Pernambuco,2010,2010,3706,"Pessoas de 14 a 17 anos de idade, ocupadas na semana de referência",95253,Total,100600,Total,100543,Total,45,Pessoas,108716
3,Unidade da Federação,26,Pernambuco,2010,2010,3947,"Percentual de pessoas de 14 a 17 anos de idade, ocupadas na semana de referência, distribuído pelas classes de rendimento mensal do trabalho principal",95253,Total,100600,Total,100543,Total,2,%,100.0
3,Unidade da Federação,27,Alagoas,2010,2010,3706,"Pessoas de 14 a 17 anos de idade, ocupadas na semana de referência",95253,Total,100600,Total,100543,Total,45,Pessoas,45247
3,Unidade da Federação,27,Alagoas,2010,2010,3947,"Percentual de pessoas de 14 a 17 anos de idade, ocupadas na semana de referência, distribuído pelas classes de rendimento mensal do trabalho principal",95253,Total,100600,Total,100543,Total,2,%,100.0
3,Unidade da Federação,28,Sergipe,2010,2010,3706,"Pessoas de 14 a 17 anos de idade, ocupadas na semana de referência",95253,Total,100600,Total,100543,Total,45,Pessoas,28255
3,Unidade da Federação,28,Sergipe,2010,2010,3947,"Percentual de pessoas de 14 a 17 anos de idade, ocupadas na semana de referência, distribuído pelas classes de rendimento mensal do trabalho principal",95253,Total,100600,Total,100543,Total,2,%,100.0
3,Unidade da Federação,29,Bahia,2010,2010,3706,"Pessoas de 14 a 17 anos de idade, ocupadas na semana de referência",95253,Total,100600,Total,100543,Total,45,Pessoas,211043
3,Unidade da Federação,29,Bahia,2010,2010,3947,"Percentual de pessoas de 14 a 17 anos de idade, ocupadas na semana de referência, distribuído pelas classes de rendimento mensal do trabalho principal",95253,Total,100600,Total,100543,Total,2,%,100.0
3,Unidade da Federação,31,Minas Gerais,2010,2010,3706,"Pessoas de 14 a 17 anos de idade, ocupadas na semana de referência",95253,Total,100600,Total,100543,Total,45,Pessoas,290043
3,Unidade da Federação,31,Minas Gerais,2010,2010,3947,"Percentual de pessoas de 14 a 17 anos de idade, ocupadas na semana de referência, distribuído pelas classes de rendimento mensal do trabalho principal",95253,Total,100600,Total,100543,Total,2,%,100.0
3,Unidade da Federação,32,Espírito Santo,2010,2010,3706,"Pessoas de 14 a 17 anos de idade, ocupadas na semana de referência",95253,Total,100600,Total,100543,Total,45,Pessoas,52912
3,Unidade da Federação,32,Espírito Santo,2010,2010,3947,"Percentual de pessoas de 14 a 17 anos de idade, ocupadas na semana de referência, distribuído pelas classes de rendimento mensal do trabalho principal",95253,Total,100600,Total,100543,Total,2,%,100.0
3,Unidade da Federação,33,Rio de Janeiro,2010,2010,3706,"Pessoas de 14 a 17 anos de idade, ocupadas na semana de referência",95253,Total,100600,Total,100543,Total,45,Pessoas,114256
3,Unidade da Federação,33,Rio de Janeiro,2010,2010,3947,"Percentual de pessoas de 14 a 17 anos de idade, ocupadas na semana de referência, distribuído pelas classes de rendimento mensal do trabalho principal",95253,Total,100600,Total,100543,Total,2,%,100.0
3,Unidade da Federação,35,São Paulo,2010,2010,3706,"Pessoas de 14 a 17 anos de idade, ocupadas na semana de referência",95253,Total,100600,Total,100543,Total,45,Pessoas,482740
3,Unidade da Federação,35,São Paulo,2010,2010,3947,"Percentual de pessoas de 14 a 17 anos de idade, ocupadas na semana de referência, distribuído pelas classes de rendimento mensal do trabalho principal",95253,Total,100600,Total,100543,Total,2,%,100.0
3,Unidade da Federação,41,Paraná,2010,2010,3706,"Pessoas de 14 a 17 anos de idade, ocupadas na semana de referência",95253,Total,100600,Total,100543,Total,45,Pessoas,198153
3,Unidade da Federação,41,Paraná,2010,2010,3947,"Percentual de pessoas de 14 a 17 anos de idade, ocupadas na semana de referência, distribuído pelas classes de rendimento mensal do trabalho principal",95253,Total,100600,Total,100543,Total,2,%,100.0
3,Unidade da Federação,42,Santa Catarina,2010,2010,3706,"Pessoas de 14 a 17 anos de idade, ocupadas na semana de referência",95253,Total,100600,Total,100543,Total,45,Pessoas,134839
3,Unidade da Federação,42,Santa Catarina,2010,2010,3947,"Percentual de pessoas de 14 a 17 anos de idade, ocupadas na semana de referência, distribuído pelas classes de rendimento mensal do trabalho principal",95253,Total,100600,Total,100543,Total,2,%,100.0
3,Unidade da Federação,43,Rio Grande do Sul,2010,2010,3706,"Pessoas de 14 a 17 anos de idade, ocupadas na semana de referência",95253,Total,100600,Total,100543,Total,45,Pessoas,177653
3,Unidade da Federação,43,Rio Grande do Sul,2010,2010,3947,"Percentual de pessoas de 14 a 17 anos de idade, ocupadas na semana de referência, distribuído pelas classes de rendimento mensal do trabalho principal",95253,Total,100600,Total,100543,Total,2,%,100.0
3,Unidade da Federação,50,Mato Grosso do Sul,2010,2010,3706,"Pessoas de 14 a 17 anos de idade, ocupadas na semana de referência",95253,Total,100600,Total,100543,Total,45,Pessoas,42160
3,Unidade da Federação,50,Mato Grosso do Sul,2010,2010,3947,"Percentual de pessoas de 14 a 17 anos de idade, ocupadas na semana de referência, distribuído pelas classes de rendimento mensal do trabalho principal",95253,Total,100600,Total,100543,Total,2,%,100.0
3,Unidade da Federação,51,Mato Grosso,2010,2010,3706,"Pessoas de 14 a 17 anos de idade, ocupadas na semana de referência",95253,Total,100600,Total,100543,Total,45,Pessoas,56184
3,Unidade da Federação,51,Mato Grosso,2010,2010,3947,"Percentual de pessoas de 14 a 17 anos de idade, ocupadas na semana de referência, distribuído pelas classes de rendimento mensal do trabalho principal",95253,Total,100600,Total,100543,Total,2,%,100.0
3,Unidade da Federação,52,Goiás,2010,2010,3706,"Pessoas de 14 a 17 anos de idade, ocupadas na semana de referência",95253,Total,100600,Total,100543,Total,45,Pessoas,109538
3,Unidade da Federação,52,Goiás,2010,2010,3947,"Percentual de pessoas de 14 a 17 anos de idade, ocupadas na semana de referência, distribuído pelas classes de rendimento mensal do trabalho principal",95253,Total,100600,Total,100543,Total,2,%,100.0
3,Unidade da Federação,53,Distrito Federal,2010,2010,3706,"Pessoas de 14 a 17 anos de idade, ocupadas na semana de referência",95253,Total,100600,Total,100543,Total,45,Pessoas,24842
3,Unidade da Federação,53,Distrito Federal,2010,2010,3947,"Percentual de pessoas de 14 a 17 anos de idade, ocupadas na semana de referência, distribuído pelas classes de rendimento mensal do trabalho principal",95253,Total,100600,Total,100543,Total,2,%,100.0
