NC,NN,D1C,D1N,D2C,D2N,D3C,D3N,D4C,D4N,D5C,D5N,MC,MN,V
Nível Territorial (Código),Nível Territorial,Unidade da Federação (Código),Unidade da Federação,Ano (Código),Ano,Variável (Código),Variável,Grupo de idade (Código),Grupo de idade,Classes de rendimento nominal mensal domiciliar per capita (Código),Classes de rendimento nominal mensal domiciliar per capita,Unidade de Medida (Código),Unidade de Medida,Valor
3,Unidade da Federação,11,Rondônia,2010,2010,3950,"Pessoas de 10 a 17 anos de idade, residentes em domicílios particulares, exclusive as pessoas cuja condição no domicílio era pensionista, empregado(a) doméstico(a) ou parente do(a) empregado(a) doméstico(a)",95253,Total,9680,Total,45,Pessoas,251663
3,Unidade da Federação,11,Rondônia,2010,2010,3995,"Percentual das pessoas de 10 a 17 anos de idade, residentes em domicílios particulares, exclusive as pessoas cuja condição no domicílio era pensionista, empregado(a) doméstico(a) ou parente do(a) empregado(a) doméstico(a), distribuído pelas classes de rendimento nominal mensal domiciliar per capita",95253,Total,9680,Total,2,%,100.0
3,Unidade da Federação,12,Acre,2010,2010,3950,"Pessoas de 10 a 17 anos de idade, residentes em domicílios particulares, exclusive as pessoas cuja condição no domicílio era pensionista, empregado(a) doméstico(a) ou parente do(a) empregado(a) doméstico(a)",95253,Total,9680,Total,45,Pessoas,135754
3,Unidade da Federação,12,Acre,2010,2010,3995,"Percentual das pessoas de 10 a 17 anos de idade, residentes em domicílios particulares, exclusive as pessoas cuja condição no domicílio era pensionista, empregado(a) doméstico(a) ou parente do(a) empregado(a) doméstico(a), distribuído pelas classes de rendimento nominal mensal domiciliar per capita",95253,Total,9680,Total,2,%,100.0
3,Unidade da Federação,13,Amazonas,2010,2010,3950,"Pessoas de 10 a 17 anos de idade, residentes em domicílios particulares, exclusive as pessoas cuja condição no domicílio era pensionista, empregado(a) doméstico(a) ou parente do(a) empregado(a) doméstico(a)",95253,Total,9680,Total,45,Pessoas,627015
3,Unidade da Federação,13,Amazonas,2010,2010,3995,"Percentual das pessoas de 10 a 17 anos de idade, residentes em domicílios particulares, exclusive as pessoas cuja condição no domicílio era pensionista, empregado(a) doméstico(a) ou parente do(a) empregado(a) doméstico(a), distribuído pelas classes de rendimento nominal mensal domiciliar per capita",95253,Total,9680,Total,2,%,100.0
3,Unidade da Federação,14,Roraima,2010,2010,3950,"Pessoas de 10 a 17 anos de idade, residentes em domicílios particulares, exclusive as pessoas cuja condição no domicílio era pensionista, empregado(a) doméstico(a) ou parente do(a) empregado(a) doméstico(a)",95253,Total,9680,Total,45,Pessoas,81289
3,Unidade da Federação,14,Roraima,2010,2010,3995,"Percentual das pessoas de 10 a 17 anos de idade, residentes em domicílios particulares, exclusive as pessoas cuja condição no domicílio era pensionista, empregado(a) doméstico(a) ou parente do(a) empregado(a) doméstico(a), distribuído pelas classes de rendimento nominal mensal domiciliar per capita",95253,Total,9680,Total,2,%,100.0
3,Unidade da Federação,15,Pará,2010,2010,3950,"Pessoas de 10 a 17 anos de idade, residentes em domicílios particulares, exclusive as pessoas cuja condição no domicílio era pensionista, empregado(a) doméstico(a) ou parente do(a) empregado(a) doméstico(a)",95253,Total,9680,Total,45,Pessoas,1320637
3,Unidade da Federação,15,Pará,2010,2010,3995,"Percentual das pessoas de 10 a 17 anos de idade, residentes em domicílios particulares, exclusive as pessoas cuja condição no domicílio era pensionista, empregado(a) doméstico(a) ou parente do(a) empregado(a) doméstico(a), distribuído pelas classes de rendimento nominal mensal domiciliar per capita",95253,Total,9680,Total,2,%,100.0
3,Unidade da Federação,16,Amapá,2010,2010,3950,"Pessoas de 10 a 17 anos de idade, residentes em domicílios particulares, exclusive as pessoas cuja condição no domicílio era pensionista, empregado(a) doméstico(a) ou parente do(a) empregado(a) doméstico(a)",95253,Total,9680,Total,45,Pessoas,124040
3,Unidade da Federação,16,Amapá,2010,2010,3995,"Percentual das pessoas de 10 a 17 anos de idade, residentes em domicílios particulares, exclusive as pessoas cuja condição no domicílio era pensionista, empregado(a) doméstico(a) ou parente do(a) empregado(a) doméstico(a), distribuído pelas classes de rendimento nominal mensal domiciliar per capita",95253,Total,9680,Total,2,%,100.0
3,Unidade da Federação,17,Tocantins,2010,2010,3950,"Pessoas de 10 a 17 anos de idade, residentes em domicílios particulares, exclusive as pessoas cuja condição no domicílio era pensionista, empregado(a) doméstico(a) ou parente do(a) empregado(a) doméstico(a)",95253,Total,9680,Total,45,Pessoas,229304
3,Unidade da Federação,17,Tocantins,2010,2010,3995,"Percentual das pessoas de 10 a 17 anos de idade, residentes em domicílios particulares, exclusive as pessoas cuja condição no domicílio era pensionista, empregado(a) doméstico(a) ou parente do(a) empregado(a) doméstico(a), distribuído pelas classes de rendimento nominal mensal domiciliar per capita",95253,Total,9680,Total,2,%,100.0
3,Unidade da Federação,21,Maranhão,2010,2010,3950,"Pessoas de 10 a 17 anos de idade, residentes em domicílios particulares, exclusive as pessoas cuja condição no domicílio era pensionista, empregado(a) doméstico(a) ou parente do(a) empregado(a) doméstico(a)",95253,Total,9680,Total,45,Pessoas,1138308
3,Unidade da Federação,21,Maranhão,2010,2010,3995,"Percentual das pessoas de 10 a 17 anos de idade, residentes em domicílios particulares, exclusive as pessoas cuja condição no domicílio era pensionista, empregado(a) doméstico(a) ou parente do(a) empregado(a) doméstico(a), distribuído pelas classes de rendimento nominal mensal domiciliar per capita",95253,Total,9680,Total,2,%,100.0
3,Unidade da Federação,22,Piauí,2010,2010,3950,"Pessoas de 10 a 17 anos de idade, residentes em domicílios particulares, exclusive as pessoas cuja condição no domicílio era pensionista, empregado(a) doméstico(a) ou parente do(a) empregado(a) doméstico(a)",95253,Total,9680,Total,45,Pessoas,492437
3,Unidade da Federação,22,Piauí,2010,2010,3995,"Percentual das pessoas de 10 a 17 anos de idade, residentes em domicílios particulares, exclusive as pessoas cuja condição no domicílio era pensionista, empregado(a) doméstico(a) ou parente do(a) empregado(a) doméstico(a), distribuído pelas classes de rendimento nominal mensal domiciliar per capita",95253,Total,9680,Total,2,%,100.0
3,Unidade da Federação,23,Ceará,2010,2010,3950,"Pessoas de 10 a 17 anos de idade, residentes em domicílios particulares, exclusive as pessoas cuja condição no domicílio era pensionista, empregado(a) doméstico(a) ou parente do(a) empregado(a) doméstico(a)",95253,Total,9680,Total,45,Pessoas,1369780
3,Unidade da Federação,23,Ceará,2010,2010,3995,"Percentual das pessoas de 10 a 17 anos de idade, residentes em domicílios particulares, exclusive as pessoas cuja condição no domicílio era pensionista, empregado(a) doméstico(a) ou parente do(a) empregado(a) doméstico(a), distribuído pelas classes de rendimento nominal mensal domiciliar per capita",95253,Total,9680,Total,2,%,100.0
3,Unidade da Federação,24,Rio Grande do Norte,2010,2010,3950,"Pessoas de 10 a 17 anos de idade, residentes em domicílios particulares, exclusive as pessoas cuja condição no domicílio era pensionista, empregado(a) doméstico(a) ou parente do(a) empregado(a) doméstico(a)",95253,Total,9680,Total,45,Pessoas,477344
3,Unidade da Federação,24,Rio Grande do Norte,2010,2010,3995,"Percentual das pessoas de 10 a 17 anos de idade, residentes em domicílios particulares, exclusive as pessoas cuja condição no domicílio era pensionista, empregado(a) doméstico(a) ou parente do(a) empregado(a) doméstico(a), distribuído pelas classes de rendimento nominal mensal domiciliar per capita",95253,Total,9680,Total,2,%,100.0
3,Unidade da Federação,25,Paraíba,2010,2010,3950,"Pessoas de 10 a 17 anos de idade, residentes em domicílios particulares, exclusive as pessoas cuja condição no domicílio era pensionista, empregado(a) doméstico(a) ou parente do(a) empregado(a) doméstico(a)",95253,Total,9680,Total,45,Pessoas,562991
3,Unidade da Federação,25,Paraíba,2010,2010,3995,"Percentual das pessoas de 10 a 17 anos de idade, residentes em domicílios particulares, exclusive as pessoas cuja condição no domicílio era pensionista, empregado(a) doméstico(a) ou parente do(a) empregado(a) doméstico(a), distribuído pelas classes de rendimento nominal mensal domiciliar per capita",95253,Total,9680,Total,2,%,100.0
3,Unidade da Federação,26,Pernambuco,2010,2010,3950,"Pessoas de 10 a 17 anos de idade, residentes em domicílios particulares, exclusive as pessoas cuja condição no domicílio era pensionista, empregado(a) doméstico(a) ou parente do(a) empregado(a) doméstico(a)",95253,Total,9680,Total,45,Pessoas,1327011
3,Unidade da Federação,26,Pernambuco,2010,2010,3995,"Percentual das pessoas de 10 a 17 anos de idade, residentes em domicílios particulares, exclusive as pessoas cuja condição no domicílio era pensionista, empregado(a) doméstico(a) ou parente do(a) empregado(a) doméstico(a), distribuído pelas classes de rendimento nominal mensal domiciliar per capita",95253,Total,9680,Total,2,%,100.0
3,Unidade da Federação,27,Alagoas,2010,2010,3950,"Pessoas de 10 a 17 anos de idade, residentes em domicílios particulares, exclusive as pessoas cuja condição no domicílio era pensionista, empregado(a) doméstico(a) ou parente do(a) empregado(a) doméstico(a)",95253,Total,9680,Total,45,Pessoas,530868
3,Unidade da Federação,27,Alagoas,2010,2010,3995,"Percentual das pessoas de 10 a 17 anos de idade, residentes em domicílios particulares, exclusive as pessoas cuja condição no domicílio era pensionista, empregado(a) doméstico(a) ou parente do(a) empregado(a) doméstico(a), distribuído pelas classes de rendimento nominal mensal domiciliar per capita",95253,Total,9680,Total,2,%,100.0
3,Unidade da Federação,28,Sergipe,2010,2010,3950,"Pessoas de 10 a 17 anos de idade, residentes em domicílios particulares, exclusive as pessoas cuja condição no domicílio era pensionista, empregado(a) doméstico(a) ou parente do(a) empregado(a) doméstico(a)",95253,Total,9680,Total,45,Pessoas,333673
3,Unidade da Federação,28,Sergipe,2010,2010,3995,"Percentual das pessoas de 10 a 17 anos de idade, residentes em domicílios particulares, exclusive as pessoas cuja condição no domicílio era pensionista, empregado(a) doméstico(a) ou parente do(a) empregado(a) doméstico(a), distribuído pelas classes de rendimento nominal mensal domiciliar per capita",95253,Total,9680,Total,2,%,100.0
3,Unidade da Federação,29,Bahia,2010,2010,3950,"Pessoas de 10 a 17 anos de idade, residentes em domicílios particulares, exclusive as pessoas cuja condição no domicílio era pensionista, empregado(a) doméstico(a) ou parente do(a) empregado(a) doméstico(a)",95253,Total,9680,Total,45,Pessoas,2154186
3,Unidade da Federação,29,Bahia,2010,2010,3995,"Percentual das pessoas de 10 a 17 anos de idade, residentes em domicílios particulares, exclusive as pessoas cuja condição no domicílio era pensionista, empregado(a) doméstico(a) ou parente do(a) empregado(a) doméstico(a), distribuído pelas classes de rendimento nominal mensal domiciliar per capita",95253,Total,9680,Total,2,%,100.0
3,Unidade da Federação,31,Minas Gerais,2010,2010,3950,"Pessoas de 10 a 17 anos de idade, residentes em domicílios particulares, exclusive as pessoas cuja condição no domicílio era pensionista, empregado(a) doméstico(a) ou parente do(a) empregado(a) doméstico(a)",95253,Total,9680,Total,45,Pessoas,2726626
3,Unidade da Federação,31,Minas Gerais,2010,2010,3995,"Percentual das pessoas de 10 a 17 anos de idade, residentes em domicílios particulares, exclusive as pessoas cuja condição no domicílio era pensionista, empregado(a) doméstico(a) ou parente do(a) empregado(a) doméstico(a), distribuído pelas classes de rendimento nominal mensal domiciliar per capita",95253,Total,9680,Total,2,%,100.0
3,Unidade da Federação,32,Espírito Santo,2010,2010,3950,"Pessoas de 10 a 17 anos de idade, residentes em domicílios particulares, exclusive as pessoas cuja condição no domicílio era pensionista, empregado(a) doméstico(a) ou parente do(a) empregado(a) doméstico(a)",95253,Total,9680,Total,45,Pessoas,483386
3,Unidade da Federação,32,Espírito Santo,2010,2010,3995,"Percentual das pessoas de 10 a 17 anos de idade, residentes em domicílios particulares, exclusive as pessoas cuja condição no domicílio era pensionista, empregado(a) doméstico(a) ou parente do(a) empregado(a) doméstico(a), distribuído pelas classes de rendimento nominal mensal domiciliar per capita",95253,Total,9680,Total,2,%,100.0
3,Unidade da Federação,33,Rio de Janeiro,2010,2010,3950,"Pessoas de 10 a 17 anos de idade, residentes em domicílios particulares, exclusive as pessoas cuja condição no domicílio era pensionista, empregado(a) doméstico(a) ou parente do(a) empregado(a) doméstico(a)",95253,Total,9680,Total,45,Pessoas,2073540
3,Unidade da Federação,33,Rio de Janeiro,2010,2010,3995,"Percentual das pessoas de 10 a 17 anos de idade, residentes em domicílios particulares, exclusive as pessoas cuja condição no domicílio era pensionista, empregado(a) doméstico(a) ou parente do(a) empregado(a) doméstico(a), distribuído pelas classes de rendimento nominal mensal domiciliar per capita",95253,Total,9680,Total,2,%,100.0
3,Unidade da Federação,35,São Paulo,2010,2010,3950,"Pessoas de 10 a 17 anos de idade, residentes em domicílios particulares, exclusive as pessoas cuja condição no domicílio era pensionista, empregado(a) doméstico(a) ou parente do(a) empregado(a) doméstico(a)",95253,Total,9680,Total,45,Pessoas,5304212
3,Unidade da Federação,35,São Paulo,2010,2010,3995,"Percentual das pessoas de 10 a 17 anos de idade, residentes em domicílios particulares, exclusive as pessoas cuja condição no domicílio era pensionista, empregado(a) doméstico(a) ou parente do(a) empregado(a) doméstico(a), distribuído pelas classes de rendimento nominal mensal domiciliar per capita",95253,Total,9680,Total,2,%,100.0
3,Unidade da Federação,41,Paraná,2010,2010,3950,"Pessoas de 10 a 17 anos de idade, residentes em domicílios particulares, exclusive as pessoas cuja condição no domicílio era pensionista, empregado(a) doméstico(a) ou parente do(a) empregado(a) doméstico(a)",95253,Total,9680,Total,45,Pessoas,1472151
3,Unidade da Federação,41,Paraná,2010,2010,3995,"Percentual das pessoas de 10 a 17 anos de idade, residentes em domicílios particulares, exclusive as pessoas cuja condição no domicílio era pensionista, empregado(a) doméstico(a) ou parente do(a) empregado(a) doméstico(a), distribuído pelas classes de rendimento nominal mensal domiciliar per capita",95253,Total,9680,Total,2,%,100.0
3,Unidade da Federação,42,Santa Catarina,2010,2010,3950,"Pessoas de 10 a 17 anos de idade, residentes em domicílios particulares, exclusive as pessoas cuja condição no domicílio era pensionista, empregado(a) doméstico(a) ou parente do(a) empregado(a) doméstico(a)",95253,Total,9680,Total,45,Pessoas,844631
3,Unidade da Federação,42,Santa Catarina,2010,2010,3995,"Percentual das pessoas de 10 a 17 anos de idade, residentes em domicílios particulares, exclusive as pessoas cuja condição no domicílio era pensionista, empregado(a) doméstico(a) ou parente do(a) empregado(a) doméstico(a), distribuído pelas classes de rendimento nominal mensal domiciliar per capita",95253,Total,9680,Total,2,%,100.0
3,Unidade da Federação,43,Rio Grande do Sul,2010,2010,3950,"Pessoas de 10 a 17 anos de idade, residentes em domicílios particulares, exclusive as pessoas cuja condição no domicílio era pensionista, empregado(a) doméstico(a) ou parente do(a) empregado(a) doméstico(a)",95253,Total,9680,Total,45,Pessoas,1389187
3,Unidade da Federação,43,Rio Grande do Sul,2010,2010,3995,"Percentual das pessoas de 10 a 17 anos de idade, residentes em domicílios particulares, exclusive as pessoas cuja condição no domicílio era pensionista, empregado(a) doméstico(a) ou parente do(a) empregado(a) doméstico(a), distribuído pelas classes de rendimento nominal mensal domiciliar per capita",95253,Total,9680,Total,2,%,100.0
3,Unidade da Federação,50,Mato Grosso do Sul,2010,2010,3950,"Pessoas de 10 a 17 anos de idade, residentes em domicílios particulares, exclusive as pessoas cuja condição no domicílio era pensionista, empregado(a) doméstico(a) ou parente do(a) empregado(a) doméstico(a)",95253,Total,9680,Total,45,Pessoas,361196
3,Unidade da Federação,50,Mato Grosso do Sul,2010,2010,3995,"Percentual das pessoas de 10 a 17 anos de idade, residentes em domicílios particulares, exclusive as pessoas cuja condição no domicílio era pensionista, empregado(a) doméstico(a) ou parente do(a) empregado(a) doméstico(a), distribuído pelas classes de rendimento nominal mensal domiciliar per capita",95253,Total,9680,Total,2,%,100.0
3,Unidade da Federação,51,Mato Grosso,2010,2010,3950,"Pessoas de 10 a 17 anos de idade, residentes em domicílios particulares, exclusive as pessoas cuja condição no domicílio era pensionista, empregado(a) doméstico(a) ou parente do(a) empregado(a) doméstico(a)",95253,Total,9680,Total,45,Pessoas,454472
3,Unidade da Federação,51,Mato Grosso,2010,2010,3995,"Percentual das pessoas de 10 a 17 anos de idade, residentes em domicílios particulares, exclusive as pessoas cuja condição no domicílio era pensionista, empregado(a) doméstico(a) ou parente do(a) empregado(a) doméstico(a), distribuído pelas classes de rendimento nominal mensal domiciliar per capita",95253,Total,9680,Total,2,%,100.0
3,Unidade da Federação,52,Goiás,2010,2010,3950,"Pessoas de 10 a 17 anos de idade, residentes em domicílios particulares, exclusive as pessoas cuja condição no domicílio era pensionista, empregado(a) doméstico(a) ou parente do(a) empregado(a) doméstico(a)",95253,Total,9680,Total,45,Pessoas,853396
3,Unidade da Federação,52,Goiás,2010,2010,3995,"Percentual das pessoas de 10 a 17 anos de idade, residentes em domicílios particulares, exclusive as pessoas cuja condição no domicílio era pensionista, empregado(a) doméstico(a) ou parente do(a) empregado(a) doméstico(a), distribuído pelas classes de rendimento nominal mensal domiciliar per capita",95253,Total,9680,Total,2,%,100.0
3,Unidade da Federação,53,Distrito Federal,2010,2010,3950,"Pessoas de 10 a 17 anos de idade, residentes em domicílios particulares, exclusive as pessoas cuja condição no domicílio era pensionista, empregado(a) doméstico(a) ou parente do(a) empregado(a) doméstico(a)",95253,Total,9680,Total,45,Pessoas,348436
3,Unidade da Federação,53,Distrito Federal,2010,2010,3995,"Percentual das pessoas de 10 a 17 anos de idade, residentes em domicílios particulares, exclusive as pessoas cuja condição no domicílio era pensionista, empregado(a) doméstico(a) ou parente do(a) empregado(a) doméstico(a), distribuído pelas classes de rendimento nominal mensal domiciliar per capita",95253,Total,9680,Total,2,%,100.0
