NC,NN,D1C,D1N,D2C,D2N,D3C,D3N,MC,MN,V
Nível Territorial (Código),Nível Territorial,Unidade da Federação (Código),Unidade da Federação,Ano (Código),Ano,Variável (Código),Variável,Unidade de Medida (Código),Unidade de Medida,Valor
3,Unidade da Federação,11,Rondônia,2000,2000,96,Domicílios particulares permanentes,1020,Unidades,347192
3,Unidade da Federação,11,Rondônia,2000,2000,884,Domicílios particulares permanentes com rendimento domiciliar,1020,Unidades,327471
3,Unidade da Federação,11,Rondônia,2000,2000,847,Valor do rendimento nominal médio mensal dos domicílios particulares permanentes,38,Reais,920.06
3,Unidade da Federação,11,Rondônia,2000,2000,878,Valor do rendimento nominal médio mensal dos domicílios particulares permanentes com rendimento domiciliar,38,Reais,975.47
3,Unidade da Federação,11,Rondônia,2000,2000,848,Valor do rendimento nominal mediano mensal dos domicílios particulares permanentes,38,Reais,464.00
3,Unidade da Federação,11,Rondônia,2000,2000,879,Valor do rendimento nominal mediano mensal dos domicílios particulares permanentes com rendimento domicíliar,38,Reais,500.00
3,Unidade da Federação,12,Acre,2000,2000,96,Domicílios particulares permanentes,1020,Unidades,129392
3,Unidade da Federação,12,Acre,2000,2000,884,Domicílios particulares permanentes com rendimento domiciliar,1020,Unidades,119748
3,Unidade da Federação,12,Acre,2000,2000,847,Valor do rendimento nominal médio mensal dos domicílios particulares permanentes,38,Reais,773.43
3,Unidade da Federação,12,Acre,2000,2000,878,Valor do rendimento nominal médio mensal dos domicílios particulares permanentes com rendimento domiciliar,38,Reais,835.73
3,Unidade da Federação,12,Acre,2000,2000,848,Valor do rendimento nominal mediano mensal dos domicílios particulares permanentes,38,Reais,368.00
3,Unidade da Federação,12,Acre,2000,2000,879,Valor do rendimento nominal mediano mensal dos domicílios particulares permanentes com rendimento domicíliar,38,Reais,402.00
3,Unidade da Federação,13,Amazonas,2000,2000,96,Domicílios particulares permanentes,1020,Unidades,570562
3,Unidade da Federação,13,Amazonas,2000,2000,884,Domicílios particulares permanentes com rendimento domiciliar,1020,Unidades,507537
3,Unidade da Federação,13,Amazonas,2000,2000,847,Valor do rendimento nominal médio mensal dos domicílios particulares permanentes,38,Reais,848.09
3,Unidade da Federação,13,Amazonas,2000,2000,878,Valor do rendimento nominal médio mensal dos domicílios particulares permanentes com rendimento domiciliar,38,Reais,953.40
3,Unidade da Federação,13,Amazonas,2000,2000,848,Valor do rendimento nominal mediano mensal dos domicílios particulares permanentes,38,Reais,400.00
3,Unidade da Federação,13,Amazonas,2000,2000,879,Valor do rendimento nominal mediano mensal dos domicílios particulares permanentes com rendimento domicíliar,38,Reais,451.00
3,Unidade da Federação,14,Roraima,2000,2000,96,Domicílios particulares permanentes,1020,Unidades,74402
3,Unidade da Federação,14,Roraima,2000,2000,884,Domicílios particulares permanentes com rendimento domiciliar,1020,Unidades,68393
3,Unidade da Federação,14,Roraima,2000,2000,847,Valor do rendimento nominal médio mensal dos domicílios particulares permanentes,38,Reais,992.14
3,Unidade da Federação,14,Roraima,2000,2000,878,Valor do rendimento nominal médio mensal dos domicílios particulares permanentes com rendimento domiciliar,38,Reais,1079.32
3,Unidade da Federação,14,Roraima,2000,2000,848,Valor do rendimento nominal mediano mensal dos domicílios particulares permanentes,38,Reais,511.00
3,Unidade da Federação,14,Roraima,2000,2000,879,Valor do rendimento nominal mediano mensal dos domicílios particulares permanentes com rendimento domicíliar,38,Reais,600.00
3,Unidade da Federação,15,Pará,2000,2000,96,Domicílios particulares permanentes,1020,Unidades,1308511
3,Unidade da Federação,15,Pará,2000,2000,884,Domicílios particulares permanentes com rendimento domiciliar,1020,Unidades,1222497
3,Unidade da Federação,15,Pará,2000,2000,847,Valor do rendimento nominal médio mensal dos domicílios particulares permanentes,38,Reais,787.25
3,Unidade da Federação,15,Pará,2000,2000,878,Valor do rendimento nominal médio mensal dos domicílios particulares permanentes com rendimento domiciliar,38,Reais,842.64
3,Unidade da Federação,15,Pará,2000,2000,848,Valor do rendimento nominal mediano mensal dos domicílios particulares permanentes,38,Reais,362.00
3,Unidade da Federação,15,Pará,2000,2000,879,Valor do rendimento nominal mediano mensal dos domicílios particulares permanentes com rendimento domicíliar,38,Reais,400.00
3,Unidade da Federação,16,Amapá,2000,2000,96,Domicílios particulares permanentes,1020,Unidades,98521
3,Unidade da Federação,16,Amapá,2000,2000,884,Domicílios particulares permanentes com rendimento domiciliar,1020,Unidades,91872
3,Unidade da Federação,16,Amapá,2000,2000,847,Valor do rendimento nominal médio mensal dos domicílios particulares permanentes,38,Reais,1011.19
3,Unidade da Federação,16,Amapá,2000,2000,878,Valor do rendimento nominal médio mensal dos domicílios particulares permanentes com rendimento domiciliar,38,Reais,1084.37
3,Unidade da Federação,16,Amapá,2000,2000,848,Valor do rendimento nominal mediano mensal dos domicílios particulares permanentes,38,Reais,500.00
3,Unidade da Federação,16,Amapá,2000,2000,879,Valor do rendimento nominal mediano mensal dos domicílios particulares permanentes com rendimento domicíliar,38,Reais,548.00
3,Unidade da Federação,17,Tocantins,2000,2000,96,Domicílios particulares permanentes,1020,Unidades,280224
3,Unidade da Federação,17,Tocantins,2000,2000,884,Domicílios particulares permanentes com rendimento domiciliar,1020,Unidades,256735
3,Unidade da Federação,17,Tocantins,2000,2000,847,Valor do rendimento nominal médio mensal dos domicílios particulares permanentes,38,Reais,702.33
3,Unidade da Federação,17,Tocantins,2000,2000,878,Valor do rendimento nominal médio mensal dos domicílios particulares permanentes com rendimento domiciliar,38,Reais,766.58
3,Unidade da Federação,17,Tocantins,2000,2000,848,Valor do rendimento nominal mediano mensal dos domicílios particulares permanentes,38,Reais,310.00
3,Unidade da Federação,17,Tocantins,2000,2000,879,Valor do rendimento nominal mediano mensal dos domicílios particulares permanentes com rendimento domicíliar,38,Reais,352.00
3,Unidade da Federação,21,Maranhão,2000,2000,96,Domicílios particulares permanentes,1020,Unidades,1235523
3,Unidade da Federação,21,Maranhão,2000,2000,884,Domicílios particulares permanentes com rendimento domiciliar,1020,Unidades,1145498
3,Unidade da Federação,21,Maranhão,2000,2000,847,Valor do rendimento nominal médio mensal dos domicílios particulares permanentes,38,Reais,500.68
3,Unidade da Federação,21,Maranhão,2000,2000,878,Valor do rendimento nominal médio mensal dos domicílios particulares permanentes com rendimento domiciliar,38,Reais,540.03
3,Unidade da Federação,21,Maranhão,2000,2000,848,Valor do rendimento nominal mediano mensal dos domicílios particulares permanentes,38,Reais,240.00
3,Unidade da Federação,21,Maranhão,2000,2000,879,Valor do rendimento nominal mediano mensal dos domicílios particulares permanentes com rendimento domicíliar,38,Reais,270.00
3,Unidade da Federação,22,Piauí,2000,2000,96,Domicílios particulares permanentes,1020,Unidades,661105
3,Unidade da Federação,22,Piauí,2000,2000,884,Domicílios particulares permanentes com rendimento domiciliar,1020,Unidades,625107
3,Unidade da Federação,22,Piauí,2000,2000,847,Valor do rendimento nominal médio mensal dos domicílios particulares permanentes,38,Reais,549.31
3,Unidade da Federação,22,Piauí,2000,2000,878,Valor do rendimento nominal médio mensal dos domicílios particulares permanentes com rendimento domiciliar,38,Reais,580.94
3,Unidade da Federação,22,Piauí,2000,2000,848,Valor do rendimento nominal mediano mensal dos domicílios particulares permanentes,38,Reais,270.00
3,Unidade da Federação,22,Piauí,2000,2000,879,Valor do rendimento nominal mediano mensal dos domicílios particulares permanentes com rendimento domicíliar,38,Reais,300.00
3,Unidade da Federação,23,Ceará,2000,2000,96,Domicílios particulares permanentes,1020,Unidades,1757249
3,Unidade da Federação,23,Ceará,2000,2000,884,Domicílios particulares permanentes com rendimento domiciliar,1020,Unidades,1636766
3,Unidade da Federação,23,Ceará,2000,2000,847,Valor do rendimento nominal médio mensal dos domicílios particulares permanentes,38,Reais,655.00
3,Unidade da Federação,23,Ceará,2000,2000,878,Valor do rendimento nominal médio mensal dos domicílios particulares permanentes com rendimento domiciliar,38,Reais,703.21
3,Unidade da Federação,23,Ceará,2000,2000,848,Valor do rendimento nominal mediano mensal dos domicílios particulares permanentes,38,Reais,301.00
3,Unidade da Federação,23,Ceará,2000,2000,879,Valor do rendimento nominal mediano mensal dos domicílios particulares permanentes com rendimento domicíliar,38,Reais,302.00
3,Unidade da Federação,24,Rio Grande do Norte,2000,2000,96,Domicílios particulares permanentes,1020,Unidades,671581
3,Unidade da Federação,24,Rio Grande do Norte,2000,2000,884,Domicílios particulares permanentes com rendimento domiciliar,1020,Unidades,617853
3,Unidade da Federação,24,Rio Grande do Norte,2000,2000,847,Valor do rendimento nominal médio mensal dos domicílios particulares permanentes,38,Reais,723.66
3,Unidade da Federação,24,Rio Grande do Norte,2000,2000,878,Valor do rendimento nominal médio mensal dos domicílios particulares permanentes com rendimento domiciliar,38,Reais,786.59
3,Unidade da Federação,24,Rio Grande do Norte,2000,2000,848,Valor do rendimento nominal mediano mensal dos domicílios particulares permanentes,38,Reais,307.00
3,Unidade da Federação,24,Rio Grande do Norte,2000,2000,879,Valor do rendimento nominal mediano mensal dos domicílios particulares permanentes com rendimento domicíliar,38,Reais,351.00
3,Unidade da Federação,25,Paraíba,2000,2000,96,Domicílios particulares permanentes,1020,Unidades,848972
3,Unidade da Federação,25,Paraíba,2000,2000,884,Domicílios particulares permanentes com rendimento domiciliar,1020,Unidades,795983
3,Unidade da Federação,25,Paraíba,2000,2000,847,Valor do rendimento nominal médio mensal dos domicílios particulares permanentes,38,Reais,605.92
3,Unidade da Federação,25,Paraíba,2000,2000,878,Valor do rendimento nominal médio mensal dos domicílios particulares permanentes com rendimento domiciliar,38,Reais,646.26
3,Unidade da Federação,25,Paraíba,2000,2000,848,Valor do rendimento nominal mediano mensal dos domicílios particulares permanentes,38,Reais,301.00
3,Unidade da Federação,25,Paraíba,2000,2000,879,Valor do rendimento nominal mediano mensal dos domicílios particulares permanentes com rendimento domicíliar,38,Reais,302.00
3,Unidade da Federação,26,Pernambuco,2000,2000,96,Domicílios particulares permanentes,1020,Unidades,1968316
3,Unidade da Federação,26,Pernambuco,2000,2000,884,Domicílios particulares permanentes com rendimento domiciliar,1020,Unidades,1824007
3,Unidade da Federação,26,Pernambuco,2000,2000,847,Valor do rendimento nominal médio mensal dos domicílios particulares permanentes,38,Reais,735.09
3,Unidade da Federação,26,Pernambuco,2000,2000,878,Valor do rendimento nominal médio mensal dos domicílios particulares permanentes com rendimento domiciliar,38,Reais,793.24
3,Unidade da Federação,26,Pernambuco,2000,2000,848,Valor do rendimento nominal mediano mensal dos domicílios particulares permanentes,38,Reais,302.00
3,Unidade da Federação,26,Pernambuco,2000,2000,879,Valor do rendimento nominal mediano mensal dos domicílios particulares permanentes com rendimento domicíliar,38,Reais,349.00
3,Unidade da Federação,27,Alagoas,2000,2000,96,Domicílios particulares permanentes,1020,Unidades,649347
3,Unidade da Federação,27,Alagoas,2000,2000,884,Domicílios particulares permanentes com rendimento domiciliar,1020,Unidades,585990
3,Unidade da Federação,27,Alagoas,2000,2000,847,Valor do rendimento nominal médio mensal dos domicílios particulares permanentes,38,Reais,604.24
3,Unidade da Federação,27,Alagoas,2000,2000,878,Valor do rendimento nominal médio mensal dos domicílios particulares permanentes com rendimento domiciliar,38,Reais,669.57
3,Unidade da Federação,27,Alagoas,2000,2000,848,Valor do rendimento nominal mediano mensal dos domicílios particulares permanentes,38,Reais,278.00
3,Unidade da Federação,27,Alagoas,2000,2000,879,Valor do rendimento nominal mediano mensal dos domicílios particulares permanentes com rendimento domicíliar,38,Reais,302.00
3,Unidade da Federação,28,Sergipe,2000,2000,96,Domicílios particulares permanentes,1020,Unidades,436717
3,Unidade da Federação,28,Sergipe,2000,2000,884,Domicílios particulares permanentes com rendimento domiciliar,1020,Unidades,410021
3,Unidade da Federação,28,Sergipe,2000,2000,847,Valor do rendimento nominal médio mensal dos domicílios particulares permanentes,38,Reais,662.67
3,Unidade da Federação,28,Sergipe,2000,2000,878,Valor do rendimento nominal médio mensal dos domicílios particulares permanentes com rendimento domiciliar,38,Reais,705.82
3,Unidade da Federação,28,Sergipe,2000,2000,848,Valor do rendimento nominal mediano mensal dos domicílios particulares permanentes,38,Reais,302.00
3,Unidade da Federação,28,Sergipe,2000,2000,879,Valor do rendimento nominal mediano mensal dos domicílios particulares permanentes com rendimento domicíliar,38,Reais,302.00
3,Unidade da Federação,29,Bahia,2000,2000,96,Domicílios particulares permanentes,1020,Unidades,3169267
3,Unidade da Federação,29,Bahia,2000,2000,884,Domicílios particulares permanentes com rendimento domiciliar,1020,Unidades,2921754
3,Unidade da Federação,29,Bahia,2000,2000,847,Valor do rendimento nominal médio mensal dos domicílios particulares permanentes,38,Reais,655.31
3,Unidade da Federação,29,Bahia,2000,2000,878,Valor do rendimento nominal médio mensal dos domicílios particulares permanentes com rendimento domiciliar,38,Reais,710.82
3,Unidade da Federação,29,Bahia,2000,2000,848,Valor do rendimento nominal mediano mensal dos domicílios particulares permanentes,38,Reais,302.00
3,Unidade da Federação,29,Bahia,2000,2000,879,Valor do rendimento nominal mediano mensal dos domicílios particulares permanentes com rendimento domicíliar,38,Reais,302.00
3,Unidade da Federação,31,Minas Gerais,2000,2000,96,Domicílios particulares permanentes,1020,Unidades,4763314
3,Unidade da Federação,31,Minas Gerais,2000,2000,884,Domicílios particulares permanentes com rendimento domiciliar,1020,Unidades,4599528
3,Unidade da Federação,31,Minas Gerais,2000,2000,847,Valor do rendimento nominal médio mensal dos domicílios particulares permanentes,38,Reais,1031.62
3,Unidade da Federação,31,Minas Gerais,2000,2000,878,Valor do rendimento nominal médio mensal dos domicílios particulares permanentes com rendimento domiciliar,38,Reais,1068.36
3,Unidade da Federação,31,Minas Gerais,2000,2000,848,Valor do rendimento nominal mediano mensal dos domicílios particulares permanentes,38,Reais,502.00
3,Unidade da Federação,31,Minas Gerais,2000,2000,879,Valor do rendimento nominal mediano mensal dos domicílios particulares permanentes com rendimento domicíliar,38,Reais,532.00
3,Unidade da Federação,32,Espírito Santo,2000,2000,96,Domicílios particulares permanentes,1020,Unidades,840842
3,Unidade da Federação,32,Espírito Santo,2000,2000,884,Domicílios particulares permanentes com rendimento domiciliar,1020,Unidades,815226
3,Unidade da Federação,32,Espírito Santo,2000,2000,847,Valor do rendimento nominal médio mensal dos domicílios particulares permanentes,38,Reais,1059.19
3,Unidade da Federação,32,Espírito Santo,2000,2000,878,Valor do rendimento nominal médio mensal dos domicílios particulares permanentes com rendimento domiciliar,38,Reais,1092.48
3,Unidade da Federação,32,Espírito Santo,2000,2000,848,Valor do rendimento nominal mediano mensal dos domicílios particulares permanentes,38,Reais,526.00
3,Unidade da Federação,32,Espírito Santo,2000,2000,879,Valor do rendimento nominal mediano mensal dos domicílios particulares permanentes com rendimento domicíliar,38,Reais,550.00
3,Unidade da Federação,33,Rio de Janeiro,2000,2000,96,Domicílios particulares permanentes,1020,Unidades,4252642
3,Unidade da Federação,33,Rio de Janeiro,2000,2000,884,Domicílios particulares permanentes com rendimento domiciliar,1020,Unidades,4084391
3,Unidade da Federação,33,Rio de Janeiro,2000,2000,847,Valor do rendimento nominal médio mensal dos domicílios particulares permanentes,38,Reais,1389.44
3,Unidade da Federação,33,Rio de Janeiro,2000,2000,878,Valor do rendimento nominal médio mensal dos domicílios particulares permanentes com rendimento domiciliar,38,Reais,1446.67
3,Unidade da Federação,33,Rio de Janeiro,2000,2000,848,Valor do rendimento nominal mediano mensal dos domicílios particulares permanentes,38,Reais,700.00
3,Unidade da Federação,33,Rio de Janeiro,2000,2000,879,Valor do rendimento nominal mediano mensal dos domicílios particulares permanentes com rendimento domicíliar,38,Reais,750.00
3,Unidade da Federação,35,São Paulo,2000,2000,96,Domicílios particulares permanentes,1020,Unidades,10358598
3,Unidade da Federação,35,São Paulo,2000,2000,884,Domicílios particulares permanentes com rendimento domiciliar,1020,Unidades,9992261
3,Unidade da Federação,35,São Paulo,2000,2000,847,Valor do rendimento nominal médio mensal dos domicílios particulares permanentes,38,Reais,1567.13
3,Unidade da Federação,35,São Paulo,2000,2000,878,Valor do rendimento nominal médio mensal dos domicílios particulares permanentes com rendimento domiciliar,38,Reais,1624.59
3,Unidade da Federação,35,São Paulo,2000,2000,848,Valor do rendimento nominal mediano mensal dos domicílios particulares permanentes,38,Reais,830.00
3,Unidade da Federação,35,São Paulo,2000,2000,879,Valor do rendimento nominal mediano mensal dos domicílios particulares permanentes com rendimento domicíliar,38,Reais,871.00
3,Unidade da Federação,41,Paraná,2000,2000,96,Domicílios particulares permanentes,1020,Unidades,2663037
3,Unidade da Federação,41,Paraná,2000,2000,884,Domicílios particulares permanentes com rendimento domiciliar,1020,Unidades,2585775
3,Unidade da Federação,41,Paraná,2000,2000,847,Valor do rendimento nominal médio mensal dos domicílios particulares permanentes,38,Reais,1144.06
3,Unidade da Federação,41,Paraná,2000,2000,878,Valor do rendimento nominal médio mensal dos domicílios particulares permanentes com rendimento domiciliar,38,Reais,1178.25
3,Unidade da Federação,41,Paraná,2000,2000,848,Valor do rendimento nominal mediano mensal dos domicílios particulares permanentes,38,Reais,581.00
3,Unidade da Federação,41,Paraná,2000,2000,879,Valor do rendimento nominal mediano mensal dos domicílios particulares permanentes com rendimento domicíliar,38,Reais,600.00
3,Unidade da Federação,42,Santa Catarina,2000,2000,96,Domicílios particulares permanentes,1020,Unidades,1498071
3,Unidade da Federação,42,Santa Catarina,2000,2000,884,Domicílios particulares permanentes com rendimento domiciliar,1020,Unidades,1466903
3,Unidade da Federação,42,Santa Catarina,2000,2000,847,Valor do rendimento nominal médio mensal dos domicílios particulares permanentes,38,Reais,1238.22
3,Unidade da Federação,42,Santa Catarina,2000,2000,878,Valor do rendimento nominal médio mensal dos domicílios particulares permanentes com rendimento domiciliar,38,Reais,1264.53
3,Unidade da Federação,42,Santa Catarina,2000,2000,848,Valor do rendimento nominal mediano mensal dos domicílios particulares permanentes,38,Reais,701.00
3,Unidade da Federação,42,Santa Catarina,2000,2000,879,Valor do rendimento nominal mediano mensal dos domicílios particulares permanentes com rendimento domicíliar,38,Reais,730.00
3,Unidade da Federação,43,Rio Grande do Sul,2000,2000,96,Domicílios particulares permanentes,1020,Unidades,3040070
3,Unidade da Federação,43,Rio Grande do Sul,2000,2000,884,Domicílios particulares permanentes com rendimento domiciliar,1020,Unidades,2968762
3,Unidade da Federação,43,Rio Grande do Sul,2000,2000,847,Valor do rendimento nominal médio mensal dos domicílios particulares permanentes,38,Reais,1190.04
3,Unidade da Federação,43,Rio Grande do Sul,2000,2000,878,Valor do rendimento nominal médio mensal dos domicílios particulares permanentes com rendimento domiciliar,38,Reais,1218.63
3,Unidade da Federação,43,Rio Grande do Sul,2000,2000,848,Valor do rendimento nominal mediano mensal dos domicílios particulares permanentes,38,Reais,640.00
3,Unidade da Federação,43,Rio Grande do Sul,2000,2000,879,Valor do rendimento nominal mediano mensal dos domicílios particulares permanentes com rendimento domicíliar,38,Reais,651.00
3,Unidade da Federação,50,Mato Grosso do Sul,2000,2000,96,Domicílios particulares permanentes,1020,Unidades,562769
3,Unidade da Federação,50,Mato Grosso do Sul,2000,2000,884,Domicílios particulares permanentes com rendimento domiciliar,1020,Unidades,543349
3,Unidade da Federação,50,Mato Grosso do Sul,2000,2000,847,Valor do rendimento nominal médio mensal dos domicílios particulares permanentes,38,Reais,1052.87
3,Unidade da Federação,50,Mato Grosso do Sul,2000,2000,878,Valor do rendimento nominal médio mensal dos domicílios particulares permanentes com rendimento domiciliar,38,Reais,1090.50
3,Unidade da Federação,50,Mato Grosso do Sul,2000,2000,848,Valor do rendimento nominal mediano mensal dos domicílios particulares permanentes,38,Reais,500.00
3,Unidade da Federação,50,Mato Grosso do Sul,2000,2000,879,Valor do rendimento nominal mediano mensal dos domicílios particulares permanentes com rendimento domicíliar,38,Reais,502.00
3,Unidade da Federação,51,Mato Grosso,2000,2000,96,Domicílios particulares permanentes,1020,Unidades,645584
3,Unidade da Federação,51,Mato Grosso,2000,2000,884,Domicílios particulares permanentes com rendimento domiciliar,1020,Unidades,614830
3,Unidade da Federação,51,Mato Grosso,2000,2000,847,Valor do rendimento nominal médio mensal dos domicílios particulares permanentes,38,Reais,1103.07
3,Unidade da Federação,51,Mato Grosso,2000,2000,878,Valor do rendimento nominal médio mensal dos domicílios particulares permanentes com rendimento domiciliar,38,Reais,1158.25
3,Unidade da Federação,51,Mato Grosso,2000,2000,848,Valor do rendimento nominal mediano mensal dos domicílios particulares permanentes,38,Reais,520.00
3,Unidade da Federação,51,Mato Grosso,2000,2000,879,Valor do rendimento nominal mediano mensal dos domicílios particulares permanentes com rendimento domicíliar,38,Reais,552.00
3,Unidade da Federação,52,Goiás,2000,2000,96,Domicílios particulares permanentes,1020,Unidades,1397463
3,Unidade da Federação,52,Goiás,2000,2000,884,Domicílios particulares permanentes com rendimento domiciliar,1020,Unidades,1347341
3,Unidade da Federação,52,Goiás,2000,2000,847,Valor do rendimento nominal médio mensal dos domicílios particulares permanentes,38,Reais,1019.28
3,Unidade da Federação,52,Goiás,2000,2000,878,Valor do rendimento nominal médio mensal dos domicílios particulares permanentes com rendimento domiciliar,38,Reais,1057.19
3,Unidade da Federação,52,Goiás,2000,2000,848,Valor do rendimento nominal mediano mensal dos domicílios particulares permanentes,38,Reais,500.00
3,Unidade da Federação,52,Goiás,2000,2000,879,Valor do rendimento nominal mediano mensal dos domicílios particulares permanentes com rendimento domicíliar,38,Reais,500.00
3,Unidade da Federação,53,Distrito Federal,2000,2000,96,Domicílios particulares permanentes,1020,Unidades,547465
3,Unidade da Federação,53,Distrito Federal,2000,2000,884,Domicílios particulares permanentes com rendimento domiciliar,1020,Unidades,532329
3,Unidade da Federação,53,Distrito Federal,2000,2000,847,Valor do rendimento nominal médio mensal dos domicílios particulares permanentes,38,Reais,2229.42
3,Unidade da Federação,53,Distrito Federal,2000,2000,878,Valor do rendimento nominal médio mensal dos domicílios particulares permanentes com rendimento domiciliar,38,Reais,2292.81
3,Unidade da Federação,53,Distrito Federal,2000,2000,848,Valor do rendimento nominal mediano mensal dos domicílios particulares permanentes,38,Reais,1000.00
3,Unidade da Federação,53,Distrito Federal,2000,2000,879,Valor do rendimento nominal mediano mensal dos domicílios particulares permanentes com rendimento domicíliar,38,Reais,1020.00
