NC,NN,D1C,D1N,D2C,D2N,D3C,D3N,D4C,D4N,D5C,D5N,D6C,D6N,MC,MN,V
Nível Territorial (Código),Nível Territorial,Unidade da Federação (Código),Unidade da Federação,Ano (Código),Ano,Variável (Código),Variável,Situação do domicílio (Código),Situação do domicílio,Sexo (Código),Sexo,Condição de atividade na semana de referência (Código),Condição de atividade na semana de referência,Unidade de Medida (Código),Unidade de Medida,Valor
3,Unidade da Federação,11,Rondônia,2000,2000,880,Índice de Gini da distribuição do rendimento nominal mensal das pessoas de 10 anos ou mais de idade com rendimento,6795,Total,6794,Total,99565,Total,50,Índice,0.588
3,Unidade da Federação,11,Rondônia,2010,2010,880,Índice de Gini da distribuição do rendimento nominal mensal das pessoas de 10 anos ou mais de idade com rendimento,6795,Total,6794,Total,99565,Total,50,Índice,0.545
3,Unidade da Federação,12,Acre,2000,2000,880,Índice de Gini da distribuição do rendimento nominal mensal das pessoas de 10 anos ou mais de idade com rendimento,6795,Total,6794,Total,99565,Total,50,Índice,0.580
3,Unidade da Federação,12,Acre,2010,2010,880,Índice de Gini da distribuição do rendimento nominal mensal das pessoas de 10 anos ou mais de idade com rendimento,6795,Total,6794,Total,99565,Total,50,Índice,0.569
3,Unidade da Federação,13,Amazonas,2000,2000,880,Índice de Gini da distribuição do rendimento nominal mensal das pessoas de 10 anos ou mais de idade com rendimento,6795,Total,6794,Total,99565,Total,50,Índice,0.592
3,Unidade da Federação,13,Amazonas,2010,2010,880,Índice de Gini da distribuição do rendimento nominal mensal das pessoas de 10 anos ou mais de idade com rendimento,6795,Total,6794,Total,99565,Total,50,Índice,0.598
3,Unidade da Federação,14,Roraima,2000,2000,880,Índice de Gini da distribuição do rendimento nominal mensal das pessoas de 10 anos ou mais de idade com rendimento,6795,Total,6794,Total,99565,Total,50,Índice,0.569
3,Unidade da Federação,14,Roraima,2010,2010,880,Índice de Gini da distribuição do rendimento nominal mensal das pessoas de 10 anos ou mais de idade com rendimento,6795,Total,6794,Total,99565,Total,50,Índice,0.579
3,Unidade da Federação,15,Pará,2000,2000,880,Índice de Gini da distribuição do rendimento nominal mensal das pessoas de 10 anos ou mais de idade com rendimento,6795,Total,6794,Total,99565,Total,50,Índice,0.601
3,Unidade da Federação,15,Pará,2010,2010,880,Índice de Gini da distribuição do rendimento nominal mensal das pessoas de 10 anos ou mais de idade com rendimento,6795,Total,6794,Total,99565,Total,50,Índice,0.574
3,Unidade da Federação,16,Amapá,2000,2000,880,Índice de Gini da distribuição do rendimento nominal mensal das pessoas de 10 anos ou mais de idade com rendimento,6795,Total,6794,Total,99565,Total,50,Índice,0.583
3,Unidade da Federação,16,Amapá,2010,2010,880,Índice de Gini da distribuição do rendimento nominal mensal das pessoas de 10 anos ou mais de idade com rendimento,6795,Total,6794,Total,99565,Total,50,Índice,0.576
3,Unidade da Federação,17,Tocantins,2000,2000,880,Índice de Gini da distribuição do rendimento nominal mensal das pessoas de 10 anos ou mais de idade com rendimento,6795,Total,6794,Total,99565,Total,50,Índice,0.608
3,Unidade da Federação,17,Tocantins,2010,2010,880,Índice de Gini da distribuição do rendimento nominal mensal das pessoas de 10 anos ou mais de idade com rendimento,6795,Total,6794,Total,99565,Total,50,Índice,0.574
3,Unidade da Federação,21,Maranhão,2000,2000,880,Índice de Gini da distribuição do rendimento nominal mensal das pessoas de 10 anos ou mais de idade com rendimento,6795,Total,6794,Total,99565,Total,50,Índice,0.593
3,Unidade da Federação,21,Maranhão,2010,2010,880,Índice de Gini da distribuição do rendimento nominal mensal das pessoas de 10 anos ou mais de idade com rendimento,6795,Total,6794,Total,99565,Total,50,Índice,0.572
3,Unidade da Federação,22,Piauí,2000,2000,880,Índice de Gini da distribuição do rendimento nominal mensal das pessoas de 10 anos ou mais de idade com rendimento,6795,Total,6794,Total,99565,Total,50,Índice,0.603
3,Unidade da Federação,22,Piauí,2010,2010,880,Índice de Gini da distribuição do rendimento nominal mensal das pessoas de 10 anos ou mais de idade com rendimento,6795,Total,6794,Total,99565,Total,50,Índice,0.576
3,Unidade da Federação,23,Ceará,2000,2000,880,Índice de Gini da distribuição do rendimento nominal mensal das pessoas de 10 anos ou mais de idade com rendimento,6795,Total,6794,Total,99565,Total,50,Índice,0.614
3,Unidade da Federação,23,Ceará,2010,2010,880,Índice de Gini da distribuição do rendimento nominal mensal das pessoas de 10 anos ou mais de idade com rendimento,6795,Total,6794,Total,99565,Total,50,Índice,0.573
3,Unidade da Federação,24,Rio Grande do Norte,2000,2000,880,Índice de Gini da distribuição do rendimento nominal mensal das pessoas de 10 anos ou mais de idade com rendimento,6795,Total,6794,Total,99565,Total,50,Índice,0.597
3,Unidade da Federação,24,Rio Grande do Norte,2010,2010,880,Índice de Gini da distribuição do rendimento nominal mensal das pessoas de 10 anos ou mais de idade com rendimento,6795,Total,6794,Total,99565,Total,50,Índice,0.574
3,Unidade da Federação,25,Paraíba,2000,2000,880,Índice de Gini da distribuição do rendimento nominal mensal das pessoas de 10 anos ou mais de idade com rendimento,6795,Total,6794,Total,99565,Total,50,Índice,0.586
3,Unidade da Federação,25,Paraíba,2010,2010,880,Índice de Gini da distribuição do rendimento nominal mensal das pessoas de 10 anos ou mais de idade com rendimento,6795,Total,6794,Total,99565,Total,50,Índice,0.575
3,Unidade da Federação,26,Pernambuco,2000,2000,880,Índice de Gini da distribuição do rendimento nominal mensal das pessoas de 10 anos ou mais de idade com rendimento,6795,Total,6794,Total,99565,Total,50,Índice,0.611
3,Unidade da Federação,26,Pernambuco,2010,2010,880,Índice de Gini da distribuição do rendimento nominal mensal das pessoas de 10 anos ou mais de idade com rendimento,6795,Total,6794,Total,99565,Total,50,Índice,0.588
3,Unidade da Federação,27,Alagoas,2000,2000,880,Índice de Gini da distribuição do rendimento nominal mensal das pessoas de 10 anos ou mais de idade com rendimento,6795,Total,6794,Total,99565,Total,50,Índice,0.605
3,Unidade da Federação,27,Alagoas,2010,2010,880,Índice de Gini da distribuição do rendimento nominal mensal das pessoas de 10 anos ou mais de idade com rendimento,6795,Total,6794,Total,99565,Total,50,Índice,0.580
3,Unidade da Federação,28,Sergipe,2000,2000,880,Índice de Gini da distribuição do rendimento nominal mensal das pessoas de 10 anos ou mais de idade com rendimento,6795,Total,6794,Total,99565,Total,50,Índice,0.607
3,Unidade da Federação,28,Sergipe,2010,2010,880,Índice de Gini da distribuição do rendimento nominal mensal das pessoas de 10 anos ou mais de idade com rendimento,6795,Total,6794,Total,99565,Total,50,Índice,0.592
3,Unidade da Federação,29,Bahia,2000,2000,880,Índice de Gini da distribuição do rendimento nominal mensal das pessoas de 10 anos ou mais de idade com rendimento,6795,Total,6794,Total,99565,Total,50,Índice,0.602
3,Unidade da Federação,29,Bahia,2010,2010,880,Índice de Gini da distribuição do rendimento nominal mensal das pessoas de 10 anos ou mais de idade com rendimento,6795,Total,6794,Total,99565,Total,50,Índice,0.580
3,Unidade da Federação,31,Minas Gerais,2000,2000,880,Índice de Gini da distribuição do rendimento nominal mensal das pessoas de 10 anos ou mais de idade com rendimento,6795,Total,6794,Total,99565,Total,50,Índice,0.599
3,Unidade da Federação,31,Minas Gerais,2010,2010,880,Índice de Gini da distribuição do rendimento nominal mensal das pessoas de 10 anos ou mais de idade com rendimento,6795,Total,6794,Total,99565,Total,50,Índice,0.544
3,Unidade da Federação,32,Espírito Santo,2000,2000,880,Índice de Gini da distribuição do rendimento nominal mensal das pessoas de 10 anos ou mais de idade com rendimento,6795,Total,6794,Total,99565,Total,50,Índice,0.598
3,Unidade da Federação,32,Espírito Santo,2010,2010,880,Índice de Gini da distribuição do rendimento nominal mensal das pessoas de 10 anos ou mais de idade com rendimento,6795,Total,6794,Total,99565,Total,50,Índice,0.557
3,Unidade da Federação,33,Rio de Janeiro,2000,2000,880,Índice de Gini da distribuição do rendimento nominal mensal das pessoas de 10 anos ou mais de idade com rendimento,6795,Total,6794,Total,99565,Total,50,Índice,0.590
3,Unidade da Federação,33,Rio de Janeiro,2010,2010,880,Índice de Gini da distribuição do rendimento nominal mensal das pessoas de 10 anos ou mais de idade com rendimento,6795,Total,6794,Total,99565,Total,50,Índice,0.579
3,Unidade da Federação,35,São Paulo,2000,2000,880,Índice de Gini da distribuição do rendimento nominal mensal das pessoas de 10 anos ou mais de idade com rendimento,6795,Total,6794,Total,99565,Total,50,Índice,0.578
3,Unidade da Federação,35,São Paulo,2010,2010,880,Índice de Gini da distribuição do rendimento nominal mensal das pessoas de 10 anos ou mais de idade com rendimento,6795,Total,6794,Total,99565,Total,50,Índice,0.555
3,Unidade da Federação,41,Paraná,2000,2000,880,Índice de Gini da distribuição do rendimento nominal mensal das pessoas de 10 anos ou mais de idade com rendimento,6795,Total,6794,Total,99565,Total,50,Índice,0.599
3,Unidade da Federação,41,Paraná,2010,2010,880,Índice de Gini da distribuição do rendimento nominal mensal das pessoas de 10 anos ou mais de idade com rendimento,6795,Total,6794,Total,99565,Total,50,Índice,0.538
3,Unidade da Federação,42,Santa Catarina,2000,2000,880,Índice de Gini da distribuição do rendimento nominal mensal das pessoas de 10 anos ou mais de idade com rendimento,6795,Total,6794,Total,99565,Total,50,Índice,0.568
3,Unidade da Federação,42,Santa Catarina,2010,2010,880,Índice de Gini da distribuição do rendimento nominal mensal das pessoas de 10 anos ou mais de idade com rendimento,6795,Total,6794,Total,99565,Total,50,Índice,0.497
3,Unidade da Federação,43,Rio Grande do Sul,2000,2000,880,Índice de Gini da distribuição do rendimento nominal mensal das pessoas de 10 anos ou mais de idade com rendimento,6795,Total,6794,Total,99565,Total,50,Índice,0.581
3,Unidade da Federação,43,Rio Grande do Sul,2010,2010,880,Índice de Gini da distribuição do rendimento nominal mensal das pessoas de 10 anos ou mais de idade com rendimento,6795,Total,6794,Total,99565,Total,50,Índice,0.537
3,Unidade da Federação,50,Mato Grosso do Sul,2000,2000,880,Índice de Gini da distribuição do rendimento nominal mensal das pessoas de 10 anos ou mais de idade com rendimento,6795,Total,6794,Total,99565,Total,50,Índice,0.616
3,Unidade da Federação,50,Mato Grosso do Sul,2010,2010,880,Índice de Gini da distribuição do rendimento nominal mensal das pessoas de 10 anos ou mais de idade com rendimento,6795,Total,6794,Total,99565,Total,50,Índice,0.553
3,Unidade da Federação,51,Mato Grosso,2000,2000,880,Índice de Gini da distribuição do rendimento nominal mensal das pessoas de 10 anos ou mais de idade com rendimento,6795,Total,6794,Total,99565,Total,50,Índice,0.611
3,Unidade da Federação,51,Mato Grosso,2010,2010,880,Índice de Gini da distribuição do rendimento nominal mensal das pessoas de 10 anos ou mais de idade com rendimento,6795,Total,6794,Total,99565,Total,50,Índice,0.541
3,Unidade da Federação,52,Goiás,2000,2000,880,Índice de Gini da distribuição do rendimento nominal mensal das pessoas de 10 anos ou mais de idade com rendimento,6795,Total,6794,Total,99565,Total,50,Índice,0.611
3,Unidade da Federação,52,Goiás,2010,2010,880,Índice de Gini da distribuição do rendimento nominal mensal das pessoas de 10 anos ou mais de idade com rendimento,6795,Total,6794,Total,99565,Total,50,Índice,0.547
3,Unidade da Federação,53,Distrito Federal,2000,2000,880,Índice de Gini da distribuição do rendimento nominal mensal das pessoas de 10 anos ou mais de idade com rendimento,6795,Total,6794,Total,99565,Total,50,Índice,0.630
3,Unidade da Federação,53,Distrito Federal,2010,2010,880,Índice de Gini da distribuição do rendimento nominal mensal das pessoas de 10 anos ou mais de idade com rendimento,6795,Total,6794,Total,99565,Total,50,Índice,0.634
