NC,NN,D1C,D1N,D2C,D2N,D3C,D3N,D4C,D4N,D5C,D5N,MC,MN,V
Nível Territorial (Código),Nível Territorial,Unidade da Federação (Código),Unidade da Federação,Ano (Código),Ano,Variável (Código),Variável,Situação do domicílio (Código),Situação do domicílio,Classes acumuladas de percentual em ordem crescente de rendimento familiar (Código),Classes acumuladas de percentual em ordem crescente de rendimento familiar,Unidade de Medida (Código),Unidade de Medida,Valor
3,Unidade da Federação,11,Rondônia,2000,2000,1631,Distribuição do rendimento nominal mensal das famílias residentes em domicílios particulares com rendimento familiar,6795,Total,0,,2,%,..
3,Unidade da Federação,11,Rondônia,2000,2000,1628,Valor do rendimento nominal médio mensal das famílias residentes em domicílios particulares com rendimento familiar,6795,Total,0,,38,Reais,..
3,Unidade da Federação,11,Rondônia,2000,2000,1630,Valor do rendimento nominal mediano mensal das famílias residentes em domicílios particulares com rendimento familiar,6795,Total,0,,38,Reais,..
3,Unidade da Federação,12,Acre,2000,2000,1631,Distribuição do rendimento nominal mensal das famílias residentes em domicílios particulares com rendimento familiar,6795,Total,0,,2,%,..
3,Unidade da Federação,12,Acre,2000,2000,1628,Valor do rendimento nominal médio mensal das famílias residentes em domicílios particulares com rendimento familiar,6795,Total,0,,38,Reais,..
3,Unidade da Federação,12,Acre,2000,2000,1630,Valor do rendimento nominal mediano mensal das famílias residentes em domicílios particulares com rendimento familiar,6795,Total,0,,38,Reais,..
3,Unidade da Federação,13,Amazonas,2000,2000,1631,Distribuição do rendimento nominal mensal das famílias residentes em domicílios particulares com rendimento familiar,6795,Total,0,,2,%,..
3,Unidade da Federação,13,Amazonas,2000,2000,1628,Valor do rendimento nominal médio mensal das famílias residentes em domicílios particulares com rendimento familiar,6795,Total,0,,38,Reais,..
3,Unidade da Federação,13,Amazonas,2000,2000,1630,Valor do rendimento nominal mediano mensal das famílias residentes em domicílios particulares com rendimento familiar,6795,Total,0,,38,Reais,..
3,Unidade da Federação,14,Roraima,2000,2000,1631,Distribuição do rendimento nominal mensal das famílias residentes em domicílios particulares com rendimento familiar,6795,Total,0,,2,%,..
3,Unidade da Federação,14,Roraima,2000,2000,1628,Valor do rendimento nominal médio mensal das famílias residentes em domicílios particulares com rendimento familiar,6795,Total,0,,38,Reais,..
3,Unidade da Federação,14,Roraima,2000,2000,1630,Valor do rendimento nominal mediano mensal das famílias residentes em domicílios particulares com rendimento familiar,6795,Total,0,,38,Reais,..
3,Unidade da Federação,15,Pará,2000,2000,1631,Distribuição do rendimento nominal mensal das famílias residentes em domicílios particulares com rendimento familiar,6795,Total,0,,2,%,..
3,Unidade da Federação,15,Pará,2000,2000,1628,Valor do rendimento nominal médio mensal das famílias residentes em domicílios particulares com rendimento familiar,6795,Total,0,,38,Reais,..
3,Unidade da Federação,15,Pará,2000,2000,1630,Valor do rendimento nominal mediano mensal das famílias residentes em domicílios particulares com rendimento familiar,6795,Total,0,,38,Reais,..
3,Unidade da Federação,16,Amapá,2000,2000,1631,Distribuição do rendimento nominal mensal das famílias residentes em domicílios particulares com rendimento familiar,6795,Total,0,,2,%,..
3,Unidade da Federação,16,Amapá,2000,2000,1628,Valor do rendimento nominal médio mensal das famílias residentes em domicílios particulares com rendimento familiar,6795,Total,0,,38,Reais,..
3,Unidade da Federação,16,Amapá,2000,2000,1630,Valor do rendimento nominal mediano mensal das famílias residentes em domicílios particulares com rendimento familiar,6795,Total,0,,38,Reais,..
3,Unidade da Federação,17,Tocantins,2000,2000,1631,Distribuição do rendimento nominal mensal das famílias residentes em domicílios particulares com rendimento familiar,6795,Total,0,,2,%,..
3,Unidade da Federação,17,Tocantins,2000,2000,1628,Valor do rendimento nominal médio mensal das famílias residentes em domicílios particulares com rendimento familiar,6795,Total,0,,38,Reais,..
3,Unidade da Federação,17,Tocantins,2000,2000,1630,Valor do rendimento nominal mediano mensal das famílias residentes em domicílios particulares com rendimento familiar,6795,Total,0,,38,Reais,..
3,Unidade da Federação,21,Maranhão,2000,2000,1631,Distribuição do rendimento nominal mensal das famílias residentes em domicílios particulares com rendimento familiar,6795,Total,0,,2,%,..
3,Unidade da Federação,21,Maranhão,2000,2000,1628,Valor do rendimento nominal médio mensal das famílias residentes em domicílios particulares com rendimento familiar,6795,Total,0,,38,Reais,..
3,Unidade da Federação,21,Maranhão,2000,2000,1630,Valor do rendimento nominal mediano mensal das famílias residentes em domicílios particulares com rendimento familiar,6795,Total,0,,38,Reais,..
3,Unidade da Federação,22,Piauí,2000,2000,1631,Distribuição do rendimento nominal mensal das famílias residentes em domicílios particulares com rendimento familiar,6795,Total,0,,2,%,..
3,Unidade da Federação,22,Piauí,2000,2000,1628,Valor do rendimento nominal médio mensal das famílias residentes em domicílios particulares com rendimento familiar,6795,Total,0,,38,Reais,..
3,Unidade da Federação,22,Piauí,2000,2000,1630,Valor do rendimento nominal mediano mensal das famílias residentes em domicílios particulares com rendimento familiar,6795,Total,0,,38,Reais,..
3,Unidade da Federação,23,Ceará,2000,2000,1631,Distribuição do rendimento nominal mensal das famílias residentes em domicílios particulares com rendimento familiar,6795,Total,0,,2,%,..
3,Unidade da Federação,23,Ceará,2000,2000,1628,Valor do rendimento nominal médio mensal das famílias residentes em domicílios particulares com rendimento familiar,6795,Total,0,,38,Reais,..
3,Unidade da Federação,23,Ceará,2000,2000,1630,Valor do rendimento nominal mediano mensal das famílias residentes em domicílios particulares com rendimento familiar,6795,Total,0,,38,Reais,..
3,Unidade da Federação,24,Rio Grande do Norte,2000,2000,1631,Distribuição do rendimento nominal mensal das famílias residentes em domicílios particulares com rendimento familiar,6795,Total,0,,2,%,..
3,Unidade da Federação,24,Rio Grande do Norte,2000,2000,1628,Valor do rendimento nominal médio mensal das famílias residentes em domicílios particulares com rendimento familiar,6795,Total,0,,38,Reais,..
3,Unidade da Federação,24,Rio Grande do Norte,2000,2000,1630,Valor do rendimento nominal mediano mensal das famílias residentes em domicílios particulares com rendimento familiar,6795,Total,0,,38,Reais,..
3,Unidade da Federação,25,Paraíba,2000,2000,1631,Distribuição do rendimento nominal mensal das famílias residentes em domicílios particulares com rendimento familiar,6795,Total,0,,2,%,..
3,Unidade da Federação,25,Paraíba,2000,2000,1628,Valor do rendimento nominal médio mensal das famílias residentes em domicílios particulares com rendimento familiar,6795,Total,0,,38,Reais,..
3,Unidade da Federação,25,Paraíba,2000,2000,1630,Valor do rendimento nominal mediano mensal das famílias residentes em domicílios particulares com rendimento familiar,6795,Total,0,,38,Reais,..
3,Unidade da Federação,26,Pernambuco,2000,2000,1631,Distribuição do rendimento nominal mensal das famílias residentes em domicílios particulares com rendimento familiar,6795,Total,0,,2,%,..
3,Unidade da Federação,26,Pernambuco,2000,2000,1628,Valor do rendimento nominal médio mensal das famílias residentes em domicílios particulares com rendimento familiar,6795,Total,0,,38,Reais,..
3,Unidade da Federação,26,Pernambuco,2000,2000,1630,Valor do rendimento nominal mediano mensal das famílias residentes em domicílios particulares com rendimento familiar,6795,Total,0,,38,Reais,..
3,Unidade da Federação,27,Alagoas,2000,2000,1631,Distribuição do rendimento nominal mensal das famílias residentes em domicílios particulares com rendimento familiar,6795,Total,0,,2,%,..
3,Unidade da Federação,27,Alagoas,2000,2000,1628,Valor do rendimento nominal médio mensal das famílias residentes em domicílios particulares com rendimento familiar,6795,Total,0,,38,Reais,..
3,Unidade da Federação,27,Alagoas,2000,2000,1630,Valor do rendimento nominal mediano mensal das famílias residentes em domicílios particulares com rendimento familiar,6795,Total,0,,38,Reais,..
3,Unidade da Federação,28,Sergipe,2000,2000,1631,Distribuição do rendimento nominal mensal das famílias residentes em domicílios particulares com rendimento familiar,6795,Total,0,,2,%,..
3,Unidade da Federação,28,Sergipe,2000,2000,1628,Valor do rendimento nominal médio mensal das famílias residentes em domicílios particulares com rendimento familiar,6795,Total,0,,38,Reais,..
3,Unidade da Federação,28,Sergipe,2000,2000,1630,Valor do rendimento nominal mediano mensal das famílias residentes em domicílios particulares com rendimento familiar,6795,Total,0,,38,Reais,..
3,Unidade da Federação,29,Bahia,2000,2000,1631,Distribuição do rendimento nominal mensal das famílias residentes em domicílios particulares com rendimento familiar,6795,Total,0,,2,%,..
3,Unidade da Federação,29,Bahia,2000,2000,1628,Valor do rendimento nominal médio mensal das famílias residentes em domicílios particulares com rendimento familiar,6795,Total,0,,38,Reais,..
3,Unidade da Federação,29,Bahia,2000,2000,1630,Valor do rendimento nominal mediano mensal das famílias residentes em domicílios particulares com rendimento familiar,6795,Total,0,,38,Reais,..
3,Unidade da Federação,31,Minas Gerais,2000,2000,1631,Distribuição do rendimento nominal mensal das famílias residentes em domicílios particulares com rendimento familiar,6795,Total,0,,2,%,..
3,Unidade da Federação,31,Minas Gerais,2000,2000,1628,Valor do rendimento nominal médio mensal das famílias residentes em domicílios particulares com rendimento familiar,6795,Total,0,,38,Reais,..
3,Unidade da Federação,31,Minas Gerais,2000,2000,1630,Valor do rendimento nominal mediano mensal das famílias residentes em domicílios particulares com rendimento familiar,6795,Total,0,,38,Reais,..
3,Unidade da Federação,32,Espírito Santo,2000,2000,1631,Distribuição do rendimento nominal mensal das famílias residentes em domicílios particulares com rendimento familiar,6795,Total,0,,2,%,..
3,Unidade da Federação,32,Espírito Santo,2000,2000,1628,Valor do rendimento nominal médio mensal das famílias residentes em domicílios particulares com rendimento familiar,6795,Total,0,,38,Reais,..
3,Unidade da Federação,32,Espírito Santo,2000,2000,1630,Valor do rendimento nominal mediano mensal das famílias residentes em domicílios particulares com rendimento familiar,6795,Total,0,,38,Reais,..
3,Unidade da Federação,33,Rio de Janeiro,2000,2000,1631,Distribuição do rendimento nominal mensal das famílias residentes em domicílios particulares com rendimento familiar,6795,Total,0,,2,%,..
3,Unidade da Federação,33,Rio de Janeiro,2000,2000,1628,Valor do rendimento nominal médio mensal das famílias residentes em domicílios particulares com rendimento familiar,6795,Total,0,,38,Reais,..
3,Unidade da Federação,33,Rio de Janeiro,2000,2000,1630,Valor do rendimento nominal mediano mensal das famílias residentes em domicílios particulares com rendimento familiar,6795,Total,0,,38,Reais,..
3,Unidade da Federação,35,São Paulo,2000,2000,1631,Distribuição do rendimento nominal mensal das famílias residentes em domicílios particulares com rendimento familiar,6795,Total,0,,2,%,..
3,Unidade da Federação,35,São Paulo,2000,2000,1628,Valor do rendimento nominal médio mensal das famílias residentes em domicílios particulares com rendimento familiar,6795,Total,0,,38,Reais,..
3,Unidade da Federação,35,São Paulo,2000,2000,1630,Valor do rendimento nominal mediano mensal das famílias residentes em domicílios particulares com rendimento familiar,6795,Total,0,,38,Reais,..
3,Unidade da Federação,41,Paraná,2000,2000,1631,Distribuição do rendimento nominal mensal das famílias residentes em domicílios particulares com rendimento familiar,6795,Total,0,,2,%,..
3,Unidade da Federação,41,Paraná,2000,2000,1628,Valor do rendimento nominal médio mensal das famílias residentes em domicílios particulares com rendimento familiar,6795,Total,0,,38,Reais,..
3,Unidade da Federação,41,Paraná,2000,2000,1630,Valor do rendimento nominal mediano mensal das famílias residentes em domicílios particulares com rendimento familiar,6795,Total,0,,38,Reais,..
3,Unidade da Federação,42,Santa Catarina,2000,2000,1631,Distribuição do rendimento nominal mensal das famílias residentes em domicílios particulares com rendimento familiar,6795,Total,0,,2,%,..
3,Unidade da Federação,42,Santa Catarina,2000,2000,1628,Valor do rendimento nominal médio mensal das famílias residentes em domicílios particulares com rendimento familiar,6795,Total,0,,38,Reais,..
3,Unidade da Federação,42,Santa Catarina,2000,2000,1630,Valor do rendimento nominal mediano mensal das famílias residentes em domicílios particulares com rendimento familiar,6795,Total,0,,38,Reais,..
3,Unidade da Federação,43,Rio Grande do Sul,2000,2000,1631,Distribuição do rendimento nominal mensal das famílias residentes em domicílios particulares com rendimento familiar,6795,Total,0,,2,%,..
3,Unidade da Federação,43,Rio Grande do Sul,2000,2000,1628,Valor do rendimento nominal médio mensal das famílias residentes em domicílios particulares com rendimento familiar,6795,Total,0,,38,Reais,..
3,Unidade da Federação,43,Rio Grande do Sul,2000,2000,1630,Valor do rendimento nominal mediano mensal das famílias residentes em domicílios particulares com rendimento familiar,6795,Total,0,,38,Reais,..
3,Unidade da Federação,50,Mato Grosso do Sul,2000,2000,1631,Distribuição do rendimento nominal mensal das famílias residentes em domicílios particulares com rendimento familiar,6795,Total,0,,2,%,..
3,Unidade da Federação,50,Mato Grosso do Sul,2000,2000,1628,Valor do rendimento nominal médio mensal das famílias residentes em domicílios particulares com rendimento familiar,6795,Total,0,,38,Reais,..
3,Unidade da Federação,50,Mato Grosso do Sul,2000,2000,1630,Valor do rendimento nominal mediano mensal das famílias residentes em domicílios particulares com rendimento familiar,6795,Total,0,,38,Reais,..
3,Unidade da Federação,51,Mato Grosso,2000,2000,1631,Distribuição do rendimento nominal mensal das famílias residentes em domicílios particulares com rendimento familiar,6795,Total,0,,2,%,..
3,Unidade da Federação,51,Mato Grosso,2000,2000,1628,Valor do rendimento nominal médio mensal das famílias residentes em domicílios particulares com rendimento familiar,6795,Total,0,,38,Reais,..
3,Unidade da Federação,51,Mato Grosso,2000,2000,1630,Valor do rendimento nominal mediano mensal das famílias residentes em domicílios particulares com rendimento familiar,6795,Total,0,,38,Reais,..
3,Unidade da Federação,52,Goiás,2000,2000,1631,Distribuição do rendimento nominal mensal das famílias residentes em domicílios particulares com rendimento familiar,6795,Total,0,,2,%,..
3,Unidade da Federação,52,Goiás,2000,2000,1628,Valor do rendimento nominal médio mensal das famílias residentes em domicílios particulares com rendimento familiar,6795,Total,0,,38,Reais,..
3,Unidade da Federação,52,Goiás,2000,2000,1630,Valor do rendimento nominal mediano mensal das famílias residentes em domicílios particulares com rendimento familiar,6795,Total,0,,38,Reais,..
3,Unidade da Federação,53,Distrito Federal,2000,2000,1631,Distribuição do rendimento nominal mensal das famílias residentes em domicílios particulares com rendimento familiar,6795,Total,0,,2,%,..
3,Unidade da Federação,53,Distrito Federal,2000,2000,1628,Valor do rendimento nominal médio mensal das famílias residentes em domicílios particulares com rendimento familiar,6795,Total,0,,38,Reais,..
3,Unidade da Federação,53,Distrito Federal,2000,2000,1630,Valor do rendimento nominal mediano mensal das famílias residentes em domicílios particulares com rendimento familiar,6795,Total,0,,38,Reais,..
