NC,NN,D1C,D1N,D2C,D2N,D3C,D3N,D4C,D4N,D5C,D5N,D6C,D6N,MC,MN,V
Nível Territorial (Código),Nível Territorial,Unidade da Federação (Código),Unidade da Federação,Ano (Código),Ano,Variável (Código),Variável,Situação do domicílio (Código),Situação do domicílio,Sexo (Código),Sexo,Classes acumuladas de percentual em ordem crescente de rendimento (Código),Classes acumuladas de percentual em ordem crescente de rendimento,Unidade de Medida (Código),Unidade de Medida,Valor
3,Unidade da Federação,11,Rondônia,2010,2010,1620,"Distribuição do rendimento nominal mensal de todos os trabalhos das pessoas de 10 anos ou mais de idade, ocupadas na semana de referência com rendimento de trabalho",6795,Total,6794,Total,99852,Até 100 %,2,%,100.00
3,Unidade da Federação,11,Rondônia,2010,2010,846,"Valor do rendimento nominal médio mensal de todos os trabalhos das pessoas de 10 anos ou mais de idade, ocupadas na semana de referência, com rendimento de trabalho",6795,Total,6794,Total,99852,Até 100 %,38,Reais,1273.90
3,Unidade da Federação,11,Rondônia,2010,2010,845,"Valor do rendimento nominal mediano mensal de todos os trabalhos das pessoas de 10 anos ou mais de idade, ocupadas na semana de referência, com rendimento de trabalho",6795,Total,6794,Total,99852,Até 100 %,38,Reais,700.00
3,Unidade da Federação,12,Acre,2010,2010,1620,"Distribuição do rendimento nominal mensal de todos os trabalhos das pessoas de 10 anos ou mais de idade, ocupadas na semana de referência com rendimento de trabalho",6795,Total,6794,Total,99852,Até 100 %,2,%,100.00
3,Unidade da Federação,12,Acre,2010,2010,846,"Valor do rendimento nominal médio mensal de todos os trabalhos das pessoas de 10 anos ou mais de idade, ocupadas na semana de referência, com rendimento de trabalho",6795,Total,6794,Total,99852,Até 100 %,38,Reais,1177.80
3,Unidade da Federação,12,Acre,2010,2010,845,"Valor do rendimento nominal mediano mensal de todos os trabalhos das pessoas de 10 anos ou mais de idade, ocupadas na semana de referência, com rendimento de trabalho",6795,Total,6794,Total,99852,Até 100 %,38,Reais,600.00
3,Unidade da Federação,13,Amazonas,2010,2010,1620,"Distribuição do rendimento nominal mensal de todos os trabalhos das pessoas de 10 anos ou mais de idade, ocupadas na semana de referência com rendimento de trabalho",6795,Total,6794,Total,99852,Até 100 %,2,%,100.00
3,Unidade da Federação,13,Amazonas,2010,2010,846,"Valor do rendimento nominal médio mensal de todos os trabalhos das pessoas de 10 anos ou mais de idade, ocupadas na semana de referência, com rendimento de trabalho",6795,Total,6794,Total,99852,Até 100 %,38,Reais,1222.70
3,Unidade da Federação,13,Amazonas,2010,2010,845,"Valor do rendimento nominal mediano mensal de todos os trabalhos das pessoas de 10 anos ou mais de idade, ocupadas na semana de referência, com rendimento de trabalho",6795,Total,6794,Total,99852,Até 100 %,38,Reais,600.00
3,Unidade da Federação,14,Roraima,2010,2010,1620,"Distribuição do rendimento nominal mensal de todos os trabalhos das pessoas de 10 anos ou mais de idade, ocupadas na semana de referência com rendimento de trabalho",6795,Total,6794,Total,99852,Até 100 %,2,%,100.00
3,Unidade da Federação,14,Roraima,2010,2010,846,"Valor do rendimento nominal médio mensal de todos os trabalhos das pessoas de 10 anos ou mais de idade, ocupadas na semana de referência, com rendimento de trabalho",6795,Total,6794,Total,99852,Até 100 %,38,Reais,1370.44
3,Unidade da Federação,14,Roraima,2010,2010,845,"Valor do rendimento nominal mediano mensal de todos os trabalhos das pessoas de 10 anos ou mais de idade, ocupadas na semana de referência, com rendimento de trabalho",6795,Total,6794,Total,99852,Até 100 %,38,Reais,610.00
3,Unidade da Federação,15,Pará,2010,2010,1620,"Distribuição do rendimento nominal mensal de todos os trabalhos das pessoas de 10 anos ou mais de idade, ocupadas na semana de referência com rendimento de trabalho",6795,Total,6794,Total,99852,Até 100 %,2,%,100.00
3,Unidade da Federação,15,Pará,2010,2010,846,"Valor do rendimento nominal médio mensal de todos os trabalhos das pessoas de 10 anos ou mais de idade, ocupadas na semana de referência, com rendimento de trabalho",6795,Total,6794,Total,99852,Até 100 %,38,Reais,989.97
3,Unidade da Federação,15,Pará,2010,2010,845,"Valor do rendimento nominal mediano mensal de todos os trabalhos das pessoas de 10 anos ou mais de idade, ocupadas na semana de referência, com rendimento de trabalho",6795,Total,6794,Total,99852,Até 100 %,38,Reais,510.00
3,Unidade da Federação,16,Amapá,2010,2010,1620,"Distribuição do rendimento nominal mensal de todos os trabalhos das pessoas de 10 anos ou mais de idade, ocupadas na semana de referência com rendimento de trabalho",6795,Total,6794,Total,99852,Até 100 %,2,%,100.00
3,Unidade da Federação,16,Amapá,2010,2010,846,"Valor do rendimento nominal médio mensal de todos os trabalhos das pessoas de 10 anos ou mais de idade, ocupadas na semana de referência, com rendimento de trabalho",6795,Total,6794,Total,99852,Até 100 %,38,Reais,1338.37
3,Unidade da Federação,16,Amapá,2010,2010,845,"Valor do rendimento nominal mediano mensal de todos os trabalhos das pessoas de 10 anos ou mais de idade, ocupadas na semana de referência, com rendimento de trabalho",6795,Total,6794,Total,99852,Até 100 %,38,Reais,700.00
3,Unidade da Federação,17,Tocantins,2010,2010,1620,"Distribuição do rendimento nominal mensal de todos os trabalhos das pessoas de 10 anos ou mais de idade, ocupadas na semana de referência com rendimento de trabalho",6795,Total,6794,Total,99852,Até 100 %,2,%,100.00
3,Unidade da Federação,17,Tocantins,2010,2010,846,"Valor do rendimento nominal médio mensal de todos os trabalhos das pessoas de 10 anos ou mais de idade, ocupadas na semana de referência, com rendimento de trabalho",6795,Total,6794,Total,99852,Até 100 %,38,Reais,1213.90
3,Unidade da Federação,17,Tocantins,2010,2010,845,"Valor do rendimento nominal mediano mensal de todos os trabalhos das pessoas de 10 anos ou mais de idade, ocupadas na semana de referência, com rendimento de trabalho",6795,Total,6794,Total,99852,Até 100 %,38,Reais,600.00
3,Unidade da Federação,21,Maranhão,2010,2010,1620,"Distribuição do rendimento nominal mensal de todos os trabalhos das pessoas de 10 anos ou mais de idade, ocupadas na semana de referência com rendimento de trabalho",6795,Total,6794,Total,99852,Até 100 %,2,%,100.00
3,Unidade da Federação,21,Maranhão,2010,2010,846,"Valor do rendimento nominal médio mensal de todos os trabalhos das pessoas de 10 anos ou mais de idade, ocupadas na semana de referência, com rendimento de trabalho",6795,Total,6794,Total,99852,Até 100 %,38,Reais,860.92
3,Unidade da Federação,21,Maranhão,2010,2010,845,"Valor do rendimento nominal mediano mensal de todos os trabalhos das pessoas de 10 anos ou mais de idade, ocupadas na semana de referência, com rendimento de trabalho",6795,Total,6794,Total,99852,Até 100 %,38,Reais,510.00
3,Unidade da Federação,22,Piauí,2010,2010,1620,"Distribuição do rendimento nominal mensal de todos os trabalhos das pessoas de 10 anos ou mais de idade, ocupadas na semana de referência com rendimento de trabalho",6795,Total,6794,Total,99852,Até 100 %,2,%,100.00
3,Unidade da Federação,22,Piauí,2010,2010,846,"Valor do rendimento nominal médio mensal de todos os trabalhos das pessoas de 10 anos ou mais de idade, ocupadas na semana de referência, com rendimento de trabalho",6795,Total,6794,Total,99852,Até 100 %,38,Reais,888.57
3,Unidade da Federação,22,Piauí,2010,2010,845,"Valor do rendimento nominal mediano mensal de todos os trabalhos das pessoas de 10 anos ou mais de idade, ocupadas na semana de referência, com rendimento de trabalho",6795,Total,6794,Total,99852,Até 100 %,38,Reais,510.00
3,Unidade da Federação,23,Ceará,2010,2010,1620,"Distribuição do rendimento nominal mensal de todos os trabalhos das pessoas de 10 anos ou mais de idade, ocupadas na semana de referência com rendimento de trabalho",6795,Total,6794,Total,99852,Até 100 %,2,%,100.00
3,Unidade da Federação,23,Ceará,2010,2010,846,"Valor do rendimento nominal médio mensal de todos os trabalhos das pessoas de 10 anos ou mais de idade, ocupadas na semana de referência, com rendimento de trabalho",6795,Total,6794,Total,99852,Até 100 %,38,Reais,899.10
3,Unidade da Federação,23,Ceará,2010,2010,845,"Valor do rendimento nominal mediano mensal de todos os trabalhos das pessoas de 10 anos ou mais de idade, ocupadas na semana de referência, com rendimento de trabalho",6795,Total,6794,Total,99852,Até 100 %,38,Reais,510.00
3,Unidade da Federação,24,Rio Grande do Norte,2010,2010,1620,"Distribuição do rendimento nominal mensal de todos os trabalhos das pessoas de 10 anos ou mais de idade, ocupadas na semana de referência com rendimento de trabalho",6795,Total,6794,Total,99852,Até 100 %,2,%,100.00
3,Unidade da Federação,24,Rio Grande do Norte,2010,2010,846,"Valor do rendimento nominal médio mensal de todos os trabalhos das pessoas de 10 anos ou mais de idade, ocupadas na semana de referência, com rendimento de trabalho",6795,Total,6794,Total,99852,Até 100 %,38,Reais,1052.47
3,Unidade da Federação,24,Rio Grande do Norte,2010,2010,845,"Valor do rendimento nominal mediano mensal de todos os trabalhos das pessoas de 10 anos ou mais de idade, ocupadas na semana de referência, com rendimento de trabalho",6795,Total,6794,Total,99852,Até 100 %,38,Reais,510.00
3,Unidade da Federação,25,Paraíba,2010,2010,1620,"Distribuição do rendimento nominal mensal de todos os trabalhos das pessoas de 10 anos ou mais de idade, ocupadas na semana de referência com rendimento de trabalho",6795,Total,6794,Total,99852,Até 100 %,2,%,100.00
3,Unidade da Federação,25,Paraíba,2010,2010,846,"Valor do rendimento nominal médio mensal de todos os trabalhos das pessoas de 10 anos ou mais de idade, ocupadas na semana de referência, com rendimento de trabalho",6795,Total,6794,Total,99852,Até 100 %,38,Reais,943.75
3,Unidade da Federação,25,Paraíba,2010,2010,845,"Valor do rendimento nominal mediano mensal de todos os trabalhos das pessoas de 10 anos ou mais de idade, ocupadas na semana de referência, com rendimento de trabalho",6795,Total,6794,Total,99852,Até 100 %,38,Reais,510.00
3,Unidade da Federação,26,Pernambuco,2010,2010,1620,"Distribuição do rendimento nominal mensal de todos os trabalhos das pessoas de 10 anos ou mais de idade, ocupadas na semana de referência com rendimento de trabalho",6795,Total,6794,Total,99852,Até 100 %,2,%,100.00
3,Unidade da Federação,26,Pernambuco,2010,2010,846,"Valor do rendimento nominal médio mensal de todos os trabalhos das pessoas de 10 anos ou mais de idade, ocupadas na semana de referência, com rendimento de trabalho",6795,Total,6794,Total,99852,Até 100 %,38,Reais,1006.99
3,Unidade da Federação,26,Pernambuco,2010,2010,845,"Valor do rendimento nominal mediano mensal de todos os trabalhos das pessoas de 10 anos ou mais de idade, ocupadas na semana de referência, com rendimento de trabalho",6795,Total,6794,Total,99852,Até 100 %,38,Reais,510.00
3,Unidade da Federação,27,Alagoas,2010,2010,1620,"Distribuição do rendimento nominal mensal de todos os trabalhos das pessoas de 10 anos ou mais de idade, ocupadas na semana de referência com rendimento de trabalho",6795,Total,6794,Total,99852,Até 100 %,2,%,100.00
3,Unidade da Federação,27,Alagoas,2010,2010,846,"Valor do rendimento nominal médio mensal de todos os trabalhos das pessoas de 10 anos ou mais de idade, ocupadas na semana de referência, com rendimento de trabalho",6795,Total,6794,Total,99852,Até 100 %,38,Reais,953.07
3,Unidade da Federação,27,Alagoas,2010,2010,845,"Valor do rendimento nominal mediano mensal de todos os trabalhos das pessoas de 10 anos ou mais de idade, ocupadas na semana de referência, com rendimento de trabalho",6795,Total,6794,Total,99852,Até 100 %,38,Reais,510.00
3,Unidade da Federação,28,Sergipe,2010,2010,1620,"Distribuição do rendimento nominal mensal de todos os trabalhos das pessoas de 10 anos ou mais de idade, ocupadas na semana de referência com rendimento de trabalho",6795,Total,6794,Total,99852,Até 100 %,2,%,100.00
3,Unidade da Federação,28,Sergipe,2010,2010,846,"Valor do rendimento nominal médio mensal de todos os trabalhos das pessoas de 10 anos ou mais de idade, ocupadas na semana de referência, com rendimento de trabalho",6795,Total,6794,Total,99852,Até 100 %,38,Reais,993.80
3,Unidade da Federação,28,Sergipe,2010,2010,845,"Valor do rendimento nominal mediano mensal de todos os trabalhos das pessoas de 10 anos ou mais de idade, ocupadas na semana de referência, com rendimento de trabalho",6795,Total,6794,Total,99852,Até 100 %,38,Reais,510.00
3,Unidade da Federação,29,Bahia,2010,2010,1620,"Distribuição do rendimento nominal mensal de todos os trabalhos das pessoas de 10 anos ou mais de idade, ocupadas na semana de referência com rendimento de trabalho",6795,Total,6794,Total,99852,Até 100 %,2,%,100.00
3,Unidade da Federação,29,Bahia,2010,2010,846,"Valor do rendimento nominal médio mensal de todos os trabalhos das pessoas de 10 anos ou mais de idade, ocupadas na semana de referência, com rendimento de trabalho",6795,Total,6794,Total,99852,Até 100 %,38,Reais,947.25
3,Unidade da Federação,29,Bahia,2010,2010,845,"Valor do rendimento nominal mediano mensal de todos os trabalhos das pessoas de 10 anos ou mais de idade, ocupadas na semana de referência, com rendimento de trabalho",6795,Total,6794,Total,99852,Até 100 %,38,Reais,510.00
3,Unidade da Federação,31,Minas Gerais,2010,2010,1620,"Distribuição do rendimento nominal mensal de todos os trabalhos das pessoas de 10 anos ou mais de idade, ocupadas na semana de referência com rendimento de trabalho",6795,Total,6794,Total,99852,Até 100 %,2,%,100.00
3,Unidade da Federação,31,Minas Gerais,2010,2010,846,"Valor do rendimento nominal médio mensal de todos os trabalhos das pessoas de 10 anos ou mais de idade, ocupadas na semana de referência, com rendimento de trabalho",6795,Total,6794,Total,99852,Até 100 %,38,Reais,1195.83
3,Unidade da Federação,31,Minas Gerais,2010,2010,845,"Valor do rendimento nominal mediano mensal de todos os trabalhos das pessoas de 10 anos ou mais de idade, ocupadas na semana de referência, com rendimento de trabalho",6795,Total,6794,Total,99852,Até 100 %,38,Reais,650.00
3,Unidade da Federação,32,Espírito Santo,2010,2010,1620,"Distribuição do rendimento nominal mensal de todos os trabalhos das pessoas de 10 anos ou mais de idade, ocupadas na semana de referência com rendimento de trabalho",6795,Total,6794,Total,99852,Até 100 %,2,%,100.00
3,Unidade da Federação,32,Espírito Santo,2010,2010,846,"Valor do rendimento nominal médio mensal de todos os trabalhos das pessoas de 10 anos ou mais de idade, ocupadas na semana de referência, com rendimento de trabalho",6795,Total,6794,Total,99852,Até 100 %,38,Reais,1297.90
3,Unidade da Federação,32,Espírito Santo,2010,2010,845,"Valor do rendimento nominal mediano mensal de todos os trabalhos das pessoas de 10 anos ou mais de idade, ocupadas na semana de referência, com rendimento de trabalho",6795,Total,6794,Total,99852,Até 100 %,38,Reais,700.00
3,Unidade da Federação,33,Rio de Janeiro,2010,2010,1620,"Distribuição do rendimento nominal mensal de todos os trabalhos das pessoas de 10 anos ou mais de idade, ocupadas na semana de referência com rendimento de trabalho",6795,Total,6794,Total,99852,Até 100 %,2,%,100.00
3,Unidade da Federação,33,Rio de Janeiro,2010,2010,846,"Valor do rendimento nominal médio mensal de todos os trabalhos das pessoas de 10 anos ou mais de idade, ocupadas na semana de referência, com rendimento de trabalho",6795,Total,6794,Total,99852,Até 100 %,38,Reais,1576.33
3,Unidade da Federação,33,Rio de Janeiro,2010,2010,845,"Valor do rendimento nominal mediano mensal de todos os trabalhos das pessoas de 10 anos ou mais de idade, ocupadas na semana de referência, com rendimento de trabalho",6795,Total,6794,Total,99852,Até 100 %,38,Reais,800.00
3,Unidade da Federação,35,São Paulo,2010,2010,1620,"Distribuição do rendimento nominal mensal de todos os trabalhos das pessoas de 10 anos ou mais de idade, ocupadas na semana de referência com rendimento de trabalho",6795,Total,6794,Total,99852,Até 100 %,2,%,100.00
3,Unidade da Federação,35,São Paulo,2010,2010,846,"Valor do rendimento nominal médio mensal de todos os trabalhos das pessoas de 10 anos ou mais de idade, ocupadas na semana de referência, com rendimento de trabalho",6795,Total,6794,Total,99852,Até 100 %,38,Reais,1648.60
3,Unidade da Federação,35,São Paulo,2010,2010,845,"Valor do rendimento nominal mediano mensal de todos os trabalhos das pessoas de 10 anos ou mais de idade, ocupadas na semana de referência, com rendimento de trabalho",6795,Total,6794,Total,99852,Até 100 %,38,Reais,900.00
3,Unidade da Federação,41,Paraná,2010,2010,1620,"Distribuição do rendimento nominal mensal de todos os trabalhos das pessoas de 10 anos ou mais de idade, ocupadas na semana de referência com rendimento de trabalho",6795,Total,6794,Total,99852,Até 100 %,2,%,100.00
3,Unidade da Federação,41,Paraná,2010,2010,846,"Valor do rendimento nominal médio mensal de todos os trabalhos das pessoas de 10 anos ou mais de idade, ocupadas na semana de referência, com rendimento de trabalho",6795,Total,6794,Total,99852,Até 100 %,38,Reais,1389.99
3,Unidade da Federação,41,Paraná,2010,2010,845,"Valor do rendimento nominal mediano mensal de todos os trabalhos das pessoas de 10 anos ou mais de idade, ocupadas na semana de referência, com rendimento de trabalho",6795,Total,6794,Total,99852,Até 100 %,38,Reais,800.00
3,Unidade da Federação,42,Santa Catarina,2010,2010,1620,"Distribuição do rendimento nominal mensal de todos os trabalhos das pessoas de 10 anos ou mais de idade, ocupadas na semana de referência com rendimento de trabalho",6795,Total,6794,Total,99852,Até 100 %,2,%,100.00
3,Unidade da Federação,42,Santa Catarina,2010,2010,846,"Valor do rendimento nominal médio mensal de todos os trabalhos das pessoas de 10 anos ou mais de idade, ocupadas na semana de referência, com rendimento de trabalho",6795,Total,6794,Total,99852,Até 100 %,38,Reais,1421.84
3,Unidade da Federação,42,Santa Catarina,2010,2010,845,"Valor do rendimento nominal mediano mensal de todos os trabalhos das pessoas de 10 anos ou mais de idade, ocupadas na semana de referência, com rendimento de trabalho",6795,Total,6794,Total,99852,Até 100 %,38,Reais,900.00
3,Unidade da Federação,43,Rio Grande do Sul,2010,2010,1620,"Distribuição do rendimento nominal mensal de todos os trabalhos das pessoas de 10 anos ou mais de idade, ocupadas na semana de referência com rendimento de trabalho",6795,Total,6794,Total,99852,Até 100 %,2,%,100.00
3,Unidade da Federação,43,Rio Grande do Sul,2010,2010,846,"Valor do rendimento nominal médio mensal de todos os trabalhos das pessoas de 10 anos ou mais de idade, ocupadas na semana de referência, com rendimento de trabalho",6795,Total,6794,Total,99852,Até 100 %,38,Reais,1375.39
3,Unidade da Federação,43,Rio Grande do Sul,2010,2010,845,"Valor do rendimento nominal mediano mensal de todos os trabalhos das pessoas de 10 anos ou mais de idade, ocupadas na semana de referência, com rendimento de trabalho",6795,Total,6794,Total,99852,Até 100 %,38,Reais,800.00
3,Unidade da Federação,50,Mato Grosso do Sul,2010,2010,1620,"Distribuição do rendimento nominal mensal de todos os trabalhos das pessoas de 10 anos ou mais de idade, ocupadas na semana de referência com rendimento de trabalho",6795,Total,6794,Total,99852,Até 100 %,2,%,100.00
3,Unidade da Federação,50,Mato Grosso do Sul,2010,2010,846,"Valor do rendimento nominal médio mensal de todos os trabalhos das pessoas de 10 anos ou mais de idade, ocupadas na semana de referência, com rendimento de trabalho",6795,Total,6794,Total,99852,Até 100 %,38,Reais,1363.79
3,Unidade da Federação,50,Mato Grosso do Sul,2010,2010,845,"Valor do rendimento nominal mediano mensal de todos os trabalhos das pessoas de 10 anos ou mais de idade, ocupadas na semana de referência, com rendimento de trabalho",6795,Total,6794,Total,99852,Até 100 %,38,Reais,750.00
3,Unidade da Federação,51,Mato Grosso,2010,2010,1620,"Distribuição do rendimento nominal mensal de todos os trabalhos das pessoas de 10 anos ou mais de idade, ocupadas na semana de referência com rendimento de trabalho",6795,Total,6794,Total,99852,Até 100 %,2,%,100.00
3,Unidade da Federação,51,Mato Grosso,2010,2010,846,"Valor do rendimento nominal médio mensal de todos os trabalhos das pessoas de 10 anos ou mais de idade, ocupadas na semana de referência, com rendimento de trabalho",6795,Total,6794,Total,99852,Até 100 %,38,Reais,1357.27
3,Unidade da Federação,51,Mato Grosso,2010,2010,845,"Valor do rendimento nominal mediano mensal de todos os trabalhos das pessoas de 10 anos ou mais de idade, ocupadas na semana de referência, com rendimento de trabalho",6795,Total,6794,Total,99852,Até 100 %,38,Reais,800.00
3,Unidade da Federação,52,Goiás,2010,2010,1620,"Distribuição do rendimento nominal mensal de todos os trabalhos das pessoas de 10 anos ou mais de idade, ocupadas na semana de referência com rendimento de trabalho",6795,Total,6794,Total,99852,Até 100 %,2,%,100.00
3,Unidade da Federação,52,Goiás,2010,2010,846,"Valor do rendimento nominal médio mensal de todos os trabalhos das pessoas de 10 anos ou mais de idade, ocupadas na semana de referência, com rendimento de trabalho",6795,Total,6794,Total,99852,Até 100 %,38,Reais,1323.53
3,Unidade da Federação,52,Goiás,2010,2010,845,"Valor do rendimento nominal mediano mensal de todos os trabalhos das pessoas de 10 anos ou mais de idade, ocupadas na semana de referência, com rendimento de trabalho",6795,Total,6794,Total,99852,Até 100 %,38,Reais,750.00
3,Unidade da Federação,53,Distrito Federal,2010,2010,1620,"Distribuição do rendimento nominal mensal de todos os trabalhos das pessoas de 10 anos ou mais de idade, ocupadas na semana de referência com rendimento de trabalho",6795,Total,6794,Total,99852,Até 100 %,2,%,100.00
3,Unidade da Federação,53,Distrito Federal,2010,2010,846,"Valor do rendimento nominal médio mensal de todos os trabalhos das pessoas de 10 anos ou mais de idade, ocupadas na semana de referência, com rendimento de trabalho",6795,Total,6794,Total,99852,Até 100 %,38,Reais,2584.89
3,Unidade da Federação,53,Distrito Federal,2010,2010,845,"Valor do rendimento nominal mediano mensal de todos os trabalhos das pessoas de 10 anos ou mais de idade, ocupadas na semana de referência, com rendimento de trabalho",6795,Total,6794,Total,99852,Até 100 %,38,Reais,1000.00
