NC,NN,D1C,D1N,D2C,D2N,D3C,D3N,D4C,D4N,D5C,D5N,D6C,D6N,D7C,D7N,MC,MN,V
Nível Territorial (Código),Nível Territorial,Unidade da Federação (Código),Unidade da Federação,Ano (Código),Ano,Variável (Código),Variável,Sexo (Código),Sexo,Nível de instrução (Código),Nível de instrução,Grupos de horas habitualmente trabalhadas por semana no trabalho principal (Código),Grupos de horas habitualmente trabalhadas por semana no trabalho principal,Grandes grupos de ocupação no trabalho principal (Código),Grandes grupos de ocupação no trabalho principal,Unidade de Medida (Código),Unidade de Medida,Valor
3,Unidade da Federação,11,Rondônia,2010,2010,784,"Pessoas de 10 anos ou mais de idade, ocupadas na semana de referência, com rendimento do trabalho principal",6794,Total,120704,Total,14864,Total,100971,Total,45,Pessoas,659478
3,Unidade da Federação,11,Rondônia,2010,2010,1000784,"Pessoas de 10 anos ou mais de idade, ocupadas na semana de referência, com rendimento do trabalho principal - percentual do total geral",6794,Total,120704,Total,14864,Total,100971,Total,2,Percentual,100.00
3,Unidade da Federação,11,Rondônia,2010,2010,1621,"Valor do rendimento nominal médio mensal do trabalho principal das pessoas de 10 anos ou mais de idade, ocupadas na semana de referência, com rendimento do trabalho principal",6794,Total,120704,Total,14864,Total,100971,Total,38,Reais,1221.73
3,Unidade da Federação,11,Rondônia,2010,2010,1622,"Valor do rendimento nominal mediano mensal do trabalho principal das pessoas de 10 anos ou mais de idade, ocupadas na semana de referência, com rendimento do trabalho principal",6794,Total,120704,Total,14864,Total,100971,Total,38,Reais,700.00
3,Unidade da Federação,12,Acre,2010,2010,784,"Pessoas de 10 anos ou mais de idade, ocupadas na semana de referência, com rendimento do trabalho principal",6794,Total,120704,Total,14864,Total,100971,Total,45,Pessoas,243709
3,Unidade da Federação,12,Acre,2010,2010,1000784,"Pessoas de 10 anos ou mais de idade, ocupadas na semana de referência, com rendimento do trabalho principal - percentual do total geral",6794,Total,120704,Total,14864,Total,100971,Total,2,Percentual,100.00
3,Unidade da Federação,12,Acre,2010,2010,1621,"Valor do rendimento nominal médio mensal do trabalho principal das pessoas de 10 anos ou mais de idade, ocupadas na semana de referência, com rendimento do trabalho principal",6794,Total,120704,Total,14864,Total,100971,Total,38,Reais,1120.38
3,Unidade da Federação,12,Acre,2010,2010,1622,"Valor do rendimento nominal mediano mensal do trabalho principal das pessoas de 10 anos ou mais de idade, ocupadas na semana de referência, com rendimento do trabalho principal",6794,Total,120704,Total,14864,Total,100971,Total,38,Reais,600.00
3,Unidade da Federação,13,Amazonas,2010,2010,784,"Pessoas de 10 anos ou mais de idade, ocupadas na semana de referência, com rendimento do trabalho principal",6794,Total,120704,Total,14864,Total,100971,Total,45,Pessoas,1144482
3,Unidade da Federação,13,Amazonas,2010,2010,1000784,"Pessoas de 10 anos ou mais de idade, ocupadas na semana de referência, com rendimento do trabalho principal - percentual do total geral",6794,Total,120704,Total,14864,Total,100971,Total,2,Percentual,100.00
3,Unidade da Federação,13,Amazonas,2010,2010,1621,"Valor do rendimento nominal médio mensal do trabalho principal das pessoas de 10 anos ou mais de idade, ocupadas na semana de referência, com rendimento do trabalho principal",6794,Total,120704,Total,14864,Total,100971,Total,38,Reais,1172.25
3,Unidade da Federação,13,Amazonas,2010,2010,1622,"Valor do rendimento nominal mediano mensal do trabalho principal das pessoas de 10 anos ou mais de idade, ocupadas na semana de referência, com rendimento do trabalho principal",6794,Total,120704,Total,14864,Total,100971,Total,38,Reais,600.00
3,Unidade da Federação,14,Roraima,2010,2010,784,"Pessoas de 10 anos ou mais de idade, ocupadas na semana de referência, com rendimento do trabalho principal",6794,Total,120704,Total,14864,Total,100971,Total,45,Pessoas,159851
3,Unidade da Federação,14,Roraima,2010,2010,1000784,"Pessoas de 10 anos ou mais de idade, ocupadas na semana de referência, com rendimento do trabalho principal - percentual do total geral",6794,Total,120704,Total,14864,Total,100971,Total,2,Percentual,100.00
3,Unidade da Federação,14,Roraima,2010,2010,1621,"Valor do rendimento nominal médio mensal do trabalho principal das pessoas de 10 anos ou mais de idade, ocupadas na semana de referência, com rendimento do trabalho principal",6794,Total,120704,Total,14864,Total,100971,Total,38,Reais,1291.26
3,Unidade da Federação,14,Roraima,2010,2010,1622,"Valor do rendimento nominal mediano mensal do trabalho principal das pessoas de 10 anos ou mais de idade, ocupadas na semana de referência, com rendimento do trabalho principal",6794,Total,120704,Total,14864,Total,100971,Total,38,Reais,600.00
3,Unidade da Federação,15,Pará,2010,2010,784,"Pessoas de 10 anos ou mais de idade, ocupadas na semana de referência, com rendimento do trabalho principal",6794,Total,120704,Total,14864,Total,100971,Total,45,Pessoas,2537603
3,Unidade da Federação,15,Pará,2010,2010,1000784,"Pessoas de 10 anos ou mais de idade, ocupadas na semana de referência, com rendimento do trabalho principal - percentual do total geral",6794,Total,120704,Total,14864,Total,100971,Total,2,Percentual,100.00
3,Unidade da Federação,15,Pará,2010,2010,1621,"Valor do rendimento nominal médio mensal do trabalho principal das pessoas de 10 anos ou mais de idade, ocupadas na semana de referência, com rendimento do trabalho principal",6794,Total,120704,Total,14864,Total,100971,Total,38,Reais,947.29
3,Unidade da Federação,15,Pará,2010,2010,1622,"Valor do rendimento nominal mediano mensal do trabalho principal das pessoas de 10 anos ou mais de idade, ocupadas na semana de referência, com rendimento do trabalho principal",6794,Total,120704,Total,14864,Total,100971,Total,38,Reais,510.00
3,Unidade da Federação,16,Amapá,2010,2010,784,"Pessoas de 10 anos ou mais de idade, ocupadas na semana de referência, com rendimento do trabalho principal",6794,Total,120704,Total,14864,Total,100971,Total,45,Pessoas,242638
3,Unidade da Federação,16,Amapá,2010,2010,1000784,"Pessoas de 10 anos ou mais de idade, ocupadas na semana de referência, com rendimento do trabalho principal - percentual do total geral",6794,Total,120704,Total,14864,Total,100971,Total,2,Percentual,100.00
3,Unidade da Federação,16,Amapá,2010,2010,1621,"Valor do rendimento nominal médio mensal do trabalho principal das pessoas de 10 anos ou mais de idade, ocupadas na semana de referência, com rendimento do trabalho principal",6794,Total,120704,Total,14864,Total,100971,Total,38,Reais,1267.90
3,Unidade da Federação,16,Amapá,2010,2010,1622,"Valor do rendimento nominal mediano mensal do trabalho principal das pessoas de 10 anos ou mais de idade, ocupadas na semana de referência, com rendimento do trabalho principal",6794,Total,120704,Total,14864,Total,100971,Total,38,Reais,670.00
3,Unidade da Federação,17,Tocantins,2010,2010,784,"Pessoas de 10 anos ou mais de idade, ocupadas na semana de referência, com rendimento do trabalho principal",6794,Total,120704,Total,14864,Total,100971,Total,45,Pessoas,524958
3,Unidade da Federação,17,Tocantins,2010,2010,1000784,"Pessoas de 10 anos ou mais de idade, ocupadas na semana de referência, com rendimento do trabalho principal - percentual do total geral",6794,Total,120704,Total,14864,Total,100971,Total,2,Percentual,100.00
3,Unidade da Federação,17,Tocantins,2010,2010,1621,"Valor do rendimento nominal médio mensal do trabalho principal das pessoas de 10 anos ou mais de idade, ocupadas na semana de referência, com rendimento do trabalho principal",6794,Total,120704,Total,14864,Total,100971,Total,38,Reais,1156.02
3,Unidade da Federação,17,Tocantins,2010,2010,1622,"Valor do rendimento nominal mediano mensal do trabalho principal das pessoas de 10 anos ou mais de idade, ocupadas na semana de referência, com rendimento do trabalho principal",6794,Total,120704,Total,14864,Total,100971,Total,38,Reais,600.00
3,Unidade da Federação,21,Maranhão,2010,2010,784,"Pessoas de 10 anos ou mais de idade, ocupadas na semana de referência, com rendimento do trabalho principal",6794,Total,120704,Total,14864,Total,100971,Total,45,Pessoas,1913871
3,Unidade da Federação,21,Maranhão,2010,2010,1000784,"Pessoas de 10 anos ou mais de idade, ocupadas na semana de referência, com rendimento do trabalho principal - percentual do total geral",6794,Total,120704,Total,14864,Total,100971,Total,2,Percentual,100.00
3,Unidade da Federação,21,Maranhão,2010,2010,1621,"Valor do rendimento nominal médio mensal do trabalho principal das pessoas de 10 anos ou mais de idade, ocupadas na semana de referência, com rendimento do trabalho principal",6794,Total,120704,Total,14864,Total,100971,Total,38,Reais,811.01
3,Unidade da Federação,21,Maranhão,2010,2010,1622,"Valor do rendimento nominal mediano mensal do trabalho principal das pessoas de 10 anos ou mais de idade, ocupadas na semana de referência, com rendimento do trabalho principal",6794,Total,120704,Total,14864,Total,100971,Total,38,Reais,510.00
3,Unidade da Federação,22,Piauí,2010,2010,784,"Pessoas de 10 anos ou mais de idade, ocupadas na semana de referência, com rendimento do trabalho principal",6794,Total,120704,Total,14864,Total,100971,Total,45,Pessoas,984529
3,Unidade da Federação,22,Piauí,2010,2010,1000784,"Pessoas de 10 anos ou mais de idade, ocupadas na semana de referência, com rendimento do trabalho principal - percentual do total geral",6794,Total,120704,Total,14864,Total,100971,Total,2,Percentual,100.00
3,Unidade da Federação,22,Piauí,2010,2010,1621,"Valor do rendimento nominal médio mensal do trabalho principal das pessoas de 10 anos ou mais de idade, ocupadas na semana de referência, com rendimento do trabalho principal",6794,Total,120704,Total,14864,Total,100971,Total,38,Reais,828.91
3,Unidade da Federação,22,Piauí,2010,2010,1622,"Valor do rendimento nominal mediano mensal do trabalho principal das pessoas de 10 anos ou mais de idade, ocupadas na semana de referência, com rendimento do trabalho principal",6794,Total,120704,Total,14864,Total,100971,Total,38,Reais,510.00
3,Unidade da Federação,23,Ceará,2010,2010,784,"Pessoas de 10 anos ou mais de idade, ocupadas na semana de referência, com rendimento do trabalho principal",6794,Total,120704,Total,14864,Total,100971,Total,45,Pessoas,2948807
3,Unidade da Federação,23,Ceará,2010,2010,1000784,"Pessoas de 10 anos ou mais de idade, ocupadas na semana de referência, com rendimento do trabalho principal - percentual do total geral",6794,Total,120704,Total,14864,Total,100971,Total,2,Percentual,100.00
3,Unidade da Federação,23,Ceará,2010,2010,1621,"Valor do rendimento nominal médio mensal do trabalho principal das pessoas de 10 anos ou mais de idade, ocupadas na semana de referência, com rendimento do trabalho principal",6794,Total,120704,Total,14864,Total,100971,Total,38,Reais,862.85
3,Unidade da Federação,23,Ceará,2010,2010,1622,"Valor do rendimento nominal mediano mensal do trabalho principal das pessoas de 10 anos ou mais de idade, ocupadas na semana de referência, com rendimento do trabalho principal",6794,Total,120704,Total,14864,Total,100971,Total,38,Reais,510.00
3,Unidade da Federação,24,Rio Grande do Norte,2010,2010,784,"Pessoas de 10 anos ou mais de idade, ocupadas na semana de referência, com rendimento do trabalho principal",6794,Total,120704,Total,14864,Total,100971,Total,45,Pessoas,1119130
3,Unidade da Federação,24,Rio Grande do Norte,2010,2010,1000784,"Pessoas de 10 anos ou mais de idade, ocupadas na semana de referência, com rendimento do trabalho principal - percentual do total geral",6794,Total,120704,Total,14864,Total,100971,Total,2,Percentual,100.00
3,Unidade da Federação,24,Rio Grande do Norte,2010,2010,1621,"Valor do rendimento nominal médio mensal do trabalho principal das pessoas de 10 anos ou mais de idade, ocupadas na semana de referência, com rendimento do trabalho principal",6794,Total,120704,Total,14864,Total,100971,Total,38,Reais,994.66
3,Unidade da Federação,24,Rio Grande do Norte,2010,2010,1622,"Valor do rendimento nominal mediano mensal do trabalho principal das pessoas de 10 anos ou mais de idade, ocupadas na semana de referência, com rendimento do trabalho principal",6794,Total,120704,Total,14864,Total,100971,Total,38,Reais,510.00
3,Unidade da Federação,25,Paraíba,2010,2010,784,"Pessoas de 10 anos ou mais de idade, ocupadas na semana de referência, com rendimento do trabalho principal",6794,Total,120704,Total,14864,Total,100971,Total,45,Pessoas,1247054
3,Unidade da Federação,25,Paraíba,2010,2010,1000784,"Pessoas de 10 anos ou mais de idade, ocupadas na semana de referência, com rendimento do trabalho principal - percentual do total geral",6794,Total,120704,Total,14864,Total,100971,Total,2,Percentual,100.00
3,Unidade da Federação,25,Paraíba,2010,2010,1621,"Valor do rendimento nominal médio mensal do trabalho principal das pessoas de 10 anos ou mais de idade, ocupadas na semana de referência, com rendimento do trabalho principal",6794,Total,120704,Total,14864,Total,100971,Total,38,Reais,886.61
3,Unidade da Federação,25,Paraíba,2010,2010,1622,"Valor do rendimento nominal mediano mensal do trabalho principal das pessoas de 10 anos ou mais de idade, ocupadas na semana de referência, com rendimento do trabalho principal",6794,Total,120704,Total,14864,Total,100971,Total,38,Reais,510.00
3,Unidade da Federação,26,Pernambuco,2010,2010,784,"Pessoas de 10 anos ou mais de idade, ocupadas na semana de referência, com rendimento do trabalho principal",6794,Total,120704,Total,14864,Total,100971,Total,45,Pessoas,3044424
3,Unidade da Federação,26,Pernambuco,2010,2010,1000784,"Pessoas de 10 anos ou mais de idade, ocupadas na semana de referência, com rendimento do trabalho principal - percentual do total geral",6794,Total,120704,Total,14864,Total,100971,Total,2,Percentual,100.00
3,Unidade da Federação,26,Pernambuco,2010,2010,1621,"Valor do rendimento nominal médio mensal do trabalho principal das pessoas de 10 anos ou mais de idade, ocupadas na semana de referência, com rendimento do trabalho principal",6794,Total,120704,Total,14864,Total,100971,Total,38,Reais,954.53
3,Unidade da Federação,26,Pernambuco,2010,2010,1622,"Valor do rendimento nominal mediano mensal do trabalho principal das pessoas de 10 anos ou mais de idade, ocupadas na semana de referência, com rendimento do trabalho principal",6794,Total,120704,Total,14864,Total,100971,Total,38,Reais,510.00
3,Unidade da Federação,27,Alagoas,2010,2010,784,"Pessoas de 10 anos ou mais de idade, ocupadas na semana de referência, com rendimento do trabalho principal",6794,Total,120704,Total,14864,Total,100971,Total,45,Pessoas,947653
3,Unidade da Federação,27,Alagoas,2010,2010,1000784,"Pessoas de 10 anos ou mais de idade, ocupadas na semana de referência, com rendimento do trabalho principal - percentual do total geral",6794,Total,120704,Total,14864,Total,100971,Total,2,Percentual,100.00
3,Unidade da Federação,27,Alagoas,2010,2010,1621,"Valor do rendimento nominal médio mensal do trabalho principal das pessoas de 10 anos ou mais de idade, ocupadas na semana de referência, com rendimento do trabalho principal",6794,Total,120704,Total,14864,Total,100971,Total,38,Reais,898.09
3,Unidade da Federação,27,Alagoas,2010,2010,1622,"Valor do rendimento nominal mediano mensal do trabalho principal das pessoas de 10 anos ou mais de idade, ocupadas na semana de referência, com rendimento do trabalho principal",6794,Total,120704,Total,14864,Total,100971,Total,38,Reais,510.00
3,Unidade da Federação,28,Sergipe,2010,2010,784,"Pessoas de 10 anos ou mais de idade, ocupadas na semana de referência, com rendimento do trabalho principal",6794,Total,120704,Total,14864,Total,100971,Total,45,Pessoas,745135
3,Unidade da Federação,28,Sergipe,2010,2010,1000784,"Pessoas de 10 anos ou mais de idade, ocupadas na semana de referência, com rendimento do trabalho principal - percentual do total geral",6794,Total,120704,Total,14864,Total,100971,Total,2,Percentual,100.00
3,Unidade da Federação,28,Sergipe,2010,2010,1621,"Valor do rendimento nominal médio mensal do trabalho principal das pessoas de 10 anos ou mais de idade, ocupadas na semana de referência, com rendimento do trabalho principal",6794,Total,120704,Total,14864,Total,100971,Total,38,Reais,943.10
3,Unidade da Federação,28,Sergipe,2010,2010,1622,"Valor do rendimento nominal mediano mensal do trabalho principal das pessoas de 10 anos ou mais de idade, ocupadas na semana de referência, com rendimento do trabalho principal",6794,Total,120704,Total,14864,Total,100971,Total,38,Reais,510.00
3,Unidade da Federação,29,Bahia,2010,2010,784,"Pessoas de 10 anos ou mais de idade, ocupadas na semana de referência, com rendimento do trabalho principal",6794,Total,120704,Total,14864,Total,100971,Total,45,Pessoas,5070075
3,Unidade da Federação,29,Bahia,2010,2010,1000784,"Pessoas de 10 anos ou mais de idade, ocupadas na semana de referência, com rendimento do trabalho principal - percentual do total geral",6794,Total,120704,Total,14864,Total,100971,Total,2,Percentual,100.00
3,Unidade da Federação,29,Bahia,2010,2010,1621,"Valor do rendimento nominal médio mensal do trabalho principal das pessoas de 10 anos ou mais de idade, ocupadas na semana de referência, com rendimento do trabalho principal",6794,Total,120704,Total,14864,Total,100971,Total,38,Reais,901.85
3,Unidade da Federação,29,Bahia,2010,2010,1622,"Valor do rendimento nominal mediano mensal do trabalho principal das pessoas de 10 anos ou mais de idade, ocupadas na semana de referência, com rendimento do trabalho principal",6794,Total,120704,Total,14864,Total,100971,Total,38,Reais,510.00
3,Unidade da Federação,31,Minas Gerais,2010,2010,784,"Pessoas de 10 anos ou mais de idade, ocupadas na semana de referência, com rendimento do trabalho principal",6794,Total,120704,Total,14864,Total,100971,Total,45,Pessoas,8770845
3,Unidade da Federação,31,Minas Gerais,2010,2010,1000784,"Pessoas de 10 anos ou mais de idade, ocupadas na semana de referência, com rendimento do trabalho principal - percentual do total geral",6794,Total,120704,Total,14864,Total,100971,Total,2,Percentual,100.00
3,Unidade da Federação,31,Minas Gerais,2010,2010,1621,"Valor do rendimento nominal médio mensal do trabalho principal das pessoas de 10 anos ou mais de idade, ocupadas na semana de referência, com rendimento do trabalho principal",6794,Total,120704,Total,14864,Total,100971,Total,38,Reais,1148.94
3,Unidade da Federação,31,Minas Gerais,2010,2010,1622,"Valor do rendimento nominal mediano mensal do trabalho principal das pessoas de 10 anos ou mais de idade, ocupadas na semana de referência, com rendimento do trabalho principal",6794,Total,120704,Total,14864,Total,100971,Total,38,Reais,650.00
3,Unidade da Federação,32,Espírito Santo,2010,2010,784,"Pessoas de 10 anos ou mais de idade, ocupadas na semana de referência, com rendimento do trabalho principal",6794,Total,120704,Total,14864,Total,100971,Total,45,Pessoas,1612717
3,Unidade da Federação,32,Espírito Santo,2010,2010,1000784,"Pessoas de 10 anos ou mais de idade, ocupadas na semana de referência, com rendimento do trabalho principal - percentual do total geral",6794,Total,120704,Total,14864,Total,100971,Total,2,Percentual,100.00
3,Unidade da Federação,32,Espírito Santo,2010,2010,1621,"Valor do rendimento nominal médio mensal do trabalho principal das pessoas de 10 anos ou mais de idade, ocupadas na semana de referência, com rendimento do trabalho principal",6794,Total,120704,Total,14864,Total,100971,Total,38,Reais,1242.08
3,Unidade da Federação,32,Espírito Santo,2010,2010,1622,"Valor do rendimento nominal mediano mensal do trabalho principal das pessoas de 10 anos ou mais de idade, ocupadas na semana de referência, com rendimento do trabalho principal",6794,Total,120704,Total,14864,Total,100971,Total,38,Reais,700.00
3,Unidade da Federação,33,Rio de Janeiro,2010,2010,784,"Pessoas de 10 anos ou mais de idade, ocupadas na semana de referência, com rendimento do trabalho principal",6794,Total,120704,Total,14864,Total,100971,Total,45,Pessoas,7015506
3,Unidade da Federação,33,Rio de Janeiro,2010,2010,1000784,"Pessoas de 10 anos ou mais de idade, ocupadas na semana de referência, com rendimento do trabalho principal - percentual do total geral",6794,Total,120704,Total,14864,Total,100971,Total,2,Percentual,100.00
3,Unidade da Federação,33,Rio de Janeiro,2010,2010,1621,"Valor do rendimento nominal médio mensal do trabalho principal das pessoas de 10 anos ou mais de idade, ocupadas na semana de referência, com rendimento do trabalho principal",6794,Total,120704,Total,14864,Total,100971,Total,38,Reais,1504.49
3,Unidade da Federação,33,Rio de Janeiro,2010,2010,1622,"Valor do rendimento nominal mediano mensal do trabalho principal das pessoas de 10 anos ou mais de idade, ocupadas na semana de referência, com rendimento do trabalho principal",6794,Total,120704,Total,14864,Total,100971,Total,38,Reais,800.00
3,Unidade da Federação,35,São Paulo,2010,2010,784,"Pessoas de 10 anos ou mais de idade, ocupadas na semana de referência, com rendimento do trabalho principal",6794,Total,120704,Total,14864,Total,100971,Total,45,Pessoas,19619797
3,Unidade da Federação,35,São Paulo,2010,2010,1000784,"Pessoas de 10 anos ou mais de idade, ocupadas na semana de referência, com rendimento do trabalho principal - percentual do total geral",6794,Total,120704,Total,14864,Total,100971,Total,2,Percentual,100.00
3,Unidade da Federação,35,São Paulo,2010,2010,1621,"Valor do rendimento nominal médio mensal do trabalho principal das pessoas de 10 anos ou mais de idade, ocupadas na semana de referência, com rendimento do trabalho principal",6794,Total,120704,Total,14864,Total,100971,Total,38,Reais,1597.14
3,Unidade da Federação,35,São Paulo,2010,2010,1622,"Valor do rendimento nominal mediano mensal do trabalho principal das pessoas de 10 anos ou mais de idade, ocupadas na semana de referência, com rendimento do trabalho principal",6794,Total,120704,Total,14864,Total,100971,Total,38,Reais,900.00
3,Unidade da Federação,41,Paraná,2010,2010,784,"Pessoas de 10 anos ou mais de idade, ocupadas na semana de referência, com rendimento do trabalho principal",6794,Total,120704,Total,14864,Total,100971,Total,45,Pessoas,5046383
3,Unidade da Federação,41,Paraná,2010,2010,1000784,"Pessoas de 10 anos ou mais de idade, ocupadas na semana de referência, com rendimento do trabalho principal - percentual do total geral",6794,Total,120704,Total,14864,Total,100971,Total,2,Percentual,100.00
3,Unidade da Federação,41,Paraná,2010,2010,1621,"Valor do rendimento nominal médio mensal do trabalho principal das pessoas de 10 anos ou mais de idade, ocupadas na semana de referência, com rendimento do trabalho principal",6794,Total,120704,Total,14864,Total,100971,Total,38,Reais,1340.10
3,Unidade da Federação,41,Paraná,2010,2010,1622,"Valor do rendimento nominal mediano mensal do trabalho principal das pessoas de 10 anos ou mais de idade, ocupadas na semana de referência, com rendimento do trabalho principal",6794,Total,120704,Total,14864,Total,100971,Total,38,Reais,800.00
3,Unidade da Federação,42,Santa Catarina,2010,2010,784,"Pessoas de 10 anos ou mais de idade, ocupadas na semana de referência, com rendimento do trabalho principal",6794,Total,120704,Total,14864,Total,100971,Total,45,Pessoas,3248164
3,Unidade da Federação,42,Santa Catarina,2010,2010,1000784,"Pessoas de 10 anos ou mais de idade, ocupadas na semana de referência, com rendimento do trabalho principal - percentual do total geral",6794,Total,120704,Total,14864,Total,100971,Total,2,Percentual,100.00
3,Unidade da Federação,42,Santa Catarina,2010,2010,1621,"Valor do rendimento nominal médio mensal do trabalho principal das pessoas de 10 anos ou mais de idade, ocupadas na semana de referência, com rendimento do trabalho principal",6794,Total,120704,Total,14864,Total,100971,Total,38,Reais,1376.24
3,Unidade da Federação,42,Santa Catarina,2010,2010,1622,"Valor do rendimento nominal mediano mensal do trabalho principal das pessoas de 10 anos ou mais de idade, ocupadas na semana de referência, com rendimento do trabalho principal",6794,Total,120704,Total,14864,Total,100971,Total,38,Reais,900.00
3,Unidade da Federação,43,Rio Grande do Sul,2010,2010,784,"Pessoas de 10 anos ou mais de idade, ocupadas na semana de referência, com rendimento do trabalho principal",6794,Total,120704,Total,14864,Total,100971,Total,45,Pessoas,5203432
3,Unidade da Federação,43,Rio Grande do Sul,2010,2010,1000784,"Pessoas de 10 anos ou mais de idade, ocupadas na semana de referência, com rendimento do trabalho principal - percentual do total geral",6794,Total,120704,Total,14864,Total,100971,Total,2,Percentual,100.00
3,Unidade da Federação,43,Rio Grande do Sul,2010,2010,1621,"Valor do rendimento nominal médio mensal do trabalho principal das pessoas de 10 anos ou mais de idade, ocupadas na semana de referência, com rendimento do trabalho principal",6794,Total,120704,Total,14864,Total,100971,Total,38,Reais,1320.96
3,Unidade da Federação,43,Rio Grande do Sul,2010,2010,1622,"Valor do rendimento nominal mediano mensal do trabalho principal das pessoas de 10 anos ou mais de idade, ocupadas na semana de referência, com rendimento do trabalho principal",6794,Total,120704,Total,14864,Total,100971,Total,38,Reais,800.00
3,Unidade da Federação,50,Mato Grosso do Sul,2010,2010,784,"Pessoas de 10 anos ou mais de idade, ocupadas na semana de referência, com rendimento do trabalho principal",6794,Total,120704,Total,14864,Total,100971,Total,45,Pessoas,1123838
3,Unidade da Federação,50,Mato Grosso do Sul,2010,2010,1000784,"Pessoas de 10 anos ou mais de idade, ocupadas na semana de referência, com rendimento do trabalho principal - percentual do total geral",6794,Total,120704,Total,14864,Total,100971,Total,2,Percentual,100.00
3,Unidade da Federação,50,Mato Grosso do Sul,2010,2010,1621,"Valor do rendimento nominal médio mensal do trabalho principal das pessoas de 10 anos ou mais de idade, ocupadas na semana de referência, com rendimento do trabalho principal",6794,Total,120704,Total,14864,Total,100971,Total,38,Reais,1309.08
3,Unidade da Federação,50,Mato Grosso do Sul,2010,2010,1622,"Valor do rendimento nominal mediano mensal do trabalho principal das pessoas de 10 anos ou mais de idade, ocupadas na semana de referência, com rendimento do trabalho principal",6794,Total,120704,Total,14864,Total,100971,Total,38,Reais,709.00
3,Unidade da Federação,51,Mato Grosso,2010,2010,784,"Pessoas de 10 anos ou mais de idade, ocupadas na semana de referência, com rendimento do trabalho principal",6794,Total,120704,Total,14864,Total,100971,Total,45,Pessoas,1363183
3,Unidade da Federação,51,Mato Grosso,2010,2010,1000784,"Pessoas de 10 anos ou mais de idade, ocupadas na semana de referência, com rendimento do trabalho principal - percentual do total geral",6794,Total,120704,Total,14864,Total,100971,Total,2,Percentual,100.00
3,Unidade da Federação,51,Mato Grosso,2010,2010,1621,"Valor do rendimento nominal médio mensal do trabalho principal das pessoas de 10 anos ou mais de idade, ocupadas na semana de referência, com rendimento do trabalho principal",6794,Total,120704,Total,14864,Total,100971,Total,38,Reais,1309.17
3,Unidade da Federação,51,Mato Grosso,2010,2010,1622,"Valor do rendimento nominal mediano mensal do trabalho principal das pessoas de 10 anos ou mais de idade, ocupadas na semana de referência, com rendimento do trabalho principal",6794,Total,120704,Total,14864,Total,100971,Total,38,Reais,800.00
3,Unidade da Federação,52,Goiás,2010,2010,784,"Pessoas de 10 anos ou mais de idade, ocupadas na semana de referência, com rendimento do trabalho principal",6794,Total,120704,Total,14864,Total,100971,Total,45,Pessoas,2844747
3,Unidade da Federação,52,Goiás,2010,2010,1000784,"Pessoas de 10 anos ou mais de idade, ocupadas na semana de referência, com rendimento do trabalho principal - percentual do total geral",6794,Total,120704,Total,14864,Total,100971,Total,2,Percentual,100.00
3,Unidade da Federação,52,Goiás,2010,2010,1621,"Valor do rendimento nominal médio mensal do trabalho principal das pessoas de 10 anos ou mais de idade, ocupadas na semana de referência, com rendimento do trabalho principal",6794,Total,120704,Total,14864,Total,100971,Total,38,Reais,1265.53
3,Unidade da Federação,52,Goiás,2010,2010,1622,"Valor do rendimento nominal mediano mensal do trabalho principal das pessoas de 10 anos ou mais de idade, ocupadas na semana de referência, com rendimento do trabalho principal",6794,Total,120704,Total,14864,Total,100971,Total,38,Reais,750.00
3,Unidade da Federação,53,Distrito Federal,2010,2010,784,"Pessoas de 10 anos ou mais de idade, ocupadas na semana de referência, com rendimento do trabalho principal",6794,Total,120704,Total,14864,Total,100971,Total,45,Pessoas,1261203
3,Unidade da Federação,53,Distrito Federal,2010,2010,1000784,"Pessoas de 10 anos ou mais de idade, ocupadas na semana de referência, com rendimento do trabalho principal - percentual do total geral",6794,Total,120704,Total,14864,Total,100971,Total,2,Percentual,100.00
3,Unidade da Federação,53,Distrito Federal,2010,2010,1621,"Valor do rendimento nominal médio mensal do trabalho principal das pessoas de 10 anos ou mais de idade, ocupadas na semana de referência, com rendimento do trabalho principal",6794,Total,120704,Total,14864,Total,100971,Total,38,Reais,2475.60
3,Unidade da Federação,53,Distrito Federal,2010,2010,1622,"Valor do rendimento nominal mediano mensal do trabalho principal das pessoas de 10 anos ou mais de idade, ocupadas na semana de referência, com rendimento do trabalho principal",6794,Total,120704,Total,14864,Total,100971,Total,38,Reais,1000.00
