NC,NN,D1C,D1N,D2C,D2N,D3C,D3N,D4C,D4N,D5C,D5N,MC,MN,V
Nível Territorial (Código),Nível Territorial,Unidade da Federação (Código),Unidade da Federação,Ano (Código),Ano,Variável (Código),Variável,Situação do domicílio (Código),Situação do domicílio,Classes de rendimento nominal mensal domiciliar (Código),Classes de rendimento nominal mensal domiciliar,Unidade de Medida (Código),Unidade de Medida,Valor
3,Unidade da Federação,11,Rondônia,2010,2010,2035,"Pessoas moradoras em domicílios particulares permanentes, cuja condição no domicílio não era pensionista, nem empregado(a) doméstico(a) ou seu parente",6795,Total,100285,Total,45,Pessoas,1547341
3,Unidade da Federação,11,Rondônia,2010,2010,1002035,"Pessoas moradoras em domicílios particulares permanentes, cuja condição no domicílio não era pensionista, nem empregado(a) doméstico(a) ou seu parente - percentual do total geral",6795,Total,100285,Total,2,Percentual,100.00
3,Unidade da Federação,11,Rondônia,2010,2010,2000,"Valor do rendimento nominal médio mensal domiciliar dos moradores em domicílios particulares permanentes, exceto os moradores cuja condição na família era pensionista, empregado(a) doméstico(a) ou parente do(a) empregado(a) doméstico(a)",6795,Total,100285,Total,38,Reais,2342
3,Unidade da Federação,11,Rondônia,2010,2010,2001,"Valor do rendimento nominal mediano mensal domiciliar dos moradores em domicílios particulares permanentes, exceto os moradores cuja condição na família era pensionista, empregado(a) doméstico(a) ou parente do(a) empregado(a) doméstico(a)",6795,Total,100285,Total,38,Reais,1400
3,Unidade da Federação,12,Acre,2010,2010,2035,"Pessoas moradoras em domicílios particulares permanentes, cuja condição no domicílio não era pensionista, nem empregado(a) doméstico(a) ou seu parente",6795,Total,100285,Total,45,Pessoas,728620
3,Unidade da Federação,12,Acre,2010,2010,1002035,"Pessoas moradoras em domicílios particulares permanentes, cuja condição no domicílio não era pensionista, nem empregado(a) doméstico(a) ou seu parente - percentual do total geral",6795,Total,100285,Total,2,Percentual,100.00
3,Unidade da Federação,12,Acre,2010,2010,2000,"Valor do rendimento nominal médio mensal domiciliar dos moradores em domicílios particulares permanentes, exceto os moradores cuja condição na família era pensionista, empregado(a) doméstico(a) ou parente do(a) empregado(a) doméstico(a)",6795,Total,100285,Total,38,Reais,1932
3,Unidade da Federação,12,Acre,2010,2010,2001,"Valor do rendimento nominal mediano mensal domiciliar dos moradores em domicílios particulares permanentes, exceto os moradores cuja condição na família era pensionista, empregado(a) doméstico(a) ou parente do(a) empregado(a) doméstico(a)",6795,Total,100285,Total,38,Reais,1020
3,Unidade da Federação,13,Amazonas,2010,2010,2035,"Pessoas moradoras em domicílios particulares permanentes, cuja condição no domicílio não era pensionista, nem empregado(a) doméstico(a) ou seu parente",6795,Total,100285,Total,45,Pessoas,3460784
3,Unidade da Federação,13,Amazonas,2010,2010,1002035,"Pessoas moradoras em domicílios particulares permanentes, cuja condição no domicílio não era pensionista, nem empregado(a) doméstico(a) ou seu parente - percentual do total geral",6795,Total,100285,Total,2,Percentual,100.00
3,Unidade da Federação,13,Amazonas,2010,2010,2000,"Valor do rendimento nominal médio mensal domiciliar dos moradores em domicílios particulares permanentes, exceto os moradores cuja condição na família era pensionista, empregado(a) doméstico(a) ou parente do(a) empregado(a) doméstico(a)",6795,Total,100285,Total,38,Reais,2180
3,Unidade da Federação,13,Amazonas,2010,2010,2001,"Valor do rendimento nominal mediano mensal domiciliar dos moradores em domicílios particulares permanentes, exceto os moradores cuja condição na família era pensionista, empregado(a) doméstico(a) ou parente do(a) empregado(a) doméstico(a)",6795,Total,100285,Total,38,Reais,1132
3,Unidade da Federação,14,Roraima,2010,2010,2035,"Pessoas moradoras em domicílios particulares permanentes, cuja condição no domicílio não era pensionista, nem empregado(a) doméstico(a) ou seu parente",6795,Total,100285,Total,45,Pessoas,445981
3,Unidade da Federação,14,Roraima,2010,2010,1002035,"Pessoas moradoras em domicílios particulares permanentes, cuja condição no domicílio não era pensionista, nem empregado(a) doméstico(a) ou seu parente - percentual do total geral",6795,Total,100285,Total,2,Percentual,100.00
3,Unidade da Federação,14,Roraima,2010,2010,2000,"Valor do rendimento nominal médio mensal domiciliar dos moradores em domicílios particulares permanentes, exceto os moradores cuja condição na família era pensionista, empregado(a) doméstico(a) ou parente do(a) empregado(a) doméstico(a)",6795,Total,100285,Total,38,Reais,2296
3,Unidade da Federação,14,Roraima,2010,2010,2001,"Valor do rendimento nominal mediano mensal domiciliar dos moradores em domicílios particulares permanentes, exceto os moradores cuja condição na família era pensionista, empregado(a) doméstico(a) ou parente do(a) empregado(a) doméstico(a)",6795,Total,100285,Total,38,Reais,1200
3,Unidade da Federação,15,Pará,2010,2010,2035,"Pessoas moradoras em domicílios particulares permanentes, cuja condição no domicílio não era pensionista, nem empregado(a) doméstico(a) ou seu parente",6795,Total,100285,Total,45,Pessoas,7524487
3,Unidade da Federação,15,Pará,2010,2010,1002035,"Pessoas moradoras em domicílios particulares permanentes, cuja condição no domicílio não era pensionista, nem empregado(a) doméstico(a) ou seu parente - percentual do total geral",6795,Total,100285,Total,2,Percentual,100.00
3,Unidade da Federação,15,Pará,2010,2010,2000,"Valor do rendimento nominal médio mensal domiciliar dos moradores em domicílios particulares permanentes, exceto os moradores cuja condição na família era pensionista, empregado(a) doméstico(a) ou parente do(a) empregado(a) doméstico(a)",6795,Total,100285,Total,38,Reais,1789
3,Unidade da Federação,15,Pará,2010,2010,2001,"Valor do rendimento nominal mediano mensal domiciliar dos moradores em domicílios particulares permanentes, exceto os moradores cuja condição na família era pensionista, empregado(a) doméstico(a) ou parente do(a) empregado(a) doméstico(a)",6795,Total,100285,Total,38,Reais,1020
3,Unidade da Federação,16,Amapá,2010,2010,2035,"Pessoas moradoras em domicílios particulares permanentes, cuja condição no domicílio não era pensionista, nem empregado(a) doméstico(a) ou seu parente",6795,Total,100285,Total,45,Pessoas,664167
3,Unidade da Federação,16,Amapá,2010,2010,1002035,"Pessoas moradoras em domicílios particulares permanentes, cuja condição no domicílio não era pensionista, nem empregado(a) doméstico(a) ou seu parente - percentual do total geral",6795,Total,100285,Total,2,Percentual,100.00
3,Unidade da Federação,16,Amapá,2010,2010,2000,"Valor do rendimento nominal médio mensal domiciliar dos moradores em domicílios particulares permanentes, exceto os moradores cuja condição na família era pensionista, empregado(a) doméstico(a) ou parente do(a) empregado(a) doméstico(a)",6795,Total,100285,Total,38,Reais,2547
3,Unidade da Federação,16,Amapá,2010,2010,2001,"Valor do rendimento nominal mediano mensal domiciliar dos moradores em domicílios particulares permanentes, exceto os moradores cuja condição na família era pensionista, empregado(a) doméstico(a) ou parente do(a) empregado(a) doméstico(a)",6795,Total,100285,Total,38,Reais,1410
3,Unidade da Federação,17,Tocantins,2010,2010,2035,"Pessoas moradoras em domicílios particulares permanentes, cuja condição no domicílio não era pensionista, nem empregado(a) doméstico(a) ou seu parente",6795,Total,100285,Total,45,Pessoas,1373823
3,Unidade da Federação,17,Tocantins,2010,2010,1002035,"Pessoas moradoras em domicílios particulares permanentes, cuja condição no domicílio não era pensionista, nem empregado(a) doméstico(a) ou seu parente - percentual do total geral",6795,Total,100285,Total,2,Percentual,100.00
3,Unidade da Federação,17,Tocantins,2010,2010,2000,"Valor do rendimento nominal médio mensal domiciliar dos moradores em domicílios particulares permanentes, exceto os moradores cuja condição na família era pensionista, empregado(a) doméstico(a) ou parente do(a) empregado(a) doméstico(a)",6795,Total,100285,Total,38,Reais,2055
3,Unidade da Federação,17,Tocantins,2010,2010,2001,"Valor do rendimento nominal mediano mensal domiciliar dos moradores em domicílios particulares permanentes, exceto os moradores cuja condição na família era pensionista, empregado(a) doméstico(a) ou parente do(a) empregado(a) doméstico(a)",6795,Total,100285,Total,38,Reais,1100
3,Unidade da Federação,21,Maranhão,2010,2010,2035,"Pessoas moradoras em domicílios particulares permanentes, cuja condição no domicílio não era pensionista, nem empregado(a) doméstico(a) ou seu parente",6795,Total,100285,Total,45,Pessoas,6547083
3,Unidade da Federação,21,Maranhão,2010,2010,1002035,"Pessoas moradoras em domicílios particulares permanentes, cuja condição no domicílio não era pensionista, nem empregado(a) doméstico(a) ou seu parente - percentual do total geral",6795,Total,100285,Total,2,Percentual,100.00
3,Unidade da Federação,21,Maranhão,2010,2010,2000,"Valor do rendimento nominal médio mensal domiciliar dos moradores em domicílios particulares permanentes, exceto os moradores cuja condição na família era pensionista, empregado(a) doméstico(a) ou parente do(a) empregado(a) doméstico(a)",6795,Total,100285,Total,38,Reais,1439
3,Unidade da Federação,21,Maranhão,2010,2010,2001,"Valor do rendimento nominal mediano mensal domiciliar dos moradores em domicílios particulares permanentes, exceto os moradores cuja condição na família era pensionista, empregado(a) doméstico(a) ou parente do(a) empregado(a) doméstico(a)",6795,Total,100285,Total,38,Reais,800
3,Unidade da Federação,22,Piauí,2010,2010,2035,"Pessoas moradoras em domicílios particulares permanentes, cuja condição no domicílio não era pensionista, nem empregado(a) doméstico(a) ou seu parente",6795,Total,100285,Total,45,Pessoas,3102747
3,Unidade da Federação,22,Piauí,2010,2010,1002035,"Pessoas moradoras em domicílios particulares permanentes, cuja condição no domicílio não era pensionista, nem empregado(a) doméstico(a) ou seu parente - percentual do total geral",6795,Total,100285,Total,2,Percentual,100.00
3,Unidade da Federação,22,Piauí,2010,2010,2000,"Valor do rendimento nominal médio mensal domiciliar dos moradores em domicílios particulares permanentes, exceto os moradores cuja condição na família era pensionista, empregado(a) doméstico(a) ou parente do(a) empregado(a) doméstico(a)",6795,Total,100285,Total,38,Reais,1583
3,Unidade da Federação,22,Piauí,2010,2010,2001,"Valor do rendimento nominal mediano mensal domiciliar dos moradores em domicílios particulares permanentes, exceto os moradores cuja condição na família era pensionista, empregado(a) doméstico(a) ou parente do(a) empregado(a) doméstico(a)",6795,Total,100285,Total,38,Reais,910
3,Unidade da Federação,23,Ceará,2010,2010,2035,"Pessoas moradoras em domicílios particulares permanentes, cuja condição no domicílio não era pensionista, nem empregado(a) doméstico(a) ou seu parente",6795,Total,100285,Total,45,Pessoas,8403301
3,Unidade da Federação,23,Ceará,2010,2010,1002035,"Pessoas moradoras em domicílios particulares permanentes, cuja condição no domicílio não era pensionista, nem empregado(a) doméstico(a) ou seu parente - percentual do total geral",6795,Total,100285,Total,2,Percentual,100.00
3,Unidade da Federação,23,Ceará,2010,2010,2000,"Valor do rendimento nominal médio mensal domiciliar dos moradores em domicílios particulares permanentes, exceto os moradores cuja condição na família era pensionista, empregado(a) doméstico(a) ou parente do(a) empregado(a) doméstico(a)",6795,Total,100285,Total,38,Reais,1639
3,Unidade da Federação,23,Ceará,2010,2010,2001,"Valor do rendimento nominal mediano mensal domiciliar dos moradores em domicílios particulares permanentes, exceto os moradores cuja condição na família era pensionista, empregado(a) doméstico(a) ou parente do(a) empregado(a) doméstico(a)",6795,Total,100285,Total,38,Reais,992
3,Unidade da Federação,24,Rio Grande do Norte,2010,2010,2035,"Pessoas moradoras em domicílios particulares permanentes, cuja condição no domicílio não era pensionista, nem empregado(a) doméstico(a) ou seu parente",6795,Total,100285,Total,45,Pessoas,3151549
3,Unidade da Federação,24,Rio Grande do Norte,2010,2010,1002035,"Pessoas moradoras em domicílios particulares permanentes, cuja condição no domicílio não era pensionista, nem empregado(a) doméstico(a) ou seu parente - percentual do total geral",6795,Total,100285,Total,2,Percentual,100.00
3,Unidade da Federação,24,Rio Grande do Norte,2010,2010,2000,"Valor do rendimento nominal médio mensal domiciliar dos moradores em domicílios particulares permanentes, exceto os moradores cuja condição na família era pensionista, empregado(a) doméstico(a) ou parente do(a) empregado(a) doméstico(a)",6795,Total,100285,Total,38,Reais,1947
3,Unidade da Federação,24,Rio Grande do Norte,2010,2010,2001,"Valor do rendimento nominal mediano mensal domiciliar dos moradores em domicílios particulares permanentes, exceto os moradores cuja condição na família era pensionista, empregado(a) doméstico(a) ou parente do(a) empregado(a) doméstico(a)",6795,Total,100285,Total,38,Reais,1020
3,Unidade da Federação,25,Paraíba,2010,2010,2035,"Pessoas moradoras em domicílios particulares permanentes, cuja condição no domicílio não era pensionista, nem empregado(a) doméstico(a) ou seu parente",6795,Total,100285,Total,45,Pessoas,3744722
3,Unidade da Federação,25,Paraíba,2010,2010,1002035,"Pessoas moradoras em domicílios particulares permanentes, cuja condição no domicílio não era pensionista, nem empregado(a) doméstico(a) ou seu parente - percentual do total geral",6795,Total,100285,Total,2,Percentual,100.00
3,Unidade da Federação,25,Paraíba,2010,2010,2000,"Valor do rendimento nominal médio mensal domiciliar dos moradores em domicílios particulares permanentes, exceto os moradores cuja condição na família era pensionista, empregado(a) doméstico(a) ou parente do(a) empregado(a) doméstico(a)",6795,Total,100285,Total,38,Reais,1673
3,Unidade da Federação,25,Paraíba,2010,2010,2001,"Valor do rendimento nominal mediano mensal domiciliar dos moradores em domicílios particulares permanentes, exceto os moradores cuja condição na família era pensionista, empregado(a) doméstico(a) ou parente do(a) empregado(a) doméstico(a)",6795,Total,100285,Total,38,Reais,1000
3,Unidade da Federação,26,Pernambuco,2010,2010,2035,"Pessoas moradoras em domicílios particulares permanentes, cuja condição no domicílio não era pensionista, nem empregado(a) doméstico(a) ou seu parente",6795,Total,100285,Total,45,Pessoas,8744596
3,Unidade da Federação,26,Pernambuco,2010,2010,1002035,"Pessoas moradoras em domicílios particulares permanentes, cuja condição no domicílio não era pensionista, nem empregado(a) doméstico(a) ou seu parente - percentual do total geral",6795,Total,100285,Total,2,Percentual,100.00
3,Unidade da Federação,26,Pernambuco,2010,2010,2000,"Valor do rendimento nominal médio mensal domiciliar dos moradores em domicílios particulares permanentes, exceto os moradores cuja condição na família era pensionista, empregado(a) doméstico(a) ou parente do(a) empregado(a) doméstico(a)",6795,Total,100285,Total,38,Reais,1804
3,Unidade da Federação,26,Pernambuco,2010,2010,2001,"Valor do rendimento nominal mediano mensal domiciliar dos moradores em domicílios particulares permanentes, exceto os moradores cuja condição na família era pensionista, empregado(a) doméstico(a) ou parente do(a) empregado(a) doméstico(a)",6795,Total,100285,Total,38,Reais,1005
3,Unidade da Federação,27,Alagoas,2010,2010,2035,"Pessoas moradoras em domicílios particulares permanentes, cuja condição no domicílio não era pensionista, nem empregado(a) doméstico(a) ou seu parente",6795,Total,100285,Total,45,Pessoas,3092407
3,Unidade da Federação,27,Alagoas,2010,2010,1002035,"Pessoas moradoras em domicílios particulares permanentes, cuja condição no domicílio não era pensionista, nem empregado(a) doméstico(a) ou seu parente - percentual do total geral",6795,Total,100285,Total,2,Percentual,100.00
3,Unidade da Federação,27,Alagoas,2010,2010,2000,"Valor do rendimento nominal médio mensal domiciliar dos moradores em domicílios particulares permanentes, exceto os moradores cuja condição na família era pensionista, empregado(a) doméstico(a) ou parente do(a) empregado(a) doméstico(a)",6795,Total,100285,Total,38,Reais,1584
3,Unidade da Federação,27,Alagoas,2010,2010,2001,"Valor do rendimento nominal mediano mensal domiciliar dos moradores em domicílios particulares permanentes, exceto os moradores cuja condição na família era pensionista, empregado(a) doméstico(a) ou parente do(a) empregado(a) doméstico(a)",6795,Total,100285,Total,38,Reais,850
3,Unidade da Federação,28,Sergipe,2010,2010,2035,"Pessoas moradoras em domicílios particulares permanentes, cuja condição no domicílio não era pensionista, nem empregado(a) doméstico(a) ou seu parente",6795,Total,100285,Total,45,Pessoas,2054725
3,Unidade da Federação,28,Sergipe,2010,2010,1002035,"Pessoas moradoras em domicílios particulares permanentes, cuja condição no domicílio não era pensionista, nem empregado(a) doméstico(a) ou seu parente - percentual do total geral",6795,Total,100285,Total,2,Percentual,100.00
3,Unidade da Federação,28,Sergipe,2010,2010,2000,"Valor do rendimento nominal médio mensal domiciliar dos moradores em domicílios particulares permanentes, exceto os moradores cuja condição na família era pensionista, empregado(a) doméstico(a) ou parente do(a) empregado(a) doméstico(a)",6795,Total,100285,Total,38,Reais,1835
3,Unidade da Federação,28,Sergipe,2010,2010,2001,"Valor do rendimento nominal mediano mensal domiciliar dos moradores em domicílios particulares permanentes, exceto os moradores cuja condição na família era pensionista, empregado(a) doméstico(a) ou parente do(a) empregado(a) doméstico(a)",6795,Total,100285,Total,38,Reais,1010
3,Unidade da Federação,29,Bahia,2010,2010,2035,"Pessoas moradoras em domicílios particulares permanentes, cuja condição no domicílio não era pensionista, nem empregado(a) doméstico(a) ou seu parente",6795,Total,100285,Total,45,Pessoas,13933018
3,Unidade da Federação,29,Bahia,2010,2010,1002035,"Pessoas moradoras em domicílios particulares permanentes, cuja condição no domicílio não era pensionista, nem empregado(a) doméstico(a) ou seu parente - percentual do total geral",6795,Total,100285,Total,2,Percentual,100.00
3,Unidade da Federação,29,Bahia,2010,2010,2000,"Valor do rendimento nominal médio mensal domiciliar dos moradores em domicílios particulares permanentes, exceto os moradores cuja condição na família era pensionista, empregado(a) doméstico(a) ou parente do(a) empregado(a) doméstico(a)",6795,Total,100285,Total,38,Reais,1701
3,Unidade da Federação,29,Bahia,2010,2010,2001,"Valor do rendimento nominal mediano mensal domiciliar dos moradores em domicílios particulares permanentes, exceto os moradores cuja condição na família era pensionista, empregado(a) doméstico(a) ou parente do(a) empregado(a) doméstico(a)",6795,Total,100285,Total,38,Reais,1000
3,Unidade da Federação,31,Minas Gerais,2010,2010,2035,"Pessoas moradoras em domicílios particulares permanentes, cuja condição no domicílio não era pensionista, nem empregado(a) doméstico(a) ou seu parente",6795,Total,100285,Total,45,Pessoas,19471105
3,Unidade da Federação,31,Minas Gerais,2010,2010,1002035,"Pessoas moradoras em domicílios particulares permanentes, cuja condição no domicílio não era pensionista, nem empregado(a) doméstico(a) ou seu parente - percentual do total geral",6795,Total,100285,Total,2,Percentual,100.00
3,Unidade da Federação,31,Minas Gerais,2010,2010,2000,"Valor do rendimento nominal médio mensal domiciliar dos moradores em domicílios particulares permanentes, exceto os moradores cuja condição na família era pensionista, empregado(a) doméstico(a) ou parente do(a) empregado(a) doméstico(a)",6795,Total,100285,Total,38,Reais,2497
3,Unidade da Federação,31,Minas Gerais,2010,2010,2001,"Valor do rendimento nominal mediano mensal domiciliar dos moradores em domicílios particulares permanentes, exceto os moradores cuja condição na família era pensionista, empregado(a) doméstico(a) ou parente do(a) empregado(a) doméstico(a)",6795,Total,100285,Total,38,Reais,1510
3,Unidade da Federação,32,Espírito Santo,2010,2010,2035,"Pessoas moradoras em domicílios particulares permanentes, cuja condição no domicílio não era pensionista, nem empregado(a) doméstico(a) ou seu parente",6795,Total,100285,Total,45,Pessoas,3492253
3,Unidade da Federação,32,Espírito Santo,2010,2010,1002035,"Pessoas moradoras em domicílios particulares permanentes, cuja condição no domicílio não era pensionista, nem empregado(a) doméstico(a) ou seu parente - percentual do total geral",6795,Total,100285,Total,2,Percentual,100.00
3,Unidade da Federação,32,Espírito Santo,2010,2010,2000,"Valor do rendimento nominal médio mensal domiciliar dos moradores em domicílios particulares permanentes, exceto os moradores cuja condição na família era pensionista, empregado(a) doméstico(a) ou parente do(a) empregado(a) doméstico(a)",6795,Total,100285,Total,38,Reais,2645
3,Unidade da Federação,32,Espírito Santo,2010,2010,2001,"Valor do rendimento nominal mediano mensal domiciliar dos moradores em domicílios particulares permanentes, exceto os moradores cuja condição na família era pensionista, empregado(a) doméstico(a) ou parente do(a) empregado(a) doméstico(a)",6795,Total,100285,Total,38,Reais,1530
3,Unidade da Federação,33,Rio de Janeiro,2010,2010,2035,"Pessoas moradoras em domicílios particulares permanentes, cuja condição no domicílio não era pensionista, nem empregado(a) doméstico(a) ou seu parente",6795,Total,100285,Total,45,Pessoas,15895915
3,Unidade da Federação,33,Rio de Janeiro,2010,2010,1002035,"Pessoas moradoras em domicílios particulares permanentes, cuja condição no domicílio não era pensionista, nem empregado(a) doméstico(a) ou seu parente - percentual do total geral",6795,Total,100285,Total,2,Percentual,100.00
3,Unidade da Federação,33,Rio de Janeiro,2010,2010,2000,"Valor do rendimento nominal médio mensal domiciliar dos moradores em domicílios particulares permanentes, exceto os moradores cuja condição na família era pensionista, empregado(a) doméstico(a) ou parente do(a) empregado(a) doméstico(a)",6795,Total,100285,Total,38,Reais,3113
3,Unidade da Federação,33,Rio de Janeiro,2010,2010,2001,"Valor do rendimento nominal mediano mensal domiciliar dos moradores em domicílios particulares permanentes, exceto os moradores cuja condição na família era pensionista, empregado(a) doméstico(a) ou parente do(a) empregado(a) doméstico(a)",6795,Total,100285,Total,38,Reais,1670
3,Unidade da Federação,35,São Paulo,2010,2010,2035,"Pessoas moradoras em domicílios particulares permanentes, cuja condição no domicílio não era pensionista, nem empregado(a) doméstico(a) ou seu parente",6795,Total,100285,Total,45,Pessoas,40944103
3,Unidade da Federação,35,São Paulo,2010,2010,1002035,"Pessoas moradoras em domicílios particulares permanentes, cuja condição no domicílio não era pensionista, nem empregado(a) doméstico(a) ou seu parente - percentual do total geral",6795,Total,100285,Total,2,Percentual,100.00
3,Unidade da Federação,35,São Paulo,2010,2010,2000,"Valor do rendimento nominal médio mensal domiciliar dos moradores em domicílios particulares permanentes, exceto os moradores cuja condição na família era pensionista, empregado(a) doméstico(a) ou parente do(a) empregado(a) doméstico(a)",6795,Total,100285,Total,38,Reais,3429
3,Unidade da Federação,35,São Paulo,2010,2010,2001,"Valor do rendimento nominal mediano mensal domiciliar dos moradores em domicílios particulares permanentes, exceto os moradores cuja condição na família era pensionista, empregado(a) doméstico(a) ou parente do(a) empregado(a) doméstico(a)",6795,Total,100285,Total,38,Reais,2000
3,Unidade da Federação,41,Paraná,2010,2010,2035,"Pessoas moradoras em domicílios particulares permanentes, cuja condição no domicílio não era pensionista, nem empregado(a) doméstico(a) ou seu parente",6795,Total,100285,Total,45,Pessoas,10379795
3,Unidade da Federação,41,Paraná,2010,2010,1002035,"Pessoas moradoras em domicílios particulares permanentes, cuja condição no domicílio não era pensionista, nem empregado(a) doméstico(a) ou seu parente - percentual do total geral",6795,Total,100285,Total,2,Percentual,100.00
3,Unidade da Federação,41,Paraná,2010,2010,2000,"Valor do rendimento nominal médio mensal domiciliar dos moradores em domicílios particulares permanentes, exceto os moradores cuja condição na família era pensionista, empregado(a) doméstico(a) ou parente do(a) empregado(a) doméstico(a)",6795,Total,100285,Total,38,Reais,2907
3,Unidade da Federação,41,Paraná,2010,2010,2001,"Valor do rendimento nominal mediano mensal domiciliar dos moradores em domicílios particulares permanentes, exceto os moradores cuja condição na família era pensionista, empregado(a) doméstico(a) ou parente do(a) empregado(a) doméstico(a)",6795,Total,100285,Total,38,Reais,1800
3,Unidade da Federação,42,Santa Catarina,2010,2010,2035,"Pessoas moradoras em domicílios particulares permanentes, cuja condição no domicílio não era pensionista, nem empregado(a) doméstico(a) ou seu parente",6795,Total,100285,Total,45,Pessoas,6211299
3,Unidade da Federação,42,Santa Catarina,2010,2010,1002035,"Pessoas moradoras em domicílios particulares permanentes, cuja condição no domicílio não era pensionista, nem empregado(a) doméstico(a) ou seu parente - percentual do total geral",6795,Total,100285,Total,2,Percentual,100.00
3,Unidade da Federação,42,Santa Catarina,2010,2010,2000,"Valor do rendimento nominal médio mensal domiciliar dos moradores em domicílios particulares permanentes, exceto os moradores cuja condição na família era pensionista, empregado(a) doméstico(a) ou parente do(a) empregado(a) doméstico(a)",6795,Total,100285,Total,38,Reais,3203
3,Unidade da Federação,42,Santa Catarina,2010,2010,2001,"Valor do rendimento nominal mediano mensal domiciliar dos moradores em domicílios particulares permanentes, exceto os moradores cuja condição na família era pensionista, empregado(a) doméstico(a) ou parente do(a) empregado(a) doméstico(a)",6795,Total,100285,Total,38,Reais,2180
3,Unidade da Federação,43,Rio Grande do Sul,2010,2010,2035,"Pessoas moradoras em domicílios particulares permanentes, cuja condição no domicílio não era pensionista, nem empregado(a) doméstico(a) ou seu parente",6795,Total,100285,Total,45,Pessoas,10618321
3,Unidade da Federação,43,Rio Grande do Sul,2010,2010,1002035,"Pessoas moradoras em domicílios particulares permanentes, cuja condição no domicílio não era pensionista, nem empregado(a) doméstico(a) ou seu parente - percentual do total geral",6795,Total,100285,Total,2,Percentual,100.00
3,Unidade da Federação,43,Rio Grande do Sul,2010,2010,2000,"Valor do rendimento nominal médio mensal domiciliar dos moradores em domicílios particulares permanentes, exceto os moradores cuja condição na família era pensionista, empregado(a) doméstico(a) ou parente do(a) empregado(a) doméstico(a)",6795,Total,100285,Total,38,Reais,2923
3,Unidade da Federação,43,Rio Grande do Sul,2010,2010,2001,"Valor do rendimento nominal mediano mensal domiciliar dos moradores em domicílios particulares permanentes, exceto os moradores cuja condição na família era pensionista, empregado(a) doméstico(a) ou parente do(a) empregado(a) doméstico(a)",6795,Total,100285,Total,38,Reais,1800
3,Unidade da Federação,50,Mato Grosso do Sul,2010,2010,2035,"Pessoas moradoras em domicílios particulares permanentes, cuja condição no domicílio não era pensionista, nem empregado(a) doméstico(a) ou seu parente",6795,Total,100285,Total,45,Pessoas,2420666
3,Unidade da Federação,50,Mato Grosso do Sul,2010,2010,1002035,"Pessoas moradoras em domicílios particulares permanentes, cuja condição no domicílio não era pensionista, nem empregado(a) doméstico(a) ou seu parente - percentual do total geral",6795,Total,100285,Total,2,Percentual,100.00
3,Unidade da Federação,50,Mato Grosso do Sul,2010,2010,2000,"Valor do rendimento nominal médio mensal domiciliar dos moradores em domicílios particulares permanentes, exceto os moradores cuja condição na família era pensionista, empregado(a) doméstico(a) ou parente do(a) empregado(a) doméstico(a)",6795,Total,100285,Total,38,Reais,2661
3,Unidade da Federação,50,Mato Grosso do Sul,2010,2010,2001,"Valor do rendimento nominal mediano mensal domiciliar dos moradores em domicílios particulares permanentes, exceto os moradores cuja condição na família era pensionista, empregado(a) doméstico(a) ou parente do(a) empregado(a) doméstico(a)",6795,Total,100285,Total,38,Reais,1530
3,Unidade da Federação,51,Mato Grosso,2010,2010,2035,"Pessoas moradoras em domicílios particulares permanentes, cuja condição no domicílio não era pensionista, nem empregado(a) doméstico(a) ou seu parente",6795,Total,100285,Total,45,Pessoas,3008271
3,Unidade da Federação,51,Mato Grosso,2010,2010,1002035,"Pessoas moradoras em domicílios particulares permanentes, cuja condição no domicílio não era pensionista, nem empregado(a) doméstico(a) ou seu parente - percentual do total geral",6795,Total,100285,Total,2,Percentual,100.00
3,Unidade da Federação,51,Mato Grosso,2010,2010,2000,"Valor do rendimento nominal médio mensal domiciliar dos moradores em domicílios particulares permanentes, exceto os moradores cuja condição na família era pensionista, empregado(a) doméstico(a) ou parente do(a) empregado(a) doméstico(a)",6795,Total,100285,Total,38,Reais,2587
3,Unidade da Federação,51,Mato Grosso,2010,2010,2001,"Valor do rendimento nominal mediano mensal domiciliar dos moradores em domicílios particulares permanentes, exceto os moradores cuja condição na família era pensionista, empregado(a) doméstico(a) ou parente do(a) empregado(a) doméstico(a)",6795,Total,100285,Total,38,Reais,1530
3,Unidade da Federação,52,Goiás,2010,2010,2035,"Pessoas moradoras em domicílios particulares permanentes, cuja condição no domicílio não era pensionista, nem empregado(a) doméstico(a) ou seu parente",6795,Total,100285,Total,45,Pessoas,5962442
3,Unidade da Federação,52,Goiás,2010,2010,1002035,"Pessoas moradoras em domicílios particulares permanentes, cuja condição no domicílio não era pensionista, nem empregado(a) doméstico(a) ou seu parente - percentual do total geral",6795,Total,100285,Total,2,Percentual,100.00
3,Unidade da Federação,52,Goiás,2010,2010,2000,"Valor do rendimento nominal médio mensal domiciliar dos moradores em domicílios particulares permanentes, exceto os moradores cuja condição na família era pensionista, empregado(a) doméstico(a) ou parente do(a) empregado(a) doméstico(a)",6795,Total,100285,Total,38,Reais,2670
3,Unidade da Federação,52,Goiás,2010,2010,2001,"Valor do rendimento nominal mediano mensal domiciliar dos moradores em domicílios particulares permanentes, exceto os moradores cuja condição na família era pensionista, empregado(a) doméstico(a) ou parente do(a) empregado(a) doméstico(a)",6795,Total,100285,Total,38,Reais,1540
3,Unidade da Federação,53,Distrito Federal,2010,2010,2035,"Pessoas moradoras em domicílios particulares permanentes, cuja condição no domicílio não era pensionista, nem empregado(a) doméstico(a) ou seu parente",6795,Total,100285,Total,45,Pessoas,2543802
3,Unidade da Federação,53,Distrito Federal,2010,2010,1002035,"Pessoas moradoras em domicílios particulares permanentes, cuja condição no domicílio não era pensionista, nem empregado(a) doméstico(a) ou seu parente - percentual do total geral",6795,Total,100285,Total,2,Percentual,100.00
3,Unidade da Federação,53,Distrito Federal,2010,2010,2000,"Valor do rendimento nominal médio mensal domiciliar dos moradores em domicílios particulares permanentes, exceto os moradores cuja condição na família era pensionista, empregado(a) doméstico(a) ou parente do(a) empregado(a) doméstico(a)",6795,Total,100285,Total,38,Reais,5603
3,Unidade da Federação,53,Distrito Federal,2010,2010,2001,"Valor do rendimento nominal mediano mensal domiciliar dos moradores em domicílios particulares permanentes, exceto os moradores cuja condição na família era pensionista, empregado(a) doméstico(a) ou parente do(a) empregado(a) doméstico(a)",6795,Total,100285,Total,38,Reais,2550
