NC,NN,D1C,D1N,D2C,D2N,D3C,D3N,D4C,D4N,D5C,D5N,D6C,D6N,D7C,D7N,D8C,D8N,D9C,D9N,MC,MN,V
Nível Territorial (Código),Nível Territorial,Unidade da Federação (Código),Unidade da Federação,Ano (Código),Ano,Variável (Código),Variável,Situação do domicílio (Código),Situação do domicílio,Sexo (Código),Sexo,Grupo de idade (Código),Grupo de idade,Cor ou raça (Código),Cor ou raça,Condição de contribuição para instituto de previdência oficial em qualquer trabalho (Código),Condição de contribuição para instituto de previdência oficial em qualquer trabalho,Nível de instrução (Código),Nível de instrução,Unidade de Medida (Código),Unidade de Medida,Valor
3,Unidade da Federação,11,Rondônia,2010,2010,916,"Pessoas de 10 anos ou mais de idade, ocupadas na semana de referência",6795,Total,6794,Total,95253,Total,95251,Total,14583,Total,120704,Total,45,Pessoas,732224
3,Unidade da Federação,11,Rondônia,2010,2010,1000916,"Pessoas de 10 anos ou mais de idade, ocupadas na semana de referência - percentual do total geral",6795,Total,6794,Total,95253,Total,95251,Total,14583,Total,120704,Total,2,Percentual,100.00
3,Unidade da Federação,11,Rondônia,2010,2010,1985,"Valor do rendimento nominal médio mensal de todos os trabalhos das pessoas de 10 anos ou mais de idade, ocupadas na semana de referência",6795,Total,6794,Total,95253,Total,95251,Total,14583,Total,120704,Total,38,Reais,1147.64
3,Unidade da Federação,11,Rondônia,2010,2010,1984,"Valor do rendimento nominal mediano mensal de todos os trabalhos das pessoas de 10 anos ou mais de idade, ocupadas na semana de referência",6795,Total,6794,Total,95253,Total,95251,Total,14583,Total,120704,Total,38,Reais,650.00
3,Unidade da Federação,12,Acre,2010,2010,916,"Pessoas de 10 anos ou mais de idade, ocupadas na semana de referência",6795,Total,6794,Total,95253,Total,95251,Total,14583,Total,120704,Total,45,Pessoas,279287
3,Unidade da Federação,12,Acre,2010,2010,1000916,"Pessoas de 10 anos ou mais de idade, ocupadas na semana de referência - percentual do total geral",6795,Total,6794,Total,95253,Total,95251,Total,14583,Total,120704,Total,2,Percentual,100.00
3,Unidade da Federação,12,Acre,2010,2010,1985,"Valor do rendimento nominal médio mensal de todos os trabalhos das pessoas de 10 anos ou mais de idade, ocupadas na semana de referência",6795,Total,6794,Total,95253,Total,95251,Total,14583,Total,120704,Total,38,Reais,1027.84
3,Unidade da Federação,12,Acre,2010,2010,1984,"Valor do rendimento nominal mediano mensal de todos os trabalhos das pessoas de 10 anos ou mais de idade, ocupadas na semana de referência",6795,Total,6794,Total,95253,Total,95251,Total,14583,Total,120704,Total,38,Reais,510.00
3,Unidade da Federação,13,Amazonas,2010,2010,916,"Pessoas de 10 anos ou mais de idade, ocupadas na semana de referência",6795,Total,6794,Total,95253,Total,95251,Total,14583,Total,120704,Total,45,Pessoas,1323337
3,Unidade da Federação,13,Amazonas,2010,2010,1000916,"Pessoas de 10 anos ou mais de idade, ocupadas na semana de referência - percentual do total geral",6795,Total,6794,Total,95253,Total,95251,Total,14583,Total,120704,Total,2,Percentual,100.00
3,Unidade da Federação,13,Amazonas,2010,2010,1985,"Valor do rendimento nominal médio mensal de todos os trabalhos das pessoas de 10 anos ou mais de idade, ocupadas na semana de referência",6795,Total,6794,Total,95253,Total,95251,Total,14583,Total,120704,Total,38,Reais,1057.56
3,Unidade da Federação,13,Amazonas,2010,2010,1984,"Valor do rendimento nominal mediano mensal de todos os trabalhos das pessoas de 10 anos ou mais de idade, ocupadas na semana de referência",6795,Total,6794,Total,95253,Total,95251,Total,14583,Total,120704,Total,38,Reais,512.00
3,Unidade da Federação,14,Roraima,2010,2010,916,"Pessoas de 10 anos ou mais de idade, ocupadas na semana de referência",6795,Total,6794,Total,95253,Total,95251,Total,14583,Total,120704,Total,45,Pessoas,181292
3,Unidade da Federação,14,Roraima,2010,2010,1000916,"Pessoas de 10 anos ou mais de idade, ocupadas na semana de referência - percentual do total geral",6795,Total,6794,Total,95253,Total,95251,Total,14583,Total,120704,Total,2,Percentual,100.00
3,Unidade da Federação,14,Roraima,2010,2010,1985,"Valor do rendimento nominal médio mensal de todos os trabalhos das pessoas de 10 anos ou mais de idade, ocupadas na semana de referência",6795,Total,6794,Total,95253,Total,95251,Total,14583,Total,120704,Total,38,Reais,1208.51
3,Unidade da Federação,14,Roraima,2010,2010,1984,"Valor do rendimento nominal mediano mensal de todos os trabalhos das pessoas de 10 anos ou mais de idade, ocupadas na semana de referência",6795,Total,6794,Total,95253,Total,95251,Total,14583,Total,120704,Total,38,Reais,530.00
3,Unidade da Federação,15,Pará,2010,2010,916,"Pessoas de 10 anos ou mais de idade, ocupadas na semana de referência",6795,Total,6794,Total,95253,Total,95251,Total,14583,Total,120704,Total,45,Pessoas,2901864
3,Unidade da Federação,15,Pará,2010,2010,1000916,"Pessoas de 10 anos ou mais de idade, ocupadas na semana de referência - percentual do total geral",6795,Total,6794,Total,95253,Total,95251,Total,14583,Total,120704,Total,2,Percentual,100.00
3,Unidade da Federação,15,Pará,2010,2010,1985,"Valor do rendimento nominal médio mensal de todos os trabalhos das pessoas de 10 anos ou mais de idade, ocupadas na semana de referência",6795,Total,6794,Total,95253,Total,95251,Total,14583,Total,120704,Total,38,Reais,865.97
3,Unidade da Federação,15,Pará,2010,2010,1984,"Valor do rendimento nominal mediano mensal de todos os trabalhos das pessoas de 10 anos ou mais de idade, ocupadas na semana de referência",6795,Total,6794,Total,95253,Total,95251,Total,14583,Total,120704,Total,38,Reais,510.00
3,Unidade da Federação,16,Amapá,2010,2010,916,"Pessoas de 10 anos ou mais de idade, ocupadas na semana de referência",6795,Total,6794,Total,95253,Total,95251,Total,14583,Total,120704,Total,45,Pessoas,260701
3,Unidade da Federação,16,Amapá,2010,2010,1000916,"Pessoas de 10 anos ou mais de idade, ocupadas na semana de referência - percentual do total geral",6795,Total,6794,Total,95253,Total,95251,Total,14583,Total,120704,Total,2,Percentual,100.00
3,Unidade da Federação,16,Amapá,2010,2010,1985,"Valor do rendimento nominal médio mensal de todos os trabalhos das pessoas de 10 anos ou mais de idade, ocupadas na semana de referência",6795,Total,6794,Total,95253,Total,95251,Total,14583,Total,120704,Total,38,Reais,1246.07
3,Unidade da Federação,16,Amapá,2010,2010,1984,"Valor do rendimento nominal mediano mensal de todos os trabalhos das pessoas de 10 anos ou mais de idade, ocupadas na semana de referência",6795,Total,6794,Total,95253,Total,95251,Total,14583,Total,120704,Total,38,Reais,600.00
3,Unidade da Federação,17,Tocantins,2010,2010,916,"Pessoas de 10 anos ou mais de idade, ocupadas na semana de referência",6795,Total,6794,Total,95253,Total,95251,Total,14583,Total,120704,Total,45,Pessoas,583635
3,Unidade da Federação,17,Tocantins,2010,2010,1000916,"Pessoas de 10 anos ou mais de idade, ocupadas na semana de referência - percentual do total geral",6795,Total,6794,Total,95253,Total,95251,Total,14583,Total,120704,Total,2,Percentual,100.00
3,Unidade da Federação,17,Tocantins,2010,2010,1985,"Valor do rendimento nominal médio mensal de todos os trabalhos das pessoas de 10 anos ou mais de idade, ocupadas na semana de referência",6795,Total,6794,Total,95253,Total,95251,Total,14583,Total,120704,Total,38,Reais,1092.11
3,Unidade da Federação,17,Tocantins,2010,2010,1984,"Valor do rendimento nominal mediano mensal de todos os trabalhos das pessoas de 10 anos ou mais de idade, ocupadas na semana de referência",6795,Total,6794,Total,95253,Total,95251,Total,14583,Total,120704,Total,38,Reais,510.00
3,Unidade da Federação,21,Maranhão,2010,2010,916,"Pessoas de 10 anos ou mais de idade, ocupadas na semana de referência",6795,Total,6794,Total,95253,Total,95251,Total,14583,Total,120704,Total,45,Pessoas,2361389
3,Unidade da Federação,21,Maranhão,2010,2010,1000916,"Pessoas de 10 anos ou mais de idade, ocupadas na semana de referência - percentual do total geral",6795,Total,6794,Total,95253,Total,95251,Total,14583,Total,120704,Total,2,Percentual,100.00
3,Unidade da Federação,21,Maranhão,2010,2010,1985,"Valor do rendimento nominal médio mensal de todos os trabalhos das pessoas de 10 anos ou mais de idade, ocupadas na semana de referência",6795,Total,6794,Total,95253,Total,95251,Total,14583,Total,120704,Total,38,Reais,698.22
3,Unidade da Federação,21,Maranhão,2010,2010,1984,"Valor do rendimento nominal mediano mensal de todos os trabalhos das pessoas de 10 anos ou mais de idade, ocupadas na semana de referência",6795,Total,6794,Total,95253,Total,95251,Total,14583,Total,120704,Total,38,Reais,500.00
3,Unidade da Federação,22,Piauí,2010,2010,916,"Pessoas de 10 anos ou mais de idade, ocupadas na semana de referência",6795,Total,6794,Total,95253,Total,95251,Total,14583,Total,120704,Total,45,Pessoas,1215275
3,Unidade da Federação,22,Piauí,2010,2010,1000916,"Pessoas de 10 anos ou mais de idade, ocupadas na semana de referência - percentual do total geral",6795,Total,6794,Total,95253,Total,95251,Total,14583,Total,120704,Total,2,Percentual,100.00
3,Unidade da Federação,22,Piauí,2010,2010,1985,"Valor do rendimento nominal médio mensal de todos os trabalhos das pessoas de 10 anos ou mais de idade, ocupadas na semana de referência",6795,Total,6794,Total,95253,Total,95251,Total,14583,Total,120704,Total,38,Reais,720.52
3,Unidade da Federação,22,Piauí,2010,2010,1984,"Valor do rendimento nominal mediano mensal de todos os trabalhos das pessoas de 10 anos ou mais de idade, ocupadas na semana de referência",6795,Total,6794,Total,95253,Total,95251,Total,14583,Total,120704,Total,38,Reais,500.00
3,Unidade da Federação,23,Ceará,2010,2010,916,"Pessoas de 10 anos ou mais de idade, ocupadas na semana de referência",6795,Total,6794,Total,95253,Total,95251,Total,14583,Total,120704,Total,45,Pessoas,3361735
3,Unidade da Federação,23,Ceará,2010,2010,1000916,"Pessoas de 10 anos ou mais de idade, ocupadas na semana de referência - percentual do total geral",6795,Total,6794,Total,95253,Total,95251,Total,14583,Total,120704,Total,2,Percentual,100.00
3,Unidade da Federação,23,Ceará,2010,2010,1985,"Valor do rendimento nominal médio mensal de todos os trabalhos das pessoas de 10 anos ou mais de idade, ocupadas na semana de referência",6795,Total,6794,Total,95253,Total,95251,Total,14583,Total,120704,Total,38,Reais,789.02
3,Unidade da Federação,23,Ceará,2010,2010,1984,"Valor do rendimento nominal mediano mensal de todos os trabalhos das pessoas de 10 anos ou mais de idade, ocupadas na semana de referência",6795,Total,6794,Total,95253,Total,95251,Total,14583,Total,120704,Total,38,Reais,510.00
3,Unidade da Federação,24,Rio Grande do Norte,2010,2010,916,"Pessoas de 10 anos ou mais de idade, ocupadas na semana de referência",6795,Total,6794,Total,95253,Total,95251,Total,14583,Total,120704,Total,45,Pessoas,1238314
3,Unidade da Federação,24,Rio Grande do Norte,2010,2010,1000916,"Pessoas de 10 anos ou mais de idade, ocupadas na semana de referência - percentual do total geral",6795,Total,6794,Total,95253,Total,95251,Total,14583,Total,120704,Total,2,Percentual,100.00
3,Unidade da Federação,24,Rio Grande do Norte,2010,2010,1985,"Valor do rendimento nominal médio mensal de todos os trabalhos das pessoas de 10 anos ou mais de idade, ocupadas na semana de referência",6795,Total,6794,Total,95253,Total,95251,Total,14583,Total,120704,Total,38,Reais,951.47
3,Unidade da Federação,24,Rio Grande do Norte,2010,2010,1984,"Valor do rendimento nominal mediano mensal de todos os trabalhos das pessoas de 10 anos ou mais de idade, ocupadas na semana de referência",6795,Total,6794,Total,95253,Total,95251,Total,14583,Total,120704,Total,38,Reais,510.00
3,Unidade da Federação,25,Paraíba,2010,2010,916,"Pessoas de 10 anos ou mais de idade, ocupadas na semana de referência",6795,Total,6794,Total,95253,Total,95251,Total,14583,Total,120704,Total,45,Pessoas,1478168
3,Unidade da Federação,25,Paraíba,2010,2010,1000916,"Pessoas de 10 anos ou mais de idade, ocupadas na semana de referência - percentual do total geral",6795,Total,6794,Total,95253,Total,95251,Total,14583,Total,120704,Total,2,Percentual,100.00
3,Unidade da Federação,25,Paraíba,2010,2010,1985,"Valor do rendimento nominal médio mensal de todos os trabalhos das pessoas de 10 anos ou mais de idade, ocupadas na semana de referência",6795,Total,6794,Total,95253,Total,95251,Total,14583,Total,120704,Total,38,Reais,796.50
3,Unidade da Federação,25,Paraíba,2010,2010,1984,"Valor do rendimento nominal mediano mensal de todos os trabalhos das pessoas de 10 anos ou mais de idade, ocupadas na semana de referência",6795,Total,6794,Total,95253,Total,95251,Total,14583,Total,120704,Total,38,Reais,510.00
3,Unidade da Federação,26,Pernambuco,2010,2010,916,"Pessoas de 10 anos ou mais de idade, ocupadas na semana de referência",6795,Total,6794,Total,95253,Total,95251,Total,14583,Total,120704,Total,45,Pessoas,3403873
3,Unidade da Federação,26,Pernambuco,2010,2010,1000916,"Pessoas de 10 anos ou mais de idade, ocupadas na semana de referência - percentual do total geral",6795,Total,6794,Total,95253,Total,95251,Total,14583,Total,120704,Total,2,Percentual,100.00
3,Unidade da Federação,26,Pernambuco,2010,2010,1985,"Valor do rendimento nominal médio mensal de todos os trabalhos das pessoas de 10 anos ou mais de idade, ocupadas na semana de referência",6795,Total,6794,Total,95253,Total,95251,Total,14583,Total,120704,Total,38,Reais,900.85
3,Unidade da Federação,26,Pernambuco,2010,2010,1984,"Valor do rendimento nominal mediano mensal de todos os trabalhos das pessoas de 10 anos ou mais de idade, ocupadas na semana de referência",6795,Total,6794,Total,95253,Total,95251,Total,14583,Total,120704,Total,38,Reais,510.00
3,Unidade da Federação,27,Alagoas,2010,2010,916,"Pessoas de 10 anos ou mais de idade, ocupadas na semana de referência",6795,Total,6794,Total,95253,Total,95251,Total,14583,Total,120704,Total,45,Pessoas,1122014
3,Unidade da Federação,27,Alagoas,2010,2010,1000916,"Pessoas de 10 anos ou mais de idade, ocupadas na semana de referência - percentual do total geral",6795,Total,6794,Total,95253,Total,95251,Total,14583,Total,120704,Total,2,Percentual,100.00
3,Unidade da Federação,27,Alagoas,2010,2010,1985,"Valor do rendimento nominal médio mensal de todos os trabalhos das pessoas de 10 anos ou mais de idade, ocupadas na semana de referência",6795,Total,6794,Total,95253,Total,95251,Total,14583,Total,120704,Total,38,Reais,805.26
3,Unidade da Federação,27,Alagoas,2010,2010,1984,"Valor do rendimento nominal mediano mensal de todos os trabalhos das pessoas de 10 anos ou mais de idade, ocupadas na semana de referência",6795,Total,6794,Total,95253,Total,95251,Total,14583,Total,120704,Total,38,Reais,510.00
3,Unidade da Federação,28,Sergipe,2010,2010,916,"Pessoas de 10 anos ou mais de idade, ocupadas na semana de referência",6795,Total,6794,Total,95253,Total,95251,Total,14583,Total,120704,Total,45,Pessoas,832455
3,Unidade da Federação,28,Sergipe,2010,2010,1000916,"Pessoas de 10 anos ou mais de idade, ocupadas na semana de referência - percentual do total geral",6795,Total,6794,Total,95253,Total,95251,Total,14583,Total,120704,Total,2,Percentual,100.00
3,Unidade da Federação,28,Sergipe,2010,2010,1985,"Valor do rendimento nominal médio mensal de todos os trabalhos das pessoas de 10 anos ou mais de idade, ocupadas na semana de referência",6795,Total,6794,Total,95253,Total,95251,Total,14583,Total,120704,Total,38,Reais,889.77
3,Unidade da Federação,28,Sergipe,2010,2010,1984,"Valor do rendimento nominal mediano mensal de todos os trabalhos das pessoas de 10 anos ou mais de idade, ocupadas na semana de referência",6795,Total,6794,Total,95253,Total,95251,Total,14583,Total,120704,Total,38,Reais,510.00
3,Unidade da Federação,29,Bahia,2010,2010,916,"Pessoas de 10 anos ou mais de idade, ocupadas na semana de referência",6795,Total,6794,Total,95253,Total,95251,Total,14583,Total,120704,Total,45,Pessoas,5841078
3,Unidade da Federação,29,Bahia,2010,2010,1000916,"Pessoas de 10 anos ou mais de idade, ocupadas na semana de referência - percentual do total geral",6795,Total,6794,Total,95253,Total,95251,Total,14583,Total,120704,Total,2,Percentual,100.00
3,Unidade da Federação,29,Bahia,2010,2010,1985,"Valor do rendimento nominal médio mensal de todos os trabalhos das pessoas de 10 anos ou mais de idade, ocupadas na semana de referência",6795,Total,6794,Total,95253,Total,95251,Total,14583,Total,120704,Total,38,Reais,822.43
3,Unidade da Federação,29,Bahia,2010,2010,1984,"Valor do rendimento nominal mediano mensal de todos os trabalhos das pessoas de 10 anos ou mais de idade, ocupadas na semana de referência",6795,Total,6794,Total,95253,Total,95251,Total,14583,Total,120704,Total,38,Reais,510.00
3,Unidade da Federação,31,Minas Gerais,2010,2010,916,"Pessoas de 10 anos ou mais de idade, ocupadas na semana de referência",6795,Total,6794,Total,95253,Total,95251,Total,14583,Total,120704,Total,45,Pessoas,9264527
3,Unidade da Federação,31,Minas Gerais,2010,2010,1000916,"Pessoas de 10 anos ou mais de idade, ocupadas na semana de referência - percentual do total geral",6795,Total,6794,Total,95253,Total,95251,Total,14583,Total,120704,Total,2,Percentual,100.00
3,Unidade da Federação,31,Minas Gerais,2010,2010,1985,"Valor do rendimento nominal médio mensal de todos os trabalhos das pessoas de 10 anos ou mais de idade, ocupadas na semana de referência",6795,Total,6794,Total,95253,Total,95251,Total,14583,Total,120704,Total,38,Reais,1132.24
3,Unidade da Federação,31,Minas Gerais,2010,2010,1984,"Valor do rendimento nominal mediano mensal de todos os trabalhos das pessoas de 10 anos ou mais de idade, ocupadas na semana de referência",6795,Total,6794,Total,95253,Total,95251,Total,14583,Total,120704,Total,38,Reais,600.00
3,Unidade da Federação,32,Espírito Santo,2010,2010,916,"Pessoas de 10 anos ou mais de idade, ocupadas na semana de referência",6795,Total,6794,Total,95253,Total,95251,Total,14583,Total,120704,Total,45,Pessoas,1694384
3,Unidade da Federação,32,Espírito Santo,2010,2010,1000916,"Pessoas de 10 anos ou mais de idade, ocupadas na semana de referência - percentual do total geral",6795,Total,6794,Total,95253,Total,95251,Total,14583,Total,120704,Total,2,Percentual,100.00
3,Unidade da Federação,32,Espírito Santo,2010,2010,1985,"Valor do rendimento nominal médio mensal de todos os trabalhos das pessoas de 10 anos ou mais de idade, ocupadas na semana de referência",6795,Total,6794,Total,95253,Total,95251,Total,14583,Total,120704,Total,38,Reais,1235.52
3,Unidade da Federação,32,Espírito Santo,2010,2010,1984,"Valor do rendimento nominal mediano mensal de todos os trabalhos das pessoas de 10 anos ou mais de idade, ocupadas na semana de referência",6795,Total,6794,Total,95253,Total,95251,Total,14583,Total,120704,Total,38,Reais,667.00
3,Unidade da Federação,33,Rio de Janeiro,2010,2010,916,"Pessoas de 10 anos ou mais de idade, ocupadas na semana de referência",6795,Total,6794,Total,95253,Total,95251,Total,14583,Total,120704,Total,45,Pessoas,7151619
3,Unidade da Federação,33,Rio de Janeiro,2010,2010,1000916,"Pessoas de 10 anos ou mais de idade, ocupadas na semana de referência - percentual do total geral",6795,Total,6794,Total,95253,Total,95251,Total,14583,Total,120704,Total,2,Percentual,100.00
3,Unidade da Federação,33,Rio de Janeiro,2010,2010,1985,"Valor do rendimento nominal médio mensal de todos os trabalhos das pessoas de 10 anos ou mais de idade, ocupadas na semana de referência",6795,Total,6794,Total,95253,Total,95251,Total,14583,Total,120704,Total,38,Reais,1546.41
3,Unidade da Federação,33,Rio de Janeiro,2010,2010,1984,"Valor do rendimento nominal mediano mensal de todos os trabalhos das pessoas de 10 anos ou mais de idade, ocupadas na semana de referência",6795,Total,6794,Total,95253,Total,95251,Total,14583,Total,120704,Total,38,Reais,800.00
3,Unidade da Federação,35,São Paulo,2010,2010,916,"Pessoas de 10 anos ou mais de idade, ocupadas na semana de referência",6795,Total,6794,Total,95253,Total,95251,Total,14583,Total,120704,Total,45,Pessoas,20001270
3,Unidade da Federação,35,São Paulo,2010,2010,1000916,"Pessoas de 10 anos ou mais de idade, ocupadas na semana de referência - percentual do total geral",6795,Total,6794,Total,95253,Total,95251,Total,14583,Total,120704,Total,2,Percentual,100.00
3,Unidade da Federação,35,São Paulo,2010,2010,1985,"Valor do rendimento nominal médio mensal de todos os trabalhos das pessoas de 10 anos ou mais de idade, ocupadas na semana de referência",6795,Total,6794,Total,95253,Total,95251,Total,14583,Total,120704,Total,38,Reais,1617.30
3,Unidade da Federação,35,São Paulo,2010,2010,1984,"Valor do rendimento nominal mediano mensal de todos os trabalhos das pessoas de 10 anos ou mais de idade, ocupadas na semana de referência",6795,Total,6794,Total,95253,Total,95251,Total,14583,Total,120704,Total,38,Reais,900.00
3,Unidade da Federação,41,Paraná,2010,2010,916,"Pessoas de 10 anos ou mais de idade, ocupadas na semana de referência",6795,Total,6794,Total,95253,Total,95251,Total,14583,Total,120704,Total,45,Pessoas,5307823
3,Unidade da Federação,41,Paraná,2010,2010,1000916,"Pessoas de 10 anos ou mais de idade, ocupadas na semana de referência - percentual do total geral",6795,Total,6794,Total,95253,Total,95251,Total,14583,Total,120704,Total,2,Percentual,100.00
3,Unidade da Federação,41,Paraná,2010,2010,1985,"Valor do rendimento nominal médio mensal de todos os trabalhos das pessoas de 10 anos ou mais de idade, ocupadas na semana de referência",6795,Total,6794,Total,95253,Total,95251,Total,14583,Total,120704,Total,38,Reais,1321.78
3,Unidade da Federação,41,Paraná,2010,2010,1984,"Valor do rendimento nominal mediano mensal de todos os trabalhos das pessoas de 10 anos ou mais de idade, ocupadas na semana de referência",6795,Total,6794,Total,95253,Total,95251,Total,14583,Total,120704,Total,38,Reais,800.00
3,Unidade da Federação,42,Santa Catarina,2010,2010,916,"Pessoas de 10 anos ou mais de idade, ocupadas na semana de referência",6795,Total,6794,Total,95253,Total,95251,Total,14583,Total,120704,Total,45,Pessoas,3408833
3,Unidade da Federação,42,Santa Catarina,2010,2010,1000916,"Pessoas de 10 anos ou mais de idade, ocupadas na semana de referência - percentual do total geral",6795,Total,6794,Total,95253,Total,95251,Total,14583,Total,120704,Total,2,Percentual,100.00
3,Unidade da Federação,42,Santa Catarina,2010,2010,1985,"Valor do rendimento nominal médio mensal de todos os trabalhos das pessoas de 10 anos ou mais de idade, ocupadas na semana de referência",6795,Total,6794,Total,95253,Total,95251,Total,14583,Total,120704,Total,38,Reais,1355.13
3,Unidade da Federação,42,Santa Catarina,2010,2010,1984,"Valor do rendimento nominal mediano mensal de todos os trabalhos das pessoas de 10 anos ou mais de idade, ocupadas na semana de referência",6795,Total,6794,Total,95253,Total,95251,Total,14583,Total,120704,Total,38,Reais,850.00
3,Unidade da Federação,43,Rio Grande do Sul,2010,2010,916,"Pessoas de 10 anos ou mais de idade, ocupadas na semana de referência",6795,Total,6794,Total,95253,Total,95251,Total,14583,Total,120704,Total,45,Pessoas,5533116
3,Unidade da Federação,43,Rio Grande do Sul,2010,2010,1000916,"Pessoas de 10 anos ou mais de idade, ocupadas na semana de referência - percentual do total geral",6795,Total,6794,Total,95253,Total,95251,Total,14583,Total,120704,Total,2,Percentual,100.00
3,Unidade da Federação,43,Rio Grande do Sul,2010,2010,1985,"Valor do rendimento nominal médio mensal de todos os trabalhos das pessoas de 10 anos ou mais de idade, ocupadas na semana de referência",6795,Total,6794,Total,95253,Total,95251,Total,14583,Total,120704,Total,38,Reais,1293.70
3,Unidade da Federação,43,Rio Grande do Sul,2010,2010,1984,"Valor do rendimento nominal mediano mensal de todos os trabalhos das pessoas de 10 anos ou mais de idade, ocupadas na semana de referência",6795,Total,6794,Total,95253,Total,95251,Total,14583,Total,120704,Total,38,Reais,750.00
3,Unidade da Federação,50,Mato Grosso do Sul,2010,2010,916,"Pessoas de 10 anos ou mais de idade, ocupadas na semana de referência",6795,Total,6794,Total,95253,Total,95251,Total,14583,Total,120704,Total,45,Pessoas,1180477
3,Unidade da Federação,50,Mato Grosso do Sul,2010,2010,1000916,"Pessoas de 10 anos ou mais de idade, ocupadas na semana de referência - percentual do total geral",6795,Total,6794,Total,95253,Total,95251,Total,14583,Total,120704,Total,2,Percentual,100.00
3,Unidade da Federação,50,Mato Grosso do Sul,2010,2010,1985,"Valor do rendimento nominal médio mensal de todos os trabalhos das pessoas de 10 anos ou mais de idade, ocupadas na semana de referência",6795,Total,6794,Total,95253,Total,95251,Total,14583,Total,120704,Total,38,Reais,1298.57
3,Unidade da Federação,50,Mato Grosso do Sul,2010,2010,1984,"Valor do rendimento nominal mediano mensal de todos os trabalhos das pessoas de 10 anos ou mais de idade, ocupadas na semana de referência",6795,Total,6794,Total,95253,Total,95251,Total,14583,Total,120704,Total,38,Reais,700.00
3,Unidade da Federação,51,Mato Grosso,2010,2010,916,"Pessoas de 10 anos ou mais de idade, ocupadas na semana de referência",6795,Total,6794,Total,95253,Total,95251,Total,14583,Total,120704,Total,45,Pessoas,1448274
3,Unidade da Federação,51,Mato Grosso,2010,2010,1000916,"Pessoas de 10 anos ou mais de idade, ocupadas na semana de referência - percentual do total geral",6795,Total,6794,Total,95253,Total,95251,Total,14583,Total,120704,Total,2,Percentual,100.00
3,Unidade da Federação,51,Mato Grosso,2010,2010,1985,"Valor do rendimento nominal médio mensal de todos os trabalhos das pessoas de 10 anos ou mais de idade, ocupadas na semana de referência",6795,Total,6794,Total,95253,Total,95251,Total,14583,Total,120704,Total,38,Reais,1277.67
3,Unidade da Federação,51,Mato Grosso,2010,2010,1984,"Valor do rendimento nominal mediano mensal de todos os trabalhos das pessoas de 10 anos ou mais de idade, ocupadas na semana de referência",6795,Total,6794,Total,95253,Total,95251,Total,14583,Total,120704,Total,38,Reais,750.00
3,Unidade da Federação,52,Goiás,2010,2010,916,"Pessoas de 10 anos ou mais de idade, ocupadas na semana de referência",6795,Total,6794,Total,95253,Total,95251,Total,14583,Total,120704,Total,45,Pessoas,2959329
3,Unidade da Federação,52,Goiás,2010,2010,1000916,"Pessoas de 10 anos ou mais de idade, ocupadas na semana de referência - percentual do total geral",6795,Total,6794,Total,95253,Total,95251,Total,14583,Total,120704,Total,2,Percentual,100.00
3,Unidade da Federação,52,Goiás,2010,2010,1985,"Valor do rendimento nominal médio mensal de todos os trabalhos das pessoas de 10 anos ou mais de idade, ocupadas na semana de referência",6795,Total,6794,Total,95253,Total,95251,Total,14583,Total,120704,Total,38,Reais,1272.39
3,Unidade da Federação,52,Goiás,2010,2010,1984,"Valor do rendimento nominal mediano mensal de todos os trabalhos das pessoas de 10 anos ou mais de idade, ocupadas na semana de referência",6795,Total,6794,Total,95253,Total,95251,Total,14583,Total,120704,Total,38,Reais,700.00
3,Unidade da Federação,53,Distrito Federal,2010,2010,916,"Pessoas de 10 anos ou mais de idade, ocupadas na semana de referência",6795,Total,6794,Total,95253,Total,95251,Total,14583,Total,120704,Total,45,Pessoas,1287544
3,Unidade da Federação,53,Distrito Federal,2010,2010,1000916,"Pessoas de 10 anos ou mais de idade, ocupadas na semana de referência - percentual do total geral",6795,Total,6794,Total,95253,Total,95251,Total,14583,Total,120704,Total,2,Percentual,100.00
3,Unidade da Federação,53,Distrito Federal,2010,2010,1985,"Valor do rendimento nominal médio mensal de todos os trabalhos das pessoas de 10 anos ou mais de idade, ocupadas na semana de referência",6795,Total,6794,Total,95253,Total,95251,Total,14583,Total,120704,Total,38,Reais,2532.07
3,Unidade da Federação,53,Distrito Federal,2010,2010,1984,"Valor do rendimento nominal mediano mensal de todos os trabalhos das pessoas de 10 anos ou mais de idade, ocupadas na semana de referência",6795,Total,6794,Total,95253,Total,95251,Total,14583,Total,120704,Total,38,Reais,1000.00
