NC,NN,D1C,D1N,D2C,D2N,D3C,D3N,D4C,D4N,D5C,D5N,D6C,D6N,MC,MN,V
Nível Territorial (Código),Nível Territorial,Unidade da Federação (Código),Unidade da Federação,Ano (Código),Ano,Variável (Código),Variável,Situação do domicílio (Código),Situação do domicílio,Natureza da união conjugal (Código),Natureza da união conjugal,Grupos de idade das mulheres (Código),Grupos de idade das mulheres,Unidade de Medida (Código),Unidade de Medida,Valor
3,Unidade da Federação,11,Rondônia,2010,2010,1515,Filhos tidos nascidos vivos pelas mulheres de 10 anos ou mais de idade que viviam em união conjugal,0,Total,0,Total,0,Total,45,Pessoas,893485
3,Unidade da Federação,11,Rondônia,2010,2010,1001515,Filhos tidos nascidos vivos pelas mulheres de 10 anos ou mais de idade que viviam em união conjugal - percentual do total geral,0,Total,0,Total,0,Total,2,Percentual,100.00
3,Unidade da Federação,12,Acre,2010,2010,1515,Filhos tidos nascidos vivos pelas mulheres de 10 anos ou mais de idade que viviam em união conjugal,0,Total,0,Total,0,Total,45,Pessoas,411722
3,Unidade da Federação,12,Acre,2010,2010,1001515,Filhos tidos nascidos vivos pelas mulheres de 10 anos ou mais de idade que viviam em união conjugal - percentual do total geral,0,Total,0,Total,0,Total,2,Percentual,100.00
3,Unidade da Federação,13,Amazonas,2010,2010,1515,Filhos tidos nascidos vivos pelas mulheres de 10 anos ou mais de idade que viviam em união conjugal,0,Total,0,Total,0,Total,45,Pessoas,1916295
3,Unidade da Federação,13,Amazonas,2010,2010,1001515,Filhos tidos nascidos vivos pelas mulheres de 10 anos ou mais de idade que viviam em união conjugal - percentual do total geral,0,Total,0,Total,0,Total,2,Percentual,100.00
3,Unidade da Federação,14,Roraima,2010,2010,1515,Filhos tidos nascidos vivos pelas mulheres de 10 anos ou mais de idade que viviam em união conjugal,0,Total,0,Total,0,Total,45,Pessoas,232895
3,Unidade da Federação,14,Roraima,2010,2010,1001515,Filhos tidos nascidos vivos pelas mulheres de 10 anos ou mais de idade que viviam em união conjugal - percentual do total geral,0,Total,0,Total,0,Total,2,Percentual,100.00
3,Unidade da Federação,15,Pará,2010,2010,1515,Filhos tidos nascidos vivos pelas mulheres de 10 anos ou mais de idade que viviam em união conjugal,0,Total,0,Total,0,Total,45,Pessoas,4360172
3,Unidade da Federação,15,Pará,2010,2010,1001515,Filhos tidos nascidos vivos pelas mulheres de 10 anos ou mais de idade que viviam em união conjugal - percentual do total geral,0,Total,0,Total,0,Total,2,Percentual,100.00
3,Unidade da Federação,16,Amapá,2010,2010,1515,Filhos tidos nascidos vivos pelas mulheres de 10 anos ou mais de idade que viviam em união conjugal,0,Total,0,Total,0,Total,45,Pessoas,359941
3,Unidade da Federação,16,Amapá,2010,2010,1001515,Filhos tidos nascidos vivos pelas mulheres de 10 anos ou mais de idade que viviam em união conjugal - percentual do total geral,0,Total,0,Total,0,Total,2,Percentual,100.00
3,Unidade da Federação,17,Tocantins,2010,2010,1515,Filhos tidos nascidos vivos pelas mulheres de 10 anos ou mais de idade que viviam em união conjugal,0,Total,0,Total,0,Total,45,Pessoas,809095
3,Unidade da Federação,17,Tocantins,2010,2010,1001515,Filhos tidos nascidos vivos pelas mulheres de 10 anos ou mais de idade que viviam em união conjugal - percentual do total geral,0,Total,0,Total,0,Total,2,Percentual,100.00
3,Unidade da Federação,21,Maranhão,2010,2010,1515,Filhos tidos nascidos vivos pelas mulheres de 10 anos ou mais de idade que viviam em união conjugal,0,Total,0,Total,0,Total,45,Pessoas,3993968
3,Unidade da Federação,21,Maranhão,2010,2010,1001515,Filhos tidos nascidos vivos pelas mulheres de 10 anos ou mais de idade que viviam em união conjugal - percentual do total geral,0,Total,0,Total,0,Total,2,Percentual,100.00
3,Unidade da Federação,22,Piauí,2010,2010,1515,Filhos tidos nascidos vivos pelas mulheres de 10 anos ou mais de idade que viviam em união conjugal,0,Total,0,Total,0,Total,45,Pessoas,1973673
3,Unidade da Federação,22,Piauí,2010,2010,1001515,Filhos tidos nascidos vivos pelas mulheres de 10 anos ou mais de idade que viviam em união conjugal - percentual do total geral,0,Total,0,Total,0,Total,2,Percentual,100.00
3,Unidade da Federação,23,Ceará,2010,2010,1515,Filhos tidos nascidos vivos pelas mulheres de 10 anos ou mais de idade que viviam em união conjugal,0,Total,0,Total,0,Total,45,Pessoas,4973218
3,Unidade da Federação,23,Ceará,2010,2010,1001515,Filhos tidos nascidos vivos pelas mulheres de 10 anos ou mais de idade que viviam em união conjugal - percentual do total geral,0,Total,0,Total,0,Total,2,Percentual,100.00
3,Unidade da Federação,24,Rio Grande do Norte,2010,2010,1515,Filhos tidos nascidos vivos pelas mulheres de 10 anos ou mais de idade que viviam em união conjugal,0,Total,0,Total,0,Total,45,Pessoas,1869618
3,Unidade da Federação,24,Rio Grande do Norte,2010,2010,1001515,Filhos tidos nascidos vivos pelas mulheres de 10 anos ou mais de idade que viviam em união conjugal - percentual do total geral,0,Total,0,Total,0,Total,2,Percentual,100.00
3,Unidade da Federação,25,Paraíba,2010,2010,1515,Filhos tidos nascidos vivos pelas mulheres de 10 anos ou mais de idade que viviam em união conjugal,0,Total,0,Total,0,Total,45,Pessoas,2340266
3,Unidade da Federação,25,Paraíba,2010,2010,1001515,Filhos tidos nascidos vivos pelas mulheres de 10 anos ou mais de idade que viviam em união conjugal - percentual do total geral,0,Total,0,Total,0,Total,2,Percentual,100.00
3,Unidade da Federação,26,Pernambuco,2010,2010,1515,Filhos tidos nascidos vivos pelas mulheres de 10 anos ou mais de idade que viviam em união conjugal,0,Total,0,Total,0,Total,45,Pessoas,4757999
3,Unidade da Federação,26,Pernambuco,2010,2010,1001515,Filhos tidos nascidos vivos pelas mulheres de 10 anos ou mais de idade que viviam em união conjugal - percentual do total geral,0,Total,0,Total,0,Total,2,Percentual,100.00
3,Unidade da Federação,27,Alagoas,2010,2010,1515,Filhos tidos nascidos vivos pelas mulheres de 10 anos ou mais de idade que viviam em união conjugal,0,Total,0,Total,0,Total,45,Pessoas,1873768
3,Unidade da Federação,27,Alagoas,2010,2010,1001515,Filhos tidos nascidos vivos pelas mulheres de 10 anos ou mais de idade que viviam em união conjugal - percentual do total geral,0,Total,0,Total,0,Total,2,Percentual,100.00
3,Unidade da Federação,28,Sergipe,2010,2010,1515,Filhos tidos nascidos vivos pelas mulheres de 10 anos ou mais de idade que viviam em união conjugal,0,Total,0,Total,0,Total,45,Pessoas,1133019
3,Unidade da Federação,28,Sergipe,2010,2010,1001515,Filhos tidos nascidos vivos pelas mulheres de 10 anos ou mais de idade que viviam em união conjugal - percentual do total geral,0,Total,0,Total,0,Total,2,Percentual,100.00
3,Unidade da Federação,29,Bahia,2010,2010,1515,Filhos tidos nascidos vivos pelas mulheres de 10 anos ou mais de idade que viviam em união conjugal,0,Total,0,Total,0,Total,45,Pessoas,7789012
3,Unidade da Federação,29,Bahia,2010,2010,1001515,Filhos tidos nascidos vivos pelas mulheres de 10 anos ou mais de idade que viviam em união conjugal - percentual do total geral,0,Total,0,Total,0,Total,2,Percentual,100.00
3,Unidade da Federação,31,Minas Gerais,2010,2010,1515,Filhos tidos nascidos vivos pelas mulheres de 10 anos ou mais de idade que viviam em união conjugal,0,Total,0,Total,0,Total,45,Pessoas,10019680
3,Unidade da Federação,31,Minas Gerais,2010,2010,1001515,Filhos tidos nascidos vivos pelas mulheres de 10 anos ou mais de idade que viviam em união conjugal - percentual do total geral,0,Total,0,Total,0,Total,2,Percentual,100.00
3,Unidade da Federação,32,Espírito Santo,2010,2010,1515,Filhos tidos nascidos vivos pelas mulheres de 10 anos ou mais de idade que viviam em união conjugal,0,Total,0,Total,0,Total,45,Pessoas,1794778
3,Unidade da Federação,32,Espírito Santo,2010,2010,1001515,Filhos tidos nascidos vivos pelas mulheres de 10 anos ou mais de idade que viviam em união conjugal - percentual do total geral,0,Total,0,Total,0,Total,2,Percentual,100.00
3,Unidade da Federação,33,Rio de Janeiro,2010,2010,1515,Filhos tidos nascidos vivos pelas mulheres de 10 anos ou mais de idade que viviam em união conjugal,0,Total,0,Total,0,Total,45,Pessoas,6599087
3,Unidade da Federação,33,Rio de Janeiro,2010,2010,1001515,Filhos tidos nascidos vivos pelas mulheres de 10 anos ou mais de idade que viviam em união conjugal - percentual do total geral,0,Total,0,Total,0,Total,2,Percentual,100.00
3,Unidade da Federação,35,São Paulo,2010,2010,1515,Filhos tidos nascidos vivos pelas mulheres de 10 anos ou mais de idade que viviam em união conjugal,0,Total,0,Total,0,Total,45,Pessoas,18702647
3,Unidade da Federação,35,São Paulo,2010,2010,1001515,Filhos tidos nascidos vivos pelas mulheres de 10 anos ou mais de idade que viviam em união conjugal - percentual do total geral,0,Total,0,Total,0,Total,2,Percentual,100.00
3,Unidade da Federação,41,Paraná,2010,2010,1515,Filhos tidos nascidos vivos pelas mulheres de 10 anos ou mais de idade que viviam em união conjugal,0,Total,0,Total,0,Total,45,Pessoas,5618238
3,Unidade da Federação,41,Paraná,2010,2010,1001515,Filhos tidos nascidos vivos pelas mulheres de 10 anos ou mais de idade que viviam em união conjugal - percentual do total geral,0,Total,0,Total,0,Total,2,Percentual,100.00
3,Unidade da Federação,42,Santa Catarina,2010,2010,1515,Filhos tidos nascidos vivos pelas mulheres de 10 anos ou mais de idade que viviam em união conjugal,0,Total,0,Total,0,Total,45,Pessoas,3358352
3,Unidade da Federação,42,Santa Catarina,2010,2010,1001515,Filhos tidos nascidos vivos pelas mulheres de 10 anos ou mais de idade que viviam em união conjugal - percentual do total geral,0,Total,0,Total,0,Total,2,Percentual,100.00
3,Unidade da Federação,43,Rio Grande do Sul,2010,2010,1515,Filhos tidos nascidos vivos pelas mulheres de 10 anos ou mais de idade que viviam em união conjugal,0,Total,0,Total,0,Total,45,Pessoas,5228584
3,Unidade da Federação,43,Rio Grande do Sul,2010,2010,1001515,Filhos tidos nascidos vivos pelas mulheres de 10 anos ou mais de idade que viviam em união conjugal - percentual do total geral,0,Total,0,Total,0,Total,2,Percentual,100.00
3,Unidade da Federação,50,Mato Grosso do Sul,2010,2010,1515,Filhos tidos nascidos vivos pelas mulheres de 10 anos ou mais de idade que viviam em união conjugal,0,Total,0,Total,0,Total,45,Pessoas,1287138
3,Unidade da Federação,50,Mato Grosso do Sul,2010,2010,1001515,Filhos tidos nascidos vivos pelas mulheres de 10 anos ou mais de idade que viviam em união conjugal - percentual do total geral,0,Total,0,Total,0,Total,2,Percentual,100.00
3,Unidade da Federação,51,Mato Grosso,2010,2010,1515,Filhos tidos nascidos vivos pelas mulheres de 10 anos ou mais de idade que viviam em união conjugal,0,Total,0,Total,0,Total,45,Pessoas,1624112
3,Unidade da Federação,51,Mato Grosso,2010,2010,1001515,Filhos tidos nascidos vivos pelas mulheres de 10 anos ou mais de idade que viviam em união conjugal - percentual do total geral,0,Total,0,Total,0,Total,2,Percentual,100.00
3,Unidade da Federação,52,Goiás,2010,2010,1515,Filhos tidos nascidos vivos pelas mulheres de 10 anos ou mais de idade que viviam em união conjugal,0,Total,0,Total,0,Total,45,Pessoas,2981261
3,Unidade da Federação,52,Goiás,2010,2010,1001515,Filhos tidos nascidos vivos pelas mulheres de 10 anos ou mais de idade que viviam em união conjugal - percentual do total geral,0,Total,0,Total,0,Total,2,Percentual,100.00
3,Unidade da Federação,53,Distrito Federal,2010,2010,1515,Filhos tidos nascidos vivos pelas mulheres de 10 anos ou mais de idade que viviam em união conjugal,0,Total,0,Total,0,Total,45,Pessoas,1052365
3,Unidade da Federação,53,Distrito Federal,2010,2010,1001515,Filhos tidos nascidos vivos pelas mulheres de 10 anos ou mais de idade que viviam em união conjugal - percentual do total geral,0,Total,0,Total,0,Total,2,Percentual,100.00
