NC,NN,D1C,D1N,D2C,D2N,D3C,D3N,D4C,D4N,D5C,D5N,D6C,D6N,D7C,D7N,MC,MN,V
Nível Territorial (Código),Nível Territorial,Unidade da Federação (Código),Unidade da Federação,Ano (Código),Ano,Variável (Código),Variável,Situação do domicílio (Código),Situação do domicílio,Condição de atividade (Código),Condição de atividade,Grupos de idade das mulheres (Código),Grupos de idade das mulheres,Número de filhos tidos nascidos vivos (Código),Número de filhos tidos nascidos vivos,Unidade de Medida (Código),Unidade de Medida,Valor
3,Unidade da Federação,11,Rondônia,2010,2010,1349,Mulheres de 10 anos ou mais de idade que tiveram filhos nascidos vivos,0,Total,0,Total,0,Total,0,Total,45,Pessoas,407703
3,Unidade da Federação,11,Rondônia,2010,2010,1001349,Mulheres de 10 anos ou mais de idade que tiveram filhos nascidos vivos - percentual do total geral,0,Total,0,Total,0,Total,0,Total,2,Percentual,100.00
3,Unidade da Federação,12,Acre,2010,2010,1349,Mulheres de 10 anos ou mais de idade que tiveram filhos nascidos vivos,0,Total,0,Total,0,Total,0,Total,45,Pessoas,175520
3,Unidade da Federação,12,Acre,2010,2010,1001349,Mulheres de 10 anos ou mais de idade que tiveram filhos nascidos vivos - percentual do total geral,0,Total,0,Total,0,Total,0,Total,2,Percentual,100.00
3,Unidade da Federação,13,Amazonas,2010,2010,1349,Mulheres de 10 anos ou mais de idade que tiveram filhos nascidos vivos,0,Total,0,Total,0,Total,0,Total,45,Pessoas,800659
3,Unidade da Federação,13,Amazonas,2010,2010,1001349,Mulheres de 10 anos ou mais de idade que tiveram filhos nascidos vivos - percentual do total geral,0,Total,0,Total,0,Total,0,Total,2,Percentual,100.00
3,Unidade da Federação,14,Roraima,2010,2010,1349,Mulheres de 10 anos ou mais de idade que tiveram filhos nascidos vivos,0,Total,0,Total,0,Total,0,Total,45,Pessoas,103744
3,Unidade da Federação,14,Roraima,2010,2010,1001349,Mulheres de 10 anos ou mais de idade que tiveram filhos nascidos vivos - percentual do total geral,0,Total,0,Total,0,Total,0,Total,2,Percentual,100.00
3,Unidade da Federação,15,Pará,2010,2010,1349,Mulheres de 10 anos ou mais de idade que tiveram filhos nascidos vivos,0,Total,0,Total,0,Total,0,Total,45,Pessoas,1842388
3,Unidade da Federação,15,Pará,2010,2010,1001349,Mulheres de 10 anos ou mais de idade que tiveram filhos nascidos vivos - percentual do total geral,0,Total,0,Total,0,Total,0,Total,2,Percentual,100.00
3,Unidade da Federação,16,Amapá,2010,2010,1349,Mulheres de 10 anos ou mais de idade que tiveram filhos nascidos vivos,0,Total,0,Total,0,Total,0,Total,45,Pessoas,157464
3,Unidade da Federação,16,Amapá,2010,2010,1001349,Mulheres de 10 anos ou mais de idade que tiveram filhos nascidos vivos - percentual do total geral,0,Total,0,Total,0,Total,0,Total,2,Percentual,100.00
3,Unidade da Federação,17,Tocantins,2010,2010,1349,Mulheres de 10 anos ou mais de idade que tiveram filhos nascidos vivos,0,Total,0,Total,0,Total,0,Total,45,Pessoas,351803
3,Unidade da Federação,17,Tocantins,2010,2010,1001349,Mulheres de 10 anos ou mais de idade que tiveram filhos nascidos vivos - percentual do total geral,0,Total,0,Total,0,Total,0,Total,2,Percentual,100.00
3,Unidade da Federação,21,Maranhão,2010,2010,1349,Mulheres de 10 anos ou mais de idade que tiveram filhos nascidos vivos,0,Total,0,Total,0,Total,0,Total,45,Pessoas,1629283
3,Unidade da Federação,21,Maranhão,2010,2010,1001349,Mulheres de 10 anos ou mais de idade que tiveram filhos nascidos vivos - percentual do total geral,0,Total,0,Total,0,Total,0,Total,2,Percentual,100.00
3,Unidade da Federação,22,Piauí,2010,2010,1349,Mulheres de 10 anos ou mais de idade que tiveram filhos nascidos vivos,0,Total,0,Total,0,Total,0,Total,45,Pessoas,822015
3,Unidade da Federação,22,Piauí,2010,2010,1001349,Mulheres de 10 anos ou mais de idade que tiveram filhos nascidos vivos - percentual do total geral,0,Total,0,Total,0,Total,0,Total,2,Percentual,100.00
3,Unidade da Federação,23,Ceará,2010,2010,1349,Mulheres de 10 anos ou mais de idade que tiveram filhos nascidos vivos,0,Total,0,Total,0,Total,0,Total,45,Pessoas,2185954
3,Unidade da Federação,23,Ceará,2010,2010,1001349,Mulheres de 10 anos ou mais de idade que tiveram filhos nascidos vivos - percentual do total geral,0,Total,0,Total,0,Total,0,Total,2,Percentual,100.00
3,Unidade da Federação,24,Rio Grande do Norte,2010,2010,1349,Mulheres de 10 anos ou mais de idade que tiveram filhos nascidos vivos,0,Total,0,Total,0,Total,0,Total,45,Pessoas,856539
3,Unidade da Federação,24,Rio Grande do Norte,2010,2010,1001349,Mulheres de 10 anos ou mais de idade que tiveram filhos nascidos vivos - percentual do total geral,0,Total,0,Total,0,Total,0,Total,2,Percentual,100.00
3,Unidade da Federação,25,Paraíba,2010,2010,1349,Mulheres de 10 anos ou mais de idade que tiveram filhos nascidos vivos,0,Total,0,Total,0,Total,0,Total,45,Pessoas,1023326
3,Unidade da Federação,25,Paraíba,2010,2010,1001349,Mulheres de 10 anos ou mais de idade que tiveram filhos nascidos vivos - percentual do total geral,0,Total,0,Total,0,Total,0,Total,2,Percentual,100.00
3,Unidade da Federação,26,Pernambuco,2010,2010,1349,Mulheres de 10 anos ou mais de idade que tiveram filhos nascidos vivos,0,Total,0,Total,0,Total,0,Total,45,Pessoas,2368324
3,Unidade da Federação,26,Pernambuco,2010,2010,1001349,Mulheres de 10 anos ou mais de idade que tiveram filhos nascidos vivos - percentual do total geral,0,Total,0,Total,0,Total,0,Total,2,Percentual,100.00
3,Unidade da Federação,27,Alagoas,2010,2010,1349,Mulheres de 10 anos ou mais de idade que tiveram filhos nascidos vivos,0,Total,0,Total,0,Total,0,Total,45,Pessoas,809923
3,Unidade da Federação,27,Alagoas,2010,2010,1001349,Mulheres de 10 anos ou mais de idade que tiveram filhos nascidos vivos - percentual do total geral,0,Total,0,Total,0,Total,0,Total,2,Percentual,100.00
3,Unidade da Federação,28,Sergipe,2010,2010,1349,Mulheres de 10 anos ou mais de idade que tiveram filhos nascidos vivos,0,Total,0,Total,0,Total,0,Total,45,Pessoas,538844
3,Unidade da Federação,28,Sergipe,2010,2010,1001349,Mulheres de 10 anos ou mais de idade que tiveram filhos nascidos vivos - percentual do total geral,0,Total,0,Total,0,Total,0,Total,2,Percentual,100.00
3,Unidade da Federação,29,Bahia,2010,2010,1349,Mulheres de 10 anos ou mais de idade que tiveram filhos nascidos vivos,0,Total,0,Total,0,Total,0,Total,45,Pessoas,3691608
3,Unidade da Federação,29,Bahia,2010,2010,1001349,Mulheres de 10 anos ou mais de idade que tiveram filhos nascidos vivos - percentual do total geral,0,Total,0,Total,0,Total,0,Total,2,Percentual,100.00
3,Unidade da Federação,31,Minas Gerais,2010,2010,1349,Mulheres de 10 anos ou mais de idade que tiveram filhos nascidos vivos,0,Total,0,Total,0,Total,0,Total,45,Pessoas,5276350
3,Unidade da Federação,31,Minas Gerais,2010,2010,1001349,Mulheres de 10 anos ou mais de idade que tiveram filhos nascidos vivos - percentual do total geral,0,Total,0,Total,0,Total,0,Total,2,Percentual,100.00
3,Unidade da Federação,32,Espírito Santo,2010,2010,1349,Mulheres de 10 anos ou mais de idade que tiveram filhos nascidos vivos,0,Total,0,Total,0,Total,0,Total,45,Pessoas,967544
3,Unidade da Federação,32,Espírito Santo,2010,2010,1001349,Mulheres de 10 anos ou mais de idade que tiveram filhos nascidos vivos - percentual do total geral,0,Total,0,Total,0,Total,0,Total,2,Percentual,100.00
3,Unidade da Federação,33,Rio de Janeiro,2010,2010,1349,Mulheres de 10 anos ou mais de idade que tiveram filhos nascidos vivos,0,Total,0,Total,0,Total,0,Total,45,Pessoas,4547114
3,Unidade da Federação,33,Rio de Janeiro,2010,2010,1001349,Mulheres de 10 anos ou mais de idade que tiveram filhos nascidos vivos - percentual do total geral,0,Total,0,Total,0,Total,0,Total,2,Percentual,100.00
3,Unidade da Federação,35,São Paulo,2010,2010,1349,Mulheres de 10 anos ou mais de idade que tiveram filhos nascidos vivos,0,Total,0,Total,0,Total,0,Total,45,Pessoas,11298124
3,Unidade da Federação,35,São Paulo,2010,2010,1001349,Mulheres de 10 anos ou mais de idade que tiveram filhos nascidos vivos - percentual do total geral,0,Total,0,Total,0,Total,0,Total,2,Percentual,100.00
3,Unidade da Federação,41,Paraná,2010,2010,1349,Mulheres de 10 anos ou mais de idade que tiveram filhos nascidos vivos,0,Total,0,Total,0,Total,0,Total,45,Pessoas,2962975
3,Unidade da Federação,41,Paraná,2010,2010,1001349,Mulheres de 10 anos ou mais de idade que tiveram filhos nascidos vivos - percentual do total geral,0,Total,0,Total,0,Total,0,Total,2,Percentual,100.00
3,Unidade da Federação,42,Santa Catarina,2010,2010,1349,Mulheres de 10 anos ou mais de idade que tiveram filhos nascidos vivos,0,Total,0,Total,0,Total,0,Total,45,Pessoas,1756284
3,Unidade da Federação,42,Santa Catarina,2010,2010,1001349,Mulheres de 10 anos ou mais de idade que tiveram filhos nascidos vivos - percentual do total geral,0,Total,0,Total,0,Total,0,Total,2,Percentual,100.00
3,Unidade da Federação,43,Rio Grande do Sul,2010,2010,1349,Mulheres de 10 anos ou mais de idade que tiveram filhos nascidos vivos,0,Total,0,Total,0,Total,0,Total,45,Pessoas,3085361
3,Unidade da Federação,43,Rio Grande do Sul,2010,2010,1001349,Mulheres de 10 anos ou mais de idade que tiveram filhos nascidos vivos - percentual do total geral,0,Total,0,Total,0,Total,0,Total,2,Percentual,100.00
3,Unidade da Federação,50,Mato Grosso do Sul,2010,2010,1349,Mulheres de 10 anos ou mais de idade que tiveram filhos nascidos vivos,0,Total,0,Total,0,Total,0,Total,45,Pessoas,679310
3,Unidade da Federação,50,Mato Grosso do Sul,2010,2010,1001349,Mulheres de 10 anos ou mais de idade que tiveram filhos nascidos vivos - percentual do total geral,0,Total,0,Total,0,Total,0,Total,2,Percentual,100.00
3,Unidade da Federação,51,Mato Grosso,2010,2010,1349,Mulheres de 10 anos ou mais de idade que tiveram filhos nascidos vivos,0,Total,0,Total,0,Total,0,Total,45,Pessoas,797945
3,Unidade da Federação,51,Mato Grosso,2010,2010,1001349,Mulheres de 10 anos ou mais de idade que tiveram filhos nascidos vivos - percentual do total geral,0,Total,0,Total,0,Total,0,Total,2,Percentual,100.00
3,Unidade da Federação,52,Goiás,2010,2010,1349,Mulheres de 10 anos ou mais de idade que tiveram filhos nascidos vivos,0,Total,0,Total,0,Total,0,Total,45,Pessoas,1648574
3,Unidade da Federação,52,Goiás,2010,2010,1001349,Mulheres de 10 anos ou mais de idade que tiveram filhos nascidos vivos - percentual do total geral,0,Total,0,Total,0,Total,0,Total,2,Percentual,100.00
3,Unidade da Federação,53,Distrito Federal,2010,2010,1349,Mulheres de 10 anos ou mais de idade que tiveram filhos nascidos vivos,0,Total,0,Total,0,Total,0,Total,45,Pessoas,666914
3,Unidade da Federação,53,Distrito Federal,2010,2010,1001349,Mulheres de 10 anos ou mais de idade que tiveram filhos nascidos vivos - percentual do total geral,0,Total,0,Total,0,Total,0,Total,2,Percentual,100.00
