NC,NN,D1C,D1N,D2C,D2N,D3C,D3N,D4C,D4N,D5C,D5N,D6C,D6N,MC,MN,V
Nível Territorial (Código),Nível Territorial,Unidade da Federação (Código),Unidade da Federação,Ano (Código),Ano,Variável (Código),Variável,Sexo (Código),Sexo,Tipo da união (Código),Tipo da união,Grupos de idade das mulheres (Código),Grupos de idade das mulheres,Unidade de Medida (Código),Unidade de Medida,Valor
3,Unidade da Federação,11,Rondônia,2000,2000,1362,Filhos vivos em 31/07/2000 das mulheres de 10 anos ou mais de idade que viviam ou já viveram em companhia de cônjuge ou companheiro,0,Total,95885,Total,0,Total,45,Pessoas,1079668
3,Unidade da Federação,11,Rondônia,2000,2000,1001362,Filhos vivos em 31/07/2000 das mulheres de 10 anos ou mais de idade que viviam ou já viveram em companhia de cônjuge ou companheiro - percentual do total geral,0,Total,95885,Total,0,Total,2,Percentual,100.00
3,Unidade da Federação,12,Acre,2000,2000,1362,Filhos vivos em 31/07/2000 das mulheres de 10 anos ou mais de idade que viviam ou já viveram em companhia de cônjuge ou companheiro,0,Total,95885,Total,0,Total,45,Pessoas,453617
3,Unidade da Federação,12,Acre,2000,2000,1001362,Filhos vivos em 31/07/2000 das mulheres de 10 anos ou mais de idade que viviam ou já viveram em companhia de cônjuge ou companheiro - percentual do total geral,0,Total,95885,Total,0,Total,2,Percentual,100.00
3,Unidade da Federação,13,Amazonas,2000,2000,1362,Filhos vivos em 31/07/2000 das mulheres de 10 anos ou mais de idade que viviam ou já viveram em companhia de cônjuge ou companheiro,0,Total,95885,Total,0,Total,45,Pessoas,2170986
3,Unidade da Federação,13,Amazonas,2000,2000,1001362,Filhos vivos em 31/07/2000 das mulheres de 10 anos ou mais de idade que viviam ou já viveram em companhia de cônjuge ou companheiro - percentual do total geral,0,Total,95885,Total,0,Total,2,Percentual,100.00
3,Unidade da Federação,14,Roraima,2000,2000,1362,Filhos vivos em 31/07/2000 das mulheres de 10 anos ou mais de idade que viviam ou já viveram em companhia de cônjuge ou companheiro,0,Total,95885,Total,0,Total,45,Pessoas,239077
3,Unidade da Federação,14,Roraima,2000,2000,1001362,Filhos vivos em 31/07/2000 das mulheres de 10 anos ou mais de idade que viviam ou já viveram em companhia de cônjuge ou companheiro - percentual do total geral,0,Total,95885,Total,0,Total,2,Percentual,100.00
3,Unidade da Federação,15,Pará,2000,2000,1362,Filhos vivos em 31/07/2000 das mulheres de 10 anos ou mais de idade que viviam ou já viveram em companhia de cônjuge ou companheiro,0,Total,95885,Total,0,Total,45,Pessoas,4900062
3,Unidade da Federação,15,Pará,2000,2000,1001362,Filhos vivos em 31/07/2000 das mulheres de 10 anos ou mais de idade que viviam ou já viveram em companhia de cônjuge ou companheiro - percentual do total geral,0,Total,95885,Total,0,Total,2,Percentual,100.00
3,Unidade da Federação,16,Amapá,2000,2000,1362,Filhos vivos em 31/07/2000 das mulheres de 10 anos ou mais de idade que viviam ou já viveram em companhia de cônjuge ou companheiro,0,Total,95885,Total,0,Total,45,Pessoas,367582
3,Unidade da Federação,16,Amapá,2000,2000,1001362,Filhos vivos em 31/07/2000 das mulheres de 10 anos ou mais de idade que viviam ou já viveram em companhia de cônjuge ou companheiro - percentual do total geral,0,Total,95885,Total,0,Total,2,Percentual,100.00
3,Unidade da Federação,17,Tocantins,2000,2000,1362,Filhos vivos em 31/07/2000 das mulheres de 10 anos ou mais de idade que viviam ou já viveram em companhia de cônjuge ou companheiro,0,Total,95885,Total,0,Total,45,Pessoas,930756
3,Unidade da Federação,17,Tocantins,2000,2000,1001362,Filhos vivos em 31/07/2000 das mulheres de 10 anos ou mais de idade que viviam ou já viveram em companhia de cônjuge ou companheiro - percentual do total geral,0,Total,95885,Total,0,Total,2,Percentual,100.00
3,Unidade da Federação,21,Maranhão,2000,2000,1362,Filhos vivos em 31/07/2000 das mulheres de 10 anos ou mais de idade que viviam ou já viveram em companhia de cônjuge ou companheiro,0,Total,95885,Total,0,Total,45,Pessoas,4679941
3,Unidade da Federação,21,Maranhão,2000,2000,1001362,Filhos vivos em 31/07/2000 das mulheres de 10 anos ou mais de idade que viviam ou já viveram em companhia de cônjuge ou companheiro - percentual do total geral,0,Total,95885,Total,0,Total,2,Percentual,100.00
3,Unidade da Federação,22,Piauí,2000,2000,1362,Filhos vivos em 31/07/2000 das mulheres de 10 anos ou mais de idade que viviam ou já viveram em companhia de cônjuge ou companheiro,0,Total,95885,Total,0,Total,45,Pessoas,2479466
3,Unidade da Federação,22,Piauí,2000,2000,1001362,Filhos vivos em 31/07/2000 das mulheres de 10 anos ou mais de idade que viviam ou já viveram em companhia de cônjuge ou companheiro - percentual do total geral,0,Total,95885,Total,0,Total,2,Percentual,100.00
3,Unidade da Federação,23,Ceará,2000,2000,1362,Filhos vivos em 31/07/2000 das mulheres de 10 anos ou mais de idade que viviam ou já viveram em companhia de cônjuge ou companheiro,0,Total,95885,Total,0,Total,45,Pessoas,6324522
3,Unidade da Federação,23,Ceará,2000,2000,1001362,Filhos vivos em 31/07/2000 das mulheres de 10 anos ou mais de idade que viviam ou já viveram em companhia de cônjuge ou companheiro - percentual do total geral,0,Total,95885,Total,0,Total,2,Percentual,100.00
3,Unidade da Federação,24,Rio Grande do Norte,2000,2000,1362,Filhos vivos em 31/07/2000 das mulheres de 10 anos ou mais de idade que viviam ou já viveram em companhia de cônjuge ou companheiro,0,Total,95885,Total,0,Total,45,Pessoas,2327113
3,Unidade da Federação,24,Rio Grande do Norte,2000,2000,1001362,Filhos vivos em 31/07/2000 das mulheres de 10 anos ou mais de idade que viviam ou já viveram em companhia de cônjuge ou companheiro - percentual do total geral,0,Total,95885,Total,0,Total,2,Percentual,100.00
3,Unidade da Federação,25,Paraíba,2000,2000,1362,Filhos vivos em 31/07/2000 das mulheres de 10 anos ou mais de idade que viviam ou já viveram em companhia de cônjuge ou companheiro,0,Total,95885,Total,0,Total,45,Pessoas,3031769
3,Unidade da Federação,25,Paraíba,2000,2000,1001362,Filhos vivos em 31/07/2000 das mulheres de 10 anos ou mais de idade que viviam ou já viveram em companhia de cônjuge ou companheiro - percentual do total geral,0,Total,95885,Total,0,Total,2,Percentual,100.00
3,Unidade da Federação,26,Pernambuco,2000,2000,1362,Filhos vivos em 31/07/2000 das mulheres de 10 anos ou mais de idade que viviam ou já viveram em companhia de cônjuge ou companheiro,0,Total,95885,Total,0,Total,45,Pessoas,6508686
3,Unidade da Federação,26,Pernambuco,2000,2000,1001362,Filhos vivos em 31/07/2000 das mulheres de 10 anos ou mais de idade que viviam ou já viveram em companhia de cônjuge ou companheiro - percentual do total geral,0,Total,95885,Total,0,Total,2,Percentual,100.00
3,Unidade da Federação,27,Alagoas,2000,2000,1362,Filhos vivos em 31/07/2000 das mulheres de 10 anos ou mais de idade que viviam ou já viveram em companhia de cônjuge ou companheiro,0,Total,95885,Total,0,Total,45,Pessoas,2357840
3,Unidade da Federação,27,Alagoas,2000,2000,1001362,Filhos vivos em 31/07/2000 das mulheres de 10 anos ou mais de idade que viviam ou já viveram em companhia de cônjuge ou companheiro - percentual do total geral,0,Total,95885,Total,0,Total,2,Percentual,100.00
3,Unidade da Federação,28,Sergipe,2000,2000,1362,Filhos vivos em 31/07/2000 das mulheres de 10 anos ou mais de idade que viviam ou já viveram em companhia de cônjuge ou companheiro,0,Total,95885,Total,0,Total,45,Pessoas,1483905
3,Unidade da Federação,28,Sergipe,2000,2000,1001362,Filhos vivos em 31/07/2000 das mulheres de 10 anos ou mais de idade que viviam ou já viveram em companhia de cônjuge ou companheiro - percentual do total geral,0,Total,95885,Total,0,Total,2,Percentual,100.00
3,Unidade da Federação,29,Bahia,2000,2000,1362,Filhos vivos em 31/07/2000 das mulheres de 10 anos ou mais de idade que viviam ou já viveram em companhia de cônjuge ou companheiro,0,Total,95885,Total,0,Total,45,Pessoas,10852828
3,Unidade da Federação,29,Bahia,2000,2000,1001362,Filhos vivos em 31/07/2000 das mulheres de 10 anos ou mais de idade que viviam ou já viveram em companhia de cônjuge ou companheiro - percentual do total geral,0,Total,95885,Total,0,Total,2,Percentual,100.00
3,Unidade da Federação,31,Minas Gerais,2000,2000,1362,Filhos vivos em 31/07/2000 das mulheres de 10 anos ou mais de idade que viviam ou já viveram em companhia de cônjuge ou companheiro,0,Total,95885,Total,0,Total,45,Pessoas,13979819
3,Unidade da Federação,31,Minas Gerais,2000,2000,1001362,Filhos vivos em 31/07/2000 das mulheres de 10 anos ou mais de idade que viviam ou já viveram em companhia de cônjuge ou companheiro - percentual do total geral,0,Total,95885,Total,0,Total,2,Percentual,100.00
3,Unidade da Federação,32,Espírito Santo,2000,2000,1362,Filhos vivos em 31/07/2000 das mulheres de 10 anos ou mais de idade que viviam ou já viveram em companhia de cônjuge ou companheiro,0,Total,95885,Total,0,Total,45,Pessoas,2418210
3,Unidade da Federação,32,Espírito Santo,2000,2000,1001362,Filhos vivos em 31/07/2000 das mulheres de 10 anos ou mais de idade que viviam ou já viveram em companhia de cônjuge ou companheiro - percentual do total geral,0,Total,95885,Total,0,Total,2,Percentual,100.00
3,Unidade da Federação,33,Rio de Janeiro,2000,2000,1362,Filhos vivos em 31/07/2000 das mulheres de 10 anos ou mais de idade que viviam ou já viveram em companhia de cônjuge ou companheiro,0,Total,95885,Total,0,Total,45,Pessoas,10006729
3,Unidade da Federação,33,Rio de Janeiro,2000,2000,1001362,Filhos vivos em 31/07/2000 das mulheres de 10 anos ou mais de idade que viviam ou já viveram em companhia de cônjuge ou companheiro - percentual do total geral,0,Total,95885,Total,0,Total,2,Percentual,100.00
3,Unidade da Federação,35,São Paulo,2000,2000,1362,Filhos vivos em 31/07/2000 das mulheres de 10 anos ou mais de idade que viviam ou já viveram em companhia de cônjuge ou companheiro,0,Total,95885,Total,0,Total,45,Pessoas,26036495
3,Unidade da Federação,35,São Paulo,2000,2000,1001362,Filhos vivos em 31/07/2000 das mulheres de 10 anos ou mais de idade que viviam ou já viveram em companhia de cônjuge ou companheiro - percentual do total geral,0,Total,95885,Total,0,Total,2,Percentual,100.00
3,Unidade da Federação,41,Paraná,2000,2000,1362,Filhos vivos em 31/07/2000 das mulheres de 10 anos ou mais de idade que viviam ou já viveram em companhia de cônjuge ou companheiro,0,Total,95885,Total,0,Total,45,Pessoas,7552532
3,Unidade da Federação,41,Paraná,2000,2000,1001362,Filhos vivos em 31/07/2000 das mulheres de 10 anos ou mais de idade que viviam ou já viveram em companhia de cônjuge ou companheiro - percentual do total geral,0,Total,95885,Total,0,Total,2,Percentual,100.00
3,Unidade da Federação,42,Santa Catarina,2000,2000,1362,Filhos vivos em 31/07/2000 das mulheres de 10 anos ou mais de idade que viviam ou já viveram em companhia de cônjuge ou companheiro,0,Total,95885,Total,0,Total,45,Pessoas,4191690
3,Unidade da Federação,42,Santa Catarina,2000,2000,1001362,Filhos vivos em 31/07/2000 das mulheres de 10 anos ou mais de idade que viviam ou já viveram em companhia de cônjuge ou companheiro - percentual do total geral,0,Total,95885,Total,0,Total,2,Percentual,100.00
3,Unidade da Federação,43,Rio Grande do Sul,2000,2000,1362,Filhos vivos em 31/07/2000 das mulheres de 10 anos ou mais de idade que viviam ou já viveram em companhia de cônjuge ou companheiro,0,Total,95885,Total,0,Total,45,Pessoas,7684670
3,Unidade da Federação,43,Rio Grande do Sul,2000,2000,1001362,Filhos vivos em 31/07/2000 das mulheres de 10 anos ou mais de idade que viviam ou já viveram em companhia de cônjuge ou companheiro - percentual do total geral,0,Total,95885,Total,0,Total,2,Percentual,100.00
3,Unidade da Federação,50,Mato Grosso do Sul,2000,2000,1362,Filhos vivos em 31/07/2000 das mulheres de 10 anos ou mais de idade que viviam ou já viveram em companhia de cônjuge ou companheiro,0,Total,95885,Total,0,Total,45,Pessoas,1626293
3,Unidade da Federação,50,Mato Grosso do Sul,2000,2000,1001362,Filhos vivos em 31/07/2000 das mulheres de 10 anos ou mais de idade que viviam ou já viveram em companhia de cônjuge ou companheiro - percentual do total geral,0,Total,95885,Total,0,Total,2,Percentual,100.00
3,Unidade da Federação,51,Mato Grosso,2000,2000,1362,Filhos vivos em 31/07/2000 das mulheres de 10 anos ou mais de idade que viviam ou já viveram em companhia de cônjuge ou companheiro,0,Total,95885,Total,0,Total,45,Pessoas,1879935
3,Unidade da Federação,51,Mato Grosso,2000,2000,1001362,Filhos vivos em 31/07/2000 das mulheres de 10 anos ou mais de idade que viviam ou já viveram em companhia de cônjuge ou companheiro - percentual do total geral,0,Total,95885,Total,0,Total,2,Percentual,100.00
3,Unidade da Federação,52,Goiás,2000,2000,1362,Filhos vivos em 31/07/2000 das mulheres de 10 anos ou mais de idade que viviam ou já viveram em companhia de cônjuge ou companheiro,0,Total,95885,Total,0,Total,45,Pessoas,3779358
3,Unidade da Federação,52,Goiás,2000,2000,1001362,Filhos vivos em 31/07/2000 das mulheres de 10 anos ou mais de idade que viviam ou já viveram em companhia de cônjuge ou companheiro - percentual do total geral,0,Total,95885,Total,0,Total,2,Percentual,100.00
3,Unidade da Federação,53,Distrito Federal,2000,2000,1362,Filhos vivos em 31/07/2000 das mulheres de 10 anos ou mais de idade que viviam ou já viveram em companhia de cônjuge ou companheiro,0,Total,95885,Total,0,Total,45,Pessoas,1357831
3,Unidade da Federação,53,Distrito Federal,2000,2000,1001362,Filhos vivos em 31/07/2000 das mulheres de 10 anos ou mais de idade que viviam ou já viveram em companhia de cônjuge ou companheiro - percentual do total geral,0,Total,95885,Total,0,Total,2,Percentual,100.00
