NC,NN,D1C,D1N,D2C,D2N,D3C,D3N,D4C,D4N,D5C,D5N,D6C,D6N,MC,MN,V
Nível Territorial (Código),Nível Territorial,Unidade da Federação (Código),Unidade da Federação,Ano (Código),Ano,Variável (Código),Variável,Situação do domicílio (Código),Situação do domicílio,Estado civil da mulher (Código),Estado civil da mulher,Grupos de idade das mulheres (Código),Grupos de idade das mulheres,Unidade de Medida (Código),Unidade de Medida,Valor
3,Unidade da Federação,11,Rondônia,2000,2000,695,Filhos tidos pelas mulheres de 10 anos ou mais de idade,0,Total,107405,Total,0,Total,45,Pessoas,1269728
3,Unidade da Federação,11,Rondônia,2000,2000,1000695,Filhos tidos pelas mulheres de 10 anos ou mais de idade - percentual do total geral,0,Total,107405,Total,0,Total,2,Percentual,100.00
3,Unidade da Federação,12,Acre,2000,2000,695,Filhos tidos pelas mulheres de 10 anos ou mais de idade,0,Total,107405,Total,0,Total,45,Pessoas,545884
3,Unidade da Federação,12,Acre,2000,2000,1000695,Filhos tidos pelas mulheres de 10 anos ou mais de idade - percentual do total geral,0,Total,107405,Total,0,Total,2,Percentual,100.00
3,Unidade da Federação,13,Amazonas,2000,2000,695,Filhos tidos pelas mulheres de 10 anos ou mais de idade,0,Total,107405,Total,0,Total,45,Pessoas,2538823
3,Unidade da Federação,13,Amazonas,2000,2000,1000695,Filhos tidos pelas mulheres de 10 anos ou mais de idade - percentual do total geral,0,Total,107405,Total,0,Total,2,Percentual,100.00
3,Unidade da Federação,14,Roraima,2000,2000,695,Filhos tidos pelas mulheres de 10 anos ou mais de idade,0,Total,107405,Total,0,Total,45,Pessoas,280011
3,Unidade da Federação,14,Roraima,2000,2000,1000695,Filhos tidos pelas mulheres de 10 anos ou mais de idade - percentual do total geral,0,Total,107405,Total,0,Total,2,Percentual,100.00
3,Unidade da Federação,15,Pará,2000,2000,695,Filhos tidos pelas mulheres de 10 anos ou mais de idade,0,Total,107405,Total,0,Total,45,Pessoas,5847503
3,Unidade da Federação,15,Pará,2000,2000,1000695,Filhos tidos pelas mulheres de 10 anos ou mais de idade - percentual do total geral,0,Total,107405,Total,0,Total,2,Percentual,100.00
3,Unidade da Federação,16,Amapá,2000,2000,695,Filhos tidos pelas mulheres de 10 anos ou mais de idade,0,Total,107405,Total,0,Total,45,Pessoas,426256
3,Unidade da Federação,16,Amapá,2000,2000,1000695,Filhos tidos pelas mulheres de 10 anos ou mais de idade - percentual do total geral,0,Total,107405,Total,0,Total,2,Percentual,100.00
3,Unidade da Federação,17,Tocantins,2000,2000,695,Filhos tidos pelas mulheres de 10 anos ou mais de idade,0,Total,107405,Total,0,Total,45,Pessoas,1136435
3,Unidade da Federação,17,Tocantins,2000,2000,1000695,Filhos tidos pelas mulheres de 10 anos ou mais de idade - percentual do total geral,0,Total,107405,Total,0,Total,2,Percentual,100.00
3,Unidade da Federação,21,Maranhão,2000,2000,695,Filhos tidos pelas mulheres de 10 anos ou mais de idade,0,Total,107405,Total,0,Total,45,Pessoas,5990498
3,Unidade da Federação,21,Maranhão,2000,2000,1000695,Filhos tidos pelas mulheres de 10 anos ou mais de idade - percentual do total geral,0,Total,107405,Total,0,Total,2,Percentual,100.00
3,Unidade da Federação,22,Piauí,2000,2000,695,Filhos tidos pelas mulheres de 10 anos ou mais de idade,0,Total,107405,Total,0,Total,45,Pessoas,3102232
3,Unidade da Federação,22,Piauí,2000,2000,1000695,Filhos tidos pelas mulheres de 10 anos ou mais de idade - percentual do total geral,0,Total,107405,Total,0,Total,2,Percentual,100.00
3,Unidade da Federação,23,Ceará,2000,2000,695,Filhos tidos pelas mulheres de 10 anos ou mais de idade,0,Total,107405,Total,0,Total,45,Pessoas,8086527
3,Unidade da Federação,23,Ceará,2000,2000,1000695,Filhos tidos pelas mulheres de 10 anos ou mais de idade - percentual do total geral,0,Total,107405,Total,0,Total,2,Percentual,100.00
3,Unidade da Federação,24,Rio Grande do Norte,2000,2000,695,Filhos tidos pelas mulheres de 10 anos ou mais de idade,0,Total,107405,Total,0,Total,45,Pessoas,3108962
3,Unidade da Federação,24,Rio Grande do Norte,2000,2000,1000695,Filhos tidos pelas mulheres de 10 anos ou mais de idade - percentual do total geral,0,Total,107405,Total,0,Total,2,Percentual,100.00
3,Unidade da Federação,25,Paraíba,2000,2000,695,Filhos tidos pelas mulheres de 10 anos ou mais de idade,0,Total,107405,Total,0,Total,45,Pessoas,4057615
3,Unidade da Federação,25,Paraíba,2000,2000,1000695,Filhos tidos pelas mulheres de 10 anos ou mais de idade - percentual do total geral,0,Total,107405,Total,0,Total,2,Percentual,100.00
3,Unidade da Federação,26,Pernambuco,2000,2000,695,Filhos tidos pelas mulheres de 10 anos ou mais de idade,0,Total,107405,Total,0,Total,45,Pessoas,8570257
3,Unidade da Federação,26,Pernambuco,2000,2000,1000695,Filhos tidos pelas mulheres de 10 anos ou mais de idade - percentual do total geral,0,Total,107405,Total,0,Total,2,Percentual,100.00
3,Unidade da Federação,27,Alagoas,2000,2000,695,Filhos tidos pelas mulheres de 10 anos ou mais de idade,0,Total,107405,Total,0,Total,45,Pessoas,3178482
3,Unidade da Federação,27,Alagoas,2000,2000,1000695,Filhos tidos pelas mulheres de 10 anos ou mais de idade - percentual do total geral,0,Total,107405,Total,0,Total,2,Percentual,100.00
3,Unidade da Federação,28,Sergipe,2000,2000,695,Filhos tidos pelas mulheres de 10 anos ou mais de idade,0,Total,107405,Total,0,Total,45,Pessoas,1891485
3,Unidade da Federação,28,Sergipe,2000,2000,1000695,Filhos tidos pelas mulheres de 10 anos ou mais de idade - percentual do total geral,0,Total,107405,Total,0,Total,2,Percentual,100.00
3,Unidade da Federação,29,Bahia,2000,2000,695,Filhos tidos pelas mulheres de 10 anos ou mais de idade,0,Total,107405,Total,0,Total,45,Pessoas,13577420
3,Unidade da Federação,29,Bahia,2000,2000,1000695,Filhos tidos pelas mulheres de 10 anos ou mais de idade - percentual do total geral,0,Total,107405,Total,0,Total,2,Percentual,100.00
3,Unidade da Federação,31,Minas Gerais,2000,2000,695,Filhos tidos pelas mulheres de 10 anos ou mais de idade,0,Total,107405,Total,0,Total,45,Pessoas,16640935
3,Unidade da Federação,31,Minas Gerais,2000,2000,1000695,Filhos tidos pelas mulheres de 10 anos ou mais de idade - percentual do total geral,0,Total,107405,Total,0,Total,2,Percentual,100.00
3,Unidade da Federação,32,Espírito Santo,2000,2000,695,Filhos tidos pelas mulheres de 10 anos ou mais de idade,0,Total,107405,Total,0,Total,45,Pessoas,2813756
3,Unidade da Federação,32,Espírito Santo,2000,2000,1000695,Filhos tidos pelas mulheres de 10 anos ou mais de idade - percentual do total geral,0,Total,107405,Total,0,Total,2,Percentual,100.00
3,Unidade da Federação,33,Rio de Janeiro,2000,2000,695,Filhos tidos pelas mulheres de 10 anos ou mais de idade,0,Total,107405,Total,0,Total,45,Pessoas,11726869
3,Unidade da Federação,33,Rio de Janeiro,2000,2000,1000695,Filhos tidos pelas mulheres de 10 anos ou mais de idade - percentual do total geral,0,Total,107405,Total,0,Total,2,Percentual,100.00
3,Unidade da Federação,35,São Paulo,2000,2000,695,Filhos tidos pelas mulheres de 10 anos ou mais de idade,0,Total,107405,Total,0,Total,45,Pessoas,29955943
3,Unidade da Federação,35,São Paulo,2000,2000,1000695,Filhos tidos pelas mulheres de 10 anos ou mais de idade - percentual do total geral,0,Total,107405,Total,0,Total,2,Percentual,100.00
3,Unidade da Federação,41,Paraná,2000,2000,695,Filhos tidos pelas mulheres de 10 anos ou mais de idade,0,Total,107405,Total,0,Total,45,Pessoas,8730311
3,Unidade da Federação,41,Paraná,2000,2000,1000695,Filhos tidos pelas mulheres de 10 anos ou mais de idade - percentual do total geral,0,Total,107405,Total,0,Total,2,Percentual,100.00
3,Unidade da Federação,42,Santa Catarina,2000,2000,695,Filhos tidos pelas mulheres de 10 anos ou mais de idade,0,Total,107405,Total,0,Total,45,Pessoas,4726435
3,Unidade da Federação,42,Santa Catarina,2000,2000,1000695,Filhos tidos pelas mulheres de 10 anos ou mais de idade - percentual do total geral,0,Total,107405,Total,0,Total,2,Percentual,100.00
3,Unidade da Federação,43,Rio Grande do Sul,2000,2000,695,Filhos tidos pelas mulheres de 10 anos ou mais de idade,0,Total,107405,Total,0,Total,45,Pessoas,8561193
3,Unidade da Federação,43,Rio Grande do Sul,2000,2000,1000695,Filhos tidos pelas mulheres de 10 anos ou mais de idade - percentual do total geral,0,Total,107405,Total,0,Total,2,Percentual,100.00
3,Unidade da Federação,50,Mato Grosso do Sul,2000,2000,695,Filhos tidos pelas mulheres de 10 anos ou mais de idade,0,Total,107405,Total,0,Total,45,Pessoas,1879792
3,Unidade da Federação,50,Mato Grosso do Sul,2000,2000,1000695,Filhos tidos pelas mulheres de 10 anos ou mais de idade - percentual do total geral,0,Total,107405,Total,0,Total,2,Percentual,100.00
3,Unidade da Federação,51,Mato Grosso,2000,2000,695,Filhos tidos pelas mulheres de 10 anos ou mais de idade,0,Total,107405,Total,0,Total,45,Pessoas,2194313
3,Unidade da Federação,51,Mato Grosso,2000,2000,1000695,Filhos tidos pelas mulheres de 10 anos ou mais de idade - percentual do total geral,0,Total,107405,Total,0,Total,2,Percentual,100.00
3,Unidade da Federação,52,Goiás,2000,2000,695,Filhos tidos pelas mulheres de 10 anos ou mais de idade,0,Total,107405,Total,0,Total,45,Pessoas,4455972
3,Unidade da Federação,52,Goiás,2000,2000,1000695,Filhos tidos pelas mulheres de 10 anos ou mais de idade - percentual do total geral,0,Total,107405,Total,0,Total,2,Percentual,100.00
3,Unidade da Federação,53,Distrito Federal,2000,2000,695,Filhos tidos pelas mulheres de 10 anos ou mais de idade,0,Total,107405,Total,0,Total,45,Pessoas,1576753
3,Unidade da Federação,53,Distrito Federal,2000,2000,1000695,Filhos tidos pelas mulheres de 10 anos ou mais de idade - percentual do total geral,0,Total,107405,Total,0,Total,2,Percentual,100.00
