NC,NN,D1C,D1N,D2C,D2N,D3C,D3N,D4C,D4N,D5C,D5N,D6C,D6N,MC,MN,V
Nível Territorial (Código),Nível Territorial,Unidade da Federação (Código),Unidade da Federação,Ano (Código),Ano,Variável (Código),Variável,Situação do domicílio (Código),Situação do domicílio,Estado civil da mulher (Código),Estado civil da mulher,Grupos de idade das mulheres (Código),Grupos de idade das mulheres,Unidade de Medida (Código),Unidade de Medida,Valor
3,Unidade da Federação,11,Rondônia,2000,2000,1318,Filhos vivos em 31/07/2000 das mulheres de 10 anos ou mais de idade,0,Total,107405,Total,0,Total,45,Pessoas,1093763
3,Unidade da Federação,11,Rondônia,2000,2000,1001318,Filhos vivos em 31/07/2000 das mulheres de 10 anos ou mais de idade - percentual do total geral,0,Total,107405,Total,0,Total,2,Percentual,100.00
3,Unidade da Federação,12,Acre,2000,2000,1318,Filhos vivos em 31/07/2000 das mulheres de 10 anos ou mais de idade,0,Total,107405,Total,0,Total,45,Pessoas,462811
3,Unidade da Federação,12,Acre,2000,2000,1001318,Filhos vivos em 31/07/2000 das mulheres de 10 anos ou mais de idade - percentual do total geral,0,Total,107405,Total,0,Total,2,Percentual,100.00
3,Unidade da Federação,13,Amazonas,2000,2000,1318,Filhos vivos em 31/07/2000 das mulheres de 10 anos ou mais de idade,0,Total,107405,Total,0,Total,45,Pessoas,2230133
3,Unidade da Federação,13,Amazonas,2000,2000,1001318,Filhos vivos em 31/07/2000 das mulheres de 10 anos ou mais de idade - percentual do total geral,0,Total,107405,Total,0,Total,2,Percentual,100.00
3,Unidade da Federação,14,Roraima,2000,2000,1318,Filhos vivos em 31/07/2000 das mulheres de 10 anos ou mais de idade,0,Total,107405,Total,0,Total,45,Pessoas,242907
3,Unidade da Federação,14,Roraima,2000,2000,1001318,Filhos vivos em 31/07/2000 das mulheres de 10 anos ou mais de idade - percentual do total geral,0,Total,107405,Total,0,Total,2,Percentual,100.00
3,Unidade da Federação,15,Pará,2000,2000,1318,Filhos vivos em 31/07/2000 das mulheres de 10 anos ou mais de idade,0,Total,107405,Total,0,Total,45,Pessoas,5024008
3,Unidade da Federação,15,Pará,2000,2000,1001318,Filhos vivos em 31/07/2000 das mulheres de 10 anos ou mais de idade - percentual do total geral,0,Total,107405,Total,0,Total,2,Percentual,100.00
3,Unidade da Federação,16,Amapá,2000,2000,1318,Filhos vivos em 31/07/2000 das mulheres de 10 anos ou mais de idade,0,Total,107405,Total,0,Total,45,Pessoas,377766
3,Unidade da Federação,16,Amapá,2000,2000,1001318,Filhos vivos em 31/07/2000 das mulheres de 10 anos ou mais de idade - percentual do total geral,0,Total,107405,Total,0,Total,2,Percentual,100.00
3,Unidade da Federação,17,Tocantins,2000,2000,1318,Filhos vivos em 31/07/2000 das mulheres de 10 anos ou mais de idade,0,Total,107405,Total,0,Total,45,Pessoas,954184
3,Unidade da Federação,17,Tocantins,2000,2000,1001318,Filhos vivos em 31/07/2000 das mulheres de 10 anos ou mais de idade - percentual do total geral,0,Total,107405,Total,0,Total,2,Percentual,100.00
3,Unidade da Federação,21,Maranhão,2000,2000,1318,Filhos vivos em 31/07/2000 das mulheres de 10 anos ou mais de idade,0,Total,107405,Total,0,Total,45,Pessoas,4805333
3,Unidade da Federação,21,Maranhão,2000,2000,1001318,Filhos vivos em 31/07/2000 das mulheres de 10 anos ou mais de idade - percentual do total geral,0,Total,107405,Total,0,Total,2,Percentual,100.00
3,Unidade da Federação,22,Piauí,2000,2000,1318,Filhos vivos em 31/07/2000 das mulheres de 10 anos ou mais de idade,0,Total,107405,Total,0,Total,45,Pessoas,2545451
3,Unidade da Federação,22,Piauí,2000,2000,1001318,Filhos vivos em 31/07/2000 das mulheres de 10 anos ou mais de idade - percentual do total geral,0,Total,107405,Total,0,Total,2,Percentual,100.00
3,Unidade da Federação,23,Ceará,2000,2000,1318,Filhos vivos em 31/07/2000 das mulheres de 10 anos ou mais de idade,0,Total,107405,Total,0,Total,45,Pessoas,6438753
3,Unidade da Federação,23,Ceará,2000,2000,1001318,Filhos vivos em 31/07/2000 das mulheres de 10 anos ou mais de idade - percentual do total geral,0,Total,107405,Total,0,Total,2,Percentual,100.00
3,Unidade da Federação,24,Rio Grande do Norte,2000,2000,1318,Filhos vivos em 31/07/2000 das mulheres de 10 anos ou mais de idade,0,Total,107405,Total,0,Total,45,Pessoas,2364697
3,Unidade da Federação,24,Rio Grande do Norte,2000,2000,1001318,Filhos vivos em 31/07/2000 das mulheres de 10 anos ou mais de idade - percentual do total geral,0,Total,107405,Total,0,Total,2,Percentual,100.00
3,Unidade da Federação,25,Paraíba,2000,2000,1318,Filhos vivos em 31/07/2000 das mulheres de 10 anos ou mais de idade,0,Total,107405,Total,0,Total,45,Pessoas,3073886
3,Unidade da Federação,25,Paraíba,2000,2000,1001318,Filhos vivos em 31/07/2000 das mulheres de 10 anos ou mais de idade - percentual do total geral,0,Total,107405,Total,0,Total,2,Percentual,100.00
3,Unidade da Federação,26,Pernambuco,2000,2000,1318,Filhos vivos em 31/07/2000 das mulheres de 10 anos ou mais de idade,0,Total,107405,Total,0,Total,45,Pessoas,6619643
3,Unidade da Federação,26,Pernambuco,2000,2000,1001318,Filhos vivos em 31/07/2000 das mulheres de 10 anos ou mais de idade - percentual do total geral,0,Total,107405,Total,0,Total,2,Percentual,100.00
3,Unidade da Federação,27,Alagoas,2000,2000,1318,Filhos vivos em 31/07/2000 das mulheres de 10 anos ou mais de idade,0,Total,107405,Total,0,Total,45,Pessoas,2392766
3,Unidade da Federação,27,Alagoas,2000,2000,1001318,Filhos vivos em 31/07/2000 das mulheres de 10 anos ou mais de idade - percentual do total geral,0,Total,107405,Total,0,Total,2,Percentual,100.00
3,Unidade da Federação,28,Sergipe,2000,2000,1318,Filhos vivos em 31/07/2000 das mulheres de 10 anos ou mais de idade,0,Total,107405,Total,0,Total,45,Pessoas,1507885
3,Unidade da Federação,28,Sergipe,2000,2000,1001318,Filhos vivos em 31/07/2000 das mulheres de 10 anos ou mais de idade - percentual do total geral,0,Total,107405,Total,0,Total,2,Percentual,100.00
3,Unidade da Federação,29,Bahia,2000,2000,1318,Filhos vivos em 31/07/2000 das mulheres de 10 anos ou mais de idade,0,Total,107405,Total,0,Total,45,Pessoas,11077614
3,Unidade da Federação,29,Bahia,2000,2000,1001318,Filhos vivos em 31/07/2000 das mulheres de 10 anos ou mais de idade - percentual do total geral,0,Total,107405,Total,0,Total,2,Percentual,100.00
3,Unidade da Federação,31,Minas Gerais,2000,2000,1318,Filhos vivos em 31/07/2000 das mulheres de 10 anos ou mais de idade,0,Total,107405,Total,0,Total,45,Pessoas,14302237
3,Unidade da Federação,31,Minas Gerais,2000,2000,1001318,Filhos vivos em 31/07/2000 das mulheres de 10 anos ou mais de idade - percentual do total geral,0,Total,107405,Total,0,Total,2,Percentual,100.00
3,Unidade da Federação,32,Espírito Santo,2000,2000,1318,Filhos vivos em 31/07/2000 das mulheres de 10 anos ou mais de idade,0,Total,107405,Total,0,Total,45,Pessoas,2452791
3,Unidade da Federação,32,Espírito Santo,2000,2000,1001318,Filhos vivos em 31/07/2000 das mulheres de 10 anos ou mais de idade - percentual do total geral,0,Total,107405,Total,0,Total,2,Percentual,100.00
3,Unidade da Federação,33,Rio de Janeiro,2000,2000,1318,Filhos vivos em 31/07/2000 das mulheres de 10 anos ou mais de idade,0,Total,107405,Total,0,Total,45,Pessoas,10220838
3,Unidade da Federação,33,Rio de Janeiro,2000,2000,1001318,Filhos vivos em 31/07/2000 das mulheres de 10 anos ou mais de idade - percentual do total geral,0,Total,107405,Total,0,Total,2,Percentual,100.00
3,Unidade da Federação,35,São Paulo,2000,2000,1318,Filhos vivos em 31/07/2000 das mulheres de 10 anos ou mais de idade,0,Total,107405,Total,0,Total,45,Pessoas,26490585
3,Unidade da Federação,35,São Paulo,2000,2000,1001318,Filhos vivos em 31/07/2000 das mulheres de 10 anos ou mais de idade - percentual do total geral,0,Total,107405,Total,0,Total,2,Percentual,100.00
3,Unidade da Federação,41,Paraná,2000,2000,1318,Filhos vivos em 31/07/2000 das mulheres de 10 anos ou mais de idade,0,Total,107405,Total,0,Total,45,Pessoas,7653381
3,Unidade da Federação,41,Paraná,2000,2000,1001318,Filhos vivos em 31/07/2000 das mulheres de 10 anos ou mais de idade - percentual do total geral,0,Total,107405,Total,0,Total,2,Percentual,100.00
3,Unidade da Federação,42,Santa Catarina,2000,2000,1318,Filhos vivos em 31/07/2000 das mulheres de 10 anos ou mais de idade,0,Total,107405,Total,0,Total,45,Pessoas,4236664
3,Unidade da Federação,42,Santa Catarina,2000,2000,1001318,Filhos vivos em 31/07/2000 das mulheres de 10 anos ou mais de idade - percentual do total geral,0,Total,107405,Total,0,Total,2,Percentual,100.00
3,Unidade da Federação,43,Rio Grande do Sul,2000,2000,1318,Filhos vivos em 31/07/2000 das mulheres de 10 anos ou mais de idade,0,Total,107405,Total,0,Total,45,Pessoas,7781237
3,Unidade da Federação,43,Rio Grande do Sul,2000,2000,1001318,Filhos vivos em 31/07/2000 das mulheres de 10 anos ou mais de idade - percentual do total geral,0,Total,107405,Total,0,Total,2,Percentual,100.00
3,Unidade da Federação,50,Mato Grosso do Sul,2000,2000,1318,Filhos vivos em 31/07/2000 das mulheres de 10 anos ou mais de idade,0,Total,107405,Total,0,Total,45,Pessoas,1652403
3,Unidade da Federação,50,Mato Grosso do Sul,2000,2000,1001318,Filhos vivos em 31/07/2000 das mulheres de 10 anos ou mais de idade - percentual do total geral,0,Total,107405,Total,0,Total,2,Percentual,100.00
3,Unidade da Federação,51,Mato Grosso,2000,2000,1318,Filhos vivos em 31/07/2000 das mulheres de 10 anos ou mais de idade,0,Total,107405,Total,0,Total,45,Pessoas,1912031
3,Unidade da Federação,51,Mato Grosso,2000,2000,1001318,Filhos vivos em 31/07/2000 das mulheres de 10 anos ou mais de idade - percentual do total geral,0,Total,107405,Total,0,Total,2,Percentual,100.00
3,Unidade da Federação,52,Goiás,2000,2000,1318,Filhos vivos em 31/07/2000 das mulheres de 10 anos ou mais de idade,0,Total,107405,Total,0,Total,45,Pessoas,3865456
3,Unidade da Federação,52,Goiás,2000,2000,1001318,Filhos vivos em 31/07/2000 das mulheres de 10 anos ou mais de idade - percentual do total geral,0,Total,107405,Total,0,Total,2,Percentual,100.00
3,Unidade da Federação,53,Distrito Federal,2000,2000,1318,Filhos vivos em 31/07/2000 das mulheres de 10 anos ou mais de idade,0,Total,107405,Total,0,Total,45,Pessoas,1404849
3,Unidade da Federação,53,Distrito Federal,2000,2000,1001318,Filhos vivos em 31/07/2000 das mulheres de 10 anos ou mais de idade - percentual do total geral,0,Total,107405,Total,0,Total,2,Percentual,100.00
