NC,NN,D1C,D1N,D2C,D2N,D3C,D3N,D4C,D4N,D5C,D5N,D6C,D6N,MC,MN,V
Nível Territorial (Código),Nível Territorial,Unidade da Federação (Código),Unidade da Federação,Ano (Código),Ano,Variável (Código),Variável,Situação do domicílio (Código),Situação do domicílio,Classes de rendimento nominal mensal domiciliar per capita (Código),Classes de rendimento nominal mensal domiciliar per capita,Número de filhos tidos nascidos vivos (Código),Número de filhos tidos nascidos vivos,Unidade de Medida (Código),Unidade de Medida,Valor
3,Unidade da Federação,11,Rondônia,2010,2010,1539,"Mulheres de 10 anos ou mais de idade, residentes em domicílios particulares, que tiveram filhos nascidos vivos, exceto as cuja condição no domicílio era pensionista, empregada doméstica ou parente do(a) empregado(a)",0,Total,0,Total,0,Total,45,Pessoas,406977
3,Unidade da Federação,11,Rondônia,2010,2010,1001539,"Mulheres de 10 anos ou mais de idade, residentes em domicílios particulares, que tiveram filhos nascidos vivos, exceto as cuja condição no domicílio era pensionista, empregada doméstica ou parente do(a) empregado(a) - percentual do total geral",0,Total,0,Total,0,Total,2,Percentual,100.00
3,Unidade da Federação,12,Acre,2010,2010,1539,"Mulheres de 10 anos ou mais de idade, residentes em domicílios particulares, que tiveram filhos nascidos vivos, exceto as cuja condição no domicílio era pensionista, empregada doméstica ou parente do(a) empregado(a)",0,Total,0,Total,0,Total,45,Pessoas,175130
3,Unidade da Federação,12,Acre,2010,2010,1001539,"Mulheres de 10 anos ou mais de idade, residentes em domicílios particulares, que tiveram filhos nascidos vivos, exceto as cuja condição no domicílio era pensionista, empregada doméstica ou parente do(a) empregado(a) - percentual do total geral",0,Total,0,Total,0,Total,2,Percentual,100.00
3,Unidade da Federação,13,Amazonas,2010,2010,1539,"Mulheres de 10 anos ou mais de idade, residentes em domicílios particulares, que tiveram filhos nascidos vivos, exceto as cuja condição no domicílio era pensionista, empregada doméstica ou parente do(a) empregado(a)",0,Total,0,Total,0,Total,45,Pessoas,798796
3,Unidade da Federação,13,Amazonas,2010,2010,1001539,"Mulheres de 10 anos ou mais de idade, residentes em domicílios particulares, que tiveram filhos nascidos vivos, exceto as cuja condição no domicílio era pensionista, empregada doméstica ou parente do(a) empregado(a) - percentual do total geral",0,Total,0,Total,0,Total,2,Percentual,100.00
3,Unidade da Federação,14,Roraima,2010,2010,1539,"Mulheres de 10 anos ou mais de idade, residentes em domicílios particulares, que tiveram filhos nascidos vivos, exceto as cuja condição no domicílio era pensionista, empregada doméstica ou parente do(a) empregado(a)",0,Total,0,Total,0,Total,45,Pessoas,103494
3,Unidade da Federação,14,Roraima,2010,2010,1001539,"Mulheres de 10 anos ou mais de idade, residentes em domicílios particulares, que tiveram filhos nascidos vivos, exceto as cuja condição no domicílio era pensionista, empregada doméstica ou parente do(a) empregado(a) - percentual do total geral",0,Total,0,Total,0,Total,2,Percentual,100.00
3,Unidade da Federação,15,Pará,2010,2010,1539,"Mulheres de 10 anos ou mais de idade, residentes em domicílios particulares, que tiveram filhos nascidos vivos, exceto as cuja condição no domicílio era pensionista, empregada doméstica ou parente do(a) empregado(a)",0,Total,0,Total,0,Total,45,Pessoas,1836887
3,Unidade da Federação,15,Pará,2010,2010,1001539,"Mulheres de 10 anos ou mais de idade, residentes em domicílios particulares, que tiveram filhos nascidos vivos, exceto as cuja condição no domicílio era pensionista, empregada doméstica ou parente do(a) empregado(a) - percentual do total geral",0,Total,0,Total,0,Total,2,Percentual,100.00
3,Unidade da Federação,16,Amapá,2010,2010,1539,"Mulheres de 10 anos ou mais de idade, residentes em domicílios particulares, que tiveram filhos nascidos vivos, exceto as cuja condição no domicílio era pensionista, empregada doméstica ou parente do(a) empregado(a)",0,Total,0,Total,0,Total,45,Pessoas,156975
3,Unidade da Federação,16,Amapá,2010,2010,1001539,"Mulheres de 10 anos ou mais de idade, residentes em domicílios particulares, que tiveram filhos nascidos vivos, exceto as cuja condição no domicílio era pensionista, empregada doméstica ou parente do(a) empregado(a) - percentual do total geral",0,Total,0,Total,0,Total,2,Percentual,100.00
3,Unidade da Federação,17,Tocantins,2010,2010,1539,"Mulheres de 10 anos ou mais de idade, residentes em domicílios particulares, que tiveram filhos nascidos vivos, exceto as cuja condição no domicílio era pensionista, empregada doméstica ou parente do(a) empregado(a)",0,Total,0,Total,0,Total,45,Pessoas,351131
3,Unidade da Federação,17,Tocantins,2010,2010,1001539,"Mulheres de 10 anos ou mais de idade, residentes em domicílios particulares, que tiveram filhos nascidos vivos, exceto as cuja condição no domicílio era pensionista, empregada doméstica ou parente do(a) empregado(a) - percentual do total geral",0,Total,0,Total,0,Total,2,Percentual,100.00
3,Unidade da Federação,21,Maranhão,2010,2010,1539,"Mulheres de 10 anos ou mais de idade, residentes em domicílios particulares, que tiveram filhos nascidos vivos, exceto as cuja condição no domicílio era pensionista, empregada doméstica ou parente do(a) empregado(a)",0,Total,0,Total,0,Total,45,Pessoas,1625105
3,Unidade da Federação,21,Maranhão,2010,2010,1001539,"Mulheres de 10 anos ou mais de idade, residentes em domicílios particulares, que tiveram filhos nascidos vivos, exceto as cuja condição no domicílio era pensionista, empregada doméstica ou parente do(a) empregado(a) - percentual do total geral",0,Total,0,Total,0,Total,2,Percentual,100.00
3,Unidade da Federação,22,Piauí,2010,2010,1539,"Mulheres de 10 anos ou mais de idade, residentes em domicílios particulares, que tiveram filhos nascidos vivos, exceto as cuja condição no domicílio era pensionista, empregada doméstica ou parente do(a) empregado(a)",0,Total,0,Total,0,Total,45,Pessoas,819505
3,Unidade da Federação,22,Piauí,2010,2010,1001539,"Mulheres de 10 anos ou mais de idade, residentes em domicílios particulares, que tiveram filhos nascidos vivos, exceto as cuja condição no domicílio era pensionista, empregada doméstica ou parente do(a) empregado(a) - percentual do total geral",0,Total,0,Total,0,Total,2,Percentual,100.00
3,Unidade da Federação,23,Ceará,2010,2010,1539,"Mulheres de 10 anos ou mais de idade, residentes em domicílios particulares, que tiveram filhos nascidos vivos, exceto as cuja condição no domicílio era pensionista, empregada doméstica ou parente do(a) empregado(a)",0,Total,0,Total,0,Total,45,Pessoas,2178179
3,Unidade da Federação,23,Ceará,2010,2010,1001539,"Mulheres de 10 anos ou mais de idade, residentes em domicílios particulares, que tiveram filhos nascidos vivos, exceto as cuja condição no domicílio era pensionista, empregada doméstica ou parente do(a) empregado(a) - percentual do total geral",0,Total,0,Total,0,Total,2,Percentual,100.00
3,Unidade da Federação,24,Rio Grande do Norte,2010,2010,1539,"Mulheres de 10 anos ou mais de idade, residentes em domicílios particulares, que tiveram filhos nascidos vivos, exceto as cuja condição no domicílio era pensionista, empregada doméstica ou parente do(a) empregado(a)",0,Total,0,Total,0,Total,45,Pessoas,854343
3,Unidade da Federação,24,Rio Grande do Norte,2010,2010,1001539,"Mulheres de 10 anos ou mais de idade, residentes em domicílios particulares, que tiveram filhos nascidos vivos, exceto as cuja condição no domicílio era pensionista, empregada doméstica ou parente do(a) empregado(a) - percentual do total geral",0,Total,0,Total,0,Total,2,Percentual,100.00
3,Unidade da Federação,25,Paraíba,2010,2010,1539,"Mulheres de 10 anos ou mais de idade, residentes em domicílios particulares, que tiveram filhos nascidos vivos, exceto as cuja condição no domicílio era pensionista, empregada doméstica ou parente do(a) empregado(a)",0,Total,0,Total,0,Total,45,Pessoas,1020091
3,Unidade da Federação,25,Paraíba,2010,2010,1001539,"Mulheres de 10 anos ou mais de idade, residentes em domicílios particulares, que tiveram filhos nascidos vivos, exceto as cuja condição no domicílio era pensionista, empregada doméstica ou parente do(a) empregado(a) - percentual do total geral",0,Total,0,Total,0,Total,2,Percentual,100.00
3,Unidade da Federação,26,Pernambuco,2010,2010,1539,"Mulheres de 10 anos ou mais de idade, residentes em domicílios particulares, que tiveram filhos nascidos vivos, exceto as cuja condição no domicílio era pensionista, empregada doméstica ou parente do(a) empregado(a)",0,Total,0,Total,0,Total,45,Pessoas,2361792
3,Unidade da Federação,26,Pernambuco,2010,2010,1001539,"Mulheres de 10 anos ou mais de idade, residentes em domicílios particulares, que tiveram filhos nascidos vivos, exceto as cuja condição no domicílio era pensionista, empregada doméstica ou parente do(a) empregado(a) - percentual do total geral",0,Total,0,Total,0,Total,2,Percentual,100.00
3,Unidade da Federação,27,Alagoas,2010,2010,1539,"Mulheres de 10 anos ou mais de idade, residentes em domicílios particulares, que tiveram filhos nascidos vivos, exceto as cuja condição no domicílio era pensionista, empregada doméstica ou parente do(a) empregado(a)",0,Total,0,Total,0,Total,45,Pessoas,806806
3,Unidade da Federação,27,Alagoas,2010,2010,1001539,"Mulheres de 10 anos ou mais de idade, residentes em domicílios particulares, que tiveram filhos nascidos vivos, exceto as cuja condição no domicílio era pensionista, empregada doméstica ou parente do(a) empregado(a) - percentual do total geral",0,Total,0,Total,0,Total,2,Percentual,100.00
3,Unidade da Federação,28,Sergipe,2010,2010,1539,"Mulheres de 10 anos ou mais de idade, residentes em domicílios particulares, que tiveram filhos nascidos vivos, exceto as cuja condição no domicílio era pensionista, empregada doméstica ou parente do(a) empregado(a)",0,Total,0,Total,0,Total,45,Pessoas,537095
3,Unidade da Federação,28,Sergipe,2010,2010,1001539,"Mulheres de 10 anos ou mais de idade, residentes em domicílios particulares, que tiveram filhos nascidos vivos, exceto as cuja condição no domicílio era pensionista, empregada doméstica ou parente do(a) empregado(a) - percentual do total geral",0,Total,0,Total,0,Total,2,Percentual,100.00
3,Unidade da Federação,29,Bahia,2010,2010,1539,"Mulheres de 10 anos ou mais de idade, residentes em domicílios particulares, que tiveram filhos nascidos vivos, exceto as cuja condição no domicílio era pensionista, empregada doméstica ou parente do(a) empregado(a)",0,Total,0,Total,0,Total,45,Pessoas,3682530
3,Unidade da Federação,29,Bahia,2010,2010,1001539,"Mulheres de 10 anos ou mais de idade, residentes em domicílios particulares, que tiveram filhos nascidos vivos, exceto as cuja condição no domicílio era pensionista, empregada doméstica ou parente do(a) empregado(a) - percentual do total geral",0,Total,0,Total,0,Total,2,Percentual,100.00
3,Unidade da Federação,31,Minas Gerais,2010,2010,1539,"Mulheres de 10 anos ou mais de idade, residentes em domicílios particulares, que tiveram filhos nascidos vivos, exceto as cuja condição no domicílio era pensionista, empregada doméstica ou parente do(a) empregado(a)",0,Total,0,Total,0,Total,45,Pessoas,5264550
3,Unidade da Federação,31,Minas Gerais,2010,2010,1001539,"Mulheres de 10 anos ou mais de idade, residentes em domicílios particulares, que tiveram filhos nascidos vivos, exceto as cuja condição no domicílio era pensionista, empregada doméstica ou parente do(a) empregado(a) - percentual do total geral",0,Total,0,Total,0,Total,2,Percentual,100.00
3,Unidade da Federação,32,Espírito Santo,2010,2010,1539,"Mulheres de 10 anos ou mais de idade, residentes em domicílios particulares, que tiveram filhos nascidos vivos, exceto as cuja condição no domicílio era pensionista, empregada doméstica ou parente do(a) empregado(a)",0,Total,0,Total,0,Total,45,Pessoas,965463
3,Unidade da Federação,32,Espírito Santo,2010,2010,1001539,"Mulheres de 10 anos ou mais de idade, residentes em domicílios particulares, que tiveram filhos nascidos vivos, exceto as cuja condição no domicílio era pensionista, empregada doméstica ou parente do(a) empregado(a) - percentual do total geral",0,Total,0,Total,0,Total,2,Percentual,100.00
3,Unidade da Federação,33,Rio de Janeiro,2010,2010,1539,"Mulheres de 10 anos ou mais de idade, residentes em domicílios particulares, que tiveram filhos nascidos vivos, exceto as cuja condição no domicílio era pensionista, empregada doméstica ou parente do(a) empregado(a)",0,Total,0,Total,0,Total,45,Pessoas,4533640
3,Unidade da Federação,33,Rio de Janeiro,2010,2010,1001539,"Mulheres de 10 anos ou mais de idade, residentes em domicílios particulares, que tiveram filhos nascidos vivos, exceto as cuja condição no domicílio era pensionista, empregada doméstica ou parente do(a) empregado(a) - percentual do total geral",0,Total,0,Total,0,Total,2,Percentual,100.00
3,Unidade da Federação,35,São Paulo,2010,2010,1539,"Mulheres de 10 anos ou mais de idade, residentes em domicílios particulares, que tiveram filhos nascidos vivos, exceto as cuja condição no domicílio era pensionista, empregada doméstica ou parente do(a) empregado(a)",0,Total,0,Total,0,Total,45,Pessoas,11266791
3,Unidade da Federação,35,São Paulo,2010,2010,1001539,"Mulheres de 10 anos ou mais de idade, residentes em domicílios particulares, que tiveram filhos nascidos vivos, exceto as cuja condição no domicílio era pensionista, empregada doméstica ou parente do(a) empregado(a) - percentual do total geral",0,Total,0,Total,0,Total,2,Percentual,100.00
3,Unidade da Federação,41,Paraná,2010,2010,1539,"Mulheres de 10 anos ou mais de idade, residentes em domicílios particulares, que tiveram filhos nascidos vivos, exceto as cuja condição no domicílio era pensionista, empregada doméstica ou parente do(a) empregado(a)",0,Total,0,Total,0,Total,45,Pessoas,2957633
3,Unidade da Federação,41,Paraná,2010,2010,1001539,"Mulheres de 10 anos ou mais de idade, residentes em domicílios particulares, que tiveram filhos nascidos vivos, exceto as cuja condição no domicílio era pensionista, empregada doméstica ou parente do(a) empregado(a) - percentual do total geral",0,Total,0,Total,0,Total,2,Percentual,100.00
3,Unidade da Federação,42,Santa Catarina,2010,2010,1539,"Mulheres de 10 anos ou mais de idade, residentes em domicílios particulares, que tiveram filhos nascidos vivos, exceto as cuja condição no domicílio era pensionista, empregada doméstica ou parente do(a) empregado(a)",0,Total,0,Total,0,Total,45,Pessoas,1752148
3,Unidade da Federação,42,Santa Catarina,2010,2010,1001539,"Mulheres de 10 anos ou mais de idade, residentes em domicílios particulares, que tiveram filhos nascidos vivos, exceto as cuja condição no domicílio era pensionista, empregada doméstica ou parente do(a) empregado(a) - percentual do total geral",0,Total,0,Total,0,Total,2,Percentual,100.00
3,Unidade da Federação,43,Rio Grande do Sul,2010,2010,1539,"Mulheres de 10 anos ou mais de idade, residentes em domicílios particulares, que tiveram filhos nascidos vivos, exceto as cuja condição no domicílio era pensionista, empregada doméstica ou parente do(a) empregado(a)",0,Total,0,Total,0,Total,45,Pessoas,3075127
3,Unidade da Federação,43,Rio Grande do Sul,2010,2010,1001539,"Mulheres de 10 anos ou mais de idade, residentes em domicílios particulares, que tiveram filhos nascidos vivos, exceto as cuja condição no domicílio era pensionista, empregada doméstica ou parente do(a) empregado(a) - percentual do total geral",0,Total,0,Total,0,Total,2,Percentual,100.00
3,Unidade da Federação,50,Mato Grosso do Sul,2010,2010,1539,"Mulheres de 10 anos ou mais de idade, residentes em domicílios particulares, que tiveram filhos nascidos vivos, exceto as cuja condição no domicílio era pensionista, empregada doméstica ou parente do(a) empregado(a)",0,Total,0,Total,0,Total,45,Pessoas,677857
3,Unidade da Federação,50,Mato Grosso do Sul,2010,2010,1001539,"Mulheres de 10 anos ou mais de idade, residentes em domicílios particulares, que tiveram filhos nascidos vivos, exceto as cuja condição no domicílio era pensionista, empregada doméstica ou parente do(a) empregado(a) - percentual do total geral",0,Total,0,Total,0,Total,2,Percentual,100.00
3,Unidade da Federação,51,Mato Grosso,2010,2010,1539,"Mulheres de 10 anos ou mais de idade, residentes em domicílios particulares, que tiveram filhos nascidos vivos, exceto as cuja condição no domicílio era pensionista, empregada doméstica ou parente do(a) empregado(a)",0,Total,0,Total,0,Total,45,Pessoas,796765
3,Unidade da Federação,51,Mato Grosso,2010,2010,1001539,"Mulheres de 10 anos ou mais de idade, residentes em domicílios particulares, que tiveram filhos nascidos vivos, exceto as cuja condição no domicílio era pensionista, empregada doméstica ou parente do(a) empregado(a) - percentual do total geral",0,Total,0,Total,0,Total,2,Percentual,100.00
3,Unidade da Federação,52,Goiás,2010,2010,1539,"Mulheres de 10 anos ou mais de idade, residentes em domicílios particulares, que tiveram filhos nascidos vivos, exceto as cuja condição no domicílio era pensionista, empregada doméstica ou parente do(a) empregado(a)",0,Total,0,Total,0,Total,45,Pessoas,1645745
3,Unidade da Federação,52,Goiás,2010,2010,1001539,"Mulheres de 10 anos ou mais de idade, residentes em domicílios particulares, que tiveram filhos nascidos vivos, exceto as cuja condição no domicílio era pensionista, empregada doméstica ou parente do(a) empregado(a) - percentual do total geral",0,Total,0,Total,0,Total,2,Percentual,100.00
3,Unidade da Federação,53,Distrito Federal,2010,2010,1539,"Mulheres de 10 anos ou mais de idade, residentes em domicílios particulares, que tiveram filhos nascidos vivos, exceto as cuja condição no domicílio era pensionista, empregada doméstica ou parente do(a) empregado(a)",0,Total,0,Total,0,Total,45,Pessoas,663083
3,Unidade da Federação,53,Distrito Federal,2010,2010,1001539,"Mulheres de 10 anos ou mais de idade, residentes em domicílios particulares, que tiveram filhos nascidos vivos, exceto as cuja condição no domicílio era pensionista, empregada doméstica ou parente do(a) empregado(a) - percentual do total geral",0,Total,0,Total,0,Total,2,Percentual,100.00
