NC,NN,D1C,D1N,D2C,D2N,D3C,D3N,D4C,D4N,D5C,D5N,MC,MN,V
Nível Territorial (Código),Nível Territorial,Unidade da Federação (Código),Unidade da Federação,Ano (Código),Ano,Variável (Código),Variável,Situação do domicílio (Código),Situação do domicílio,Classes de rendimento nominal mensal domiciliar (Código),Classes de rendimento nominal mensal domiciliar,Unidade de Medida (Código),Unidade de Medida,Valor
3,Unidade da Federação,11,Rondônia,2010,2010,1540,"Filhos tidos nascidos vivos pelas mulheres de 10 anos ou mais de idade residentes em domicílios particulares, exceto os das mulheres cuja condição no domicílio era pensionista, empregada ou parente do(a) empregado(a) doméstico(a)",0,Total,0,Total,45,Pessoas,1292232
3,Unidade da Federação,11,Rondônia,2010,2010,1001540,"Filhos tidos nascidos vivos pelas mulheres de 10 anos ou mais de idade residentes em domicílios particulares, exceto os das mulheres cuja condição no domicílio era pensionista, empregada ou parente do(a) empregado(a) doméstico(a) - percentual do total geral",0,Total,0,Total,2,Percentual,100.00
3,Unidade da Federação,12,Acre,2010,2010,1540,"Filhos tidos nascidos vivos pelas mulheres de 10 anos ou mais de idade residentes em domicílios particulares, exceto os das mulheres cuja condição no domicílio era pensionista, empregada ou parente do(a) empregado(a) doméstico(a)",0,Total,0,Total,45,Pessoas,624374
3,Unidade da Federação,12,Acre,2010,2010,1001540,"Filhos tidos nascidos vivos pelas mulheres de 10 anos ou mais de idade residentes em domicílios particulares, exceto os das mulheres cuja condição no domicílio era pensionista, empregada ou parente do(a) empregado(a) doméstico(a) - percentual do total geral",0,Total,0,Total,2,Percentual,100.00
3,Unidade da Federação,13,Amazonas,2010,2010,1540,"Filhos tidos nascidos vivos pelas mulheres de 10 anos ou mais de idade residentes em domicílios particulares, exceto os das mulheres cuja condição no domicílio era pensionista, empregada ou parente do(a) empregado(a) doméstico(a)",0,Total,0,Total,45,Pessoas,2761356
3,Unidade da Federação,13,Amazonas,2010,2010,1001540,"Filhos tidos nascidos vivos pelas mulheres de 10 anos ou mais de idade residentes em domicílios particulares, exceto os das mulheres cuja condição no domicílio era pensionista, empregada ou parente do(a) empregado(a) doméstico(a) - percentual do total geral",0,Total,0,Total,2,Percentual,100.00
3,Unidade da Federação,14,Roraima,2010,2010,1540,"Filhos tidos nascidos vivos pelas mulheres de 10 anos ou mais de idade residentes em domicílios particulares, exceto os das mulheres cuja condição no domicílio era pensionista, empregada ou parente do(a) empregado(a) doméstico(a)",0,Total,0,Total,45,Pessoas,342639
3,Unidade da Federação,14,Roraima,2010,2010,1001540,"Filhos tidos nascidos vivos pelas mulheres de 10 anos ou mais de idade residentes em domicílios particulares, exceto os das mulheres cuja condição no domicílio era pensionista, empregada ou parente do(a) empregado(a) doméstico(a) - percentual do total geral",0,Total,0,Total,2,Percentual,100.00
3,Unidade da Federação,15,Pará,2010,2010,1540,"Filhos tidos nascidos vivos pelas mulheres de 10 anos ou mais de idade residentes em domicílios particulares, exceto os das mulheres cuja condição no domicílio era pensionista, empregada ou parente do(a) empregado(a) doméstico(a)",0,Total,0,Total,45,Pessoas,6322455
3,Unidade da Federação,15,Pará,2010,2010,1001540,"Filhos tidos nascidos vivos pelas mulheres de 10 anos ou mais de idade residentes em domicílios particulares, exceto os das mulheres cuja condição no domicílio era pensionista, empregada ou parente do(a) empregado(a) doméstico(a) - percentual do total geral",0,Total,0,Total,2,Percentual,100.00
3,Unidade da Federação,16,Amapá,2010,2010,1540,"Filhos tidos nascidos vivos pelas mulheres de 10 anos ou mais de idade residentes em domicílios particulares, exceto os das mulheres cuja condição no domicílio era pensionista, empregada ou parente do(a) empregado(a) doméstico(a)",0,Total,0,Total,45,Pessoas,547538
3,Unidade da Federação,16,Amapá,2010,2010,1001540,"Filhos tidos nascidos vivos pelas mulheres de 10 anos ou mais de idade residentes em domicílios particulares, exceto os das mulheres cuja condição no domicílio era pensionista, empregada ou parente do(a) empregado(a) doméstico(a) - percentual do total geral",0,Total,0,Total,2,Percentual,100.00
3,Unidade da Federação,17,Tocantins,2010,2010,1540,"Filhos tidos nascidos vivos pelas mulheres de 10 anos ou mais de idade residentes em domicílios particulares, exceto os das mulheres cuja condição no domicílio era pensionista, empregada ou parente do(a) empregado(a) doméstico(a)",0,Total,0,Total,45,Pessoas,1198806
3,Unidade da Federação,17,Tocantins,2010,2010,1001540,"Filhos tidos nascidos vivos pelas mulheres de 10 anos ou mais de idade residentes em domicílios particulares, exceto os das mulheres cuja condição no domicílio era pensionista, empregada ou parente do(a) empregado(a) doméstico(a) - percentual do total geral",0,Total,0,Total,2,Percentual,100.00
3,Unidade da Federação,21,Maranhão,2010,2010,1540,"Filhos tidos nascidos vivos pelas mulheres de 10 anos ou mais de idade residentes em domicílios particulares, exceto os das mulheres cuja condição no domicílio era pensionista, empregada ou parente do(a) empregado(a) doméstico(a)",0,Total,0,Total,45,Pessoas,6033503
3,Unidade da Federação,21,Maranhão,2010,2010,1001540,"Filhos tidos nascidos vivos pelas mulheres de 10 anos ou mais de idade residentes em domicílios particulares, exceto os das mulheres cuja condição no domicílio era pensionista, empregada ou parente do(a) empregado(a) doméstico(a) - percentual do total geral",0,Total,0,Total,2,Percentual,100.00
3,Unidade da Federação,22,Piauí,2010,2010,1540,"Filhos tidos nascidos vivos pelas mulheres de 10 anos ou mais de idade residentes em domicílios particulares, exceto os das mulheres cuja condição no domicílio era pensionista, empregada ou parente do(a) empregado(a) doméstico(a)",0,Total,0,Total,45,Pessoas,3002634
3,Unidade da Federação,22,Piauí,2010,2010,1001540,"Filhos tidos nascidos vivos pelas mulheres de 10 anos ou mais de idade residentes em domicílios particulares, exceto os das mulheres cuja condição no domicílio era pensionista, empregada ou parente do(a) empregado(a) doméstico(a) - percentual do total geral",0,Total,0,Total,2,Percentual,100.00
3,Unidade da Federação,23,Ceará,2010,2010,1540,"Filhos tidos nascidos vivos pelas mulheres de 10 anos ou mais de idade residentes em domicílios particulares, exceto os das mulheres cuja condição no domicílio era pensionista, empregada ou parente do(a) empregado(a) doméstico(a)",0,Total,0,Total,45,Pessoas,7745292
3,Unidade da Federação,23,Ceará,2010,2010,1001540,"Filhos tidos nascidos vivos pelas mulheres de 10 anos ou mais de idade residentes em domicílios particulares, exceto os das mulheres cuja condição no domicílio era pensionista, empregada ou parente do(a) empregado(a) doméstico(a) - percentual do total geral",0,Total,0,Total,2,Percentual,100.00
3,Unidade da Federação,24,Rio Grande do Norte,2010,2010,1540,"Filhos tidos nascidos vivos pelas mulheres de 10 anos ou mais de idade residentes em domicílios particulares, exceto os das mulheres cuja condição no domicílio era pensionista, empregada ou parente do(a) empregado(a) doméstico(a)",0,Total,0,Total,45,Pessoas,2951874
3,Unidade da Federação,24,Rio Grande do Norte,2010,2010,1001540,"Filhos tidos nascidos vivos pelas mulheres de 10 anos ou mais de idade residentes em domicílios particulares, exceto os das mulheres cuja condição no domicílio era pensionista, empregada ou parente do(a) empregado(a) doméstico(a) - percentual do total geral",0,Total,0,Total,2,Percentual,100.00
3,Unidade da Federação,25,Paraíba,2010,2010,1540,"Filhos tidos nascidos vivos pelas mulheres de 10 anos ou mais de idade residentes em domicílios particulares, exceto os das mulheres cuja condição no domicílio era pensionista, empregada ou parente do(a) empregado(a) doméstico(a)",0,Total,0,Total,45,Pessoas,3716702
3,Unidade da Federação,25,Paraíba,2010,2010,1001540,"Filhos tidos nascidos vivos pelas mulheres de 10 anos ou mais de idade residentes em domicílios particulares, exceto os das mulheres cuja condição no domicílio era pensionista, empregada ou parente do(a) empregado(a) doméstico(a) - percentual do total geral",0,Total,0,Total,2,Percentual,100.00
3,Unidade da Federação,26,Pernambuco,2010,2010,1540,"Filhos tidos nascidos vivos pelas mulheres de 10 anos ou mais de idade residentes em domicílios particulares, exceto os das mulheres cuja condição no domicílio era pensionista, empregada ou parente do(a) empregado(a) doméstico(a)",0,Total,0,Total,45,Pessoas,7880711
3,Unidade da Federação,26,Pernambuco,2010,2010,1001540,"Filhos tidos nascidos vivos pelas mulheres de 10 anos ou mais de idade residentes em domicílios particulares, exceto os das mulheres cuja condição no domicílio era pensionista, empregada ou parente do(a) empregado(a) doméstico(a) - percentual do total geral",0,Total,0,Total,2,Percentual,100.00
3,Unidade da Federação,27,Alagoas,2010,2010,1540,"Filhos tidos nascidos vivos pelas mulheres de 10 anos ou mais de idade residentes em domicílios particulares, exceto os das mulheres cuja condição no domicílio era pensionista, empregada ou parente do(a) empregado(a) doméstico(a)",0,Total,0,Total,45,Pessoas,2962117
3,Unidade da Federação,27,Alagoas,2010,2010,1001540,"Filhos tidos nascidos vivos pelas mulheres de 10 anos ou mais de idade residentes em domicílios particulares, exceto os das mulheres cuja condição no domicílio era pensionista, empregada ou parente do(a) empregado(a) doméstico(a) - percentual do total geral",0,Total,0,Total,2,Percentual,100.00
3,Unidade da Federação,28,Sergipe,2010,2010,1540,"Filhos tidos nascidos vivos pelas mulheres de 10 anos ou mais de idade residentes em domicílios particulares, exceto os das mulheres cuja condição no domicílio era pensionista, empregada ou parente do(a) empregado(a) doméstico(a)",0,Total,0,Total,45,Pessoas,1864563
3,Unidade da Federação,28,Sergipe,2010,2010,1001540,"Filhos tidos nascidos vivos pelas mulheres de 10 anos ou mais de idade residentes em domicílios particulares, exceto os das mulheres cuja condição no domicílio era pensionista, empregada ou parente do(a) empregado(a) doméstico(a) - percentual do total geral",0,Total,0,Total,2,Percentual,100.00
3,Unidade da Federação,29,Bahia,2010,2010,1540,"Filhos tidos nascidos vivos pelas mulheres de 10 anos ou mais de idade residentes em domicílios particulares, exceto os das mulheres cuja condição no domicílio era pensionista, empregada ou parente do(a) empregado(a) doméstico(a)",0,Total,0,Total,45,Pessoas,12737734
3,Unidade da Federação,29,Bahia,2010,2010,1001540,"Filhos tidos nascidos vivos pelas mulheres de 10 anos ou mais de idade residentes em domicílios particulares, exceto os das mulheres cuja condição no domicílio era pensionista, empregada ou parente do(a) empregado(a) doméstico(a) - percentual do total geral",0,Total,0,Total,2,Percentual,100.00
3,Unidade da Federação,31,Minas Gerais,2010,2010,1540,"Filhos tidos nascidos vivos pelas mulheres de 10 anos ou mais de idade residentes em domicílios particulares, exceto os das mulheres cuja condição no domicílio era pensionista, empregada ou parente do(a) empregado(a) doméstico(a)",0,Total,0,Total,45,Pessoas,16066251
3,Unidade da Federação,31,Minas Gerais,2010,2010,1001540,"Filhos tidos nascidos vivos pelas mulheres de 10 anos ou mais de idade residentes em domicílios particulares, exceto os das mulheres cuja condição no domicílio era pensionista, empregada ou parente do(a) empregado(a) doméstico(a) - percentual do total geral",0,Total,0,Total,2,Percentual,100.00
3,Unidade da Federação,32,Espírito Santo,2010,2010,1540,"Filhos tidos nascidos vivos pelas mulheres de 10 anos ou mais de idade residentes em domicílios particulares, exceto os das mulheres cuja condição no domicílio era pensionista, empregada ou parente do(a) empregado(a) doméstico(a)",0,Total,0,Total,45,Pessoas,2817544
3,Unidade da Federação,32,Espírito Santo,2010,2010,1001540,"Filhos tidos nascidos vivos pelas mulheres de 10 anos ou mais de idade residentes em domicílios particulares, exceto os das mulheres cuja condição no domicílio era pensionista, empregada ou parente do(a) empregado(a) doméstico(a) - percentual do total geral",0,Total,0,Total,2,Percentual,100.00
3,Unidade da Federação,33,Rio de Janeiro,2010,2010,1540,"Filhos tidos nascidos vivos pelas mulheres de 10 anos ou mais de idade residentes em domicílios particulares, exceto os das mulheres cuja condição no domicílio era pensionista, empregada ou parente do(a) empregado(a) doméstico(a)",0,Total,0,Total,45,Pessoas,11229804
3,Unidade da Federação,33,Rio de Janeiro,2010,2010,1001540,"Filhos tidos nascidos vivos pelas mulheres de 10 anos ou mais de idade residentes em domicílios particulares, exceto os das mulheres cuja condição no domicílio era pensionista, empregada ou parente do(a) empregado(a) doméstico(a) - percentual do total geral",0,Total,0,Total,2,Percentual,100.00
3,Unidade da Federação,35,São Paulo,2010,2010,1540,"Filhos tidos nascidos vivos pelas mulheres de 10 anos ou mais de idade residentes em domicílios particulares, exceto os das mulheres cuja condição no domicílio era pensionista, empregada ou parente do(a) empregado(a) doméstico(a)",0,Total,0,Total,45,Pessoas,29389048
3,Unidade da Federação,35,São Paulo,2010,2010,1001540,"Filhos tidos nascidos vivos pelas mulheres de 10 anos ou mais de idade residentes em domicílios particulares, exceto os das mulheres cuja condição no domicílio era pensionista, empregada ou parente do(a) empregado(a) doméstico(a) - percentual do total geral",0,Total,0,Total,2,Percentual,100.00
3,Unidade da Federação,41,Paraná,2010,2010,1540,"Filhos tidos nascidos vivos pelas mulheres de 10 anos ou mais de idade residentes em domicílios particulares, exceto os das mulheres cuja condição no domicílio era pensionista, empregada ou parente do(a) empregado(a) doméstico(a)",0,Total,0,Total,45,Pessoas,8497035
3,Unidade da Federação,41,Paraná,2010,2010,1001540,"Filhos tidos nascidos vivos pelas mulheres de 10 anos ou mais de idade residentes em domicílios particulares, exceto os das mulheres cuja condição no domicílio era pensionista, empregada ou parente do(a) empregado(a) doméstico(a) - percentual do total geral",0,Total,0,Total,2,Percentual,100.00
3,Unidade da Federação,42,Santa Catarina,2010,2010,1540,"Filhos tidos nascidos vivos pelas mulheres de 10 anos ou mais de idade residentes em domicílios particulares, exceto os das mulheres cuja condição no domicílio era pensionista, empregada ou parente do(a) empregado(a) doméstico(a)",0,Total,0,Total,45,Pessoas,4885106
3,Unidade da Federação,42,Santa Catarina,2010,2010,1001540,"Filhos tidos nascidos vivos pelas mulheres de 10 anos ou mais de idade residentes em domicílios particulares, exceto os das mulheres cuja condição no domicílio era pensionista, empregada ou parente do(a) empregado(a) doméstico(a) - percentual do total geral",0,Total,0,Total,2,Percentual,100.00
3,Unidade da Federação,43,Rio Grande do Sul,2010,2010,1540,"Filhos tidos nascidos vivos pelas mulheres de 10 anos ou mais de idade residentes em domicílios particulares, exceto os das mulheres cuja condição no domicílio era pensionista, empregada ou parente do(a) empregado(a) doméstico(a)",0,Total,0,Total,45,Pessoas,8177369
3,Unidade da Federação,43,Rio Grande do Sul,2010,2010,1001540,"Filhos tidos nascidos vivos pelas mulheres de 10 anos ou mais de idade residentes em domicílios particulares, exceto os das mulheres cuja condição no domicílio era pensionista, empregada ou parente do(a) empregado(a) doméstico(a) - percentual do total geral",0,Total,0,Total,2,Percentual,100.00
3,Unidade da Federação,50,Mato Grosso do Sul,2010,2010,1540,"Filhos tidos nascidos vivos pelas mulheres de 10 anos ou mais de idade residentes em domicílios particulares, exceto os das mulheres cuja condição no domicílio era pensionista, empregada ou parente do(a) empregado(a) doméstico(a)",0,Total,0,Total,45,Pessoas,1993285
3,Unidade da Federação,50,Mato Grosso do Sul,2010,2010,1001540,"Filhos tidos nascidos vivos pelas mulheres de 10 anos ou mais de idade residentes em domicílios particulares, exceto os das mulheres cuja condição no domicílio era pensionista, empregada ou parente do(a) empregado(a) doméstico(a) - percentual do total geral",0,Total,0,Total,2,Percentual,100.00
3,Unidade da Federação,51,Mato Grosso,2010,2010,1540,"Filhos tidos nascidos vivos pelas mulheres de 10 anos ou mais de idade residentes em domicílios particulares, exceto os das mulheres cuja condição no domicílio era pensionista, empregada ou parente do(a) empregado(a) doméstico(a)",0,Total,0,Total,45,Pessoas,2364977
3,Unidade da Federação,51,Mato Grosso,2010,2010,1001540,"Filhos tidos nascidos vivos pelas mulheres de 10 anos ou mais de idade residentes em domicílios particulares, exceto os das mulheres cuja condição no domicílio era pensionista, empregada ou parente do(a) empregado(a) doméstico(a) - percentual do total geral",0,Total,0,Total,2,Percentual,100.00
3,Unidade da Federação,52,Goiás,2010,2010,1540,"Filhos tidos nascidos vivos pelas mulheres de 10 anos ou mais de idade residentes em domicílios particulares, exceto os das mulheres cuja condição no domicílio era pensionista, empregada ou parente do(a) empregado(a) doméstico(a)",0,Total,0,Total,45,Pessoas,4645712
3,Unidade da Federação,52,Goiás,2010,2010,1001540,"Filhos tidos nascidos vivos pelas mulheres de 10 anos ou mais de idade residentes em domicílios particulares, exceto os das mulheres cuja condição no domicílio era pensionista, empregada ou parente do(a) empregado(a) doméstico(a) - percentual do total geral",0,Total,0,Total,2,Percentual,100.00
3,Unidade da Federação,53,Distrito Federal,2010,2010,1540,"Filhos tidos nascidos vivos pelas mulheres de 10 anos ou mais de idade residentes em domicílios particulares, exceto os das mulheres cuja condição no domicílio era pensionista, empregada ou parente do(a) empregado(a) doméstico(a)",0,Total,0,Total,45,Pessoas,1717286
3,Unidade da Federação,53,Distrito Federal,2010,2010,1001540,"Filhos tidos nascidos vivos pelas mulheres de 10 anos ou mais de idade residentes em domicílios particulares, exceto os das mulheres cuja condição no domicílio era pensionista, empregada ou parente do(a) empregado(a) doméstico(a) - percentual do total geral",0,Total,0,Total,2,Percentual,100.00
