ID,DESCRIPTION
5429,"Rendimento médio nominal, habitualmente recebido por mês e efetivamente recebido no mês de referência, do trabalho principal e de todos os trabalhos, por sexo"
5430,"Rendimento médio nominal, habitualmente recebido por mês e efetivamente recebido no mês de referência, do trabalho principal e de todos os trabalhos, por grupo de idade"
5431,"Rendimento médio nominal, habitualmente recebido por mês e efetivamente recebido no mês de referência, do trabalho principal e de todos os trabalhos, por nível de instrução"
5432,"Rendimento médio nominal, habitualmente recebido por mês e efetivamente recebido no mês de referência, do trabalho principal, por posição na ocupação no trabalho principal"
5433,"Rendimento médio nominal, habitualmente recebido por mês e efetivamente recebido no mês de referência, do trabalho principal, por posição na ocupação e categoria do emprego no trabalho principal"
5436,"Rendimento médio real, habitualmente recebido por mês e efetivamente recebido no mês de referência, do trabalho principal e de todos os trabalhos, por sexo"
5437,"Rendimento médio real, habitualmente recebido por mês e efetivamente recebido no mês de referência, do trabalho principal e de todos os trabalhos, por grupos de idade"
5438,"Rendimento médio real, habitualmente recebido por mês e efetivamente recebido no mês de referência, do trabalho principal e de todos os trabalhos, por níveis de instrução"
5439,"Rendimento médio real, habitualmente recebido por mês e efetivamente recebido no mês de referência, do trabalho principal, por posição na ocupação no trabalho principal"
5440,"Rendimento médio real, habitualmente recebido por mês e efetivamente recebido no mês de referência, do trabalho principal, por posição na ocupação e categoria do emprego no trabalho principal"
5441,"Rendimento médio nominal, habitualmente recebido por mês e efetivamente recebido no mês de referência, do trabalho principal, por grupamentos de atividade no trabalho principal"
5442,"Rendimento médio real, habitualmente recebido por mês e efetivamente recebido no mês de referência, do trabalho principal, por grupamentos de atividade no trabalho principal"
5443,"Rendimento médio nominal, habitualmente recebido por mês e efetivamente recebido no mês de referência, do trabalho principal, por grupamentos ocupacionais no trabalho principal"
5444,"Rendimento médio real, habitualmente recebido por mês e efetivamente recebido no mês de referência, do trabalho principal, por grupamentos ocupacionais no trabalho principal"
5605,"Massa de rendimento nominal de todos os trabalhos, habitualmente recebido por mês e efetivamente recebido no mês de referência, pelas pessoas de 14 anos ou mais de idade, ocupadas na semana de referência, com rendimento de trabalho"
5606,"Massa de rendimento real de todos os trabalhos, habitualmente recebido por mês e efetivamente recebido no mês de referência, pelas pessoas de 14 anos ou mais de idade, ocupadas na semana de referência, com rendimento de trabalho"
6404,"Rendimento médio nominal, habitualmente recebido por mês e efetivamente recebido no mês de referência, do trabalho principal e de todos os trabalhos, por cor ou raça"
6405,"Rendimento médio real, habitualmente recebido por mês e efetivamente recebido no mês de referência, do trabalho principal e de todos os trabalhos, por cor ou raça"
6420,"Massa de rendimento nominal do trabalho principal, habitualmente recebido por mês e efetivamente recebido no mês de referência, pelas pessoas de 14 anos ou mais de idade, ocupadas na semana de referência, com rendimento de trabalho, por posição na ocupação no trabalho principal"
6421,"Massa de rendimento real do trabalho principal, habitualmente recebido por mês e efetivamente recebido no mês de referência, pelas pessoas de 14 anos ou mais de idade, ocupadas na semana de referência, com rendimento de trabalho, por posição na ocupação no trabalho principal"
6424,"Massa de rendimento, real e nominal, do trabalho principal, habitualmente recebido por mês, pelas pessoas de 14 anos ou mais de idade, empregadas no trabalho principal da semana de referência, com rendimento do trabalho principal - Total, coeficiente de variação, variações percentuais e absolutas em relação ao trimestre anterior e ao mesmo trimestre do ano anterior, e média anual"
6425,"Massa de rendimento, real e nominal do trabalho principal, efetivamente recebido no mês de referência, pelas pessoas de 14 anos ou mais de idade, empregadas no trabalho principal da semana de referência, com rendimento do trabalho principal - Total, coeficiente de variação, variações percentuais e absolutas em relação ao trimestre anterior e ao mesmo trimestre do ano anterior, e média anual"
6469,"Rendimento médio, real e nominal, de todos os trabalhos, efetivamente recebido no mês de referência, pelas pessoas de 14 anos ou mais de idade, ocupadas na semana de referência, com rendimento de trabalho - Total, coeficiente de variação, variações em relação ao trimestre anterior e ao mesmo trimestre do ano anterior, e média anual"
6470,"Rendimento médio, real e nominal, do trabalho principal, efetivamente recebido no mês de referência, pelas pessoas de 14 anos ou mais de idade, ocupadas na semana de referência, com rendimento de trabalho - Total, coeficiente de variação, variações em relação ao trimestre anterior e ao mesmo trimestre do ano anterior, e média anual"
6471,"Rendimento médio, real e nominal, do trabalho principal, habitualmente recebido por mês, pelas pessoas de 14 anos ou mais de idade, ocupadas na semana de referência, com rendimento de trabalho - Total, coeficiente de variação, variações em relação ao trimestre anterior e ao mesmo trimestre do ano anterior, e média anual - por posição na ocupação e categoria do emprego no trabalho principal"
6472,"Rendimento médio, real e nominal, de todos os trabalhos, habitualmente recebido por mês, pelas pessoas de 14 anos ou mais de idade, ocupadas na semana de referência, com rendimento de trabalho - Total, coeficiente de variação, variações em relação ao trimestre anterior e ao mesmo trimestre do ano anterior, e média anual"
6473,"Rendimento médio, real e nominal, do trabalho principal, habitualmente recebido por mês, pelas pessoas de 14 anos ou mais de idade, ocupadas na semana de referência, com rendimento de trabalho - Total, coeficiente de variação, variações em relação ao trimestre anterior e ao mesmo trimestre do ano anterior, e média anual - por grupamentos de atividade no trabalho principal"
6474,"Massa de rendimento, real e nominal, de todos os trabalhos, habitualmente recebido por mês, pelas pessoas de 14 anos ou mais de idade, ocupadas na semana de referência, com rendimento de trabalho - Total, coeficiente de variação, variações percentuais e absolutas em relação ao trimestre anterior e ao mesmo trimestre do ano anterior, e média anual"
6475,"Massa de rendimento, real e nominal, de todos os trabalhos, efetivamente recebido no mês de referência, pelas pessoas de 14 anos ou mais de idade, ocupadas na semana de referência, com rendimento de trabalho - Total, coeficiente de variação, variações percentuais e absolutas em relação ao trimestre anterior e ao mesmo trimestre do ano anterior, e média anual"
