ID,DESCRIPTION
4092,"Pessoas de 14 anos ou mais de idade, por condição em relação à força de trabalho e condição de ocupação"
4093,"Pessoas de 14 anos ou mais de idade, total, na força de trabalho, ocupadas, desocupadas, fora da força de trabalho, e respectivas taxas e níveis, por sexo"
4094,"Pessoas de 14 anos ou mais de idade, total, na força de trabalho, ocupadas, desocupadas, fora da força de trabalho, e respectivas taxas e níveis, por grupo de idade"
4095,"Pessoas de 14 anos ou mais de idade, total, na força de trabalho, ocupadas, desocupadas, fora da força de trabalho, e respectivas taxas e níveis, por nível de instrução"
4096,"Pessoas de 14 anos ou mais de idade, ocupadas na semana de referência, por posição na ocupação no trabalho principal"
4097,"Pessoas de 14 anos ou mais de idade, ocupadas na semana de referência, por posição na ocupação e categoria do emprego no trabalho principal"
4099,"Taxas de desocupação e de subutilização da força de trabalho, na semana de referência, das pessoas de 14 anos ou mais de idade"
4100,"Pessoas de 14 anos ou mais de idade, por tipo de medida de subutilização da força de trabalho na semana de referência"
5434,"Pessoas de 14 anos ou mais de idade, ocupadas na semana de referência, por grupamento de atividades no trabalho principal"
5435,"Pessoas de 14 anos ou mais de idade, ocupadas na semana de referência, por grupamentos ocupacionais no trabalho principal"
5917,"População, por sexo"
5918,"População, por grupos de idade"
5919,"População, por níveis de instrução"
5947,"Pessoas de 14 anos ou mais de idade, ocupadas na semana de referência, por contribuição para instituto de previdência em qualquer trabalho"
6325,"Pessoas de 14 anos ou mais de idade, ocupadas na semana de referência, por grupos de horas habitualmente trabalhadas por semana no trabalho principal"
6326,"Pessoas de 14 anos ou mais de idade, ocupadas na semana de referência, por grupos de horas efetivamente trabalhadas na semana de referência no trabalho principal"
6327,"Pessoas de 14 anos ou mais de idade, ocupadas na semana de referência, por grupos de horas habitualmente trabalhadas por semana em todos os trabalhos"
6328,"Pessoas de 14 anos ou mais de idade, ocupadas na semana de referência, por grupos de horas efetivamente trabalhadas na semana de referência em todos os trabalhos"
6371,"Média de horas habitualmente trabalhadas por semana e efetivamente trabalhadas na semana de referência, no trabalho principal e em todos os trabalhos, das pessoas de 14 anos ou mais de idade, por sexo"
6372,"Média de horas habitualmente trabalhadas por semana e efetivamente trabalhadas na semana de referência, no trabalho principal e em todos os trabalhos, das pessoas de 14 anos ou mais de idade, por grupos de idade"
6373,"Média de horas habitualmente trabalhadas por semana e efetivamente trabalhadas na semana de referência, no trabalho principal e em todos os trabalhos, das pessoas de 14 anos ou mais de idade, por níveis de instrução"
6374,"Média de horas habitualmente trabalhadas por semana e efetivamente trabalhadas na semana de referência, no trabalho principal, das pessoas de 14 anos ou mais de idade, por posição na ocupação"
6382,"Pessoas de 14 anos ou mais de idade, ocupadas na semana de referência como militares ou empregados do setor público no trabalho principal, por área do emprego"
6383,"Pessoas de 14 anos ou mais de idade, ocupadas na semana de referência como trabalhadores domésticos no trabalho principal, por número de domicílios em que trabalhavam"
6384,"Pessoas de 14 anos ou mais de idade, ocupadas na semana de referência como empregados (exclusive trabalhadores domésticos) no trabalho principal, por tipo de contratação"
6385,"Pessoas de 14 anos ou mais de idade, ocupadas na semana de referência, por tempo de permanência no trabalho principal"
6386,"Pessoas de 14 anos ou mais de idade, ocupadas na semana de referência, por número de trabalhos"
6396,"Taxas de desocupação e de subutilização da força de trabalho, na semana de referência, das pessoas de 14 anos ou mais de idade, por sexo"
6397,"Taxas de desocupação e de subutilização da força de trabalho, na semana de referência, das pessoas de 14 anos ou mais de idade, por grupos de idade"
6398,"Pessoas de 14 anos ou mais de idade, por tipo de medida de subutilização da força de trabalho na semana de referência e sexo"
6399,"Pessoas de 14 anos ou mais de idade, por tipo de medida de subutilização da força de trabalho na semana de referência e grupos de idade"
6400,"Pessoas de 14 anos ou mais de idade, ocupadas na semana de referência como empregadores ou conta própria no trabalho principal, que tinham empreendimento registrado no Cadastro Nacional de Pessoa Jurídica - CNPJ, segundo os grupamentos de atividade no trabalho principal"
6401,"Pessoas de 14 anos ou mais de idade, ocupadas na semana de referência, como empregadores ou conta própria no trabalho principal, que tinham empreendimento registrado no Cadastro Nacional da Pessoa Jurídica - CNPJ, segundo a posição na ocupação no trabalho principal"
6402,"Pessoas de 14 anos ou mais de idade, total, na força de trabalho, ocupadas, desocupadas, fora da força de trabalho, e respectivas taxas e níveis, por cor ou raça"
6403,"População, por cor ou raça"
6406,"Média de horas habitualmente trabalhadas por semana e efetivamente trabalhadas na semana de referência, no trabalho principal e em todos os trabalhos, das pessoas de 14 anos ou mais de idade, por cor ou raça"
6459,"Pessoas de 14 anos ou mais de idade, ocupadas na semana de referência - Total, coeficiente de variação, variações percentuais e absolutas em relação ao trimestre anterior e ao mesmo trimestre do ano anterior, e média anual - por contribuição para instituto de previdência em qualquer trabalho"
6460,"Percentual de pessoas contribuintes de instituto de previdência em qualquer trabalho, na população de 14 anos ou mais de idade, ocupada na semana de referência - Total, coeficiente de variação, variações em relação ao trimestre anterior e ao mesmo trimestre do ano anterior, e média anual"
6461,"Taxa de participação na força de trabalho, na semana de referência, das pessoas de 14 anos ou mais de idade - Total, coeficiente de variação, variações em relação ao trimestre anterior e ao mesmo trimestre do ano anterior, e média anual"
6462,"População - Total, coeficiente de variação, variações percentuais e absolutas em relação ao trimestre anterior e ao mesmo trimestre do ano anterior, e média anual"
6463,"Pessoas de 14 anos ou mais de idade - Total, coeficiente de variação, variações percentuais e absolutas em relação ao trimestre anterior e ao mesmo trimestre do ano anterior, e média anual, por condição em relação à força de trabalho e condição de ocupação"
6464,"Pessoas de 14 anos ou mais de idade, ocupadas na semana de referência - Total, coeficiente de variação, variações percentuais e absolutas em relação ao trimestre anterior e ao mesmo trimestre do ano anterior, e média anual - por posição na ocupação e categoria do emprego no trabalho principal"
6465,"Pessoas de 14 anos ou mais de idade, ocupadas na semana de referência - Total, coeficiente de variação, variações percentuais e absolutas em relação ao trimestre anterior e ao mesmo trimestre do ano anterior, e média anual - por grupamentos de atividade no trabalho principal"
6466,"Nível da ocupação, na semana de referência, das pessoas de 14 anos ou mais de idade - Total, coeficiente de variação, variações em relação ao trimestre anterior e ao mesmo trimestre do ano anterior, e média anual"
6467,"Nível da desocupação, na semana de referência, das pessoas de 14 anos ou mais de idade - Total, coeficiente de variação, variações em relação ao trimestre anterior e ao mesmo trimestre do ano anterior, e média anual"
6468,"Taxa de desocupação, na semana de referência, das pessoas de 14 anos ou mais de idade - Total, coeficiente de variação, variações em relação ao trimestre anterior e ao mesmo trimestre do ano anterior, e média anual"
6478,"Pessoas de 14 anos ou mais de idade, ocupadas na semana de referência, como empregadores ou conta própria no trabalho principal, que tinham empreendimento registrado no Cadastro Nacional de Pessoa Jurídica - CNPJ - Total, coeficiente de variação, variações percentuais e absolutas em relação ao trimestre anterior e ao mesmo trimestre do ano anterior, e média anual - por posição na ocupação no trabalho principal (série encerrada)"
6479,"Pessoas de 14 anos ou mais de idade, ocupadas na semana de referência, como empregadores ou conta própria no trabalho principal, que tinham empreendimento registrado no Cadastro Nacional de Pessoa Jurídica - CNPJ - Total, coeficiente de variação, variações percentuais e absolutas em relação ao trimestre anterior e ao mesmo trimestre do ano anterior, e média anual - por grupamentos de atividade no trabalho principal"
6480,"Pessoas de 14 anos ou mais de idade, ocupadas na semana de referência - Total, coeficiente de variação, variações percentuais e absolutas em relação ao trimestre anterior e ao mesmo trimestre do ano anterior, e média anual - por grupos de horas habitualmente trabalhadas por semana no trabalho principal"
6481,"Pessoas de 14 anos ou mais de idade, ocupadas na semana de referência - Total, coeficiente de variação, variações percentuais e absolutas em relação ao trimestre anterior e ao mesmo trimestre do ano anterior, e média anual - por grupos de horas habitualmente trabalhadas por semana em todos os trabalhos"
6482,"Pessoas de 14 anos ou mais de idade - Total, coeficiente de variação, variações percentuais e absolutas em relação ao trimestre anterior e ao mesmo trimestre do ano anterior, e média anual - por tipo de medida de subutilização da força de trabalho na semana de referência"
6483,"Taxa combinada de desocupação e de subocupação por insuficiência de horas trabalhadas - Total, coeficiente de variação, variações em relação ao trimestre anterior e ao mesmo trimestre do ano anterior, e média anual"
6484,"Taxa combinada da desocupação e da força de trabalho potencial - Total, coeficiente de variação, variações em relação ao trimestre anterior e ao mesmo trimestre do ano anterior, e média anual"
6485,"Taxa composta da subutilização da força de trabalho - Total, coeficiente de variação, variações em relação ao trimestre anterior e ao mesmo trimestre do ano anterior, e média anual"
6808,"Taxa de subocupação por insuficiência de horas trabalhadas - Total, coeficiente de variação, variações em relação ao trimestre anterior e ao mesmo trimestre do ano anterior, e média anual"
6809,"Percentual de pessoas na força de trabalho potencial na população fora da força de trabalho - Total, coeficiente de variação, variações em relação ao trimestre anterior e ao mesmo trimestre do ano anterior, e média anual"
6810,"Percentual de pessoas desalentadas na população na força de trabalho ampliada - Total, coeficiente de variação, variações em relação ao trimestre anterior e ao mesmo trimestre do ano anterior, e média anual"
6811,"Percentual de pessoas desalentadas na população na força de trabalho potencial - Total, coeficiente de variação, variações em relação ao trimestre anterior e ao mesmo trimestre do ano anterior, e média anual"
6812,"Percentual de pessoas desalentadas na população fora da força de trabalho - Total, coeficiente de variação, variações em relação ao trimestre anterior e ao mesmo trimestre do ano anterior, e média anual"
6813,"Percentual de pessoas desalentadas na população na força de trabalho ou desalentada - Total, coeficiente de variação, variações em relação ao trimestre anterior e ao mesmo trimestre do ano anterior, e média anual"
