NC,NN,D1C,D1N,D2C,D2N,D3C,D3N,D4C,D4N,D5C,D5N,D6C,D6N,MC,MN,V
Nível Territorial (Código),Nível Territorial,Unidade da Federação (Código),Unidade da Federação,Ano (Código),Ano,Variável (Código),Variável,Situação do domicílio (Código),Situação do domicílio,Condição na família (Código),Condição na família,Número de componentes da família (Código),Número de componentes da família,Unidade de Medida (Código),Unidade de Medida,Valor
3,Unidade da Federação,11,Rondônia,2000,2000,134,Pessoas residentes em domicílios particulares,0,Total,0,Total,0,Total,45,Pessoas,1377793
3,Unidade da Federação,11,Rondônia,2000,2000,1000134,Pessoas residentes em domicílios particulares - percentual do total geral,0,Total,0,Total,0,Total,2,Percentual,100.00
3,Unidade da Federação,12,Acre,2000,2000,134,Pessoas residentes em domicílios particulares,0,Total,0,Total,0,Total,45,Pessoas,556700
3,Unidade da Federação,12,Acre,2000,2000,1000134,Pessoas residentes em domicílios particulares - percentual do total geral,0,Total,0,Total,0,Total,2,Percentual,100.00
3,Unidade da Federação,13,Amazonas,2000,2000,134,Pessoas residentes em domicílios particulares,0,Total,0,Total,0,Total,45,Pessoas,2810295
3,Unidade da Federação,13,Amazonas,2000,2000,1000134,Pessoas residentes em domicílios particulares - percentual do total geral,0,Total,0,Total,0,Total,2,Percentual,100.00
3,Unidade da Federação,14,Roraima,2000,2000,134,Pessoas residentes em domicílios particulares,0,Total,0,Total,0,Total,45,Pessoas,321279
3,Unidade da Federação,14,Roraima,2000,2000,1000134,Pessoas residentes em domicílios particulares - percentual do total geral,0,Total,0,Total,0,Total,2,Percentual,100.00
3,Unidade da Federação,15,Pará,2000,2000,134,Pessoas residentes em domicílios particulares,0,Total,0,Total,0,Total,45,Pessoas,6183521
3,Unidade da Federação,15,Pará,2000,2000,1000134,Pessoas residentes em domicílios particulares - percentual do total geral,0,Total,0,Total,0,Total,2,Percentual,100.00
3,Unidade da Federação,16,Amapá,2000,2000,134,Pessoas residentes em domicílios particulares,0,Total,0,Total,0,Total,45,Pessoas,475510
3,Unidade da Federação,16,Amapá,2000,2000,1000134,Pessoas residentes em domicílios particulares - percentual do total geral,0,Total,0,Total,0,Total,2,Percentual,100.00
3,Unidade da Federação,17,Tocantins,2000,2000,134,Pessoas residentes em domicílios particulares,0,Total,0,Total,0,Total,45,Pessoas,1154002
3,Unidade da Federação,17,Tocantins,2000,2000,1000134,Pessoas residentes em domicílios particulares - percentual do total geral,0,Total,0,Total,0,Total,2,Percentual,100.00
3,Unidade da Federação,21,Maranhão,2000,2000,134,Pessoas residentes em domicílios particulares,0,Total,0,Total,0,Total,45,Pessoas,5651578
3,Unidade da Federação,21,Maranhão,2000,2000,1000134,Pessoas residentes em domicílios particulares - percentual do total geral,0,Total,0,Total,0,Total,2,Percentual,100.00
3,Unidade da Federação,22,Piauí,2000,2000,134,Pessoas residentes em domicílios particulares,0,Total,0,Total,0,Total,45,Pessoas,2839285
3,Unidade da Federação,22,Piauí,2000,2000,1000134,Pessoas residentes em domicílios particulares - percentual do total geral,0,Total,0,Total,0,Total,2,Percentual,100.00
3,Unidade da Federação,23,Ceará,2000,2000,134,Pessoas residentes em domicílios particulares,0,Total,0,Total,0,Total,45,Pessoas,7419750
3,Unidade da Federação,23,Ceará,2000,2000,1000134,Pessoas residentes em domicílios particulares - percentual do total geral,0,Total,0,Total,0,Total,2,Percentual,100.00
3,Unidade da Federação,24,Rio Grande do Norte,2000,2000,134,Pessoas residentes em domicílios particulares,0,Total,0,Total,0,Total,45,Pessoas,2772727
3,Unidade da Federação,24,Rio Grande do Norte,2000,2000,1000134,Pessoas residentes em domicílios particulares - percentual do total geral,0,Total,0,Total,0,Total,2,Percentual,100.00
3,Unidade da Federação,25,Paraíba,2000,2000,134,Pessoas residentes em domicílios particulares,0,Total,0,Total,0,Total,45,Pessoas,3438347
3,Unidade da Federação,25,Paraíba,2000,2000,1000134,Pessoas residentes em domicílios particulares - percentual do total geral,0,Total,0,Total,0,Total,2,Percentual,100.00
3,Unidade da Federação,26,Pernambuco,2000,2000,134,Pessoas residentes em domicílios particulares,0,Total,0,Total,0,Total,45,Pessoas,7909604
3,Unidade da Federação,26,Pernambuco,2000,2000,1000134,Pessoas residentes em domicílios particulares - percentual do total geral,0,Total,0,Total,0,Total,2,Percentual,100.00
3,Unidade da Federação,27,Alagoas,2000,2000,134,Pessoas residentes em domicílios particulares,0,Total,0,Total,0,Total,45,Pessoas,2823327
3,Unidade da Federação,27,Alagoas,2000,2000,1000134,Pessoas residentes em domicílios particulares - percentual do total geral,0,Total,0,Total,0,Total,2,Percentual,100.00
3,Unidade da Federação,28,Sergipe,2000,2000,134,Pessoas residentes em domicílios particulares,0,Total,0,Total,0,Total,45,Pessoas,1781768
3,Unidade da Federação,28,Sergipe,2000,2000,1000134,Pessoas residentes em domicílios particulares - percentual do total geral,0,Total,0,Total,0,Total,2,Percentual,100.00
3,Unidade da Federação,29,Bahia,2000,2000,134,Pessoas residentes em domicílios particulares,0,Total,0,Total,0,Total,45,Pessoas,13055963
3,Unidade da Federação,29,Bahia,2000,2000,1000134,Pessoas residentes em domicílios particulares - percentual do total geral,0,Total,0,Total,0,Total,2,Percentual,100.00
3,Unidade da Federação,31,Minas Gerais,2000,2000,134,Pessoas residentes em domicílios particulares,0,Total,0,Total,0,Total,45,Pessoas,17842278
3,Unidade da Federação,31,Minas Gerais,2000,2000,1000134,Pessoas residentes em domicílios particulares - percentual do total geral,0,Total,0,Total,0,Total,2,Percentual,100.00
3,Unidade da Federação,32,Espírito Santo,2000,2000,134,Pessoas residentes em domicílios particulares,0,Total,0,Total,0,Total,45,Pessoas,3090207
3,Unidade da Federação,32,Espírito Santo,2000,2000,1000134,Pessoas residentes em domicílios particulares - percentual do total geral,0,Total,0,Total,0,Total,2,Percentual,100.00
3,Unidade da Federação,33,Rio de Janeiro,2000,2000,134,Pessoas residentes em domicílios particulares,0,Total,0,Total,0,Total,45,Pessoas,14335394
3,Unidade da Federação,33,Rio de Janeiro,2000,2000,1000134,Pessoas residentes em domicílios particulares - percentual do total geral,0,Total,0,Total,0,Total,2,Percentual,100.00
3,Unidade da Federação,35,São Paulo,2000,2000,134,Pessoas residentes em domicílios particulares,0,Total,0,Total,0,Total,45,Pessoas,36845346
3,Unidade da Federação,35,São Paulo,2000,2000,1000134,Pessoas residentes em domicílios particulares - percentual do total geral,0,Total,0,Total,0,Total,2,Percentual,100.00
3,Unidade da Federação,41,Paraná,2000,2000,134,Pessoas residentes em domicílios particulares,0,Total,0,Total,0,Total,45,Pessoas,9530071
3,Unidade da Federação,41,Paraná,2000,2000,1000134,Pessoas residentes em domicílios particulares - percentual do total geral,0,Total,0,Total,0,Total,2,Percentual,100.00
3,Unidade da Federação,42,Santa Catarina,2000,2000,134,Pessoas residentes em domicílios particulares,0,Total,0,Total,0,Total,45,Pessoas,5341289
3,Unidade da Federação,42,Santa Catarina,2000,2000,1000134,Pessoas residentes em domicílios particulares - percentual do total geral,0,Total,0,Total,0,Total,2,Percentual,100.00
3,Unidade da Federação,43,Rio Grande do Sul,2000,2000,134,Pessoas residentes em domicílios particulares,0,Total,0,Total,0,Total,45,Pessoas,10141801
3,Unidade da Federação,43,Rio Grande do Sul,2000,2000,1000134,Pessoas residentes em domicílios particulares - percentual do total geral,0,Total,0,Total,0,Total,2,Percentual,100.00
3,Unidade da Federação,50,Mato Grosso do Sul,2000,2000,134,Pessoas residentes em domicílios particulares,0,Total,0,Total,0,Total,45,Pessoas,2068296
3,Unidade da Federação,50,Mato Grosso do Sul,2000,2000,1000134,Pessoas residentes em domicílios particulares - percentual do total geral,0,Total,0,Total,0,Total,2,Percentual,100.00
3,Unidade da Federação,51,Mato Grosso,2000,2000,134,Pessoas residentes em domicílios particulares,0,Total,0,Total,0,Total,45,Pessoas,2483718
3,Unidade da Federação,51,Mato Grosso,2000,2000,1000134,Pessoas residentes em domicílios particulares - percentual do total geral,0,Total,0,Total,0,Total,2,Percentual,100.00
3,Unidade da Federação,52,Goiás,2000,2000,134,Pessoas residentes em domicílios particulares,0,Total,0,Total,0,Total,45,Pessoas,4988616
3,Unidade da Federação,52,Goiás,2000,2000,1000134,Pessoas residentes em domicílios particulares - percentual do total geral,0,Total,0,Total,0,Total,2,Percentual,100.00
3,Unidade da Federação,53,Distrito Federal,2000,2000,134,Pessoas residentes em domicílios particulares,0,Total,0,Total,0,Total,45,Pessoas,2044097
3,Unidade da Federação,53,Distrito Federal,2000,2000,1000134,Pessoas residentes em domicílios particulares - percentual do total geral,0,Total,0,Total,0,Total,2,Percentual,100.00
