NC,NN,D1C,D1N,D2C,D2N,D3C,D3N,D4C,D4N,D5C,D5N,MC,MN,V
Nível Territorial (Código),Nível Territorial,Unidade da Federação (Código),Unidade da Federação,Ano (Código),Ano,Variável (Código),Variável,Situação do domicílio (Código),Situação do domicílio,Número de componentes da família (Código),Número de componentes da família,Unidade de Medida (Código),Unidade de Medida,Valor
3,Unidade da Federação,11,Rondônia,1991,1991,155,Famílias residentes em domicílios particulares,0,Total,0,Total,1020,Unidades,270187
3,Unidade da Federação,11,Rondônia,1991,1991,1000155,Famílias residentes em domicílios particulares - percentual do total geral,0,Total,0,Total,2,Percentual,100.00
3,Unidade da Federação,11,Rondônia,2000,2000,155,Famílias residentes em domicílios particulares,0,Total,0,Total,1020,Unidades,373500
3,Unidade da Federação,11,Rondônia,2000,2000,1000155,Famílias residentes em domicílios particulares - percentual do total geral,0,Total,0,Total,2,Percentual,100.00
3,Unidade da Federação,12,Acre,1991,1991,155,Famílias residentes em domicílios particulares,0,Total,0,Total,1020,Unidades,95364
3,Unidade da Federação,12,Acre,1991,1991,1000155,Famílias residentes em domicílios particulares - percentual do total geral,0,Total,0,Total,2,Percentual,100.00
3,Unidade da Federação,12,Acre,2000,2000,155,Famílias residentes em domicílios particulares,0,Total,0,Total,1020,Unidades,141519
3,Unidade da Federação,12,Acre,2000,2000,1000155,Famílias residentes em domicílios particulares - percentual do total geral,0,Total,0,Total,2,Percentual,100.00
3,Unidade da Federação,13,Amazonas,1991,1991,155,Famílias residentes em domicílios particulares,0,Total,0,Total,1020,Unidades,445554
3,Unidade da Federação,13,Amazonas,1991,1991,1000155,Famílias residentes em domicílios particulares - percentual do total geral,0,Total,0,Total,2,Percentual,100.00
3,Unidade da Federação,13,Amazonas,2000,2000,155,Famílias residentes em domicílios particulares,0,Total,0,Total,1020,Unidades,667291
3,Unidade da Federação,13,Amazonas,2000,2000,1000155,Famílias residentes em domicílios particulares - percentual do total geral,0,Total,0,Total,2,Percentual,100.00
3,Unidade da Federação,14,Roraima,1991,1991,155,Famílias residentes em domicílios particulares,0,Total,0,Total,1020,Unidades,55115
3,Unidade da Federação,14,Roraima,1991,1991,1000155,Famílias residentes em domicílios particulares - percentual do total geral,0,Total,0,Total,2,Percentual,100.00
3,Unidade da Federação,14,Roraima,2000,2000,155,Famílias residentes em domicílios particulares,0,Total,0,Total,1020,Unidades,81846
3,Unidade da Federação,14,Roraima,2000,2000,1000155,Famílias residentes em domicílios particulares - percentual do total geral,0,Total,0,Total,2,Percentual,100.00
3,Unidade da Federação,15,Pará,1991,1991,155,Famílias residentes em domicílios particulares,0,Total,0,Total,1020,Unidades,1073798
3,Unidade da Federação,15,Pará,1991,1991,1000155,Famílias residentes em domicílios particulares - percentual do total geral,0,Total,0,Total,2,Percentual,100.00
3,Unidade da Federação,15,Pará,2000,2000,155,Famílias residentes em domicílios particulares,0,Total,0,Total,1020,Unidades,1514366
3,Unidade da Federação,15,Pará,2000,2000,1000155,Famílias residentes em domicílios particulares - percentual do total geral,0,Total,0,Total,2,Percentual,100.00
3,Unidade da Federação,16,Amapá,1991,1991,155,Famílias residentes em domicílios particulares,0,Total,0,Total,1020,Unidades,60835
3,Unidade da Federação,16,Amapá,1991,1991,1000155,Famílias residentes em domicílios particulares - percentual do total geral,0,Total,0,Total,2,Percentual,100.00
3,Unidade da Federação,16,Amapá,2000,2000,155,Famílias residentes em domicílios particulares,0,Total,0,Total,1020,Unidades,113869
3,Unidade da Federação,16,Amapá,2000,2000,1000155,Famílias residentes em domicílios particulares - percentual do total geral,0,Total,0,Total,2,Percentual,100.00
3,Unidade da Federação,17,Tocantins,1991,1991,155,Famílias residentes em domicílios particulares,0,Total,0,Total,1020,Unidades,204866
3,Unidade da Federação,17,Tocantins,1991,1991,1000155,Famílias residentes em domicílios particulares - percentual do total geral,0,Total,0,Total,2,Percentual,100.00
3,Unidade da Federação,17,Tocantins,2000,2000,155,Famílias residentes em domicílios particulares,0,Total,0,Total,1020,Unidades,301899
3,Unidade da Federação,17,Tocantins,2000,2000,1000155,Famílias residentes em domicílios particulares - percentual do total geral,0,Total,0,Total,2,Percentual,100.00
3,Unidade da Federação,21,Maranhão,1991,1991,155,Famílias residentes em domicílios particulares,0,Total,0,Total,1020,Unidades,1071059
3,Unidade da Federação,21,Maranhão,1991,1991,1000155,Famílias residentes em domicílios particulares - percentual do total geral,0,Total,0,Total,2,Percentual,100.00
3,Unidade da Federação,21,Maranhão,2000,2000,155,Famílias residentes em domicílios particulares,0,Total,0,Total,1020,Unidades,1378013
3,Unidade da Federação,21,Maranhão,2000,2000,1000155,Famílias residentes em domicílios particulares - percentual do total geral,0,Total,0,Total,2,Percentual,100.00
3,Unidade da Federação,22,Piauí,1991,1991,155,Famílias residentes em domicílios particulares,0,Total,0,Total,1020,Unidades,565492
3,Unidade da Federação,22,Piauí,1991,1991,1000155,Famílias residentes em domicílios particulares - percentual do total geral,0,Total,0,Total,2,Percentual,100.00
3,Unidade da Federação,22,Piauí,2000,2000,155,Famílias residentes em domicílios particulares,0,Total,0,Total,1020,Unidades,727338
3,Unidade da Federação,22,Piauí,2000,2000,1000155,Famílias residentes em domicílios particulares - percentual do total geral,0,Total,0,Total,2,Percentual,100.00
3,Unidade da Federação,23,Ceará,1991,1991,155,Famílias residentes em domicílios particulares,0,Total,0,Total,1020,Unidades,1476233
3,Unidade da Federação,23,Ceará,1991,1991,1000155,Famílias residentes em domicílios particulares - percentual do total geral,0,Total,0,Total,2,Percentual,100.00
3,Unidade da Federação,23,Ceará,2000,2000,155,Famílias residentes em domicílios particulares,0,Total,0,Total,1020,Unidades,1926716
3,Unidade da Federação,23,Ceará,2000,2000,1000155,Famílias residentes em domicílios particulares - percentual do total geral,0,Total,0,Total,2,Percentual,100.00
3,Unidade da Federação,24,Rio Grande do Norte,1991,1991,155,Famílias residentes em domicílios particulares,0,Total,0,Total,1020,Unidades,578594
3,Unidade da Federação,24,Rio Grande do Norte,1991,1991,1000155,Famílias residentes em domicílios particulares - percentual do total geral,0,Total,0,Total,2,Percentual,100.00
3,Unidade da Federação,24,Rio Grande do Norte,2000,2000,155,Famílias residentes em domicílios particulares,0,Total,0,Total,1020,Unidades,748367
3,Unidade da Federação,24,Rio Grande do Norte,2000,2000,1000155,Famílias residentes em domicílios particulares - percentual do total geral,0,Total,0,Total,2,Percentual,100.00
3,Unidade da Federação,25,Paraíba,1991,1991,155,Famílias residentes em domicílios particulares,0,Total,0,Total,1020,Unidades,756620
3,Unidade da Federação,25,Paraíba,1991,1991,1000155,Famílias residentes em domicílios particulares - percentual do total geral,0,Total,0,Total,2,Percentual,100.00
3,Unidade da Federação,25,Paraíba,2000,2000,155,Famílias residentes em domicílios particulares,0,Total,0,Total,1020,Unidades,931892
3,Unidade da Federação,25,Paraíba,2000,2000,1000155,Famílias residentes em domicílios particulares - percentual do total geral,0,Total,0,Total,2,Percentual,100.00
3,Unidade da Federação,26,Pernambuco,1991,1991,155,Famílias residentes em domicílios particulares,0,Total,0,Total,1020,Unidades,1734906
3,Unidade da Federação,26,Pernambuco,1991,1991,1000155,Famílias residentes em domicílios particulares - percentual do total geral,0,Total,0,Total,2,Percentual,100.00
3,Unidade da Federação,26,Pernambuco,2000,2000,155,Famílias residentes em domicílios particulares,0,Total,0,Total,1020,Unidades,2161704
3,Unidade da Federação,26,Pernambuco,2000,2000,1000155,Famílias residentes em domicílios particulares - percentual do total geral,0,Total,0,Total,2,Percentual,100.00
3,Unidade da Federação,27,Alagoas,1991,1991,155,Famílias residentes em domicílios particulares,0,Total,0,Total,1020,Unidades,575005
3,Unidade da Federação,27,Alagoas,1991,1991,1000155,Famílias residentes em domicílios particulares - percentual do total geral,0,Total,0,Total,2,Percentual,100.00
3,Unidade da Federação,27,Alagoas,2000,2000,155,Famílias residentes em domicílios particulares,0,Total,0,Total,1020,Unidades,721412
3,Unidade da Federação,27,Alagoas,2000,2000,1000155,Famílias residentes em domicílios particulares - percentual do total geral,0,Total,0,Total,2,Percentual,100.00
3,Unidade da Federação,28,Sergipe,1991,1991,155,Famílias residentes em domicílios particulares,0,Total,0,Total,1020,Unidades,352459
3,Unidade da Federação,28,Sergipe,1991,1991,1000155,Famílias residentes em domicílios particulares - percentual do total geral,0,Total,0,Total,2,Percentual,100.00
3,Unidade da Federação,28,Sergipe,2000,2000,155,Famílias residentes em domicílios particulares,0,Total,0,Total,1020,Unidades,478789
3,Unidade da Federação,28,Sergipe,2000,2000,1000155,Famílias residentes em domicílios particulares - percentual do total geral,0,Total,0,Total,2,Percentual,100.00
3,Unidade da Federação,29,Bahia,1991,1991,155,Famílias residentes em domicílios particulares,0,Total,0,Total,1020,Unidades,2706465
3,Unidade da Federação,29,Bahia,1991,1991,1000155,Famílias residentes em domicílios particulares - percentual do total geral,0,Total,0,Total,2,Percentual,100.00
3,Unidade da Federação,29,Bahia,2000,2000,155,Famílias residentes em domicílios particulares,0,Total,0,Total,1020,Unidades,3489232
3,Unidade da Federação,29,Bahia,2000,2000,1000155,Famílias residentes em domicílios particulares - percentual do total geral,0,Total,0,Total,2,Percentual,100.00
3,Unidade da Federação,31,Minas Gerais,1991,1991,155,Famílias residentes em domicílios particulares,0,Total,0,Total,1020,Unidades,3978603
3,Unidade da Federação,31,Minas Gerais,1991,1991,1000155,Famílias residentes em domicílios particulares - percentual do total geral,0,Total,0,Total,2,Percentual,100.00
3,Unidade da Federação,31,Minas Gerais,2000,2000,155,Famílias residentes em domicílios particulares,0,Total,0,Total,1020,Unidades,5095070
3,Unidade da Federação,31,Minas Gerais,2000,2000,1000155,Famílias residentes em domicílios particulares - percentual do total geral,0,Total,0,Total,2,Percentual,100.00
3,Unidade da Federação,32,Espírito Santo,1991,1991,155,Famílias residentes em domicílios particulares,0,Total,0,Total,1020,Unidades,663296
3,Unidade da Federação,32,Espírito Santo,1991,1991,1000155,Famílias residentes em domicílios particulares - percentual do total geral,0,Total,0,Total,2,Percentual,100.00
3,Unidade da Federação,32,Espírito Santo,2000,2000,155,Famílias residentes em domicílios particulares,0,Total,0,Total,1020,Unidades,896458
3,Unidade da Federação,32,Espírito Santo,2000,2000,1000155,Famílias residentes em domicílios particulares - percentual do total geral,0,Total,0,Total,2,Percentual,100.00
3,Unidade da Federação,33,Rio de Janeiro,1991,1991,155,Famílias residentes em domicílios particulares,0,Total,0,Total,1020,Unidades,3716627
3,Unidade da Federação,33,Rio de Janeiro,1991,1991,1000155,Famílias residentes em domicílios particulares - percentual do total geral,0,Total,0,Total,2,Percentual,100.00
3,Unidade da Federação,33,Rio de Janeiro,2000,2000,155,Famílias residentes em domicílios particulares,0,Total,0,Total,1020,Unidades,4534512
3,Unidade da Federação,33,Rio de Janeiro,2000,2000,1000155,Famílias residentes em domicílios particulares - percentual do total geral,0,Total,0,Total,2,Percentual,100.00
3,Unidade da Federação,35,São Paulo,1991,1991,155,Famílias residentes em domicílios particulares,0,Total,0,Total,1020,Unidades,8590098
3,Unidade da Federação,35,São Paulo,1991,1991,1000155,Famílias residentes em domicílios particulares - percentual do total geral,0,Total,0,Total,2,Percentual,100.00
3,Unidade da Federação,35,São Paulo,2000,2000,155,Famílias residentes em domicílios particulares,0,Total,0,Total,1020,Unidades,10960515
3,Unidade da Federação,35,São Paulo,2000,2000,1000155,Famílias residentes em domicílios particulares - percentual do total geral,0,Total,0,Total,2,Percentual,100.00
3,Unidade da Federação,41,Paraná,1991,1991,155,Famílias residentes em domicílios particulares,0,Total,0,Total,1020,Unidades,2229872
3,Unidade da Federação,41,Paraná,1991,1991,1000155,Famílias residentes em domicílios particulares - percentual do total geral,0,Total,0,Total,2,Percentual,100.00
3,Unidade da Federação,41,Paraná,2000,2000,155,Famílias residentes em domicílios particulares,0,Total,0,Total,1020,Unidades,2824383
3,Unidade da Federação,41,Paraná,2000,2000,1000155,Famílias residentes em domicílios particulares - percentual do total geral,0,Total,0,Total,2,Percentual,100.00
3,Unidade da Federação,42,Santa Catarina,1991,1991,155,Famílias residentes em domicílios particulares,0,Total,0,Total,1020,Unidades,1208638
3,Unidade da Federação,42,Santa Catarina,1991,1991,1000155,Famílias residentes em domicílios particulares - percentual do total geral,0,Total,0,Total,2,Percentual,100.00
3,Unidade da Federação,42,Santa Catarina,2000,2000,155,Famílias residentes em domicílios particulares,0,Total,0,Total,1020,Unidades,1587538
3,Unidade da Federação,42,Santa Catarina,2000,2000,1000155,Famílias residentes em domicílios particulares - percentual do total geral,0,Total,0,Total,2,Percentual,100.00
3,Unidade da Federação,43,Rio Grande do Sul,1991,1991,155,Famílias residentes em domicílios particulares,0,Total,0,Total,1020,Unidades,2664129
3,Unidade da Federação,43,Rio Grande do Sul,1991,1991,1000155,Famílias residentes em domicílios particulares - percentual do total geral,0,Total,0,Total,2,Percentual,100.00
3,Unidade da Federação,43,Rio Grande do Sul,2000,2000,155,Famílias residentes em domicílios particulares,0,Total,0,Total,1020,Unidades,3226908
3,Unidade da Federação,43,Rio Grande do Sul,2000,2000,1000155,Famílias residentes em domicílios particulares - percentual do total geral,0,Total,0,Total,2,Percentual,100.00
3,Unidade da Federação,50,Mato Grosso do Sul,1991,1991,155,Famílias residentes em domicílios particulares,0,Total,0,Total,1020,Unidades,466534
3,Unidade da Federação,50,Mato Grosso do Sul,1991,1991,1000155,Famílias residentes em domicílios particulares - percentual do total geral,0,Total,0,Total,2,Percentual,100.00
3,Unidade da Federação,50,Mato Grosso do Sul,2000,2000,155,Famílias residentes em domicílios particulares,0,Total,0,Total,1020,Unidades,609257
3,Unidade da Federação,50,Mato Grosso do Sul,2000,2000,1000155,Famílias residentes em domicílios particulares - percentual do total geral,0,Total,0,Total,2,Percentual,100.00
3,Unidade da Federação,51,Mato Grosso,1991,1991,155,Famílias residentes em domicílios particulares,0,Total,0,Total,1020,Unidades,495445
3,Unidade da Federação,51,Mato Grosso,1991,1991,1000155,Famílias residentes em domicílios particulares - percentual do total geral,0,Total,0,Total,2,Percentual,100.00
3,Unidade da Federação,51,Mato Grosso,2000,2000,155,Famílias residentes em domicílios particulares,0,Total,0,Total,1020,Unidades,698349
3,Unidade da Federação,51,Mato Grosso,2000,2000,1000155,Famílias residentes em domicílios particulares - percentual do total geral,0,Total,0,Total,2,Percentual,100.00
3,Unidade da Federação,52,Goiás,1991,1991,155,Famílias residentes em domicílios particulares,0,Total,0,Total,1020,Unidades,1055776
3,Unidade da Federação,52,Goiás,1991,1991,1000155,Famílias residentes em domicílios particulares - percentual do total geral,0,Total,0,Total,2,Percentual,100.00
3,Unidade da Federação,52,Goiás,2000,2000,155,Famílias residentes em domicílios particulares,0,Total,0,Total,1020,Unidades,1481341
3,Unidade da Federação,52,Goiás,2000,2000,1000155,Famílias residentes em domicílios particulares - percentual do total geral,0,Total,0,Total,2,Percentual,100.00
3,Unidade da Federação,53,Distrito Federal,1991,1991,155,Famílias residentes em domicílios particulares,0,Total,0,Total,1020,Unidades,410949
3,Unidade da Federação,53,Distrito Federal,1991,1991,1000155,Famílias residentes em domicílios particulares - percentual do total geral,0,Total,0,Total,2,Percentual,100.00
3,Unidade da Federação,53,Distrito Federal,2000,2000,155,Famílias residentes em domicílios particulares,0,Total,0,Total,1020,Unidades,590701
3,Unidade da Federação,53,Distrito Federal,2000,2000,1000155,Famílias residentes em domicílios particulares - percentual do total geral,0,Total,0,Total,2,Percentual,100.00
