NC,NN,D1C,D1N,D2C,D2N,D3C,D3N,D4C,D4N,D5C,D5N,D6C,D6N,D7C,D7N,MC,MN,V
Nível Territorial (Código),Nível Territorial,Unidade da Federação (Código),Unidade da Federação,Ano (Código),Ano,Variável (Código),Variável,Nível de instrução da pessoa responsável pela família (Código),Nível de instrução da pessoa responsável pela família,Sexo da pessoa responsável pela família (Código),Sexo da pessoa responsável pela família,Número de componentes da família (Código),Número de componentes da família,Grupos de idade da pessoa responsável pela família (Código),Grupos de idade da pessoa responsável pela família,Unidade de Medida (Código),Unidade de Medida,Valor
3,Unidade da Federação,11,Rondônia,2010,2010,1677,Famílias únicas e conviventes principais residentes em domicílios particulares,0,Total,0,Total,0,Total,0,Total,1020,Unidades,405465
3,Unidade da Federação,11,Rondônia,2010,2010,1001677,Famílias únicas e conviventes principais residentes em domicílios particulares - percentual do total geral,0,Total,0,Total,0,Total,0,Total,2,Percentual,100.00
3,Unidade da Federação,12,Acre,2010,2010,1677,Famílias únicas e conviventes principais residentes em domicílios particulares,0,Total,0,Total,0,Total,0,Total,1020,Unidades,168961
3,Unidade da Federação,12,Acre,2010,2010,1001677,Famílias únicas e conviventes principais residentes em domicílios particulares - percentual do total geral,0,Total,0,Total,0,Total,0,Total,2,Percentual,100.00
3,Unidade da Federação,13,Amazonas,2010,2010,1677,Famílias únicas e conviventes principais residentes em domicílios particulares,0,Total,0,Total,0,Total,0,Total,1020,Unidades,711769
3,Unidade da Federação,13,Amazonas,2010,2010,1001677,Famílias únicas e conviventes principais residentes em domicílios particulares - percentual do total geral,0,Total,0,Total,0,Total,0,Total,2,Percentual,100.00
3,Unidade da Federação,14,Roraima,2010,2010,1677,Famílias únicas e conviventes principais residentes em domicílios particulares,0,Total,0,Total,0,Total,0,Total,1020,Unidades,92457
3,Unidade da Federação,14,Roraima,2010,2010,1001677,Famílias únicas e conviventes principais residentes em domicílios particulares - percentual do total geral,0,Total,0,Total,0,Total,0,Total,2,Percentual,100.00
3,Unidade da Federação,15,Pará,2010,2010,1677,Famílias únicas e conviventes principais residentes em domicílios particulares,0,Total,0,Total,0,Total,0,Total,1020,Unidades,1688870
3,Unidade da Federação,15,Pará,2010,2010,1001677,Famílias únicas e conviventes principais residentes em domicílios particulares - percentual do total geral,0,Total,0,Total,0,Total,0,Total,2,Percentual,100.00
3,Unidade da Federação,16,Amapá,2010,2010,1677,Famílias únicas e conviventes principais residentes em domicílios particulares,0,Total,0,Total,0,Total,0,Total,1020,Unidades,140842
3,Unidade da Federação,16,Amapá,2010,2010,1001677,Famílias únicas e conviventes principais residentes em domicílios particulares - percentual do total geral,0,Total,0,Total,0,Total,0,Total,2,Percentual,100.00
3,Unidade da Federação,17,Tocantins,2010,2010,1677,Famílias únicas e conviventes principais residentes em domicílios particulares,0,Total,0,Total,0,Total,0,Total,1020,Unidades,343018
3,Unidade da Federação,17,Tocantins,2010,2010,1001677,Famílias únicas e conviventes principais residentes em domicílios particulares - percentual do total geral,0,Total,0,Total,0,Total,0,Total,2,Percentual,100.00
3,Unidade da Federação,21,Maranhão,2010,2010,1677,Famílias únicas e conviventes principais residentes em domicílios particulares,0,Total,0,Total,0,Total,0,Total,1020,Unidades,1508869
3,Unidade da Federação,21,Maranhão,2010,2010,1001677,Famílias únicas e conviventes principais residentes em domicílios particulares - percentual do total geral,0,Total,0,Total,0,Total,0,Total,2,Percentual,100.00
3,Unidade da Federação,22,Piauí,2010,2010,1677,Famílias únicas e conviventes principais residentes em domicílios particulares,0,Total,0,Total,0,Total,0,Total,1020,Unidades,769297
3,Unidade da Federação,22,Piauí,2010,2010,1001677,Famílias únicas e conviventes principais residentes em domicílios particulares - percentual do total geral,0,Total,0,Total,0,Total,0,Total,2,Percentual,100.00
3,Unidade da Federação,23,Ceará,2010,2010,1677,Famílias únicas e conviventes principais residentes em domicílios particulares,0,Total,0,Total,0,Total,0,Total,1020,Unidades,2129497
3,Unidade da Federação,23,Ceará,2010,2010,1001677,Famílias únicas e conviventes principais residentes em domicílios particulares - percentual do total geral,0,Total,0,Total,0,Total,0,Total,2,Percentual,100.00
3,Unidade da Federação,24,Rio Grande do Norte,2010,2010,1677,Famílias únicas e conviventes principais residentes em domicílios particulares,0,Total,0,Total,0,Total,0,Total,1020,Unidades,812126
3,Unidade da Federação,24,Rio Grande do Norte,2010,2010,1001677,Famílias únicas e conviventes principais residentes em domicílios particulares - percentual do total geral,0,Total,0,Total,0,Total,0,Total,2,Percentual,100.00
3,Unidade da Federação,25,Paraíba,2010,2010,1677,Famílias únicas e conviventes principais residentes em domicílios particulares,0,Total,0,Total,0,Total,0,Total,1020,Unidades,964857
3,Unidade da Federação,25,Paraíba,2010,2010,1001677,Famílias únicas e conviventes principais residentes em domicílios particulares - percentual do total geral,0,Total,0,Total,0,Total,0,Total,2,Percentual,100.00
3,Unidade da Federação,26,Pernambuco,2010,2010,1677,Famílias únicas e conviventes principais residentes em domicílios particulares,0,Total,0,Total,0,Total,0,Total,1020,Unidades,2252188
3,Unidade da Federação,26,Pernambuco,2010,2010,1001677,Famílias únicas e conviventes principais residentes em domicílios particulares - percentual do total geral,0,Total,0,Total,0,Total,0,Total,2,Percentual,100.00
3,Unidade da Federação,27,Alagoas,2010,2010,1677,Famílias únicas e conviventes principais residentes em domicílios particulares,0,Total,0,Total,0,Total,0,Total,1020,Unidades,761497
3,Unidade da Federação,27,Alagoas,2010,2010,1001677,Famílias únicas e conviventes principais residentes em domicílios particulares - percentual do total geral,0,Total,0,Total,0,Total,0,Total,2,Percentual,100.00
3,Unidade da Federação,28,Sergipe,2010,2010,1677,Famílias únicas e conviventes principais residentes em domicílios particulares,0,Total,0,Total,0,Total,0,Total,1020,Unidades,521293
3,Unidade da Federação,28,Sergipe,2010,2010,1001677,Famílias únicas e conviventes principais residentes em domicílios particulares - percentual do total geral,0,Total,0,Total,0,Total,0,Total,2,Percentual,100.00
3,Unidade da Federação,29,Bahia,2010,2010,1677,Famílias únicas e conviventes principais residentes em domicílios particulares,0,Total,0,Total,0,Total,0,Total,1020,Unidades,3553771
3,Unidade da Federação,29,Bahia,2010,2010,1001677,Famílias únicas e conviventes principais residentes em domicílios particulares - percentual do total geral,0,Total,0,Total,0,Total,0,Total,2,Percentual,100.00
3,Unidade da Federação,31,Minas Gerais,2010,2010,1677,Famílias únicas e conviventes principais residentes em domicílios particulares,0,Total,0,Total,0,Total,0,Total,1020,Unidades,5210489
3,Unidade da Federação,31,Minas Gerais,2010,2010,1001677,Famílias únicas e conviventes principais residentes em domicílios particulares - percentual do total geral,0,Total,0,Total,0,Total,0,Total,2,Percentual,100.00
3,Unidade da Federação,32,Espírito Santo,2010,2010,1677,Famílias únicas e conviventes principais residentes em domicílios particulares,0,Total,0,Total,0,Total,0,Total,1020,Unidades,962375
3,Unidade da Federação,32,Espírito Santo,2010,2010,1001677,Famílias únicas e conviventes principais residentes em domicílios particulares - percentual do total geral,0,Total,0,Total,0,Total,0,Total,2,Percentual,100.00
3,Unidade da Federação,33,Rio de Janeiro,2010,2010,1677,Famílias únicas e conviventes principais residentes em domicílios particulares,0,Total,0,Total,0,Total,0,Total,1020,Unidades,4399665
3,Unidade da Federação,33,Rio de Janeiro,2010,2010,1001677,Famílias únicas e conviventes principais residentes em domicílios particulares - percentual do total geral,0,Total,0,Total,0,Total,0,Total,2,Percentual,100.00
3,Unidade da Federação,35,São Paulo,2010,2010,1677,Famílias únicas e conviventes principais residentes em domicílios particulares,0,Total,0,Total,0,Total,0,Total,1020,Unidades,11171896
3,Unidade da Federação,35,São Paulo,2010,2010,1001677,Famílias únicas e conviventes principais residentes em domicílios particulares - percentual do total geral,0,Total,0,Total,0,Total,0,Total,2,Percentual,100.00
3,Unidade da Federação,41,Paraná,2010,2010,1677,Famílias únicas e conviventes principais residentes em domicílios particulares,0,Total,0,Total,0,Total,0,Total,1020,Unidades,2894243
3,Unidade da Federação,41,Paraná,2010,2010,1001677,Famílias únicas e conviventes principais residentes em domicílios particulares - percentual do total geral,0,Total,0,Total,0,Total,0,Total,2,Percentual,100.00
3,Unidade da Federação,42,Santa Catarina,2010,2010,1677,Famílias únicas e conviventes principais residentes em domicílios particulares,0,Total,0,Total,0,Total,0,Total,1020,Unidades,1750475
3,Unidade da Federação,42,Santa Catarina,2010,2010,1001677,Famílias únicas e conviventes principais residentes em domicílios particulares - percentual do total geral,0,Total,0,Total,0,Total,0,Total,2,Percentual,100.00
3,Unidade da Federação,43,Rio Grande do Sul,2010,2010,1677,Famílias únicas e conviventes principais residentes em domicílios particulares,0,Total,0,Total,0,Total,0,Total,1020,Unidades,3031775
3,Unidade da Federação,43,Rio Grande do Sul,2010,2010,1001677,Famílias únicas e conviventes principais residentes em domicílios particulares - percentual do total geral,0,Total,0,Total,0,Total,0,Total,2,Percentual,100.00
3,Unidade da Federação,50,Mato Grosso do Sul,2010,2010,1677,Famílias únicas e conviventes principais residentes em domicílios particulares,0,Total,0,Total,0,Total,0,Total,1020,Unidades,643201
3,Unidade da Federação,50,Mato Grosso do Sul,2010,2010,1001677,Famílias únicas e conviventes principais residentes em domicílios particulares - percentual do total geral,0,Total,0,Total,0,Total,0,Total,2,Percentual,100.00
3,Unidade da Federação,51,Mato Grosso,2010,2010,1677,Famílias únicas e conviventes principais residentes em domicílios particulares,0,Total,0,Total,0,Total,0,Total,1020,Unidades,788841
3,Unidade da Federação,51,Mato Grosso,2010,2010,1001677,Famílias únicas e conviventes principais residentes em domicílios particulares - percentual do total geral,0,Total,0,Total,0,Total,0,Total,2,Percentual,100.00
3,Unidade da Federação,52,Goiás,2010,2010,1677,Famílias únicas e conviventes principais residentes em domicílios particulares,0,Total,0,Total,0,Total,0,Total,1020,Unidades,1629741
3,Unidade da Federação,52,Goiás,2010,2010,1001677,Famílias únicas e conviventes principais residentes em domicílios particulares - percentual do total geral,0,Total,0,Total,0,Total,0,Total,2,Percentual,100.00
3,Unidade da Federação,53,Distrito Federal,2010,2010,1677,Famílias únicas e conviventes principais residentes em domicílios particulares,0,Total,0,Total,0,Total,0,Total,1020,Unidades,668456
3,Unidade da Federação,53,Distrito Federal,2010,2010,1001677,Famílias únicas e conviventes principais residentes em domicílios particulares - percentual do total geral,0,Total,0,Total,0,Total,0,Total,2,Percentual,100.00
