NC,NN,D1C,D1N,D2C,D2N,D3C,D3N,D4C,D4N,D5C,D5N,D6C,D6N,MC,MN,V
Nível Territorial (Código),Nível Territorial,Unidade da Federação (Código),Unidade da Federação,Ano (Código),Ano,Variável (Código),Variável,Grupos de idade da pessoa falecida (Código),Grupos de idade da pessoa falecida,Sexo da pessoa falecida (Código),Sexo da pessoa falecida,Situação do domicílio da pessoa falecida (Código),Situação do domicílio da pessoa falecida,Unidade de Medida (Código),Unidade de Medida,Valor
3,Unidade da Federação,11,Rondônia,2010,2010,2618,"Óbitos de pessoas que haviam residido com moradores dos domicílios particulares, ocorridos de agosto de 2009 a julho de 2010",0,Total,0,Total,0,Total,1020,Unidades,7022
3,Unidade da Federação,11,Rondônia,2010,2010,1002618,"Óbitos de pessoas que haviam residido com moradores dos domicílios particulares, ocorridos de agosto de 2009 a julho de 2010 - percentual do total geral",0,Total,0,Total,0,Total,2,Percentual,100.00
3,Unidade da Federação,12,Acre,2010,2010,2618,"Óbitos de pessoas que haviam residido com moradores dos domicílios particulares, ocorridos de agosto de 2009 a julho de 2010",0,Total,0,Total,0,Total,1020,Unidades,2883
3,Unidade da Federação,12,Acre,2010,2010,1002618,"Óbitos de pessoas que haviam residido com moradores dos domicílios particulares, ocorridos de agosto de 2009 a julho de 2010 - percentual do total geral",0,Total,0,Total,0,Total,2,Percentual,100.00
3,Unidade da Federação,13,Amazonas,2010,2010,2618,"Óbitos de pessoas que haviam residido com moradores dos domicílios particulares, ocorridos de agosto de 2009 a julho de 2010",0,Total,0,Total,0,Total,1020,Unidades,14270
3,Unidade da Federação,13,Amazonas,2010,2010,1002618,"Óbitos de pessoas que haviam residido com moradores dos domicílios particulares, ocorridos de agosto de 2009 a julho de 2010 - percentual do total geral",0,Total,0,Total,0,Total,2,Percentual,100.00
3,Unidade da Federação,14,Roraima,2010,2010,2618,"Óbitos de pessoas que haviam residido com moradores dos domicílios particulares, ocorridos de agosto de 2009 a julho de 2010",0,Total,0,Total,0,Total,1020,Unidades,1697
3,Unidade da Federação,14,Roraima,2010,2010,1002618,"Óbitos de pessoas que haviam residido com moradores dos domicílios particulares, ocorridos de agosto de 2009 a julho de 2010 - percentual do total geral",0,Total,0,Total,0,Total,2,Percentual,100.00
3,Unidade da Federação,15,Pará,2010,2010,2618,"Óbitos de pessoas que haviam residido com moradores dos domicílios particulares, ocorridos de agosto de 2009 a julho de 2010",0,Total,0,Total,0,Total,1020,Unidades,34650
3,Unidade da Federação,15,Pará,2010,2010,1002618,"Óbitos de pessoas que haviam residido com moradores dos domicílios particulares, ocorridos de agosto de 2009 a julho de 2010 - percentual do total geral",0,Total,0,Total,0,Total,2,Percentual,100.00
3,Unidade da Federação,16,Amapá,2010,2010,2618,"Óbitos de pessoas que haviam residido com moradores dos domicílios particulares, ocorridos de agosto de 2009 a julho de 2010",0,Total,0,Total,0,Total,1020,Unidades,2771
3,Unidade da Federação,16,Amapá,2010,2010,1002618,"Óbitos de pessoas que haviam residido com moradores dos domicílios particulares, ocorridos de agosto de 2009 a julho de 2010 - percentual do total geral",0,Total,0,Total,0,Total,2,Percentual,100.00
3,Unidade da Federação,17,Tocantins,2010,2010,2618,"Óbitos de pessoas que haviam residido com moradores dos domicílios particulares, ocorridos de agosto de 2009 a julho de 2010",0,Total,0,Total,0,Total,1020,Unidades,6741
3,Unidade da Federação,17,Tocantins,2010,2010,1002618,"Óbitos de pessoas que haviam residido com moradores dos domicílios particulares, ocorridos de agosto de 2009 a julho de 2010 - percentual do total geral",0,Total,0,Total,0,Total,2,Percentual,100.00
3,Unidade da Federação,21,Maranhão,2010,2010,2618,"Óbitos de pessoas que haviam residido com moradores dos domicílios particulares, ocorridos de agosto de 2009 a julho de 2010",0,Total,0,Total,0,Total,1020,Unidades,31765
3,Unidade da Federação,21,Maranhão,2010,2010,1002618,"Óbitos de pessoas que haviam residido com moradores dos domicílios particulares, ocorridos de agosto de 2009 a julho de 2010 - percentual do total geral",0,Total,0,Total,0,Total,2,Percentual,100.00
3,Unidade da Federação,22,Piauí,2010,2010,2618,"Óbitos de pessoas que haviam residido com moradores dos domicílios particulares, ocorridos de agosto de 2009 a julho de 2010",0,Total,0,Total,0,Total,1020,Unidades,15207
3,Unidade da Federação,22,Piauí,2010,2010,1002618,"Óbitos de pessoas que haviam residido com moradores dos domicílios particulares, ocorridos de agosto de 2009 a julho de 2010 - percentual do total geral",0,Total,0,Total,0,Total,2,Percentual,100.00
3,Unidade da Federação,23,Ceará,2010,2010,2618,"Óbitos de pessoas que haviam residido com moradores dos domicílios particulares, ocorridos de agosto de 2009 a julho de 2010",0,Total,0,Total,0,Total,1020,Unidades,40820
3,Unidade da Federação,23,Ceará,2010,2010,1002618,"Óbitos de pessoas que haviam residido com moradores dos domicílios particulares, ocorridos de agosto de 2009 a julho de 2010 - percentual do total geral",0,Total,0,Total,0,Total,2,Percentual,100.00
3,Unidade da Federação,24,Rio Grande do Norte,2010,2010,2618,"Óbitos de pessoas que haviam residido com moradores dos domicílios particulares, ocorridos de agosto de 2009 a julho de 2010",0,Total,0,Total,0,Total,1020,Unidades,16224
3,Unidade da Federação,24,Rio Grande do Norte,2010,2010,1002618,"Óbitos de pessoas que haviam residido com moradores dos domicílios particulares, ocorridos de agosto de 2009 a julho de 2010 - percentual do total geral",0,Total,0,Total,0,Total,2,Percentual,100.00
3,Unidade da Federação,25,Paraíba,2010,2010,2618,"Óbitos de pessoas que haviam residido com moradores dos domicílios particulares, ocorridos de agosto de 2009 a julho de 2010",0,Total,0,Total,0,Total,1020,Unidades,21685
3,Unidade da Federação,25,Paraíba,2010,2010,1002618,"Óbitos de pessoas que haviam residido com moradores dos domicílios particulares, ocorridos de agosto de 2009 a julho de 2010 - percentual do total geral",0,Total,0,Total,0,Total,2,Percentual,100.00
3,Unidade da Federação,26,Pernambuco,2010,2010,2618,"Óbitos de pessoas que haviam residido com moradores dos domicílios particulares, ocorridos de agosto de 2009 a julho de 2010",0,Total,0,Total,0,Total,1020,Unidades,48161
3,Unidade da Federação,26,Pernambuco,2010,2010,1002618,"Óbitos de pessoas que haviam residido com moradores dos domicílios particulares, ocorridos de agosto de 2009 a julho de 2010 - percentual do total geral",0,Total,0,Total,0,Total,2,Percentual,100.00
3,Unidade da Federação,27,Alagoas,2010,2010,2618,"Óbitos de pessoas que haviam residido com moradores dos domicílios particulares, ocorridos de agosto de 2009 a julho de 2010",0,Total,0,Total,0,Total,1020,Unidades,17206
3,Unidade da Federação,27,Alagoas,2010,2010,1002618,"Óbitos de pessoas que haviam residido com moradores dos domicílios particulares, ocorridos de agosto de 2009 a julho de 2010 - percentual do total geral",0,Total,0,Total,0,Total,2,Percentual,100.00
3,Unidade da Federação,28,Sergipe,2010,2010,2618,"Óbitos de pessoas que haviam residido com moradores dos domicílios particulares, ocorridos de agosto de 2009 a julho de 2010",0,Total,0,Total,0,Total,1020,Unidades,10008
3,Unidade da Federação,28,Sergipe,2010,2010,1002618,"Óbitos de pessoas que haviam residido com moradores dos domicílios particulares, ocorridos de agosto de 2009 a julho de 2010 - percentual do total geral",0,Total,0,Total,0,Total,2,Percentual,100.00
3,Unidade da Federação,29,Bahia,2010,2010,2618,"Óbitos de pessoas que haviam residido com moradores dos domicílios particulares, ocorridos de agosto de 2009 a julho de 2010",0,Total,0,Total,0,Total,1020,Unidades,75459
3,Unidade da Federação,29,Bahia,2010,2010,1002618,"Óbitos de pessoas que haviam residido com moradores dos domicílios particulares, ocorridos de agosto de 2009 a julho de 2010 - percentual do total geral",0,Total,0,Total,0,Total,2,Percentual,100.00
3,Unidade da Federação,31,Minas Gerais,2010,2010,2618,"Óbitos de pessoas que haviam residido com moradores dos domicílios particulares, ocorridos de agosto de 2009 a julho de 2010",0,Total,0,Total,0,Total,1020,Unidades,109091
3,Unidade da Federação,31,Minas Gerais,2010,2010,1002618,"Óbitos de pessoas que haviam residido com moradores dos domicílios particulares, ocorridos de agosto de 2009 a julho de 2010 - percentual do total geral",0,Total,0,Total,0,Total,2,Percentual,100.00
3,Unidade da Federação,32,Espírito Santo,2010,2010,2618,"Óbitos de pessoas que haviam residido com moradores dos domicílios particulares, ocorridos de agosto de 2009 a julho de 2010",0,Total,0,Total,0,Total,1020,Unidades,18400
3,Unidade da Federação,32,Espírito Santo,2010,2010,1002618,"Óbitos de pessoas que haviam residido com moradores dos domicílios particulares, ocorridos de agosto de 2009 a julho de 2010 - percentual do total geral",0,Total,0,Total,0,Total,2,Percentual,100.00
3,Unidade da Federação,33,Rio de Janeiro,2010,2010,2618,"Óbitos de pessoas que haviam residido com moradores dos domicílios particulares, ocorridos de agosto de 2009 a julho de 2010",0,Total,0,Total,0,Total,1020,Unidades,105858
3,Unidade da Federação,33,Rio de Janeiro,2010,2010,1002618,"Óbitos de pessoas que haviam residido com moradores dos domicílios particulares, ocorridos de agosto de 2009 a julho de 2010 - percentual do total geral",0,Total,0,Total,0,Total,2,Percentual,100.00
3,Unidade da Federação,35,São Paulo,2010,2010,2618,"Óbitos de pessoas que haviam residido com moradores dos domicílios particulares, ocorridos de agosto de 2009 a julho de 2010",0,Total,0,Total,0,Total,1020,Unidades,223009
3,Unidade da Federação,35,São Paulo,2010,2010,1002618,"Óbitos de pessoas que haviam residido com moradores dos domicílios particulares, ocorridos de agosto de 2009 a julho de 2010 - percentual do total geral",0,Total,0,Total,0,Total,2,Percentual,100.00
3,Unidade da Federação,41,Paraná,2010,2010,2618,"Óbitos de pessoas que haviam residido com moradores dos domicílios particulares, ocorridos de agosto de 2009 a julho de 2010",0,Total,0,Total,0,Total,1020,Unidades,60855
3,Unidade da Federação,41,Paraná,2010,2010,1002618,"Óbitos de pessoas que haviam residido com moradores dos domicílios particulares, ocorridos de agosto de 2009 a julho de 2010 - percentual do total geral",0,Total,0,Total,0,Total,2,Percentual,100.00
3,Unidade da Federação,42,Santa Catarina,2010,2010,2618,"Óbitos de pessoas que haviam residido com moradores dos domicílios particulares, ocorridos de agosto de 2009 a julho de 2010",0,Total,0,Total,0,Total,1020,Unidades,32835
3,Unidade da Federação,42,Santa Catarina,2010,2010,1002618,"Óbitos de pessoas que haviam residido com moradores dos domicílios particulares, ocorridos de agosto de 2009 a julho de 2010 - percentual do total geral",0,Total,0,Total,0,Total,2,Percentual,100.00
3,Unidade da Federação,43,Rio Grande do Sul,2010,2010,2618,"Óbitos de pessoas que haviam residido com moradores dos domicílios particulares, ocorridos de agosto de 2009 a julho de 2010",0,Total,0,Total,0,Total,1020,Unidades,68608
3,Unidade da Federação,43,Rio Grande do Sul,2010,2010,1002618,"Óbitos de pessoas que haviam residido com moradores dos domicílios particulares, ocorridos de agosto de 2009 a julho de 2010 - percentual do total geral",0,Total,0,Total,0,Total,2,Percentual,100.00
3,Unidade da Federação,50,Mato Grosso do Sul,2010,2010,2618,"Óbitos de pessoas que haviam residido com moradores dos domicílios particulares, ocorridos de agosto de 2009 a julho de 2010",0,Total,0,Total,0,Total,1020,Unidades,13901
3,Unidade da Federação,50,Mato Grosso do Sul,2010,2010,1002618,"Óbitos de pessoas que haviam residido com moradores dos domicílios particulares, ocorridos de agosto de 2009 a julho de 2010 - percentual do total geral",0,Total,0,Total,0,Total,2,Percentual,100.00
3,Unidade da Federação,51,Mato Grosso,2010,2010,2618,"Óbitos de pessoas que haviam residido com moradores dos domicílios particulares, ocorridos de agosto de 2009 a julho de 2010",0,Total,0,Total,0,Total,1020,Unidades,14038
3,Unidade da Federação,51,Mato Grosso,2010,2010,1002618,"Óbitos de pessoas que haviam residido com moradores dos domicílios particulares, ocorridos de agosto de 2009 a julho de 2010 - percentual do total geral",0,Total,0,Total,0,Total,2,Percentual,100.00
3,Unidade da Federação,52,Goiás,2010,2010,2618,"Óbitos de pessoas que haviam residido com moradores dos domicílios particulares, ocorridos de agosto de 2009 a julho de 2010",0,Total,0,Total,0,Total,1020,Unidades,31289
3,Unidade da Federação,52,Goiás,2010,2010,1002618,"Óbitos de pessoas que haviam residido com moradores dos domicílios particulares, ocorridos de agosto de 2009 a julho de 2010 - percentual do total geral",0,Total,0,Total,0,Total,2,Percentual,100.00
3,Unidade da Federação,53,Distrito Federal,2010,2010,2618,"Óbitos de pessoas que haviam residido com moradores dos domicílios particulares, ocorridos de agosto de 2009 a julho de 2010",0,Total,0,Total,0,Total,1020,Unidades,9965
3,Unidade da Federação,53,Distrito Federal,2010,2010,1002618,"Óbitos de pessoas que haviam residido com moradores dos domicílios particulares, ocorridos de agosto de 2009 a julho de 2010 - percentual do total geral",0,Total,0,Total,0,Total,2,Percentual,100.00
