NC,NN,D1C,D1N,D2C,D2N,D3C,D3N,D4C,D4N,D5C,D5N,MC,MN,V
Nível Territorial (Código),Nível Territorial,Unidade da Federação (Código),Unidade da Federação,Ano (Código),Ano,Variável (Código),Variável,Sexo (Código),Sexo,Nível de instrução (Código),Nível de instrução,Unidade de Medida (Código),Unidade de Medida,Valor
3,Unidade da Federação,11,Rondônia,2016,2016,10178,Taxa de realização de afazeres domésticos no próprio domicílio,6794,Total,120704,Total,2,%,77.3
3,Unidade da Federação,11,Rondônia,2016,2016,10179,Coeficiente de variação - Taxa de realização de afazeres domésticos no próprio domicílio,6794,Total,120704,Total,2,%,1.7
3,Unidade da Federação,11,Rondônia,2017,2017,10178,Taxa de realização de afazeres domésticos no próprio domicílio,6794,Total,120704,Total,2,%,83.2
3,Unidade da Federação,11,Rondônia,2017,2017,10179,Coeficiente de variação - Taxa de realização de afazeres domésticos no próprio domicílio,6794,Total,120704,Total,2,%,1.4
3,Unidade da Federação,11,Rondônia,2018,2018,10178,Taxa de realização de afazeres domésticos no próprio domicílio,6794,Total,120704,Total,2,%,86.6
3,Unidade da Federação,11,Rondônia,2018,2018,10179,Coeficiente de variação - Taxa de realização de afazeres domésticos no próprio domicílio,6794,Total,120704,Total,2,%,1.0
3,Unidade da Federação,11,Rondônia,2019,2019,10178,Taxa de realização de afazeres domésticos no próprio domicílio,6794,Total,120704,Total,2,%,86.5
3,Unidade da Federação,11,Rondônia,2019,2019,10179,Coeficiente de variação - Taxa de realização de afazeres domésticos no próprio domicílio,6794,Total,120704,Total,2,%,0.9
3,Unidade da Federação,12,Acre,2016,2016,10178,Taxa de realização de afazeres domésticos no próprio domicílio,6794,Total,120704,Total,2,%,80.5
3,Unidade da Federação,12,Acre,2016,2016,10179,Coeficiente de variação - Taxa de realização de afazeres domésticos no próprio domicílio,6794,Total,120704,Total,2,%,1.5
3,Unidade da Federação,12,Acre,2017,2017,10178,Taxa de realização de afazeres domésticos no próprio domicílio,6794,Total,120704,Total,2,%,85.3
3,Unidade da Federação,12,Acre,2017,2017,10179,Coeficiente de variação - Taxa de realização de afazeres domésticos no próprio domicílio,6794,Total,120704,Total,2,%,1.0
3,Unidade da Federação,12,Acre,2018,2018,10178,Taxa de realização de afazeres domésticos no próprio domicílio,6794,Total,120704,Total,2,%,85.9
3,Unidade da Federação,12,Acre,2018,2018,10179,Coeficiente de variação - Taxa de realização de afazeres domésticos no próprio domicílio,6794,Total,120704,Total,2,%,1.2
3,Unidade da Federação,12,Acre,2019,2019,10178,Taxa de realização de afazeres domésticos no próprio domicílio,6794,Total,120704,Total,2,%,85.3
3,Unidade da Federação,12,Acre,2019,2019,10179,Coeficiente de variação - Taxa de realização de afazeres domésticos no próprio domicílio,6794,Total,120704,Total,2,%,1.0
3,Unidade da Federação,13,Amazonas,2016,2016,10178,Taxa de realização de afazeres domésticos no próprio domicílio,6794,Total,120704,Total,2,%,79.5
3,Unidade da Federação,13,Amazonas,2016,2016,10179,Coeficiente de variação - Taxa de realização de afazeres domésticos no próprio domicílio,6794,Total,120704,Total,2,%,1.3
3,Unidade da Federação,13,Amazonas,2017,2017,10178,Taxa de realização de afazeres domésticos no próprio domicílio,6794,Total,120704,Total,2,%,85.1
3,Unidade da Federação,13,Amazonas,2017,2017,10179,Coeficiente de variação - Taxa de realização de afazeres domésticos no próprio domicílio,6794,Total,120704,Total,2,%,1.2
3,Unidade da Federação,13,Amazonas,2018,2018,10178,Taxa de realização de afazeres domésticos no próprio domicílio,6794,Total,120704,Total,2,%,85.6
3,Unidade da Federação,13,Amazonas,2018,2018,10179,Coeficiente de variação - Taxa de realização de afazeres domésticos no próprio domicílio,6794,Total,120704,Total,2,%,1.3
3,Unidade da Federação,13,Amazonas,2019,2019,10178,Taxa de realização de afazeres domésticos no próprio domicílio,6794,Total,120704,Total,2,%,81.5
3,Unidade da Federação,13,Amazonas,2019,2019,10179,Coeficiente de variação - Taxa de realização de afazeres domésticos no próprio domicílio,6794,Total,120704,Total,2,%,1.2
3,Unidade da Federação,14,Roraima,2016,2016,10178,Taxa de realização de afazeres domésticos no próprio domicílio,6794,Total,120704,Total,2,%,80.0
3,Unidade da Federação,14,Roraima,2016,2016,10179,Coeficiente de variação - Taxa de realização de afazeres domésticos no próprio domicílio,6794,Total,120704,Total,2,%,1.7
3,Unidade da Federação,14,Roraima,2017,2017,10178,Taxa de realização de afazeres domésticos no próprio domicílio,6794,Total,120704,Total,2,%,79.1
3,Unidade da Federação,14,Roraima,2017,2017,10179,Coeficiente de variação - Taxa de realização de afazeres domésticos no próprio domicílio,6794,Total,120704,Total,2,%,1.9
3,Unidade da Federação,14,Roraima,2018,2018,10178,Taxa de realização de afazeres domésticos no próprio domicílio,6794,Total,120704,Total,2,%,83.9
3,Unidade da Federação,14,Roraima,2018,2018,10179,Coeficiente de variação - Taxa de realização de afazeres domésticos no próprio domicílio,6794,Total,120704,Total,2,%,2.0
3,Unidade da Federação,14,Roraima,2019,2019,10178,Taxa de realização de afazeres domésticos no próprio domicílio,6794,Total,120704,Total,2,%,82.1
3,Unidade da Federação,14,Roraima,2019,2019,10179,Coeficiente de variação - Taxa de realização de afazeres domésticos no próprio domicílio,6794,Total,120704,Total,2,%,1.6
3,Unidade da Federação,15,Pará,2016,2016,10178,Taxa de realização de afazeres domésticos no próprio domicílio,6794,Total,120704,Total,2,%,80.9
3,Unidade da Federação,15,Pará,2016,2016,10179,Coeficiente de variação - Taxa de realização de afazeres domésticos no próprio domicílio,6794,Total,120704,Total,2,%,1.0
3,Unidade da Federação,15,Pará,2017,2017,10178,Taxa de realização de afazeres domésticos no próprio domicílio,6794,Total,120704,Total,2,%,82.9
3,Unidade da Federação,15,Pará,2017,2017,10179,Coeficiente de variação - Taxa de realização de afazeres domésticos no próprio domicílio,6794,Total,120704,Total,2,%,0.9
3,Unidade da Federação,15,Pará,2018,2018,10178,Taxa de realização de afazeres domésticos no próprio domicílio,6794,Total,120704,Total,2,%,83.9
3,Unidade da Federação,15,Pará,2018,2018,10179,Coeficiente de variação - Taxa de realização de afazeres domésticos no próprio domicílio,6794,Total,120704,Total,2,%,1.0
3,Unidade da Federação,15,Pará,2019,2019,10178,Taxa de realização de afazeres domésticos no próprio domicílio,6794,Total,120704,Total,2,%,83.8
3,Unidade da Federação,15,Pará,2019,2019,10179,Coeficiente de variação - Taxa de realização de afazeres domésticos no próprio domicílio,6794,Total,120704,Total,2,%,1.0
3,Unidade da Federação,16,Amapá,2016,2016,10178,Taxa de realização de afazeres domésticos no próprio domicílio,6794,Total,120704,Total,2,%,81.4
3,Unidade da Federação,16,Amapá,2016,2016,10179,Coeficiente de variação - Taxa de realização de afazeres domésticos no próprio domicílio,6794,Total,120704,Total,2,%,2.3
3,Unidade da Federação,16,Amapá,2017,2017,10178,Taxa de realização de afazeres domésticos no próprio domicílio,6794,Total,120704,Total,2,%,89.2
3,Unidade da Federação,16,Amapá,2017,2017,10179,Coeficiente de variação - Taxa de realização de afazeres domésticos no próprio domicílio,6794,Total,120704,Total,2,%,1.3
3,Unidade da Federação,16,Amapá,2018,2018,10178,Taxa de realização de afazeres domésticos no próprio domicílio,6794,Total,120704,Total,2,%,91.1
3,Unidade da Federação,16,Amapá,2018,2018,10179,Coeficiente de variação - Taxa de realização de afazeres domésticos no próprio domicílio,6794,Total,120704,Total,2,%,1.0
3,Unidade da Federação,16,Amapá,2019,2019,10178,Taxa de realização de afazeres domésticos no próprio domicílio,6794,Total,120704,Total,2,%,91.1
3,Unidade da Federação,16,Amapá,2019,2019,10179,Coeficiente de variação - Taxa de realização de afazeres domésticos no próprio domicílio,6794,Total,120704,Total,2,%,1.1
3,Unidade da Federação,17,Tocantins,2016,2016,10178,Taxa de realização de afazeres domésticos no próprio domicílio,6794,Total,120704,Total,2,%,82.0
3,Unidade da Federação,17,Tocantins,2016,2016,10179,Coeficiente de variação - Taxa de realização de afazeres domésticos no próprio domicílio,6794,Total,120704,Total,2,%,1.5
3,Unidade da Federação,17,Tocantins,2017,2017,10178,Taxa de realização de afazeres domésticos no próprio domicílio,6794,Total,120704,Total,2,%,86.1
3,Unidade da Federação,17,Tocantins,2017,2017,10179,Coeficiente de variação - Taxa de realização de afazeres domésticos no próprio domicílio,6794,Total,120704,Total,2,%,1.2
3,Unidade da Federação,17,Tocantins,2018,2018,10178,Taxa de realização de afazeres domésticos no próprio domicílio,6794,Total,120704,Total,2,%,86.1
3,Unidade da Federação,17,Tocantins,2018,2018,10179,Coeficiente de variação - Taxa de realização de afazeres domésticos no próprio domicílio,6794,Total,120704,Total,2,%,1.1
3,Unidade da Federação,17,Tocantins,2019,2019,10178,Taxa de realização de afazeres domésticos no próprio domicílio,6794,Total,120704,Total,2,%,86.3
3,Unidade da Federação,17,Tocantins,2019,2019,10179,Coeficiente de variação - Taxa de realização de afazeres domésticos no próprio domicílio,6794,Total,120704,Total,2,%,1.2
3,Unidade da Federação,21,Maranhão,2016,2016,10178,Taxa de realização de afazeres domésticos no próprio domicílio,6794,Total,120704,Total,2,%,74.0
3,Unidade da Federação,21,Maranhão,2016,2016,10179,Coeficiente de variação - Taxa de realização de afazeres domésticos no próprio domicílio,6794,Total,120704,Total,2,%,0.9
3,Unidade da Federação,21,Maranhão,2017,2017,10178,Taxa de realização de afazeres domésticos no próprio domicílio,6794,Total,120704,Total,2,%,76.2
3,Unidade da Federação,21,Maranhão,2017,2017,10179,Coeficiente de variação - Taxa de realização de afazeres domésticos no próprio domicílio,6794,Total,120704,Total,2,%,0.8
3,Unidade da Federação,21,Maranhão,2018,2018,10178,Taxa de realização de afazeres domésticos no próprio domicílio,6794,Total,120704,Total,2,%,79.3
3,Unidade da Federação,21,Maranhão,2018,2018,10179,Coeficiente de variação - Taxa de realização de afazeres domésticos no próprio domicílio,6794,Total,120704,Total,2,%,0.6
3,Unidade da Federação,21,Maranhão,2019,2019,10178,Taxa de realização de afazeres domésticos no próprio domicílio,6794,Total,120704,Total,2,%,78.3
3,Unidade da Federação,21,Maranhão,2019,2019,10179,Coeficiente de variação - Taxa de realização de afazeres domésticos no próprio domicílio,6794,Total,120704,Total,2,%,0.7
3,Unidade da Federação,22,Piauí,2016,2016,10178,Taxa de realização de afazeres domésticos no próprio domicílio,6794,Total,120704,Total,2,%,83.4
3,Unidade da Federação,22,Piauí,2016,2016,10179,Coeficiente de variação - Taxa de realização de afazeres domésticos no próprio domicílio,6794,Total,120704,Total,2,%,0.9
3,Unidade da Federação,22,Piauí,2017,2017,10178,Taxa de realização de afazeres domésticos no próprio domicílio,6794,Total,120704,Total,2,%,85.3
3,Unidade da Federação,22,Piauí,2017,2017,10179,Coeficiente de variação - Taxa de realização de afazeres domésticos no próprio domicílio,6794,Total,120704,Total,2,%,0.9
3,Unidade da Federação,22,Piauí,2018,2018,10178,Taxa de realização de afazeres domésticos no próprio domicílio,6794,Total,120704,Total,2,%,84.6
3,Unidade da Federação,22,Piauí,2018,2018,10179,Coeficiente de variação - Taxa de realização de afazeres domésticos no próprio domicílio,6794,Total,120704,Total,2,%,1.0
3,Unidade da Federação,22,Piauí,2019,2019,10178,Taxa de realização de afazeres domésticos no próprio domicílio,6794,Total,120704,Total,2,%,84.8
3,Unidade da Federação,22,Piauí,2019,2019,10179,Coeficiente de variação - Taxa de realização de afazeres domésticos no próprio domicílio,6794,Total,120704,Total,2,%,0.8
3,Unidade da Federação,23,Ceará,2016,2016,10178,Taxa de realização de afazeres domésticos no próprio domicílio,6794,Total,120704,Total,2,%,73.6
3,Unidade da Federação,23,Ceará,2016,2016,10179,Coeficiente de variação - Taxa de realização de afazeres domésticos no próprio domicílio,6794,Total,120704,Total,2,%,0.9
3,Unidade da Federação,23,Ceará,2017,2017,10178,Taxa de realização de afazeres domésticos no próprio domicílio,6794,Total,120704,Total,2,%,76.9
3,Unidade da Federação,23,Ceará,2017,2017,10179,Coeficiente de variação - Taxa de realização de afazeres domésticos no próprio domicílio,6794,Total,120704,Total,2,%,0.7
3,Unidade da Federação,23,Ceará,2018,2018,10178,Taxa de realização de afazeres domésticos no próprio domicílio,6794,Total,120704,Total,2,%,80.1
3,Unidade da Federação,23,Ceará,2018,2018,10179,Coeficiente de variação - Taxa de realização de afazeres domésticos no próprio domicílio,6794,Total,120704,Total,2,%,0.7
3,Unidade da Federação,23,Ceará,2019,2019,10178,Taxa de realização de afazeres domésticos no próprio domicílio,6794,Total,120704,Total,2,%,78.6
3,Unidade da Federação,23,Ceará,2019,2019,10179,Coeficiente de variação - Taxa de realização de afazeres domésticos no próprio domicílio,6794,Total,120704,Total,2,%,0.6
3,Unidade da Federação,24,Rio Grande do Norte,2016,2016,10178,Taxa de realização de afazeres domésticos no próprio domicílio,6794,Total,120704,Total,2,%,76.5
3,Unidade da Federação,24,Rio Grande do Norte,2016,2016,10179,Coeficiente de variação - Taxa de realização de afazeres domésticos no próprio domicílio,6794,Total,120704,Total,2,%,1.2
3,Unidade da Federação,24,Rio Grande do Norte,2017,2017,10178,Taxa de realização de afazeres domésticos no próprio domicílio,6794,Total,120704,Total,2,%,77.7
3,Unidade da Federação,24,Rio Grande do Norte,2017,2017,10179,Coeficiente de variação - Taxa de realização de afazeres domésticos no próprio domicílio,6794,Total,120704,Total,2,%,1.0
3,Unidade da Federação,24,Rio Grande do Norte,2018,2018,10178,Taxa de realização de afazeres domésticos no próprio domicílio,6794,Total,120704,Total,2,%,75.7
3,Unidade da Federação,24,Rio Grande do Norte,2018,2018,10179,Coeficiente de variação - Taxa de realização de afazeres domésticos no próprio domicílio,6794,Total,120704,Total,2,%,1.3
3,Unidade da Federação,24,Rio Grande do Norte,2019,2019,10178,Taxa de realização de afazeres domésticos no próprio domicílio,6794,Total,120704,Total,2,%,75.8
3,Unidade da Federação,24,Rio Grande do Norte,2019,2019,10179,Coeficiente de variação - Taxa de realização de afazeres domésticos no próprio domicílio,6794,Total,120704,Total,2,%,1.1
3,Unidade da Federação,25,Paraíba,2016,2016,10178,Taxa de realização de afazeres domésticos no próprio domicílio,6794,Total,120704,Total,2,%,79.0
3,Unidade da Federação,25,Paraíba,2016,2016,10179,Coeficiente de variação - Taxa de realização de afazeres domésticos no próprio domicílio,6794,Total,120704,Total,2,%,0.8
3,Unidade da Federação,25,Paraíba,2017,2017,10178,Taxa de realização de afazeres domésticos no próprio domicílio,6794,Total,120704,Total,2,%,80.0
3,Unidade da Federação,25,Paraíba,2017,2017,10179,Coeficiente de variação - Taxa de realização de afazeres domésticos no próprio domicílio,6794,Total,120704,Total,2,%,1.0
3,Unidade da Federação,25,Paraíba,2018,2018,10178,Taxa de realização de afazeres domésticos no próprio domicílio,6794,Total,120704,Total,2,%,81.8
3,Unidade da Federação,25,Paraíba,2018,2018,10179,Coeficiente de variação - Taxa de realização de afazeres domésticos no próprio domicílio,6794,Total,120704,Total,2,%,0.8
3,Unidade da Federação,25,Paraíba,2019,2019,10178,Taxa de realização de afazeres domésticos no próprio domicílio,6794,Total,120704,Total,2,%,78.5
3,Unidade da Federação,25,Paraíba,2019,2019,10179,Coeficiente de variação - Taxa de realização de afazeres domésticos no próprio domicílio,6794,Total,120704,Total,2,%,1.2
3,Unidade da Federação,26,Pernambuco,2016,2016,10178,Taxa de realização de afazeres domésticos no próprio domicílio,6794,Total,120704,Total,2,%,69.7
3,Unidade da Federação,26,Pernambuco,2016,2016,10179,Coeficiente de variação - Taxa de realização de afazeres domésticos no próprio domicílio,6794,Total,120704,Total,2,%,1.4
3,Unidade da Federação,26,Pernambuco,2017,2017,10178,Taxa de realização de afazeres domésticos no próprio domicílio,6794,Total,120704,Total,2,%,79.7
3,Unidade da Federação,26,Pernambuco,2017,2017,10179,Coeficiente de variação - Taxa de realização de afazeres domésticos no próprio domicílio,6794,Total,120704,Total,2,%,0.9
3,Unidade da Federação,26,Pernambuco,2018,2018,10178,Taxa de realização de afazeres domésticos no próprio domicílio,6794,Total,120704,Total,2,%,79.9
3,Unidade da Federação,26,Pernambuco,2018,2018,10179,Coeficiente de variação - Taxa de realização de afazeres domésticos no próprio domicílio,6794,Total,120704,Total,2,%,0.9
3,Unidade da Federação,26,Pernambuco,2019,2019,10178,Taxa de realização de afazeres domésticos no próprio domicílio,6794,Total,120704,Total,2,%,79.9
3,Unidade da Federação,26,Pernambuco,2019,2019,10179,Coeficiente de variação - Taxa de realização de afazeres domésticos no próprio domicílio,6794,Total,120704,Total,2,%,0.8
3,Unidade da Federação,27,Alagoas,2016,2016,10178,Taxa de realização de afazeres domésticos no próprio domicílio,6794,Total,120704,Total,2,%,73.3
3,Unidade da Federação,27,Alagoas,2016,2016,10179,Coeficiente de variação - Taxa de realização de afazeres domésticos no próprio domicílio,6794,Total,120704,Total,2,%,1.0
3,Unidade da Federação,27,Alagoas,2017,2017,10178,Taxa de realização de afazeres domésticos no próprio domicílio,6794,Total,120704,Total,2,%,77.5
3,Unidade da Federação,27,Alagoas,2017,2017,10179,Coeficiente de variação - Taxa de realização de afazeres domésticos no próprio domicílio,6794,Total,120704,Total,2,%,0.8
3,Unidade da Federação,27,Alagoas,2018,2018,10178,Taxa de realização de afazeres domésticos no próprio domicílio,6794,Total,120704,Total,2,%,79.5
3,Unidade da Federação,27,Alagoas,2018,2018,10179,Coeficiente de variação - Taxa de realização de afazeres domésticos no próprio domicílio,6794,Total,120704,Total,2,%,0.9
3,Unidade da Federação,27,Alagoas,2019,2019,10178,Taxa de realização de afazeres domésticos no próprio domicílio,6794,Total,120704,Total,2,%,79.2
3,Unidade da Federação,27,Alagoas,2019,2019,10179,Coeficiente de variação - Taxa de realização de afazeres domésticos no próprio domicílio,6794,Total,120704,Total,2,%,1.0
3,Unidade da Federação,28,Sergipe,2016,2016,10178,Taxa de realização de afazeres domésticos no próprio domicílio,6794,Total,120704,Total,2,%,71.6
3,Unidade da Federação,28,Sergipe,2016,2016,10179,Coeficiente de variação - Taxa de realização de afazeres domésticos no próprio domicílio,6794,Total,120704,Total,2,%,1.9
3,Unidade da Federação,28,Sergipe,2017,2017,10178,Taxa de realização de afazeres domésticos no próprio domicílio,6794,Total,120704,Total,2,%,76.2
3,Unidade da Federação,28,Sergipe,2017,2017,10179,Coeficiente de variação - Taxa de realização de afazeres domésticos no próprio domicílio,6794,Total,120704,Total,2,%,1.3
3,Unidade da Federação,28,Sergipe,2018,2018,10178,Taxa de realização de afazeres domésticos no próprio domicílio,6794,Total,120704,Total,2,%,77.8
3,Unidade da Federação,28,Sergipe,2018,2018,10179,Coeficiente de variação - Taxa de realização de afazeres domésticos no próprio domicílio,6794,Total,120704,Total,2,%,1.2
3,Unidade da Federação,28,Sergipe,2019,2019,10178,Taxa de realização de afazeres domésticos no próprio domicílio,6794,Total,120704,Total,2,%,79.5
3,Unidade da Federação,28,Sergipe,2019,2019,10179,Coeficiente de variação - Taxa de realização de afazeres domésticos no próprio domicílio,6794,Total,120704,Total,2,%,1.2
3,Unidade da Federação,29,Bahia,2016,2016,10178,Taxa de realização de afazeres domésticos no próprio domicílio,6794,Total,120704,Total,2,%,78.7
3,Unidade da Federação,29,Bahia,2016,2016,10179,Coeficiente de variação - Taxa de realização de afazeres domésticos no próprio domicílio,6794,Total,120704,Total,2,%,0.8
3,Unidade da Federação,29,Bahia,2017,2017,10178,Taxa de realização de afazeres domésticos no próprio domicílio,6794,Total,120704,Total,2,%,82.8
3,Unidade da Federação,29,Bahia,2017,2017,10179,Coeficiente de variação - Taxa de realização de afazeres domésticos no próprio domicílio,6794,Total,120704,Total,2,%,0.6
3,Unidade da Federação,29,Bahia,2018,2018,10178,Taxa de realização de afazeres domésticos no próprio domicílio,6794,Total,120704,Total,2,%,83.6
3,Unidade da Federação,29,Bahia,2018,2018,10179,Coeficiente de variação - Taxa de realização de afazeres domésticos no próprio domicílio,6794,Total,120704,Total,2,%,0.7
3,Unidade da Federação,29,Bahia,2019,2019,10178,Taxa de realização de afazeres domésticos no próprio domicílio,6794,Total,120704,Total,2,%,82.9
3,Unidade da Federação,29,Bahia,2019,2019,10179,Coeficiente de variação - Taxa de realização de afazeres domésticos no próprio domicílio,6794,Total,120704,Total,2,%,0.7
3,Unidade da Federação,31,Minas Gerais,2016,2016,10178,Taxa de realização de afazeres domésticos no próprio domicílio,6794,Total,120704,Total,2,%,85.1
3,Unidade da Federação,31,Minas Gerais,2016,2016,10179,Coeficiente de variação - Taxa de realização de afazeres domésticos no próprio domicílio,6794,Total,120704,Total,2,%,0.6
3,Unidade da Federação,31,Minas Gerais,2017,2017,10178,Taxa de realização de afazeres domésticos no próprio domicílio,6794,Total,120704,Total,2,%,85.8
3,Unidade da Federação,31,Minas Gerais,2017,2017,10179,Coeficiente de variação - Taxa de realização de afazeres domésticos no próprio domicílio,6794,Total,120704,Total,2,%,0.5
3,Unidade da Federação,31,Minas Gerais,2018,2018,10178,Taxa de realização de afazeres domésticos no próprio domicílio,6794,Total,120704,Total,2,%,86.3
3,Unidade da Federação,31,Minas Gerais,2018,2018,10179,Coeficiente de variação - Taxa de realização de afazeres domésticos no próprio domicílio,6794,Total,120704,Total,2,%,0.5
3,Unidade da Federação,31,Minas Gerais,2019,2019,10178,Taxa de realização de afazeres domésticos no próprio domicílio,6794,Total,120704,Total,2,%,85.9
3,Unidade da Federação,31,Minas Gerais,2019,2019,10179,Coeficiente de variação - Taxa de realização de afazeres domésticos no próprio domicílio,6794,Total,120704,Total,2,%,0.5
3,Unidade da Federação,32,Espírito Santo,2016,2016,10178,Taxa de realização de afazeres domésticos no próprio domicílio,6794,Total,120704,Total,2,%,79.3
3,Unidade da Federação,32,Espírito Santo,2016,2016,10179,Coeficiente de variação - Taxa de realização de afazeres domésticos no próprio domicílio,6794,Total,120704,Total,2,%,0.9
3,Unidade da Federação,32,Espírito Santo,2017,2017,10178,Taxa de realização de afazeres domésticos no próprio domicílio,6794,Total,120704,Total,2,%,85.0
3,Unidade da Federação,32,Espírito Santo,2017,2017,10179,Coeficiente de variação - Taxa de realização de afazeres domésticos no próprio domicílio,6794,Total,120704,Total,2,%,0.8
3,Unidade da Federação,32,Espírito Santo,2018,2018,10178,Taxa de realização de afazeres domésticos no próprio domicílio,6794,Total,120704,Total,2,%,87.4
3,Unidade da Federação,32,Espírito Santo,2018,2018,10179,Coeficiente de variação - Taxa de realização de afazeres domésticos no próprio domicílio,6794,Total,120704,Total,2,%,0.6
3,Unidade da Federação,32,Espírito Santo,2019,2019,10178,Taxa de realização de afazeres domésticos no próprio domicílio,6794,Total,120704,Total,2,%,86.6
3,Unidade da Federação,32,Espírito Santo,2019,2019,10179,Coeficiente de variação - Taxa de realização de afazeres domésticos no próprio domicílio,6794,Total,120704,Total,2,%,0.7
3,Unidade da Federação,33,Rio de Janeiro,2016,2016,10178,Taxa de realização de afazeres domésticos no próprio domicílio,6794,Total,120704,Total,2,%,82.1
3,Unidade da Federação,33,Rio de Janeiro,2016,2016,10179,Coeficiente de variação - Taxa de realização de afazeres domésticos no próprio domicílio,6794,Total,120704,Total,2,%,0.9
3,Unidade da Federação,33,Rio de Janeiro,2017,2017,10178,Taxa de realização de afazeres domésticos no próprio domicílio,6794,Total,120704,Total,2,%,85.5
3,Unidade da Federação,33,Rio de Janeiro,2017,2017,10179,Coeficiente de variação - Taxa de realização de afazeres domésticos no próprio domicílio,6794,Total,120704,Total,2,%,0.6
3,Unidade da Federação,33,Rio de Janeiro,2018,2018,10178,Taxa de realização de afazeres domésticos no próprio domicílio,6794,Total,120704,Total,2,%,88.8
3,Unidade da Federação,33,Rio de Janeiro,2018,2018,10179,Coeficiente de variação - Taxa de realização de afazeres domésticos no próprio domicílio,6794,Total,120704,Total,2,%,0.5
3,Unidade da Federação,33,Rio de Janeiro,2019,2019,10178,Taxa de realização de afazeres domésticos no próprio domicílio,6794,Total,120704,Total,2,%,88.8
3,Unidade da Federação,33,Rio de Janeiro,2019,2019,10179,Coeficiente de variação - Taxa de realização de afazeres domésticos no próprio domicílio,6794,Total,120704,Total,2,%,0.5
3,Unidade da Federação,35,São Paulo,2016,2016,10178,Taxa de realização de afazeres domésticos no próprio domicílio,6794,Total,120704,Total,2,%,82.6
3,Unidade da Federação,35,São Paulo,2016,2016,10179,Coeficiente de variação - Taxa de realização de afazeres domésticos no próprio domicílio,6794,Total,120704,Total,2,%,0.8
3,Unidade da Federação,35,São Paulo,2017,2017,10178,Taxa de realização de afazeres domésticos no próprio domicílio,6794,Total,120704,Total,2,%,85.6
3,Unidade da Federação,35,São Paulo,2017,2017,10179,Coeficiente de variação - Taxa de realização de afazeres domésticos no próprio domicílio,6794,Total,120704,Total,2,%,0.5
3,Unidade da Federação,35,São Paulo,2018,2018,10178,Taxa de realização de afazeres domésticos no próprio domicílio,6794,Total,120704,Total,2,%,86.5
3,Unidade da Federação,35,São Paulo,2018,2018,10179,Coeficiente de variação - Taxa de realização de afazeres domésticos no próprio domicílio,6794,Total,120704,Total,2,%,0.4
3,Unidade da Federação,35,São Paulo,2019,2019,10178,Taxa de realização de afazeres domésticos no próprio domicílio,6794,Total,120704,Total,2,%,87.9
3,Unidade da Federação,35,São Paulo,2019,2019,10179,Coeficiente de variação - Taxa de realização de afazeres domésticos no próprio domicílio,6794,Total,120704,Total,2,%,0.5
3,Unidade da Federação,41,Paraná,2016,2016,10178,Taxa de realização de afazeres domésticos no próprio domicílio,6794,Total,120704,Total,2,%,84.0
3,Unidade da Federação,41,Paraná,2016,2016,10179,Coeficiente de variação - Taxa de realização de afazeres domésticos no próprio domicílio,6794,Total,120704,Total,2,%,0.6
3,Unidade da Federação,41,Paraná,2017,2017,10178,Taxa de realização de afazeres domésticos no próprio domicílio,6794,Total,120704,Total,2,%,85.7
3,Unidade da Federação,41,Paraná,2017,2017,10179,Coeficiente de variação - Taxa de realização de afazeres domésticos no próprio domicílio,6794,Total,120704,Total,2,%,0.7
3,Unidade da Federação,41,Paraná,2018,2018,10178,Taxa de realização de afazeres domésticos no próprio domicílio,6794,Total,120704,Total,2,%,86.9
3,Unidade da Federação,41,Paraná,2018,2018,10179,Coeficiente de variação - Taxa de realização de afazeres domésticos no próprio domicílio,6794,Total,120704,Total,2,%,0.6
3,Unidade da Federação,41,Paraná,2019,2019,10178,Taxa de realização de afazeres domésticos no próprio domicílio,6794,Total,120704,Total,2,%,87.1
3,Unidade da Federação,41,Paraná,2019,2019,10179,Coeficiente de variação - Taxa de realização de afazeres domésticos no próprio domicílio,6794,Total,120704,Total,2,%,0.6
3,Unidade da Federação,42,Santa Catarina,2016,2016,10178,Taxa de realização de afazeres domésticos no próprio domicílio,6794,Total,120704,Total,2,%,85.4
3,Unidade da Federação,42,Santa Catarina,2016,2016,10179,Coeficiente de variação - Taxa de realização de afazeres domésticos no próprio domicílio,6794,Total,120704,Total,2,%,0.5
3,Unidade da Federação,42,Santa Catarina,2017,2017,10178,Taxa de realização de afazeres domésticos no próprio domicílio,6794,Total,120704,Total,2,%,89.7
3,Unidade da Federação,42,Santa Catarina,2017,2017,10179,Coeficiente de variação - Taxa de realização de afazeres domésticos no próprio domicílio,6794,Total,120704,Total,2,%,0.4
3,Unidade da Federação,42,Santa Catarina,2018,2018,10178,Taxa de realização de afazeres domésticos no próprio domicílio,6794,Total,120704,Total,2,%,89.0
3,Unidade da Federação,42,Santa Catarina,2018,2018,10179,Coeficiente de variação - Taxa de realização de afazeres domésticos no próprio domicílio,6794,Total,120704,Total,2,%,0.5
3,Unidade da Federação,42,Santa Catarina,2019,2019,10178,Taxa de realização de afazeres domésticos no próprio domicílio,6794,Total,120704,Total,2,%,89.2
3,Unidade da Federação,42,Santa Catarina,2019,2019,10179,Coeficiente de variação - Taxa de realização de afazeres domésticos no próprio domicílio,6794,Total,120704,Total,2,%,0.4
3,Unidade da Federação,43,Rio Grande do Sul,2016,2016,10178,Taxa de realização de afazeres domésticos no próprio domicílio,6794,Total,120704,Total,2,%,89.5
3,Unidade da Federação,43,Rio Grande do Sul,2016,2016,10179,Coeficiente de variação - Taxa de realização de afazeres domésticos no próprio domicílio,6794,Total,120704,Total,2,%,0.4
3,Unidade da Federação,43,Rio Grande do Sul,2017,2017,10178,Taxa de realização de afazeres domésticos no próprio domicílio,6794,Total,120704,Total,2,%,89.7
3,Unidade da Federação,43,Rio Grande do Sul,2017,2017,10179,Coeficiente de variação - Taxa de realização de afazeres domésticos no próprio domicílio,6794,Total,120704,Total,2,%,0.5
3,Unidade da Federação,43,Rio Grande do Sul,2018,2018,10178,Taxa de realização de afazeres domésticos no próprio domicílio,6794,Total,120704,Total,2,%,89.0
3,Unidade da Federação,43,Rio Grande do Sul,2018,2018,10179,Coeficiente de variação - Taxa de realização de afazeres domésticos no próprio domicílio,6794,Total,120704,Total,2,%,0.6
3,Unidade da Federação,43,Rio Grande do Sul,2019,2019,10178,Taxa de realização de afazeres domésticos no próprio domicílio,6794,Total,120704,Total,2,%,90.5
3,Unidade da Federação,43,Rio Grande do Sul,2019,2019,10179,Coeficiente de variação - Taxa de realização de afazeres domésticos no próprio domicílio,6794,Total,120704,Total,2,%,0.5
3,Unidade da Federação,50,Mato Grosso do Sul,2016,2016,10178,Taxa de realização de afazeres domésticos no próprio domicílio,6794,Total,120704,Total,2,%,86.3
3,Unidade da Federação,50,Mato Grosso do Sul,2016,2016,10179,Coeficiente de variação - Taxa de realização de afazeres domésticos no próprio domicílio,6794,Total,120704,Total,2,%,0.9
3,Unidade da Federação,50,Mato Grosso do Sul,2017,2017,10178,Taxa de realização de afazeres domésticos no próprio domicílio,6794,Total,120704,Total,2,%,89.8
3,Unidade da Federação,50,Mato Grosso do Sul,2017,2017,10179,Coeficiente de variação - Taxa de realização de afazeres domésticos no próprio domicílio,6794,Total,120704,Total,2,%,0.7
3,Unidade da Federação,50,Mato Grosso do Sul,2018,2018,10178,Taxa de realização de afazeres domésticos no próprio domicílio,6794,Total,120704,Total,2,%,91.1
3,Unidade da Federação,50,Mato Grosso do Sul,2018,2018,10179,Coeficiente de variação - Taxa de realização de afazeres domésticos no próprio domicílio,6794,Total,120704,Total,2,%,0.6
3,Unidade da Federação,50,Mato Grosso do Sul,2019,2019,10178,Taxa de realização de afazeres domésticos no próprio domicílio,6794,Total,120704,Total,2,%,90.0
3,Unidade da Federação,50,Mato Grosso do Sul,2019,2019,10179,Coeficiente de variação - Taxa de realização de afazeres domésticos no próprio domicílio,6794,Total,120704,Total,2,%,0.6
3,Unidade da Federação,51,Mato Grosso,2016,2016,10178,Taxa de realização de afazeres domésticos no próprio domicílio,6794,Total,120704,Total,2,%,78.1
3,Unidade da Federação,51,Mato Grosso,2016,2016,10179,Coeficiente de variação - Taxa de realização de afazeres domésticos no próprio domicílio,6794,Total,120704,Total,2,%,1.7
3,Unidade da Federação,51,Mato Grosso,2017,2017,10178,Taxa de realização de afazeres domésticos no próprio domicílio,6794,Total,120704,Total,2,%,84.3
3,Unidade da Federação,51,Mato Grosso,2017,2017,10179,Coeficiente de variação - Taxa de realização de afazeres domésticos no próprio domicílio,6794,Total,120704,Total,2,%,0.9
3,Unidade da Federação,51,Mato Grosso,2018,2018,10178,Taxa de realização de afazeres domésticos no próprio domicílio,6794,Total,120704,Total,2,%,85.9
3,Unidade da Federação,51,Mato Grosso,2018,2018,10179,Coeficiente de variação - Taxa de realização de afazeres domésticos no próprio domicílio,6794,Total,120704,Total,2,%,0.8
3,Unidade da Federação,51,Mato Grosso,2019,2019,10178,Taxa de realização de afazeres domésticos no próprio domicílio,6794,Total,120704,Total,2,%,86.0
3,Unidade da Federação,51,Mato Grosso,2019,2019,10179,Coeficiente de variação - Taxa de realização de afazeres domésticos no próprio domicílio,6794,Total,120704,Total,2,%,0.8
3,Unidade da Federação,52,Goiás,2016,2016,10178,Taxa de realização de afazeres domésticos no próprio domicílio,6794,Total,120704,Total,2,%,81.4
3,Unidade da Federação,52,Goiás,2016,2016,10179,Coeficiente de variação - Taxa de realização de afazeres domésticos no próprio domicílio,6794,Total,120704,Total,2,%,0.9
3,Unidade da Federação,52,Goiás,2017,2017,10178,Taxa de realização de afazeres domésticos no próprio domicílio,6794,Total,120704,Total,2,%,85.8
3,Unidade da Federação,52,Goiás,2017,2017,10179,Coeficiente de variação - Taxa de realização de afazeres domésticos no próprio domicílio,6794,Total,120704,Total,2,%,0.8
3,Unidade da Federação,52,Goiás,2018,2018,10178,Taxa de realização de afazeres domésticos no próprio domicílio,6794,Total,120704,Total,2,%,87.3
3,Unidade da Federação,52,Goiás,2018,2018,10179,Coeficiente de variação - Taxa de realização de afazeres domésticos no próprio domicílio,6794,Total,120704,Total,2,%,0.7
3,Unidade da Federação,52,Goiás,2019,2019,10178,Taxa de realização de afazeres domésticos no próprio domicílio,6794,Total,120704,Total,2,%,89.3
3,Unidade da Federação,52,Goiás,2019,2019,10179,Coeficiente de variação - Taxa de realização de afazeres domésticos no próprio domicílio,6794,Total,120704,Total,2,%,0.7
3,Unidade da Federação,53,Distrito Federal,2016,2016,10178,Taxa de realização de afazeres domésticos no próprio domicílio,6794,Total,120704,Total,2,%,86.1
3,Unidade da Federação,53,Distrito Federal,2016,2016,10179,Coeficiente de variação - Taxa de realização de afazeres domésticos no próprio domicílio,6794,Total,120704,Total,2,%,1.0
3,Unidade da Federação,53,Distrito Federal,2017,2017,10178,Taxa de realização de afazeres domésticos no próprio domicílio,6794,Total,120704,Total,2,%,87.9
3,Unidade da Federação,53,Distrito Federal,2017,2017,10179,Coeficiente de variação - Taxa de realização de afazeres domésticos no próprio domicílio,6794,Total,120704,Total,2,%,1.1
3,Unidade da Federação,53,Distrito Federal,2018,2018,10178,Taxa de realização de afazeres domésticos no próprio domicílio,6794,Total,120704,Total,2,%,91.8
3,Unidade da Federação,53,Distrito Federal,2018,2018,10179,Coeficiente de variação - Taxa de realização de afazeres domésticos no próprio domicílio,6794,Total,120704,Total,2,%,0.7
3,Unidade da Federação,53,Distrito Federal,2019,2019,10178,Taxa de realização de afazeres domésticos no próprio domicílio,6794,Total,120704,Total,2,%,90.3
3,Unidade da Federação,53,Distrito Federal,2019,2019,10179,Coeficiente de variação - Taxa de realização de afazeres domésticos no próprio domicílio,6794,Total,120704,Total,2,%,1.0
