NC,NN,D1C,D1N,D2C,D2N,D3C,D3N,D4C,D4N,D5C,D5N,MC,MN,V
Nível Territorial (Código),Nível Territorial,Unidade da Federação (Código),Unidade da Federação,Ano (Código),Ano,Variável (Código),Variável,Sexo (Código),Sexo,Realização de afazeres domésticos ou cuidados de pessoas (Código),Realização de afazeres domésticos ou cuidados de pessoas,Unidade de Medida (Código),Unidade de Medida,Valor
3,Unidade da Federação,11,Rondônia,2016,2016,1641,Pessoas de 14 anos ou mais de idade,6794,Total,47584,Total,1572,Mil pessoas,1313
3,Unidade da Federação,11,Rondônia,2016,2016,4087,Coeficiente de variação - Pessoas de 14 anos ou mais de idade,6794,Total,47584,Total,2,%,0.9
3,Unidade da Federação,11,Rondônia,2016,2016,4104,Distribuição percentual das pessoas de 14 anos ou mais de idade,6794,Total,47584,Total,2,%,100.0
3,Unidade da Federação,11,Rondônia,2016,2016,4105,Coeficiente de variação - Distribuição percentual das pessoas de 14 anos ou mais de idade,6794,Total,47584,Total,2,%,-
3,Unidade da Federação,11,Rondônia,2017,2017,1641,Pessoas de 14 anos ou mais de idade,6794,Total,47584,Total,1572,Mil pessoas,1352
3,Unidade da Federação,11,Rondônia,2017,2017,4087,Coeficiente de variação - Pessoas de 14 anos ou mais de idade,6794,Total,47584,Total,2,%,1.0
3,Unidade da Federação,11,Rondônia,2017,2017,4104,Distribuição percentual das pessoas de 14 anos ou mais de idade,6794,Total,47584,Total,2,%,100.0
3,Unidade da Federação,11,Rondônia,2017,2017,4105,Coeficiente de variação - Distribuição percentual das pessoas de 14 anos ou mais de idade,6794,Total,47584,Total,2,%,-
3,Unidade da Federação,11,Rondônia,2018,2018,1641,Pessoas de 14 anos ou mais de idade,6794,Total,47584,Total,1572,Mil pessoas,1389
3,Unidade da Federação,11,Rondônia,2018,2018,4087,Coeficiente de variação - Pessoas de 14 anos ou mais de idade,6794,Total,47584,Total,2,%,0.7
3,Unidade da Federação,11,Rondônia,2018,2018,4104,Distribuição percentual das pessoas de 14 anos ou mais de idade,6794,Total,47584,Total,2,%,100.0
3,Unidade da Federação,11,Rondônia,2018,2018,4105,Coeficiente de variação - Distribuição percentual das pessoas de 14 anos ou mais de idade,6794,Total,47584,Total,2,%,-
3,Unidade da Federação,11,Rondônia,2019,2019,1641,Pessoas de 14 anos ou mais de idade,6794,Total,47584,Total,1572,Mil pessoas,1406
3,Unidade da Federação,11,Rondônia,2019,2019,4087,Coeficiente de variação - Pessoas de 14 anos ou mais de idade,6794,Total,47584,Total,2,%,0.8
3,Unidade da Federação,11,Rondônia,2019,2019,4104,Distribuição percentual das pessoas de 14 anos ou mais de idade,6794,Total,47584,Total,2,%,100.0
3,Unidade da Federação,11,Rondônia,2019,2019,4105,Coeficiente de variação - Distribuição percentual das pessoas de 14 anos ou mais de idade,6794,Total,47584,Total,2,%,-
3,Unidade da Federação,12,Acre,2016,2016,1641,Pessoas de 14 anos ou mais de idade,6794,Total,47584,Total,1572,Mil pessoas,604
3,Unidade da Federação,12,Acre,2016,2016,4087,Coeficiente de variação - Pessoas de 14 anos ou mais de idade,6794,Total,47584,Total,2,%,1.1
3,Unidade da Federação,12,Acre,2016,2016,4104,Distribuição percentual das pessoas de 14 anos ou mais de idade,6794,Total,47584,Total,2,%,100.0
3,Unidade da Federação,12,Acre,2016,2016,4105,Coeficiente de variação - Distribuição percentual das pessoas de 14 anos ou mais de idade,6794,Total,47584,Total,2,%,-
3,Unidade da Federação,12,Acre,2017,2017,1641,Pessoas de 14 anos ou mais de idade,6794,Total,47584,Total,1572,Mil pessoas,621
3,Unidade da Federação,12,Acre,2017,2017,4087,Coeficiente de variação - Pessoas de 14 anos ou mais de idade,6794,Total,47584,Total,2,%,0.8
3,Unidade da Federação,12,Acre,2017,2017,4104,Distribuição percentual das pessoas de 14 anos ou mais de idade,6794,Total,47584,Total,2,%,100.0
3,Unidade da Federação,12,Acre,2017,2017,4105,Coeficiente de variação - Distribuição percentual das pessoas de 14 anos ou mais de idade,6794,Total,47584,Total,2,%,-
3,Unidade da Federação,12,Acre,2018,2018,1641,Pessoas de 14 anos ou mais de idade,6794,Total,47584,Total,1572,Mil pessoas,633
3,Unidade da Federação,12,Acre,2018,2018,4087,Coeficiente de variação - Pessoas de 14 anos ou mais de idade,6794,Total,47584,Total,2,%,0.8
3,Unidade da Federação,12,Acre,2018,2018,4104,Distribuição percentual das pessoas de 14 anos ou mais de idade,6794,Total,47584,Total,2,%,100.0
3,Unidade da Federação,12,Acre,2018,2018,4105,Coeficiente de variação - Distribuição percentual das pessoas de 14 anos ou mais de idade,6794,Total,47584,Total,2,%,-
3,Unidade da Federação,12,Acre,2019,2019,1641,Pessoas de 14 anos ou mais de idade,6794,Total,47584,Total,1572,Mil pessoas,663
3,Unidade da Federação,12,Acre,2019,2019,4087,Coeficiente de variação - Pessoas de 14 anos ou mais de idade,6794,Total,47584,Total,2,%,0.8
3,Unidade da Federação,12,Acre,2019,2019,4104,Distribuição percentual das pessoas de 14 anos ou mais de idade,6794,Total,47584,Total,2,%,100.0
3,Unidade da Federação,12,Acre,2019,2019,4105,Coeficiente de variação - Distribuição percentual das pessoas de 14 anos ou mais de idade,6794,Total,47584,Total,2,%,-
3,Unidade da Federação,13,Amazonas,2016,2016,1641,Pessoas de 14 anos ou mais de idade,6794,Total,47584,Total,1572,Mil pessoas,2785
3,Unidade da Federação,13,Amazonas,2016,2016,4087,Coeficiente de variação - Pessoas de 14 anos ou mais de idade,6794,Total,47584,Total,2,%,0.8
3,Unidade da Federação,13,Amazonas,2016,2016,4104,Distribuição percentual das pessoas de 14 anos ou mais de idade,6794,Total,47584,Total,2,%,100.0
3,Unidade da Federação,13,Amazonas,2016,2016,4105,Coeficiente de variação - Distribuição percentual das pessoas de 14 anos ou mais de idade,6794,Total,47584,Total,2,%,-
3,Unidade da Federação,13,Amazonas,2017,2017,1641,Pessoas de 14 anos ou mais de idade,6794,Total,47584,Total,1572,Mil pessoas,2840
3,Unidade da Federação,13,Amazonas,2017,2017,4087,Coeficiente de variação - Pessoas de 14 anos ou mais de idade,6794,Total,47584,Total,2,%,0.7
3,Unidade da Federação,13,Amazonas,2017,2017,4104,Distribuição percentual das pessoas de 14 anos ou mais de idade,6794,Total,47584,Total,2,%,100.0
3,Unidade da Federação,13,Amazonas,2017,2017,4105,Coeficiente de variação - Distribuição percentual das pessoas de 14 anos ou mais de idade,6794,Total,47584,Total,2,%,-
3,Unidade da Federação,13,Amazonas,2018,2018,1641,Pessoas de 14 anos ou mais de idade,6794,Total,47584,Total,1572,Mil pessoas,2948
3,Unidade da Federação,13,Amazonas,2018,2018,4087,Coeficiente de variação - Pessoas de 14 anos ou mais de idade,6794,Total,47584,Total,2,%,0.7
3,Unidade da Federação,13,Amazonas,2018,2018,4104,Distribuição percentual das pessoas de 14 anos ou mais de idade,6794,Total,47584,Total,2,%,100.0
3,Unidade da Federação,13,Amazonas,2018,2018,4105,Coeficiente de variação - Distribuição percentual das pessoas de 14 anos ou mais de idade,6794,Total,47584,Total,2,%,-
3,Unidade da Federação,13,Amazonas,2019,2019,1641,Pessoas de 14 anos ou mais de idade,6794,Total,47584,Total,1572,Mil pessoas,3025
3,Unidade da Federação,13,Amazonas,2019,2019,4087,Coeficiente de variação - Pessoas de 14 anos ou mais de idade,6794,Total,47584,Total,2,%,0.7
3,Unidade da Federação,13,Amazonas,2019,2019,4104,Distribuição percentual das pessoas de 14 anos ou mais de idade,6794,Total,47584,Total,2,%,100.0
3,Unidade da Federação,13,Amazonas,2019,2019,4105,Coeficiente de variação - Distribuição percentual das pessoas de 14 anos ou mais de idade,6794,Total,47584,Total,2,%,-
3,Unidade da Federação,14,Roraima,2016,2016,1641,Pessoas de 14 anos ou mais de idade,6794,Total,47584,Total,1572,Mil pessoas,343
3,Unidade da Federação,14,Roraima,2016,2016,4087,Coeficiente de variação - Pessoas de 14 anos ou mais de idade,6794,Total,47584,Total,2,%,1.1
3,Unidade da Federação,14,Roraima,2016,2016,4104,Distribuição percentual das pessoas de 14 anos ou mais de idade,6794,Total,47584,Total,2,%,100.0
3,Unidade da Federação,14,Roraima,2016,2016,4105,Coeficiente de variação - Distribuição percentual das pessoas de 14 anos ou mais de idade,6794,Total,47584,Total,2,%,-
3,Unidade da Federação,14,Roraima,2017,2017,1641,Pessoas de 14 anos ou mais de idade,6794,Total,47584,Total,1572,Mil pessoas,364
3,Unidade da Federação,14,Roraima,2017,2017,4087,Coeficiente de variação - Pessoas de 14 anos ou mais de idade,6794,Total,47584,Total,2,%,1.1
3,Unidade da Federação,14,Roraima,2017,2017,4104,Distribuição percentual das pessoas de 14 anos ou mais de idade,6794,Total,47584,Total,2,%,100.0
3,Unidade da Federação,14,Roraima,2017,2017,4105,Coeficiente de variação - Distribuição percentual das pessoas de 14 anos ou mais de idade,6794,Total,47584,Total,2,%,-
3,Unidade da Federação,14,Roraima,2018,2018,1641,Pessoas de 14 anos ou mais de idade,6794,Total,47584,Total,1572,Mil pessoas,387
3,Unidade da Federação,14,Roraima,2018,2018,4087,Coeficiente de variação - Pessoas de 14 anos ou mais de idade,6794,Total,47584,Total,2,%,1.2
3,Unidade da Federação,14,Roraima,2018,2018,4104,Distribuição percentual das pessoas de 14 anos ou mais de idade,6794,Total,47584,Total,2,%,100.0
3,Unidade da Federação,14,Roraima,2018,2018,4105,Coeficiente de variação - Distribuição percentual das pessoas de 14 anos ou mais de idade,6794,Total,47584,Total,2,%,-
3,Unidade da Federação,14,Roraima,2019,2019,1641,Pessoas de 14 anos ou mais de idade,6794,Total,47584,Total,1572,Mil pessoas,411
3,Unidade da Federação,14,Roraima,2019,2019,4087,Coeficiente de variação - Pessoas de 14 anos ou mais de idade,6794,Total,47584,Total,2,%,1.0
3,Unidade da Federação,14,Roraima,2019,2019,4104,Distribuição percentual das pessoas de 14 anos ou mais de idade,6794,Total,47584,Total,2,%,100.0
3,Unidade da Federação,14,Roraima,2019,2019,4105,Coeficiente de variação - Distribuição percentual das pessoas de 14 anos ou mais de idade,6794,Total,47584,Total,2,%,-
3,Unidade da Federação,15,Pará,2016,2016,1641,Pessoas de 14 anos ou mais de idade,6794,Total,47584,Total,1572,Mil pessoas,6234
3,Unidade da Federação,15,Pará,2016,2016,4087,Coeficiente de variação - Pessoas de 14 anos ou mais de idade,6794,Total,47584,Total,2,%,0.6
3,Unidade da Federação,15,Pará,2016,2016,4104,Distribuição percentual das pessoas de 14 anos ou mais de idade,6794,Total,47584,Total,2,%,100.0
3,Unidade da Federação,15,Pará,2016,2016,4105,Coeficiente de variação - Distribuição percentual das pessoas de 14 anos ou mais de idade,6794,Total,47584,Total,2,%,-
3,Unidade da Federação,15,Pará,2017,2017,1641,Pessoas de 14 anos ou mais de idade,6794,Total,47584,Total,1572,Mil pessoas,6411
3,Unidade da Federação,15,Pará,2017,2017,4087,Coeficiente de variação - Pessoas de 14 anos ou mais de idade,6794,Total,47584,Total,2,%,0.5
3,Unidade da Federação,15,Pará,2017,2017,4104,Distribuição percentual das pessoas de 14 anos ou mais de idade,6794,Total,47584,Total,2,%,100.0
3,Unidade da Federação,15,Pará,2017,2017,4105,Coeficiente de variação - Distribuição percentual das pessoas de 14 anos ou mais de idade,6794,Total,47584,Total,2,%,-
3,Unidade da Federação,15,Pará,2018,2018,1641,Pessoas de 14 anos ou mais de idade,6794,Total,47584,Total,1572,Mil pessoas,6541
3,Unidade da Federação,15,Pará,2018,2018,4087,Coeficiente de variação - Pessoas de 14 anos ou mais de idade,6794,Total,47584,Total,2,%,0.6
3,Unidade da Federação,15,Pará,2018,2018,4104,Distribuição percentual das pessoas de 14 anos ou mais de idade,6794,Total,47584,Total,2,%,100.0
3,Unidade da Federação,15,Pará,2018,2018,4105,Coeficiente de variação - Distribuição percentual das pessoas de 14 anos ou mais de idade,6794,Total,47584,Total,2,%,-
3,Unidade da Federação,15,Pará,2019,2019,1641,Pessoas de 14 anos ou mais de idade,6794,Total,47584,Total,1572,Mil pessoas,6575
3,Unidade da Federação,15,Pará,2019,2019,4087,Coeficiente de variação - Pessoas de 14 anos ou mais de idade,6794,Total,47584,Total,2,%,0.6
3,Unidade da Federação,15,Pará,2019,2019,4104,Distribuição percentual das pessoas de 14 anos ou mais de idade,6794,Total,47584,Total,2,%,100.0
3,Unidade da Federação,15,Pará,2019,2019,4105,Coeficiente de variação - Distribuição percentual das pessoas de 14 anos ou mais de idade,6794,Total,47584,Total,2,%,-
3,Unidade da Federação,16,Amapá,2016,2016,1641,Pessoas de 14 anos ou mais de idade,6794,Total,47584,Total,1572,Mil pessoas,566
3,Unidade da Federação,16,Amapá,2016,2016,4087,Coeficiente de variação - Pessoas de 14 anos ou mais de idade,6794,Total,47584,Total,2,%,1.4
3,Unidade da Federação,16,Amapá,2016,2016,4104,Distribuição percentual das pessoas de 14 anos ou mais de idade,6794,Total,47584,Total,2,%,100.0
3,Unidade da Federação,16,Amapá,2016,2016,4105,Coeficiente de variação - Distribuição percentual das pessoas de 14 anos ou mais de idade,6794,Total,47584,Total,2,%,-
3,Unidade da Federação,16,Amapá,2017,2017,1641,Pessoas de 14 anos ou mais de idade,6794,Total,47584,Total,1572,Mil pessoas,602
3,Unidade da Federação,16,Amapá,2017,2017,4087,Coeficiente de variação - Pessoas de 14 anos ou mais de idade,6794,Total,47584,Total,2,%,1.0
3,Unidade da Federação,16,Amapá,2017,2017,4104,Distribuição percentual das pessoas de 14 anos ou mais de idade,6794,Total,47584,Total,2,%,100.0
3,Unidade da Federação,16,Amapá,2017,2017,4105,Coeficiente de variação - Distribuição percentual das pessoas de 14 anos ou mais de idade,6794,Total,47584,Total,2,%,-
3,Unidade da Federação,16,Amapá,2018,2018,1641,Pessoas de 14 anos ou mais de idade,6794,Total,47584,Total,1572,Mil pessoas,626
3,Unidade da Federação,16,Amapá,2018,2018,4087,Coeficiente de variação - Pessoas de 14 anos ou mais de idade,6794,Total,47584,Total,2,%,1.3
3,Unidade da Federação,16,Amapá,2018,2018,4104,Distribuição percentual das pessoas de 14 anos ou mais de idade,6794,Total,47584,Total,2,%,100.0
3,Unidade da Federação,16,Amapá,2018,2018,4105,Coeficiente de variação - Distribuição percentual das pessoas de 14 anos ou mais de idade,6794,Total,47584,Total,2,%,-
3,Unidade da Federação,16,Amapá,2019,2019,1641,Pessoas de 14 anos ou mais de idade,6794,Total,47584,Total,1572,Mil pessoas,646
3,Unidade da Federação,16,Amapá,2019,2019,4087,Coeficiente de variação - Pessoas de 14 anos ou mais de idade,6794,Total,47584,Total,2,%,1.2
3,Unidade da Federação,16,Amapá,2019,2019,4104,Distribuição percentual das pessoas de 14 anos ou mais de idade,6794,Total,47584,Total,2,%,100.0
3,Unidade da Federação,16,Amapá,2019,2019,4105,Coeficiente de variação - Distribuição percentual das pessoas de 14 anos ou mais de idade,6794,Total,47584,Total,2,%,-
3,Unidade da Federação,17,Tocantins,2016,2016,1641,Pessoas de 14 anos ou mais de idade,6794,Total,47584,Total,1572,Mil pessoas,1150
3,Unidade da Federação,17,Tocantins,2016,2016,4087,Coeficiente de variação - Pessoas de 14 anos ou mais de idade,6794,Total,47584,Total,2,%,1.1
3,Unidade da Federação,17,Tocantins,2016,2016,4104,Distribuição percentual das pessoas de 14 anos ou mais de idade,6794,Total,47584,Total,2,%,100.0
3,Unidade da Federação,17,Tocantins,2016,2016,4105,Coeficiente de variação - Distribuição percentual das pessoas de 14 anos ou mais de idade,6794,Total,47584,Total,2,%,-
3,Unidade da Federação,17,Tocantins,2017,2017,1641,Pessoas de 14 anos ou mais de idade,6794,Total,47584,Total,1572,Mil pessoas,1184
3,Unidade da Federação,17,Tocantins,2017,2017,4087,Coeficiente de variação - Pessoas de 14 anos ou mais de idade,6794,Total,47584,Total,2,%,1.1
3,Unidade da Federação,17,Tocantins,2017,2017,4104,Distribuição percentual das pessoas de 14 anos ou mais de idade,6794,Total,47584,Total,2,%,100.0
3,Unidade da Federação,17,Tocantins,2017,2017,4105,Coeficiente de variação - Distribuição percentual das pessoas de 14 anos ou mais de idade,6794,Total,47584,Total,2,%,-
3,Unidade da Federação,17,Tocantins,2018,2018,1641,Pessoas de 14 anos ou mais de idade,6794,Total,47584,Total,1572,Mil pessoas,1222
3,Unidade da Federação,17,Tocantins,2018,2018,4087,Coeficiente de variação - Pessoas de 14 anos ou mais de idade,6794,Total,47584,Total,2,%,0.9
3,Unidade da Federação,17,Tocantins,2018,2018,4104,Distribuição percentual das pessoas de 14 anos ou mais de idade,6794,Total,47584,Total,2,%,100.0
3,Unidade da Federação,17,Tocantins,2018,2018,4105,Coeficiente de variação - Distribuição percentual das pessoas de 14 anos ou mais de idade,6794,Total,47584,Total,2,%,-
3,Unidade da Federação,17,Tocantins,2019,2019,1641,Pessoas de 14 anos ou mais de idade,6794,Total,47584,Total,1572,Mil pessoas,1227
3,Unidade da Federação,17,Tocantins,2019,2019,4087,Coeficiente de variação - Pessoas de 14 anos ou mais de idade,6794,Total,47584,Total,2,%,0.9
3,Unidade da Federação,17,Tocantins,2019,2019,4104,Distribuição percentual das pessoas de 14 anos ou mais de idade,6794,Total,47584,Total,2,%,100.0
3,Unidade da Federação,17,Tocantins,2019,2019,4105,Coeficiente de variação - Distribuição percentual das pessoas de 14 anos ou mais de idade,6794,Total,47584,Total,2,%,-
3,Unidade da Federação,21,Maranhão,2016,2016,1641,Pessoas de 14 anos ou mais de idade,6794,Total,47584,Total,1572,Mil pessoas,5168
3,Unidade da Federação,21,Maranhão,2016,2016,4087,Coeficiente de variação - Pessoas de 14 anos ou mais de idade,6794,Total,47584,Total,2,%,0.5
3,Unidade da Federação,21,Maranhão,2016,2016,4104,Distribuição percentual das pessoas de 14 anos ou mais de idade,6794,Total,47584,Total,2,%,100.0
3,Unidade da Federação,21,Maranhão,2016,2016,4105,Coeficiente de variação - Distribuição percentual das pessoas de 14 anos ou mais de idade,6794,Total,47584,Total,2,%,-
3,Unidade da Federação,21,Maranhão,2017,2017,1641,Pessoas de 14 anos ou mais de idade,6794,Total,47584,Total,1572,Mil pessoas,5256
3,Unidade da Federação,21,Maranhão,2017,2017,4087,Coeficiente de variação - Pessoas de 14 anos ou mais de idade,6794,Total,47584,Total,2,%,0.5
3,Unidade da Federação,21,Maranhão,2017,2017,4104,Distribuição percentual das pessoas de 14 anos ou mais de idade,6794,Total,47584,Total,2,%,100.0
3,Unidade da Federação,21,Maranhão,2017,2017,4105,Coeficiente de variação - Distribuição percentual das pessoas de 14 anos ou mais de idade,6794,Total,47584,Total,2,%,-
3,Unidade da Federação,21,Maranhão,2018,2018,1641,Pessoas de 14 anos ou mais de idade,6794,Total,47584,Total,1572,Mil pessoas,5324
3,Unidade da Federação,21,Maranhão,2018,2018,4087,Coeficiente de variação - Pessoas de 14 anos ou mais de idade,6794,Total,47584,Total,2,%,0.4
3,Unidade da Federação,21,Maranhão,2018,2018,4104,Distribuição percentual das pessoas de 14 anos ou mais de idade,6794,Total,47584,Total,2,%,100.0
3,Unidade da Federação,21,Maranhão,2018,2018,4105,Coeficiente de variação - Distribuição percentual das pessoas de 14 anos ou mais de idade,6794,Total,47584,Total,2,%,-
3,Unidade da Federação,21,Maranhão,2019,2019,1641,Pessoas de 14 anos ou mais de idade,6794,Total,47584,Total,1572,Mil pessoas,5379
3,Unidade da Federação,21,Maranhão,2019,2019,4087,Coeficiente de variação - Pessoas de 14 anos ou mais de idade,6794,Total,47584,Total,2,%,0.4
3,Unidade da Federação,21,Maranhão,2019,2019,4104,Distribuição percentual das pessoas de 14 anos ou mais de idade,6794,Total,47584,Total,2,%,100.0
3,Unidade da Federação,21,Maranhão,2019,2019,4105,Coeficiente de variação - Distribuição percentual das pessoas de 14 anos ou mais de idade,6794,Total,47584,Total,2,%,-
3,Unidade da Federação,22,Piauí,2016,2016,1641,Pessoas de 14 anos ou mais de idade,6794,Total,47584,Total,1572,Mil pessoas,2594
3,Unidade da Federação,22,Piauí,2016,2016,4087,Coeficiente de variação - Pessoas de 14 anos ou mais de idade,6794,Total,47584,Total,2,%,0.8
3,Unidade da Federação,22,Piauí,2016,2016,4104,Distribuição percentual das pessoas de 14 anos ou mais de idade,6794,Total,47584,Total,2,%,100.0
3,Unidade da Federação,22,Piauí,2016,2016,4105,Coeficiente de variação - Distribuição percentual das pessoas de 14 anos ou mais de idade,6794,Total,47584,Total,2,%,-
3,Unidade da Federação,22,Piauí,2017,2017,1641,Pessoas de 14 anos ou mais de idade,6794,Total,47584,Total,1572,Mil pessoas,2606
3,Unidade da Federação,22,Piauí,2017,2017,4087,Coeficiente de variação - Pessoas de 14 anos ou mais de idade,6794,Total,47584,Total,2,%,0.8
3,Unidade da Federação,22,Piauí,2017,2017,4104,Distribuição percentual das pessoas de 14 anos ou mais de idade,6794,Total,47584,Total,2,%,100.0
3,Unidade da Federação,22,Piauí,2017,2017,4105,Coeficiente de variação - Distribuição percentual das pessoas de 14 anos ou mais de idade,6794,Total,47584,Total,2,%,-
3,Unidade da Federação,22,Piauí,2018,2018,1641,Pessoas de 14 anos ou mais de idade,6794,Total,47584,Total,1572,Mil pessoas,2593
3,Unidade da Federação,22,Piauí,2018,2018,4087,Coeficiente de variação - Pessoas de 14 anos ou mais de idade,6794,Total,47584,Total,2,%,0.7
3,Unidade da Federação,22,Piauí,2018,2018,4104,Distribuição percentual das pessoas de 14 anos ou mais de idade,6794,Total,47584,Total,2,%,100.0
3,Unidade da Federação,22,Piauí,2018,2018,4105,Coeficiente de variação - Distribuição percentual das pessoas de 14 anos ou mais de idade,6794,Total,47584,Total,2,%,-
3,Unidade da Federação,22,Piauí,2019,2019,1641,Pessoas de 14 anos ou mais de idade,6794,Total,47584,Total,1572,Mil pessoas,2621
3,Unidade da Federação,22,Piauí,2019,2019,4087,Coeficiente de variação - Pessoas de 14 anos ou mais de idade,6794,Total,47584,Total,2,%,0.7
3,Unidade da Federação,22,Piauí,2019,2019,4104,Distribuição percentual das pessoas de 14 anos ou mais de idade,6794,Total,47584,Total,2,%,100.0
3,Unidade da Federação,22,Piauí,2019,2019,4105,Coeficiente de variação - Distribuição percentual das pessoas de 14 anos ou mais de idade,6794,Total,47584,Total,2,%,-
3,Unidade da Federação,23,Ceará,2016,2016,1641,Pessoas de 14 anos ou mais de idade,6794,Total,47584,Total,1572,Mil pessoas,7107
3,Unidade da Federação,23,Ceará,2016,2016,4087,Coeficiente de variação - Pessoas de 14 anos ou mais de idade,6794,Total,47584,Total,2,%,0.4
3,Unidade da Federação,23,Ceará,2016,2016,4104,Distribuição percentual das pessoas de 14 anos ou mais de idade,6794,Total,47584,Total,2,%,100.0
3,Unidade da Federação,23,Ceará,2016,2016,4105,Coeficiente de variação - Distribuição percentual das pessoas de 14 anos ou mais de idade,6794,Total,47584,Total,2,%,-
3,Unidade da Federação,23,Ceará,2017,2017,1641,Pessoas de 14 anos ou mais de idade,6794,Total,47584,Total,1572,Mil pessoas,7247
3,Unidade da Federação,23,Ceará,2017,2017,4087,Coeficiente de variação - Pessoas de 14 anos ou mais de idade,6794,Total,47584,Total,2,%,0.4
3,Unidade da Federação,23,Ceará,2017,2017,4104,Distribuição percentual das pessoas de 14 anos ou mais de idade,6794,Total,47584,Total,2,%,100.0
3,Unidade da Federação,23,Ceará,2017,2017,4105,Coeficiente de variação - Distribuição percentual das pessoas de 14 anos ou mais de idade,6794,Total,47584,Total,2,%,-
3,Unidade da Federação,23,Ceará,2018,2018,1641,Pessoas de 14 anos ou mais de idade,6794,Total,47584,Total,1572,Mil pessoas,7344
3,Unidade da Federação,23,Ceará,2018,2018,4087,Coeficiente de variação - Pessoas de 14 anos ou mais de idade,6794,Total,47584,Total,2,%,0.5
3,Unidade da Federação,23,Ceará,2018,2018,4104,Distribuição percentual das pessoas de 14 anos ou mais de idade,6794,Total,47584,Total,2,%,100.0
3,Unidade da Federação,23,Ceará,2018,2018,4105,Coeficiente de variação - Distribuição percentual das pessoas de 14 anos ou mais de idade,6794,Total,47584,Total,2,%,-
3,Unidade da Federação,23,Ceará,2019,2019,1641,Pessoas de 14 anos ou mais de idade,6794,Total,47584,Total,1572,Mil pessoas,7362
3,Unidade da Federação,23,Ceará,2019,2019,4087,Coeficiente de variação - Pessoas de 14 anos ou mais de idade,6794,Total,47584,Total,2,%,0.4
3,Unidade da Federação,23,Ceará,2019,2019,4104,Distribuição percentual das pessoas de 14 anos ou mais de idade,6794,Total,47584,Total,2,%,100.0
3,Unidade da Federação,23,Ceará,2019,2019,4105,Coeficiente de variação - Distribuição percentual das pessoas de 14 anos ou mais de idade,6794,Total,47584,Total,2,%,-
3,Unidade da Federação,24,Rio Grande do Norte,2016,2016,1641,Pessoas de 14 anos ou mais de idade,6794,Total,47584,Total,1572,Mil pessoas,2762
3,Unidade da Federação,24,Rio Grande do Norte,2016,2016,4087,Coeficiente de variação - Pessoas de 14 anos ou mais de idade,6794,Total,47584,Total,2,%,0.6
3,Unidade da Federação,24,Rio Grande do Norte,2016,2016,4104,Distribuição percentual das pessoas de 14 anos ou mais de idade,6794,Total,47584,Total,2,%,100.0
3,Unidade da Federação,24,Rio Grande do Norte,2016,2016,4105,Coeficiente de variação - Distribuição percentual das pessoas de 14 anos ou mais de idade,6794,Total,47584,Total,2,%,-
3,Unidade da Federação,24,Rio Grande do Norte,2017,2017,1641,Pessoas de 14 anos ou mais de idade,6794,Total,47584,Total,1572,Mil pessoas,2818
3,Unidade da Federação,24,Rio Grande do Norte,2017,2017,4087,Coeficiente de variação - Pessoas de 14 anos ou mais de idade,6794,Total,47584,Total,2,%,0.6
3,Unidade da Federação,24,Rio Grande do Norte,2017,2017,4104,Distribuição percentual das pessoas de 14 anos ou mais de idade,6794,Total,47584,Total,2,%,100.0
3,Unidade da Federação,24,Rio Grande do Norte,2017,2017,4105,Coeficiente de variação - Distribuição percentual das pessoas de 14 anos ou mais de idade,6794,Total,47584,Total,2,%,-
3,Unidade da Federação,24,Rio Grande do Norte,2018,2018,1641,Pessoas de 14 anos ou mais de idade,6794,Total,47584,Total,1572,Mil pessoas,2841
3,Unidade da Federação,24,Rio Grande do Norte,2018,2018,4087,Coeficiente de variação - Pessoas de 14 anos ou mais de idade,6794,Total,47584,Total,2,%,0.6
3,Unidade da Federação,24,Rio Grande do Norte,2018,2018,4104,Distribuição percentual das pessoas de 14 anos ou mais de idade,6794,Total,47584,Total,2,%,100.0
3,Unidade da Federação,24,Rio Grande do Norte,2018,2018,4105,Coeficiente de variação - Distribuição percentual das pessoas de 14 anos ou mais de idade,6794,Total,47584,Total,2,%,-
3,Unidade da Federação,24,Rio Grande do Norte,2019,2019,1641,Pessoas de 14 anos ou mais de idade,6794,Total,47584,Total,1572,Mil pessoas,2852
3,Unidade da Federação,24,Rio Grande do Norte,2019,2019,4087,Coeficiente de variação - Pessoas de 14 anos ou mais de idade,6794,Total,47584,Total,2,%,0.7
3,Unidade da Federação,24,Rio Grande do Norte,2019,2019,4104,Distribuição percentual das pessoas de 14 anos ou mais de idade,6794,Total,47584,Total,2,%,100.0
3,Unidade da Federação,24,Rio Grande do Norte,2019,2019,4105,Coeficiente de variação - Distribuição percentual das pessoas de 14 anos ou mais de idade,6794,Total,47584,Total,2,%,-
3,Unidade da Federação,25,Paraíba,2016,2016,1641,Pessoas de 14 anos ou mais de idade,6794,Total,47584,Total,1572,Mil pessoas,3135
3,Unidade da Federação,25,Paraíba,2016,2016,4087,Coeficiente de variação - Pessoas de 14 anos ou mais de idade,6794,Total,47584,Total,2,%,0.6
3,Unidade da Federação,25,Paraíba,2016,2016,4104,Distribuição percentual das pessoas de 14 anos ou mais de idade,6794,Total,47584,Total,2,%,100.0
3,Unidade da Federação,25,Paraíba,2016,2016,4105,Coeficiente de variação - Distribuição percentual das pessoas de 14 anos ou mais de idade,6794,Total,47584,Total,2,%,-
3,Unidade da Federação,25,Paraíba,2017,2017,1641,Pessoas de 14 anos ou mais de idade,6794,Total,47584,Total,1572,Mil pessoas,3177
3,Unidade da Federação,25,Paraíba,2017,2017,4087,Coeficiente de variação - Pessoas de 14 anos ou mais de idade,6794,Total,47584,Total,2,%,0.6
3,Unidade da Federação,25,Paraíba,2017,2017,4104,Distribuição percentual das pessoas de 14 anos ou mais de idade,6794,Total,47584,Total,2,%,100.0
3,Unidade da Federação,25,Paraíba,2017,2017,4105,Coeficiente de variação - Distribuição percentual das pessoas de 14 anos ou mais de idade,6794,Total,47584,Total,2,%,-
3,Unidade da Federação,25,Paraíba,2018,2018,1641,Pessoas de 14 anos ou mais de idade,6794,Total,47584,Total,1572,Mil pessoas,3192
3,Unidade da Federação,25,Paraíba,2018,2018,4087,Coeficiente de variação - Pessoas de 14 anos ou mais de idade,6794,Total,47584,Total,2,%,0.7
3,Unidade da Federação,25,Paraíba,2018,2018,4104,Distribuição percentual das pessoas de 14 anos ou mais de idade,6794,Total,47584,Total,2,%,100.0
3,Unidade da Federação,25,Paraíba,2018,2018,4105,Coeficiente de variação - Distribuição percentual das pessoas de 14 anos ou mais de idade,6794,Total,47584,Total,2,%,-
3,Unidade da Federação,25,Paraíba,2019,2019,1641,Pessoas de 14 anos ou mais de idade,6794,Total,47584,Total,1572,Mil pessoas,3219
3,Unidade da Federação,25,Paraíba,2019,2019,4087,Coeficiente de variação - Pessoas de 14 anos ou mais de idade,6794,Total,47584,Total,2,%,0.6
3,Unidade da Federação,25,Paraíba,2019,2019,4104,Distribuição percentual das pessoas de 14 anos ou mais de idade,6794,Total,47584,Total,2,%,100.0
3,Unidade da Federação,25,Paraíba,2019,2019,4105,Coeficiente de variação - Distribuição percentual das pessoas de 14 anos ou mais de idade,6794,Total,47584,Total,2,%,-
3,Unidade da Federação,26,Pernambuco,2016,2016,1641,Pessoas de 14 anos ou mais de idade,6794,Total,47584,Total,1572,Mil pessoas,7503
3,Unidade da Federação,26,Pernambuco,2016,2016,4087,Coeficiente de variação - Pessoas de 14 anos ou mais de idade,6794,Total,47584,Total,2,%,0.5
3,Unidade da Federação,26,Pernambuco,2016,2016,4104,Distribuição percentual das pessoas de 14 anos ou mais de idade,6794,Total,47584,Total,2,%,100.0
3,Unidade da Federação,26,Pernambuco,2016,2016,4105,Coeficiente de variação - Distribuição percentual das pessoas de 14 anos ou mais de idade,6794,Total,47584,Total,2,%,-
3,Unidade da Federação,26,Pernambuco,2017,2017,1641,Pessoas de 14 anos ou mais de idade,6794,Total,47584,Total,1572,Mil pessoas,7611
3,Unidade da Federação,26,Pernambuco,2017,2017,4087,Coeficiente de variação - Pessoas de 14 anos ou mais de idade,6794,Total,47584,Total,2,%,0.5
3,Unidade da Federação,26,Pernambuco,2017,2017,4104,Distribuição percentual das pessoas de 14 anos ou mais de idade,6794,Total,47584,Total,2,%,100.0
3,Unidade da Federação,26,Pernambuco,2017,2017,4105,Coeficiente de variação - Distribuição percentual das pessoas de 14 anos ou mais de idade,6794,Total,47584,Total,2,%,-
3,Unidade da Federação,26,Pernambuco,2018,2018,1641,Pessoas de 14 anos ou mais de idade,6794,Total,47584,Total,1572,Mil pessoas,7638
3,Unidade da Federação,26,Pernambuco,2018,2018,4087,Coeficiente de variação - Pessoas de 14 anos ou mais de idade,6794,Total,47584,Total,2,%,0.5
3,Unidade da Federação,26,Pernambuco,2018,2018,4104,Distribuição percentual das pessoas de 14 anos ou mais de idade,6794,Total,47584,Total,2,%,100.0
3,Unidade da Federação,26,Pernambuco,2018,2018,4105,Coeficiente de variação - Distribuição percentual das pessoas de 14 anos ou mais de idade,6794,Total,47584,Total,2,%,-
3,Unidade da Federação,26,Pernambuco,2019,2019,1641,Pessoas de 14 anos ou mais de idade,6794,Total,47584,Total,1572,Mil pessoas,7631
3,Unidade da Federação,26,Pernambuco,2019,2019,4087,Coeficiente de variação - Pessoas de 14 anos ou mais de idade,6794,Total,47584,Total,2,%,0.5
3,Unidade da Federação,26,Pernambuco,2019,2019,4104,Distribuição percentual das pessoas de 14 anos ou mais de idade,6794,Total,47584,Total,2,%,100.0
3,Unidade da Federação,26,Pernambuco,2019,2019,4105,Coeficiente de variação - Distribuição percentual das pessoas de 14 anos ou mais de idade,6794,Total,47584,Total,2,%,-
3,Unidade da Federação,27,Alagoas,2016,2016,1641,Pessoas de 14 anos ou mais de idade,6794,Total,47584,Total,1572,Mil pessoas,2574
3,Unidade da Federação,27,Alagoas,2016,2016,4087,Coeficiente de variação - Pessoas de 14 anos ou mais de idade,6794,Total,47584,Total,2,%,0.5
3,Unidade da Federação,27,Alagoas,2016,2016,4104,Distribuição percentual das pessoas de 14 anos ou mais de idade,6794,Total,47584,Total,2,%,100.0
3,Unidade da Federação,27,Alagoas,2016,2016,4105,Coeficiente de variação - Distribuição percentual das pessoas de 14 anos ou mais de idade,6794,Total,47584,Total,2,%,-
3,Unidade da Federação,27,Alagoas,2017,2017,1641,Pessoas de 14 anos ou mais de idade,6794,Total,47584,Total,1572,Mil pessoas,2626
3,Unidade da Federação,27,Alagoas,2017,2017,4087,Coeficiente de variação - Pessoas de 14 anos ou mais de idade,6794,Total,47584,Total,2,%,0.5
3,Unidade da Federação,27,Alagoas,2017,2017,4104,Distribuição percentual das pessoas de 14 anos ou mais de idade,6794,Total,47584,Total,2,%,100.0
3,Unidade da Federação,27,Alagoas,2017,2017,4105,Coeficiente de variação - Distribuição percentual das pessoas de 14 anos ou mais de idade,6794,Total,47584,Total,2,%,-
3,Unidade da Federação,27,Alagoas,2018,2018,1641,Pessoas de 14 anos ou mais de idade,6794,Total,47584,Total,1572,Mil pessoas,2632
3,Unidade da Federação,27,Alagoas,2018,2018,4087,Coeficiente de variação - Pessoas de 14 anos ou mais de idade,6794,Total,47584,Total,2,%,0.5
3,Unidade da Federação,27,Alagoas,2018,2018,4104,Distribuição percentual das pessoas de 14 anos ou mais de idade,6794,Total,47584,Total,2,%,100.0
3,Unidade da Federação,27,Alagoas,2018,2018,4105,Coeficiente de variação - Distribuição percentual das pessoas de 14 anos ou mais de idade,6794,Total,47584,Total,2,%,-
3,Unidade da Federação,27,Alagoas,2019,2019,1641,Pessoas de 14 anos ou mais de idade,6794,Total,47584,Total,1572,Mil pessoas,2650
3,Unidade da Federação,27,Alagoas,2019,2019,4087,Coeficiente de variação - Pessoas de 14 anos ou mais de idade,6794,Total,47584,Total,2,%,0.5
3,Unidade da Federação,27,Alagoas,2019,2019,4104,Distribuição percentual das pessoas de 14 anos ou mais de idade,6794,Total,47584,Total,2,%,100.0
3,Unidade da Federação,27,Alagoas,2019,2019,4105,Coeficiente de variação - Distribuição percentual das pessoas de 14 anos ou mais de idade,6794,Total,47584,Total,2,%,-
3,Unidade da Federação,28,Sergipe,2016,2016,1641,Pessoas de 14 anos ou mais de idade,6794,Total,47584,Total,1572,Mil pessoas,1792
3,Unidade da Federação,28,Sergipe,2016,2016,4087,Coeficiente de variação - Pessoas de 14 anos ou mais de idade,6794,Total,47584,Total,2,%,0.6
3,Unidade da Federação,28,Sergipe,2016,2016,4104,Distribuição percentual das pessoas de 14 anos ou mais de idade,6794,Total,47584,Total,2,%,100.0
3,Unidade da Federação,28,Sergipe,2016,2016,4105,Coeficiente de variação - Distribuição percentual das pessoas de 14 anos ou mais de idade,6794,Total,47584,Total,2,%,-
3,Unidade da Federação,28,Sergipe,2017,2017,1641,Pessoas de 14 anos ou mais de idade,6794,Total,47584,Total,1572,Mil pessoas,1813
3,Unidade da Federação,28,Sergipe,2017,2017,4087,Coeficiente de variação - Pessoas de 14 anos ou mais de idade,6794,Total,47584,Total,2,%,0.6
3,Unidade da Federação,28,Sergipe,2017,2017,4104,Distribuição percentual das pessoas de 14 anos ou mais de idade,6794,Total,47584,Total,2,%,100.0
3,Unidade da Federação,28,Sergipe,2017,2017,4105,Coeficiente de variação - Distribuição percentual das pessoas de 14 anos ou mais de idade,6794,Total,47584,Total,2,%,-
3,Unidade da Federação,28,Sergipe,2018,2018,1641,Pessoas de 14 anos ou mais de idade,6794,Total,47584,Total,1572,Mil pessoas,1805
3,Unidade da Federação,28,Sergipe,2018,2018,4087,Coeficiente de variação - Pessoas de 14 anos ou mais de idade,6794,Total,47584,Total,2,%,0.7
3,Unidade da Federação,28,Sergipe,2018,2018,4104,Distribuição percentual das pessoas de 14 anos ou mais de idade,6794,Total,47584,Total,2,%,100.0
3,Unidade da Federação,28,Sergipe,2018,2018,4105,Coeficiente de variação - Distribuição percentual das pessoas de 14 anos ou mais de idade,6794,Total,47584,Total,2,%,-
3,Unidade da Federação,28,Sergipe,2019,2019,1641,Pessoas de 14 anos ou mais de idade,6794,Total,47584,Total,1572,Mil pessoas,1831
3,Unidade da Federação,28,Sergipe,2019,2019,4087,Coeficiente de variação - Pessoas de 14 anos ou mais de idade,6794,Total,47584,Total,2,%,0.7
3,Unidade da Federação,28,Sergipe,2019,2019,4104,Distribuição percentual das pessoas de 14 anos ou mais de idade,6794,Total,47584,Total,2,%,100.0
3,Unidade da Federação,28,Sergipe,2019,2019,4105,Coeficiente de variação - Distribuição percentual das pessoas de 14 anos ou mais de idade,6794,Total,47584,Total,2,%,-
3,Unidade da Federação,29,Bahia,2016,2016,1641,Pessoas de 14 anos ou mais de idade,6794,Total,47584,Total,1572,Mil pessoas,11700
3,Unidade da Federação,29,Bahia,2016,2016,4087,Coeficiente de variação - Pessoas de 14 anos ou mais de idade,6794,Total,47584,Total,2,%,0.5
3,Unidade da Federação,29,Bahia,2016,2016,4104,Distribuição percentual das pessoas de 14 anos ou mais de idade,6794,Total,47584,Total,2,%,100.0
3,Unidade da Federação,29,Bahia,2016,2016,4105,Coeficiente de variação - Distribuição percentual das pessoas de 14 anos ou mais de idade,6794,Total,47584,Total,2,%,-
3,Unidade da Federação,29,Bahia,2017,2017,1641,Pessoas de 14 anos ou mais de idade,6794,Total,47584,Total,1572,Mil pessoas,11879
3,Unidade da Federação,29,Bahia,2017,2017,4087,Coeficiente de variação - Pessoas de 14 anos ou mais de idade,6794,Total,47584,Total,2,%,0.5
3,Unidade da Federação,29,Bahia,2017,2017,4104,Distribuição percentual das pessoas de 14 anos ou mais de idade,6794,Total,47584,Total,2,%,100.0
3,Unidade da Federação,29,Bahia,2017,2017,4105,Coeficiente de variação - Distribuição percentual das pessoas de 14 anos ou mais de idade,6794,Total,47584,Total,2,%,-
3,Unidade da Federação,29,Bahia,2018,2018,1641,Pessoas de 14 anos ou mais de idade,6794,Total,47584,Total,1572,Mil pessoas,11870
3,Unidade da Federação,29,Bahia,2018,2018,4087,Coeficiente de variação - Pessoas de 14 anos ou mais de idade,6794,Total,47584,Total,2,%,0.6
3,Unidade da Federação,29,Bahia,2018,2018,4104,Distribuição percentual das pessoas de 14 anos ou mais de idade,6794,Total,47584,Total,2,%,100.0
3,Unidade da Federação,29,Bahia,2018,2018,4105,Coeficiente de variação - Distribuição percentual das pessoas de 14 anos ou mais de idade,6794,Total,47584,Total,2,%,-
3,Unidade da Federação,29,Bahia,2019,2019,1641,Pessoas de 14 anos ou mais de idade,6794,Total,47584,Total,1572,Mil pessoas,12048
3,Unidade da Federação,29,Bahia,2019,2019,4087,Coeficiente de variação - Pessoas de 14 anos ou mais de idade,6794,Total,47584,Total,2,%,0.5
3,Unidade da Federação,29,Bahia,2019,2019,4104,Distribuição percentual das pessoas de 14 anos ou mais de idade,6794,Total,47584,Total,2,%,100.0
3,Unidade da Federação,29,Bahia,2019,2019,4105,Coeficiente de variação - Distribuição percentual das pessoas de 14 anos ou mais de idade,6794,Total,47584,Total,2,%,-
3,Unidade da Federação,31,Minas Gerais,2016,2016,1641,Pessoas de 14 anos ou mais de idade,6794,Total,47584,Total,1572,Mil pessoas,17296
3,Unidade da Federação,31,Minas Gerais,2016,2016,4087,Coeficiente de variação - Pessoas de 14 anos ou mais de idade,6794,Total,47584,Total,2,%,0.3
3,Unidade da Federação,31,Minas Gerais,2016,2016,4104,Distribuição percentual das pessoas de 14 anos ou mais de idade,6794,Total,47584,Total,2,%,100.0
3,Unidade da Federação,31,Minas Gerais,2016,2016,4105,Coeficiente de variação - Distribuição percentual das pessoas de 14 anos ou mais de idade,6794,Total,47584,Total,2,%,-
3,Unidade da Federação,31,Minas Gerais,2017,2017,1641,Pessoas de 14 anos ou mais de idade,6794,Total,47584,Total,1572,Mil pessoas,17281
3,Unidade da Federação,31,Minas Gerais,2017,2017,4087,Coeficiente de variação - Pessoas de 14 anos ou mais de idade,6794,Total,47584,Total,2,%,0.4
3,Unidade da Federação,31,Minas Gerais,2017,2017,4104,Distribuição percentual das pessoas de 14 anos ou mais de idade,6794,Total,47584,Total,2,%,100.0
3,Unidade da Federação,31,Minas Gerais,2017,2017,4105,Coeficiente de variação - Distribuição percentual das pessoas de 14 anos ou mais de idade,6794,Total,47584,Total,2,%,-
3,Unidade da Federação,31,Minas Gerais,2018,2018,1641,Pessoas de 14 anos ou mais de idade,6794,Total,47584,Total,1572,Mil pessoas,17431
3,Unidade da Federação,31,Minas Gerais,2018,2018,4087,Coeficiente de variação - Pessoas de 14 anos ou mais de idade,6794,Total,47584,Total,2,%,0.4
3,Unidade da Federação,31,Minas Gerais,2018,2018,4104,Distribuição percentual das pessoas de 14 anos ou mais de idade,6794,Total,47584,Total,2,%,100.0
3,Unidade da Federação,31,Minas Gerais,2018,2018,4105,Coeficiente de variação - Distribuição percentual das pessoas de 14 anos ou mais de idade,6794,Total,47584,Total,2,%,-
3,Unidade da Federação,31,Minas Gerais,2019,2019,1641,Pessoas de 14 anos ou mais de idade,6794,Total,47584,Total,1572,Mil pessoas,17566
3,Unidade da Federação,31,Minas Gerais,2019,2019,4087,Coeficiente de variação - Pessoas de 14 anos ou mais de idade,6794,Total,47584,Total,2,%,0.4
3,Unidade da Federação,31,Minas Gerais,2019,2019,4104,Distribuição percentual das pessoas de 14 anos ou mais de idade,6794,Total,47584,Total,2,%,100.0
3,Unidade da Federação,31,Minas Gerais,2019,2019,4105,Coeficiente de variação - Distribuição percentual das pessoas de 14 anos ou mais de idade,6794,Total,47584,Total,2,%,-
3,Unidade da Federação,32,Espírito Santo,2016,2016,1641,Pessoas de 14 anos ou mais de idade,6794,Total,47584,Total,1572,Mil pessoas,3170
3,Unidade da Federação,32,Espírito Santo,2016,2016,4087,Coeficiente de variação - Pessoas de 14 anos ou mais de idade,6794,Total,47584,Total,2,%,0.4
3,Unidade da Federação,32,Espírito Santo,2016,2016,4104,Distribuição percentual das pessoas de 14 anos ou mais de idade,6794,Total,47584,Total,2,%,100.0
3,Unidade da Federação,32,Espírito Santo,2016,2016,4105,Coeficiente de variação - Distribuição percentual das pessoas de 14 anos ou mais de idade,6794,Total,47584,Total,2,%,-
3,Unidade da Federação,32,Espírito Santo,2017,2017,1641,Pessoas de 14 anos ou mais de idade,6794,Total,47584,Total,1572,Mil pessoas,3215
3,Unidade da Federação,32,Espírito Santo,2017,2017,4087,Coeficiente de variação - Pessoas de 14 anos ou mais de idade,6794,Total,47584,Total,2,%,0.4
3,Unidade da Federação,32,Espírito Santo,2017,2017,4104,Distribuição percentual das pessoas de 14 anos ou mais de idade,6794,Total,47584,Total,2,%,100.0
3,Unidade da Federação,32,Espírito Santo,2017,2017,4105,Coeficiente de variação - Distribuição percentual das pessoas de 14 anos ou mais de idade,6794,Total,47584,Total,2,%,-
3,Unidade da Federação,32,Espírito Santo,2018,2018,1641,Pessoas de 14 anos ou mais de idade,6794,Total,47584,Total,1572,Mil pessoas,3225
3,Unidade da Federação,32,Espírito Santo,2018,2018,4087,Coeficiente de variação - Pessoas de 14 anos ou mais de idade,6794,Total,47584,Total,2,%,0.5
3,Unidade da Federação,32,Espírito Santo,2018,2018,4104,Distribuição percentual das pessoas de 14 anos ou mais de idade,6794,Total,47584,Total,2,%,100.0
3,Unidade da Federação,32,Espírito Santo,2018,2018,4105,Coeficiente de variação - Distribuição percentual das pessoas de 14 anos ou mais de idade,6794,Total,47584,Total,2,%,-
3,Unidade da Federação,32,Espírito Santo,2019,2019,1641,Pessoas de 14 anos ou mais de idade,6794,Total,47584,Total,1572,Mil pessoas,3268
3,Unidade da Federação,32,Espírito Santo,2019,2019,4087,Coeficiente de variação - Pessoas de 14 anos ou mais de idade,6794,Total,47584,Total,2,%,0.6
3,Unidade da Federação,32,Espírito Santo,2019,2019,4104,Distribuição percentual das pessoas de 14 anos ou mais de idade,6794,Total,47584,Total,2,%,100.0
3,Unidade da Federação,32,Espírito Santo,2019,2019,4105,Coeficiente de variação - Distribuição percentual das pessoas de 14 anos ou mais de idade,6794,Total,47584,Total,2,%,-
3,Unidade da Federação,33,Rio de Janeiro,2016,2016,1641,Pessoas de 14 anos ou mais de idade,6794,Total,47584,Total,1572,Mil pessoas,14195
3,Unidade da Federação,33,Rio de Janeiro,2016,2016,4087,Coeficiente de variação - Pessoas de 14 anos ou mais de idade,6794,Total,47584,Total,2,%,0.4
3,Unidade da Federação,33,Rio de Janeiro,2016,2016,4104,Distribuição percentual das pessoas de 14 anos ou mais de idade,6794,Total,47584,Total,2,%,100.0
3,Unidade da Federação,33,Rio de Janeiro,2016,2016,4105,Coeficiente de variação - Distribuição percentual das pessoas de 14 anos ou mais de idade,6794,Total,47584,Total,2,%,-
3,Unidade da Federação,33,Rio de Janeiro,2017,2017,1641,Pessoas de 14 anos ou mais de idade,6794,Total,47584,Total,1572,Mil pessoas,14417
3,Unidade da Federação,33,Rio de Janeiro,2017,2017,4087,Coeficiente de variação - Pessoas de 14 anos ou mais de idade,6794,Total,47584,Total,2,%,0.3
3,Unidade da Federação,33,Rio de Janeiro,2017,2017,4104,Distribuição percentual das pessoas de 14 anos ou mais de idade,6794,Total,47584,Total,2,%,100.0
3,Unidade da Federação,33,Rio de Janeiro,2017,2017,4105,Coeficiente de variação - Distribuição percentual das pessoas de 14 anos ou mais de idade,6794,Total,47584,Total,2,%,-
3,Unidade da Federação,33,Rio de Janeiro,2018,2018,1641,Pessoas de 14 anos ou mais de idade,6794,Total,47584,Total,1572,Mil pessoas,14527
3,Unidade da Federação,33,Rio de Janeiro,2018,2018,4087,Coeficiente de variação - Pessoas de 14 anos ou mais de idade,6794,Total,47584,Total,2,%,0.3
3,Unidade da Federação,33,Rio de Janeiro,2018,2018,4104,Distribuição percentual das pessoas de 14 anos ou mais de idade,6794,Total,47584,Total,2,%,100.0
3,Unidade da Federação,33,Rio de Janeiro,2018,2018,4105,Coeficiente de variação - Distribuição percentual das pessoas de 14 anos ou mais de idade,6794,Total,47584,Total,2,%,-
3,Unidade da Federação,33,Rio de Janeiro,2019,2019,1641,Pessoas de 14 anos ou mais de idade,6794,Total,47584,Total,1572,Mil pessoas,14633
3,Unidade da Federação,33,Rio de Janeiro,2019,2019,4087,Coeficiente de variação - Pessoas de 14 anos ou mais de idade,6794,Total,47584,Total,2,%,0.4
3,Unidade da Federação,33,Rio de Janeiro,2019,2019,4104,Distribuição percentual das pessoas de 14 anos ou mais de idade,6794,Total,47584,Total,2,%,100.0
3,Unidade da Federação,33,Rio de Janeiro,2019,2019,4105,Coeficiente de variação - Distribuição percentual das pessoas de 14 anos ou mais de idade,6794,Total,47584,Total,2,%,-
3,Unidade da Federação,35,São Paulo,2016,2016,1641,Pessoas de 14 anos ou mais de idade,6794,Total,47584,Total,1572,Mil pessoas,37209
3,Unidade da Federação,35,São Paulo,2016,2016,4087,Coeficiente de variação - Pessoas de 14 anos ou mais de idade,6794,Total,47584,Total,2,%,0.4
3,Unidade da Federação,35,São Paulo,2016,2016,4104,Distribuição percentual das pessoas de 14 anos ou mais de idade,6794,Total,47584,Total,2,%,100.0
3,Unidade da Federação,35,São Paulo,2016,2016,4105,Coeficiente de variação - Distribuição percentual das pessoas de 14 anos ou mais de idade,6794,Total,47584,Total,2,%,-
3,Unidade da Federação,35,São Paulo,2017,2017,1641,Pessoas de 14 anos ou mais de idade,6794,Total,47584,Total,1572,Mil pessoas,37446
3,Unidade da Federação,35,São Paulo,2017,2017,4087,Coeficiente de variação - Pessoas de 14 anos ou mais de idade,6794,Total,47584,Total,2,%,0.4
3,Unidade da Federação,35,São Paulo,2017,2017,4104,Distribuição percentual das pessoas de 14 anos ou mais de idade,6794,Total,47584,Total,2,%,100.0
3,Unidade da Federação,35,São Paulo,2017,2017,4105,Coeficiente de variação - Distribuição percentual das pessoas de 14 anos ou mais de idade,6794,Total,47584,Total,2,%,-
3,Unidade da Federação,35,São Paulo,2018,2018,1641,Pessoas de 14 anos ou mais de idade,6794,Total,47584,Total,1572,Mil pessoas,37696
3,Unidade da Federação,35,São Paulo,2018,2018,4087,Coeficiente de variação - Pessoas de 14 anos ou mais de idade,6794,Total,47584,Total,2,%,0.4
3,Unidade da Federação,35,São Paulo,2018,2018,4104,Distribuição percentual das pessoas de 14 anos ou mais de idade,6794,Total,47584,Total,2,%,100.0
3,Unidade da Federação,35,São Paulo,2018,2018,4105,Coeficiente de variação - Distribuição percentual das pessoas de 14 anos ou mais de idade,6794,Total,47584,Total,2,%,-
3,Unidade da Federação,35,São Paulo,2019,2019,1641,Pessoas de 14 anos ou mais de idade,6794,Total,47584,Total,1572,Mil pessoas,38163
3,Unidade da Federação,35,São Paulo,2019,2019,4087,Coeficiente de variação - Pessoas de 14 anos ou mais de idade,6794,Total,47584,Total,2,%,0.4
3,Unidade da Federação,35,São Paulo,2019,2019,4104,Distribuição percentual das pessoas de 14 anos ou mais de idade,6794,Total,47584,Total,2,%,100.0
3,Unidade da Federação,35,São Paulo,2019,2019,4105,Coeficiente de variação - Distribuição percentual das pessoas de 14 anos ou mais de idade,6794,Total,47584,Total,2,%,-
3,Unidade da Federação,41,Paraná,2016,2016,1641,Pessoas de 14 anos ou mais de idade,6794,Total,47584,Total,1572,Mil pessoas,9161
3,Unidade da Federação,41,Paraná,2016,2016,4087,Coeficiente de variação - Pessoas de 14 anos ou mais de idade,6794,Total,47584,Total,2,%,0.4
3,Unidade da Federação,41,Paraná,2016,2016,4104,Distribuição percentual das pessoas de 14 anos ou mais de idade,6794,Total,47584,Total,2,%,100.0
3,Unidade da Federação,41,Paraná,2016,2016,4105,Coeficiente de variação - Distribuição percentual das pessoas de 14 anos ou mais de idade,6794,Total,47584,Total,2,%,-
3,Unidade da Federação,41,Paraná,2017,2017,1641,Pessoas de 14 anos ou mais de idade,6794,Total,47584,Total,1572,Mil pessoas,9286
3,Unidade da Federação,41,Paraná,2017,2017,4087,Coeficiente de variação - Pessoas de 14 anos ou mais de idade,6794,Total,47584,Total,2,%,0.4
3,Unidade da Federação,41,Paraná,2017,2017,4104,Distribuição percentual das pessoas de 14 anos ou mais de idade,6794,Total,47584,Total,2,%,100.0
3,Unidade da Federação,41,Paraná,2017,2017,4105,Coeficiente de variação - Distribuição percentual das pessoas de 14 anos ou mais de idade,6794,Total,47584,Total,2,%,-
3,Unidade da Federação,41,Paraná,2018,2018,1641,Pessoas de 14 anos ou mais de idade,6794,Total,47584,Total,1572,Mil pessoas,9349
3,Unidade da Federação,41,Paraná,2018,2018,4087,Coeficiente de variação - Pessoas de 14 anos ou mais de idade,6794,Total,47584,Total,2,%,0.4
3,Unidade da Federação,41,Paraná,2018,2018,4104,Distribuição percentual das pessoas de 14 anos ou mais de idade,6794,Total,47584,Total,2,%,100.0
3,Unidade da Federação,41,Paraná,2018,2018,4105,Coeficiente de variação - Distribuição percentual das pessoas de 14 anos ou mais de idade,6794,Total,47584,Total,2,%,-
3,Unidade da Federação,41,Paraná,2019,2019,1641,Pessoas de 14 anos ou mais de idade,6794,Total,47584,Total,1572,Mil pessoas,9382
3,Unidade da Federação,41,Paraná,2019,2019,4087,Coeficiente de variação - Pessoas de 14 anos ou mais de idade,6794,Total,47584,Total,2,%,0.5
3,Unidade da Federação,41,Paraná,2019,2019,4104,Distribuição percentual das pessoas de 14 anos ou mais de idade,6794,Total,47584,Total,2,%,100.0
3,Unidade da Federação,41,Paraná,2019,2019,4105,Coeficiente de variação - Distribuição percentual das pessoas de 14 anos ou mais de idade,6794,Total,47584,Total,2,%,-
3,Unidade da Federação,42,Santa Catarina,2016,2016,1641,Pessoas de 14 anos ou mais de idade,6794,Total,47584,Total,1572,Mil pessoas,5733
3,Unidade da Federação,42,Santa Catarina,2016,2016,4087,Coeficiente de variação - Pessoas de 14 anos ou mais de idade,6794,Total,47584,Total,2,%,0.4
3,Unidade da Federação,42,Santa Catarina,2016,2016,4104,Distribuição percentual das pessoas de 14 anos ou mais de idade,6794,Total,47584,Total,2,%,100.0
3,Unidade da Federação,42,Santa Catarina,2016,2016,4105,Coeficiente de variação - Distribuição percentual das pessoas de 14 anos ou mais de idade,6794,Total,47584,Total,2,%,-
3,Unidade da Federação,42,Santa Catarina,2017,2017,1641,Pessoas de 14 anos ou mais de idade,6794,Total,47584,Total,1572,Mil pessoas,5787
3,Unidade da Federação,42,Santa Catarina,2017,2017,4087,Coeficiente de variação - Pessoas de 14 anos ou mais de idade,6794,Total,47584,Total,2,%,0.3
3,Unidade da Federação,42,Santa Catarina,2017,2017,4104,Distribuição percentual das pessoas de 14 anos ou mais de idade,6794,Total,47584,Total,2,%,100.0
3,Unidade da Federação,42,Santa Catarina,2017,2017,4105,Coeficiente de variação - Distribuição percentual das pessoas de 14 anos ou mais de idade,6794,Total,47584,Total,2,%,-
3,Unidade da Federação,42,Santa Catarina,2018,2018,1641,Pessoas de 14 anos ou mais de idade,6794,Total,47584,Total,1572,Mil pessoas,5888
3,Unidade da Federação,42,Santa Catarina,2018,2018,4087,Coeficiente de variação - Pessoas de 14 anos ou mais de idade,6794,Total,47584,Total,2,%,0.4
3,Unidade da Federação,42,Santa Catarina,2018,2018,4104,Distribuição percentual das pessoas de 14 anos ou mais de idade,6794,Total,47584,Total,2,%,100.0
3,Unidade da Federação,42,Santa Catarina,2018,2018,4105,Coeficiente de variação - Distribuição percentual das pessoas de 14 anos ou mais de idade,6794,Total,47584,Total,2,%,-
3,Unidade da Federação,42,Santa Catarina,2019,2019,1641,Pessoas de 14 anos ou mais de idade,6794,Total,47584,Total,1572,Mil pessoas,5974
3,Unidade da Federação,42,Santa Catarina,2019,2019,4087,Coeficiente de variação - Pessoas de 14 anos ou mais de idade,6794,Total,47584,Total,2,%,0.3
3,Unidade da Federação,42,Santa Catarina,2019,2019,4104,Distribuição percentual das pessoas de 14 anos ou mais de idade,6794,Total,47584,Total,2,%,100.0
3,Unidade da Federação,42,Santa Catarina,2019,2019,4105,Coeficiente de variação - Distribuição percentual das pessoas de 14 anos ou mais de idade,6794,Total,47584,Total,2,%,-
3,Unidade da Federação,43,Rio Grande do Sul,2016,2016,1641,Pessoas de 14 anos ou mais de idade,6794,Total,47584,Total,1572,Mil pessoas,9404
3,Unidade da Federação,43,Rio Grande do Sul,2016,2016,4087,Coeficiente de variação - Pessoas de 14 anos ou mais de idade,6794,Total,47584,Total,2,%,0.4
3,Unidade da Federação,43,Rio Grande do Sul,2016,2016,4104,Distribuição percentual das pessoas de 14 anos ou mais de idade,6794,Total,47584,Total,2,%,100.0
3,Unidade da Federação,43,Rio Grande do Sul,2016,2016,4105,Coeficiente de variação - Distribuição percentual das pessoas de 14 anos ou mais de idade,6794,Total,47584,Total,2,%,-
3,Unidade da Federação,43,Rio Grande do Sul,2017,2017,1641,Pessoas de 14 anos ou mais de idade,6794,Total,47584,Total,1572,Mil pessoas,9405
3,Unidade da Federação,43,Rio Grande do Sul,2017,2017,4087,Coeficiente de variação - Pessoas de 14 anos ou mais de idade,6794,Total,47584,Total,2,%,0.4
3,Unidade da Federação,43,Rio Grande do Sul,2017,2017,4104,Distribuição percentual das pessoas de 14 anos ou mais de idade,6794,Total,47584,Total,2,%,100.0
3,Unidade da Federação,43,Rio Grande do Sul,2017,2017,4105,Coeficiente de variação - Distribuição percentual das pessoas de 14 anos ou mais de idade,6794,Total,47584,Total,2,%,-
3,Unidade da Federação,43,Rio Grande do Sul,2018,2018,1641,Pessoas de 14 anos ou mais de idade,6794,Total,47584,Total,1572,Mil pessoas,9506
3,Unidade da Federação,43,Rio Grande do Sul,2018,2018,4087,Coeficiente de variação - Pessoas de 14 anos ou mais de idade,6794,Total,47584,Total,2,%,0.4
3,Unidade da Federação,43,Rio Grande do Sul,2018,2018,4104,Distribuição percentual das pessoas de 14 anos ou mais de idade,6794,Total,47584,Total,2,%,100.0
3,Unidade da Federação,43,Rio Grande do Sul,2018,2018,4105,Coeficiente de variação - Distribuição percentual das pessoas de 14 anos ou mais de idade,6794,Total,47584,Total,2,%,-
3,Unidade da Federação,43,Rio Grande do Sul,2019,2019,1641,Pessoas de 14 anos ou mais de idade,6794,Total,47584,Total,1572,Mil pessoas,9523
3,Unidade da Federação,43,Rio Grande do Sul,2019,2019,4087,Coeficiente de variação - Pessoas de 14 anos ou mais de idade,6794,Total,47584,Total,2,%,0.5
3,Unidade da Federação,43,Rio Grande do Sul,2019,2019,4104,Distribuição percentual das pessoas de 14 anos ou mais de idade,6794,Total,47584,Total,2,%,100.0
3,Unidade da Federação,43,Rio Grande do Sul,2019,2019,4105,Coeficiente de variação - Distribuição percentual das pessoas de 14 anos ou mais de idade,6794,Total,47584,Total,2,%,-
3,Unidade da Federação,50,Mato Grosso do Sul,2016,2016,1641,Pessoas de 14 anos ou mais de idade,6794,Total,47584,Total,1572,Mil pessoas,2079
3,Unidade da Federação,50,Mato Grosso do Sul,2016,2016,4087,Coeficiente de variação - Pessoas de 14 anos ou mais de idade,6794,Total,47584,Total,2,%,0.7
3,Unidade da Federação,50,Mato Grosso do Sul,2016,2016,4104,Distribuição percentual das pessoas de 14 anos ou mais de idade,6794,Total,47584,Total,2,%,100.0
3,Unidade da Federação,50,Mato Grosso do Sul,2016,2016,4105,Coeficiente de variação - Distribuição percentual das pessoas de 14 anos ou mais de idade,6794,Total,47584,Total,2,%,-
3,Unidade da Federação,50,Mato Grosso do Sul,2017,2017,1641,Pessoas de 14 anos ou mais de idade,6794,Total,47584,Total,1572,Mil pessoas,2114
3,Unidade da Federação,50,Mato Grosso do Sul,2017,2017,4087,Coeficiente de variação - Pessoas de 14 anos ou mais de idade,6794,Total,47584,Total,2,%,0.9
3,Unidade da Federação,50,Mato Grosso do Sul,2017,2017,4104,Distribuição percentual das pessoas de 14 anos ou mais de idade,6794,Total,47584,Total,2,%,100.0
3,Unidade da Federação,50,Mato Grosso do Sul,2017,2017,4105,Coeficiente de variação - Distribuição percentual das pessoas de 14 anos ou mais de idade,6794,Total,47584,Total,2,%,-
3,Unidade da Federação,50,Mato Grosso do Sul,2018,2018,1641,Pessoas de 14 anos ou mais de idade,6794,Total,47584,Total,1572,Mil pessoas,2136
3,Unidade da Federação,50,Mato Grosso do Sul,2018,2018,4087,Coeficiente de variação - Pessoas de 14 anos ou mais de idade,6794,Total,47584,Total,2,%,0.9
3,Unidade da Federação,50,Mato Grosso do Sul,2018,2018,4104,Distribuição percentual das pessoas de 14 anos ou mais de idade,6794,Total,47584,Total,2,%,100.0
3,Unidade da Federação,50,Mato Grosso do Sul,2018,2018,4105,Coeficiente de variação - Distribuição percentual das pessoas de 14 anos ou mais de idade,6794,Total,47584,Total,2,%,-
3,Unidade da Federação,50,Mato Grosso do Sul,2019,2019,1641,Pessoas de 14 anos ou mais de idade,6794,Total,47584,Total,1572,Mil pessoas,2160
3,Unidade da Federação,50,Mato Grosso do Sul,2019,2019,4087,Coeficiente de variação - Pessoas de 14 anos ou mais de idade,6794,Total,47584,Total,2,%,0.7
3,Unidade da Federação,50,Mato Grosso do Sul,2019,2019,4104,Distribuição percentual das pessoas de 14 anos ou mais de idade,6794,Total,47584,Total,2,%,100.0
3,Unidade da Federação,50,Mato Grosso do Sul,2019,2019,4105,Coeficiente de variação - Distribuição percentual das pessoas de 14 anos ou mais de idade,6794,Total,47584,Total,2,%,-
3,Unidade da Federação,51,Mato Grosso,2016,2016,1641,Pessoas de 14 anos ou mais de idade,6794,Total,47584,Total,1572,Mil pessoas,2589
3,Unidade da Federação,51,Mato Grosso,2016,2016,4087,Coeficiente de variação - Pessoas de 14 anos ou mais de idade,6794,Total,47584,Total,2,%,0.7
3,Unidade da Federação,51,Mato Grosso,2016,2016,4104,Distribuição percentual das pessoas de 14 anos ou mais de idade,6794,Total,47584,Total,2,%,100.0
3,Unidade da Federação,51,Mato Grosso,2016,2016,4105,Coeficiente de variação - Distribuição percentual das pessoas de 14 anos ou mais de idade,6794,Total,47584,Total,2,%,-
3,Unidade da Federação,51,Mato Grosso,2017,2017,1641,Pessoas de 14 anos ou mais de idade,6794,Total,47584,Total,1572,Mil pessoas,2679
3,Unidade da Federação,51,Mato Grosso,2017,2017,4087,Coeficiente de variação - Pessoas de 14 anos ou mais de idade,6794,Total,47584,Total,2,%,0.6
3,Unidade da Federação,51,Mato Grosso,2017,2017,4104,Distribuição percentual das pessoas de 14 anos ou mais de idade,6794,Total,47584,Total,2,%,100.0
3,Unidade da Federação,51,Mato Grosso,2017,2017,4105,Coeficiente de variação - Distribuição percentual das pessoas de 14 anos ou mais de idade,6794,Total,47584,Total,2,%,-
3,Unidade da Federação,51,Mato Grosso,2018,2018,1641,Pessoas de 14 anos ou mais de idade,6794,Total,47584,Total,1572,Mil pessoas,2694
3,Unidade da Federação,51,Mato Grosso,2018,2018,4087,Coeficiente de variação - Pessoas de 14 anos ou mais de idade,6794,Total,47584,Total,2,%,0.7
3,Unidade da Federação,51,Mato Grosso,2018,2018,4104,Distribuição percentual das pessoas de 14 anos ou mais de idade,6794,Total,47584,Total,2,%,100.0
3,Unidade da Federação,51,Mato Grosso,2018,2018,4105,Coeficiente de variação - Distribuição percentual das pessoas de 14 anos ou mais de idade,6794,Total,47584,Total,2,%,-
3,Unidade da Federação,51,Mato Grosso,2019,2019,1641,Pessoas de 14 anos ou mais de idade,6794,Total,47584,Total,1572,Mil pessoas,2758
3,Unidade da Federação,51,Mato Grosso,2019,2019,4087,Coeficiente de variação - Pessoas de 14 anos ou mais de idade,6794,Total,47584,Total,2,%,0.6
3,Unidade da Federação,51,Mato Grosso,2019,2019,4104,Distribuição percentual das pessoas de 14 anos ou mais de idade,6794,Total,47584,Total,2,%,100.0
3,Unidade da Federação,51,Mato Grosso,2019,2019,4105,Coeficiente de variação - Distribuição percentual das pessoas de 14 anos ou mais de idade,6794,Total,47584,Total,2,%,-
3,Unidade da Federação,52,Goiás,2016,2016,1641,Pessoas de 14 anos ou mais de idade,6794,Total,47584,Total,1572,Mil pessoas,5417
3,Unidade da Federação,52,Goiás,2016,2016,4087,Coeficiente de variação - Pessoas de 14 anos ou mais de idade,6794,Total,47584,Total,2,%,0.6
3,Unidade da Federação,52,Goiás,2016,2016,4104,Distribuição percentual das pessoas de 14 anos ou mais de idade,6794,Total,47584,Total,2,%,100.0
3,Unidade da Federação,52,Goiás,2016,2016,4105,Coeficiente de variação - Distribuição percentual das pessoas de 14 anos ou mais de idade,6794,Total,47584,Total,2,%,-
3,Unidade da Federação,52,Goiás,2017,2017,1641,Pessoas de 14 anos ou mais de idade,6794,Total,47584,Total,1572,Mil pessoas,5514
3,Unidade da Federação,52,Goiás,2017,2017,4087,Coeficiente de variação - Pessoas de 14 anos ou mais de idade,6794,Total,47584,Total,2,%,0.6
3,Unidade da Federação,52,Goiás,2017,2017,4104,Distribuição percentual das pessoas de 14 anos ou mais de idade,6794,Total,47584,Total,2,%,100.0
3,Unidade da Federação,52,Goiás,2017,2017,4105,Coeficiente de variação - Distribuição percentual das pessoas de 14 anos ou mais de idade,6794,Total,47584,Total,2,%,-
3,Unidade da Federação,52,Goiás,2018,2018,1641,Pessoas de 14 anos ou mais de idade,6794,Total,47584,Total,1572,Mil pessoas,5641
3,Unidade da Federação,52,Goiás,2018,2018,4087,Coeficiente de variação - Pessoas de 14 anos ou mais de idade,6794,Total,47584,Total,2,%,0.5
3,Unidade da Federação,52,Goiás,2018,2018,4104,Distribuição percentual das pessoas de 14 anos ou mais de idade,6794,Total,47584,Total,2,%,100.0
3,Unidade da Federação,52,Goiás,2018,2018,4105,Coeficiente de variação - Distribuição percentual das pessoas de 14 anos ou mais de idade,6794,Total,47584,Total,2,%,-
3,Unidade da Federação,52,Goiás,2019,2019,1641,Pessoas de 14 anos ou mais de idade,6794,Total,47584,Total,1572,Mil pessoas,5698
3,Unidade da Federação,52,Goiás,2019,2019,4087,Coeficiente de variação - Pessoas de 14 anos ou mais de idade,6794,Total,47584,Total,2,%,0.6
3,Unidade da Federação,52,Goiás,2019,2019,4104,Distribuição percentual das pessoas de 14 anos ou mais de idade,6794,Total,47584,Total,2,%,100.0
3,Unidade da Federação,52,Goiás,2019,2019,4105,Coeficiente de variação - Distribuição percentual das pessoas de 14 anos ou mais de idade,6794,Total,47584,Total,2,%,-
3,Unidade da Federação,53,Distrito Federal,2016,2016,1641,Pessoas de 14 anos ou mais de idade,6794,Total,47584,Total,1572,Mil pessoas,2360
3,Unidade da Federação,53,Distrito Federal,2016,2016,4087,Coeficiente de variação - Pessoas de 14 anos ou mais de idade,6794,Total,47584,Total,2,%,0.7
3,Unidade da Federação,53,Distrito Federal,2016,2016,4104,Distribuição percentual das pessoas de 14 anos ou mais de idade,6794,Total,47584,Total,2,%,100.0
3,Unidade da Federação,53,Distrito Federal,2016,2016,4105,Coeficiente de variação - Distribuição percentual das pessoas de 14 anos ou mais de idade,6794,Total,47584,Total,2,%,-
3,Unidade da Federação,53,Distrito Federal,2017,2017,1641,Pessoas de 14 anos ou mais de idade,6794,Total,47584,Total,1572,Mil pessoas,2398
3,Unidade da Federação,53,Distrito Federal,2017,2017,4087,Coeficiente de variação - Pessoas de 14 anos ou mais de idade,6794,Total,47584,Total,2,%,0.7
3,Unidade da Federação,53,Distrito Federal,2017,2017,4104,Distribuição percentual das pessoas de 14 anos ou mais de idade,6794,Total,47584,Total,2,%,100.0
3,Unidade da Federação,53,Distrito Federal,2017,2017,4105,Coeficiente de variação - Distribuição percentual das pessoas de 14 anos ou mais de idade,6794,Total,47584,Total,2,%,-
3,Unidade da Federação,53,Distrito Federal,2018,2018,1641,Pessoas de 14 anos ou mais de idade,6794,Total,47584,Total,1572,Mil pessoas,2458
3,Unidade da Federação,53,Distrito Federal,2018,2018,4087,Coeficiente de variação - Pessoas de 14 anos ou mais de idade,6794,Total,47584,Total,2,%,0.7
3,Unidade da Federação,53,Distrito Federal,2018,2018,4104,Distribuição percentual das pessoas de 14 anos ou mais de idade,6794,Total,47584,Total,2,%,100.0
3,Unidade da Federação,53,Distrito Federal,2018,2018,4105,Coeficiente de variação - Distribuição percentual das pessoas de 14 anos ou mais de idade,6794,Total,47584,Total,2,%,-
3,Unidade da Federação,53,Distrito Federal,2019,2019,1641,Pessoas de 14 anos ou mais de idade,6794,Total,47584,Total,1572,Mil pessoas,2490
3,Unidade da Federação,53,Distrito Federal,2019,2019,4087,Coeficiente de variação - Pessoas de 14 anos ou mais de idade,6794,Total,47584,Total,2,%,0.7
3,Unidade da Federação,53,Distrito Federal,2019,2019,4104,Distribuição percentual das pessoas de 14 anos ou mais de idade,6794,Total,47584,Total,2,%,100.0
3,Unidade da Federação,53,Distrito Federal,2019,2019,4105,Coeficiente de variação - Distribuição percentual das pessoas de 14 anos ou mais de idade,6794,Total,47584,Total,2,%,-
