NC,NN,D1C,D1N,D2C,D2N,D3C,D3N,D4C,D4N,D5C,D5N,MC,MN,V
Nível Territorial (Código),Nível Territorial,Unidade da Federação (Código),Unidade da Federação,Ano (Código),Ano,Variável (Código),Variável,Tipo de esgotamento sanitário (Código),Tipo de esgotamento sanitário,Classes de rendimento nominal mensal da pessoa responsável pelo domicílio (Código),Classes de rendimento nominal mensal da pessoa responsável pelo domicílio,Unidade de Medida (Código),Unidade de Medida,Valor
3,Unidade da Federação,11,Rondônia,2000,2000,96,Domicílios particulares permanentes,0,Total,0,Total,1020,Unidades,347194
3,Unidade da Federação,11,Rondônia,2000,2000,1000096,Domicílios particulares permanentes - percentual do total geral,0,Total,0,Total,2,Percentual,100.00
3,Unidade da Federação,12,Acre,2000,2000,96,Domicílios particulares permanentes,0,Total,0,Total,1020,Unidades,129439
3,Unidade da Federação,12,Acre,2000,2000,1000096,Domicílios particulares permanentes - percentual do total geral,0,Total,0,Total,2,Percentual,100.00
3,Unidade da Federação,13,Amazonas,2000,2000,96,Domicílios particulares permanentes,0,Total,0,Total,1020,Unidades,570938
3,Unidade da Federação,13,Amazonas,2000,2000,1000096,Domicílios particulares permanentes - percentual do total geral,0,Total,0,Total,2,Percentual,100.00
3,Unidade da Federação,14,Roraima,2000,2000,96,Domicílios particulares permanentes,0,Total,0,Total,1020,Unidades,74451
3,Unidade da Federação,14,Roraima,2000,2000,1000096,Domicílios particulares permanentes - percentual do total geral,0,Total,0,Total,2,Percentual,100.00
3,Unidade da Federação,15,Pará,2000,2000,96,Domicílios particulares permanentes,0,Total,0,Total,1020,Unidades,1309033
3,Unidade da Federação,15,Pará,2000,2000,1000096,Domicílios particulares permanentes - percentual do total geral,0,Total,0,Total,2,Percentual,100.00
3,Unidade da Federação,16,Amapá,2000,2000,96,Domicílios particulares permanentes,0,Total,0,Total,1020,Unidades,98576
3,Unidade da Federação,16,Amapá,2000,2000,1000096,Domicílios particulares permanentes - percentual do total geral,0,Total,0,Total,2,Percentual,100.00
3,Unidade da Federação,17,Tocantins,2000,2000,96,Domicílios particulares permanentes,0,Total,0,Total,1020,Unidades,280281
3,Unidade da Federação,17,Tocantins,2000,2000,1000096,Domicílios particulares permanentes - percentual do total geral,0,Total,0,Total,2,Percentual,100.00
3,Unidade da Federação,21,Maranhão,2000,2000,96,Domicílios particulares permanentes,0,Total,0,Total,1020,Unidades,1235496
3,Unidade da Federação,21,Maranhão,2000,2000,1000096,Domicílios particulares permanentes - percentual do total geral,0,Total,0,Total,2,Percentual,100.00
3,Unidade da Federação,22,Piauí,2000,2000,96,Domicílios particulares permanentes,0,Total,0,Total,1020,Unidades,661366
3,Unidade da Federação,22,Piauí,2000,2000,1000096,Domicílios particulares permanentes - percentual do total geral,0,Total,0,Total,2,Percentual,100.00
3,Unidade da Federação,23,Ceará,2000,2000,96,Domicílios particulares permanentes,0,Total,0,Total,1020,Unidades,1757888
3,Unidade da Federação,23,Ceará,2000,2000,1000096,Domicílios particulares permanentes - percentual do total geral,0,Total,0,Total,2,Percentual,100.00
3,Unidade da Federação,24,Rio Grande do Norte,2000,2000,96,Domicílios particulares permanentes,0,Total,0,Total,1020,Unidades,671993
3,Unidade da Federação,24,Rio Grande do Norte,2000,2000,1000096,Domicílios particulares permanentes - percentual do total geral,0,Total,0,Total,2,Percentual,100.00
3,Unidade da Federação,25,Paraíba,2000,2000,96,Domicílios particulares permanentes,0,Total,0,Total,1020,Unidades,849378
3,Unidade da Federação,25,Paraíba,2000,2000,1000096,Domicílios particulares permanentes - percentual do total geral,0,Total,0,Total,2,Percentual,100.00
3,Unidade da Federação,26,Pernambuco,2000,2000,96,Domicílios particulares permanentes,0,Total,0,Total,1020,Unidades,1968761
3,Unidade da Federação,26,Pernambuco,2000,2000,1000096,Domicílios particulares permanentes - percentual do total geral,0,Total,0,Total,2,Percentual,100.00
3,Unidade da Federação,27,Alagoas,2000,2000,96,Domicílios particulares permanentes,0,Total,0,Total,1020,Unidades,649365
3,Unidade da Federação,27,Alagoas,2000,2000,1000096,Domicílios particulares permanentes - percentual do total geral,0,Total,0,Total,2,Percentual,100.00
3,Unidade da Federação,28,Sergipe,2000,2000,96,Domicílios particulares permanentes,0,Total,0,Total,1020,Unidades,436735
3,Unidade da Federação,28,Sergipe,2000,2000,1000096,Domicílios particulares permanentes - percentual do total geral,0,Total,0,Total,2,Percentual,100.00
3,Unidade da Federação,29,Bahia,2000,2000,96,Domicílios particulares permanentes,0,Total,0,Total,1020,Unidades,3170403
3,Unidade da Federação,29,Bahia,2000,2000,1000096,Domicílios particulares permanentes - percentual do total geral,0,Total,0,Total,2,Percentual,100.00
3,Unidade da Federação,31,Minas Gerais,2000,2000,96,Domicílios particulares permanentes,0,Total,0,Total,1020,Unidades,4765258
3,Unidade da Federação,31,Minas Gerais,2000,2000,1000096,Domicílios particulares permanentes - percentual do total geral,0,Total,0,Total,2,Percentual,100.00
3,Unidade da Federação,32,Espírito Santo,2000,2000,96,Domicílios particulares permanentes,0,Total,0,Total,1020,Unidades,841096
3,Unidade da Federação,32,Espírito Santo,2000,2000,1000096,Domicílios particulares permanentes - percentual do total geral,0,Total,0,Total,2,Percentual,100.00
3,Unidade da Federação,33,Rio de Janeiro,2000,2000,96,Domicílios particulares permanentes,0,Total,0,Total,1020,Unidades,4253763
3,Unidade da Federação,33,Rio de Janeiro,2000,2000,1000096,Domicílios particulares permanentes - percentual do total geral,0,Total,0,Total,2,Percentual,100.00
3,Unidade da Federação,35,São Paulo,2000,2000,96,Domicílios particulares permanentes,0,Total,0,Total,1020,Unidades,10364152
3,Unidade da Federação,35,São Paulo,2000,2000,1000096,Domicílios particulares permanentes - percentual do total geral,0,Total,0,Total,2,Percentual,100.00
3,Unidade da Federação,41,Paraná,2000,2000,96,Domicílios particulares permanentes,0,Total,0,Total,1020,Unidades,2664276
3,Unidade da Federação,41,Paraná,2000,2000,1000096,Domicílios particulares permanentes - percentual do total geral,0,Total,0,Total,2,Percentual,100.00
3,Unidade da Federação,42,Santa Catarina,2000,2000,96,Domicílios particulares permanentes,0,Total,0,Total,1020,Unidades,1498742
3,Unidade da Federação,42,Santa Catarina,2000,2000,1000096,Domicílios particulares permanentes - percentual do total geral,0,Total,0,Total,2,Percentual,100.00
3,Unidade da Federação,43,Rio Grande do Sul,2000,2000,96,Domicílios particulares permanentes,0,Total,0,Total,1020,Unidades,3042039
3,Unidade da Federação,43,Rio Grande do Sul,2000,2000,1000096,Domicílios particulares permanentes - percentual do total geral,0,Total,0,Total,2,Percentual,100.00
3,Unidade da Federação,50,Mato Grosso do Sul,2000,2000,96,Domicílios particulares permanentes,0,Total,0,Total,1020,Unidades,562902
3,Unidade da Federação,50,Mato Grosso do Sul,2000,2000,1000096,Domicílios particulares permanentes - percentual do total geral,0,Total,0,Total,2,Percentual,100.00
3,Unidade da Federação,51,Mato Grosso,2000,2000,96,Domicílios particulares permanentes,0,Total,0,Total,1020,Unidades,645905
3,Unidade da Federação,51,Mato Grosso,2000,2000,1000096,Domicílios particulares permanentes - percentual do total geral,0,Total,0,Total,2,Percentual,100.00
3,Unidade da Federação,52,Goiás,2000,2000,96,Domicílios particulares permanentes,0,Total,0,Total,1020,Unidades,1398015
3,Unidade da Federação,52,Goiás,2000,2000,1000096,Domicílios particulares permanentes - percentual do total geral,0,Total,0,Total,2,Percentual,100.00
3,Unidade da Federação,53,Distrito Federal,2000,2000,96,Domicílios particulares permanentes,0,Total,0,Total,1020,Unidades,547656
3,Unidade da Federação,53,Distrito Federal,2000,2000,1000096,Domicílios particulares permanentes - percentual do total geral,0,Total,0,Total,2,Percentual,100.00
