NC,NN,D1C,D1N,D2C,D2N,D3C,D3N,MC,MN,V
Nível Territorial (Código),Nível Territorial,Unidade da Federação (Código),Unidade da Federação,Ano (Código),Ano,Variável (Código),Variável,Unidade de Medida (Código),Unidade de Medida,Valor
3,Unidade da Federação,11,Rondônia,1991,1991,2048,Domicílios particulares ocupados,1020,Unidades,256066
3,Unidade da Federação,11,Rondônia,1991,1991,134,Pessoas residentes em domicílios particulares,45,Pessoas,1129358
3,Unidade da Federação,11,Rondônia,1991,1991,619,Média de moradores em domicílios particulares ocupados,45,Pessoas,4.41
3,Unidade da Federação,11,Rondônia,2000,2000,2048,Domicílios particulares ocupados,1020,Unidades,351778
3,Unidade da Federação,11,Rondônia,2000,2000,134,Pessoas residentes em domicílios particulares,45,Pessoas,1376681
3,Unidade da Federação,11,Rondônia,2000,2000,619,Média de moradores em domicílios particulares ocupados,45,Pessoas,3.91
3,Unidade da Federação,11,Rondônia,2010,2010,2048,Domicílios particulares ocupados,1020,Unidades,457323
3,Unidade da Federação,11,Rondônia,2010,2010,134,Pessoas residentes em domicílios particulares,45,Pessoas,1550300
3,Unidade da Federação,11,Rondônia,2010,2010,619,Média de moradores em domicílios particulares ocupados,45,Pessoas,3.39
3,Unidade da Federação,12,Acre,1991,1991,2048,Domicílios particulares ocupados,1020,Unidades,88755
3,Unidade da Federação,12,Acre,1991,1991,134,Pessoas residentes em domicílios particulares,45,Pessoas,416449
3,Unidade da Federação,12,Acre,1991,1991,619,Média de moradores em domicílios particulares ocupados,45,Pessoas,4.69
3,Unidade da Federação,12,Acre,2000,2000,2048,Domicílios particulares ocupados,1020,Unidades,130721
3,Unidade da Federação,12,Acre,2000,2000,134,Pessoas residentes em domicílios particulares,45,Pessoas,556475
3,Unidade da Federação,12,Acre,2000,2000,619,Média de moradores em domicílios particulares ocupados,45,Pessoas,4.26
3,Unidade da Federação,12,Acre,2010,2010,2048,Domicílios particulares ocupados,1020,Unidades,191169
3,Unidade da Federação,12,Acre,2010,2010,134,Pessoas residentes em domicílios particulares,45,Pessoas,730903
3,Unidade da Federação,12,Acre,2010,2010,619,Média de moradores em domicílios particulares ocupados,45,Pessoas,3.82
3,Unidade da Federação,13,Amazonas,1991,1991,2048,Domicílios particulares ocupados,1020,Unidades,391460
3,Unidade da Federação,13,Amazonas,1991,1991,134,Pessoas residentes em domicílios particulares,45,Pessoas,2097178
3,Unidade da Federação,13,Amazonas,1991,1991,619,Média de moradores em domicílios particulares ocupados,45,Pessoas,5.36
3,Unidade da Federação,13,Amazonas,2000,2000,2048,Domicílios particulares ocupados,1020,Unidades,577527
3,Unidade da Federação,13,Amazonas,2000,2000,134,Pessoas residentes em domicílios particulares,45,Pessoas,2806332
3,Unidade da Federação,13,Amazonas,2000,2000,619,Média de moradores em domicílios particulares ocupados,45,Pessoas,4.86
3,Unidade da Federação,13,Amazonas,2010,2010,2048,Domicílios particulares ocupados,1020,Unidades,801640
3,Unidade da Federação,13,Amazonas,2010,2010,134,Pessoas residentes em domicílios particulares,45,Pessoas,3476658
3,Unidade da Federação,13,Amazonas,2010,2010,619,Média de moradores em domicílios particulares ocupados,45,Pessoas,4.34
3,Unidade da Federação,14,Roraima,1991,1991,2048,Domicílios particulares ocupados,1020,Unidades,44569
3,Unidade da Federação,14,Roraima,1991,1991,134,Pessoas residentes em domicílios particulares,45,Pessoas,214464
3,Unidade da Federação,14,Roraima,1991,1991,619,Média de moradores em domicílios particulares ocupados,45,Pessoas,4.81
3,Unidade da Federação,14,Roraima,2000,2000,2048,Domicílios particulares ocupados,1020,Unidades,75530
3,Unidade da Federação,14,Roraima,2000,2000,134,Pessoas residentes em domicílios particulares,45,Pessoas,321302
3,Unidade da Federação,14,Roraima,2000,2000,619,Média de moradores em domicílios particulares ocupados,45,Pessoas,4.25
3,Unidade da Federação,14,Roraima,2010,2010,2048,Domicílios particulares ocupados,1020,Unidades,116301
3,Unidade da Federação,14,Roraima,2010,2010,134,Pessoas residentes em domicílios particulares,45,Pessoas,448675
3,Unidade da Federação,14,Roraima,2010,2010,619,Média de moradores em domicílios particulares ocupados,45,Pessoas,3.86
3,Unidade da Federação,15,Pará,1991,1991,2048,Domicílios particulares ocupados,1020,Unidades,952460
3,Unidade da Federação,15,Pará,1991,1991,134,Pessoas residentes em domicílios particulares,45,Pessoas,4929405
3,Unidade da Federação,15,Pará,1991,1991,619,Média de moradores em domicílios particulares ocupados,45,Pessoas,5.18
3,Unidade da Federação,15,Pará,2000,2000,2048,Domicílios particulares ocupados,1020,Unidades,1325133
3,Unidade da Federação,15,Pará,2000,2000,134,Pessoas residentes em domicílios particulares,45,Pessoas,6182021
3,Unidade da Federação,15,Pará,2000,2000,619,Média de moradores em domicílios particulares ocupados,45,Pessoas,4.67
3,Unidade da Federação,15,Pará,2010,2010,2048,Domicílios particulares ocupados,1020,Unidades,1866075
3,Unidade da Federação,15,Pará,2010,2010,134,Pessoas residentes em domicílios particulares,45,Pessoas,7566369
3,Unidade da Federação,15,Pará,2010,2010,619,Média de moradores em domicílios particulares ocupados,45,Pessoas,4.05
3,Unidade da Federação,16,Amapá,1991,1991,2048,Domicílios particulares ocupados,1020,Unidades,53530
3,Unidade da Federação,16,Amapá,1991,1991,134,Pessoas residentes em domicílios particulares,45,Pessoas,288463
3,Unidade da Federação,16,Amapá,1991,1991,619,Média de moradores em domicílios particulares ocupados,45,Pessoas,5.39
3,Unidade da Federação,16,Amapá,2000,2000,2048,Domicílios particulares ocupados,1020,Unidades,99738
3,Unidade da Federação,16,Amapá,2000,2000,134,Pessoas residentes em domicílios particulares,45,Pessoas,475522
3,Unidade da Federação,16,Amapá,2000,2000,619,Média de moradores em domicílios particulares ocupados,45,Pessoas,4.77
3,Unidade da Federação,16,Amapá,2010,2010,2048,Domicílios particulares ocupados,1020,Unidades,156818
3,Unidade da Federação,16,Amapá,2010,2010,134,Pessoas residentes em domicílios particulares,45,Pessoas,667234
3,Unidade da Federação,16,Amapá,2010,2010,619,Média de moradores em domicílios particulares ocupados,45,Pessoas,4.25
3,Unidade da Federação,17,Tocantins,1991,1991,2048,Domicílios particulares ocupados,1020,Unidades,192943
3,Unidade da Federação,17,Tocantins,1991,1991,134,Pessoas residentes em domicílios particulares,45,Pessoas,916811
3,Unidade da Federação,17,Tocantins,1991,1991,619,Média de moradores em domicílios particulares ocupados,45,Pessoas,4.75
3,Unidade da Federação,17,Tocantins,2000,2000,2048,Domicílios particulares ocupados,1020,Unidades,283403
3,Unidade da Federação,17,Tocantins,2000,2000,134,Pessoas residentes em domicílios particulares,45,Pessoas,1153961
3,Unidade da Federação,17,Tocantins,2000,2000,619,Média de moradores em domicílios particulares ocupados,45,Pessoas,4.07
3,Unidade da Federação,17,Tocantins,2010,2010,2048,Domicílios particulares ocupados,1020,Unidades,399506
3,Unidade da Federação,17,Tocantins,2010,2010,134,Pessoas residentes em domicílios particulares,45,Pessoas,1380208
3,Unidade da Federação,17,Tocantins,2010,2010,619,Média de moradores em domicílios particulares ocupados,45,Pessoas,3.45
3,Unidade da Federação,21,Maranhão,1991,1991,2048,Domicílios particulares ocupados,1020,Unidades,986754
3,Unidade da Federação,21,Maranhão,1991,1991,134,Pessoas residentes em domicílios particulares,45,Pessoas,4923102
3,Unidade da Federação,21,Maranhão,1991,1991,619,Média de moradores em domicílios particulares ocupados,45,Pessoas,4.99
3,Unidade da Federação,21,Maranhão,2000,2000,2048,Domicílios particulares ocupados,1020,Unidades,1243400
3,Unidade da Federação,21,Maranhão,2000,2000,134,Pessoas residentes em domicílios particulares,45,Pessoas,5646116
3,Unidade da Federação,21,Maranhão,2000,2000,619,Média de moradores em domicílios particulares ocupados,45,Pessoas,4.54
3,Unidade da Federação,21,Maranhão,2010,2010,2048,Domicílios particulares ocupados,1020,Unidades,1656608
3,Unidade da Federação,21,Maranhão,2010,2010,134,Pessoas residentes em domicílios particulares,45,Pessoas,6568693
3,Unidade da Federação,21,Maranhão,2010,2010,619,Média de moradores em domicílios particulares ocupados,45,Pessoas,3.97
3,Unidade da Federação,22,Piauí,1991,1991,2048,Domicílios particulares ocupados,1020,Unidades,520362
3,Unidade da Federação,22,Piauí,1991,1991,134,Pessoas residentes em domicílios particulares,45,Pessoas,2578177
3,Unidade da Federação,22,Piauí,1991,1991,619,Média de moradores em domicílios particulares ocupados,45,Pessoas,4.95
3,Unidade da Federação,22,Piauí,2000,2000,2048,Domicílios particulares ocupados,1020,Unidades,663800
3,Unidade da Federação,22,Piauí,2000,2000,134,Pessoas residentes em domicílios particulares,45,Pessoas,2840041
3,Unidade da Federação,22,Piauí,2000,2000,619,Média de moradores em domicílios particulares ocupados,45,Pessoas,4.28
3,Unidade da Federação,22,Piauí,2010,2010,2048,Domicílios particulares ocupados,1020,Unidades,849740
3,Unidade da Federação,22,Piauí,2010,2010,134,Pessoas residentes em domicílios particulares,45,Pessoas,3114735
3,Unidade da Federação,22,Piauí,2010,2010,619,Média de moradores em domicílios particulares ocupados,45,Pessoas,3.67
3,Unidade da Federação,23,Ceará,1991,1991,2048,Domicílios particulares ocupados,1020,Unidades,1349826
3,Unidade da Federação,23,Ceará,1991,1991,134,Pessoas residentes em domicílios particulares,45,Pessoas,6357237
3,Unidade da Federação,23,Ceará,1991,1991,619,Média de moradores em domicílios particulares ocupados,45,Pessoas,4.71
3,Unidade da Federação,23,Ceará,2000,2000,2048,Domicílios particulares ocupados,1020,Unidades,1765176
3,Unidade da Federação,23,Ceará,2000,2000,134,Pessoas residentes em domicílios particulares,45,Pessoas,7420084
3,Unidade da Federação,23,Ceará,2000,2000,619,Média de moradores em domicílios particulares ocupados,45,Pessoas,4.20
3,Unidade da Federação,23,Ceará,2010,2010,2048,Domicílios particulares ocupados,1020,Unidades,2369811
3,Unidade da Federação,23,Ceará,2010,2010,134,Pessoas residentes em domicílios particulares,45,Pessoas,8439947
3,Unidade da Federação,23,Ceará,2010,2010,619,Média de moradores em domicílios particulares ocupados,45,Pessoas,3.56
3,Unidade da Federação,24,Rio Grande do Norte,1991,1991,2048,Domicílios particulares ocupados,1020,Unidades,521678
3,Unidade da Federação,24,Rio Grande do Norte,1991,1991,134,Pessoas residentes em domicílios particulares,45,Pessoas,2410266
3,Unidade da Federação,24,Rio Grande do Norte,1991,1991,619,Média de moradores em domicílios particulares ocupados,45,Pessoas,4.62
3,Unidade da Federação,24,Rio Grande do Norte,2000,2000,2048,Domicílios particulares ocupados,1020,Unidades,675283
3,Unidade da Federação,24,Rio Grande do Norte,2000,2000,134,Pessoas residentes em domicílios particulares,45,Pessoas,2772471
3,Unidade da Federação,24,Rio Grande do Norte,2000,2000,619,Média de moradores em domicílios particulares ocupados,45,Pessoas,4.11
3,Unidade da Federação,24,Rio Grande do Norte,2010,2010,2048,Domicílios particulares ocupados,1020,Unidades,901339
3,Unidade da Federação,24,Rio Grande do Norte,2010,2010,134,Pessoas residentes em domicílios particulares,45,Pessoas,3162327
3,Unidade da Federação,24,Rio Grande do Norte,2010,2010,619,Média de moradores em domicílios particulares ocupados,45,Pessoas,3.51
3,Unidade da Federação,25,Paraíba,1991,1991,2048,Domicílios particulares ocupados,1020,Unidades,695391
3,Unidade da Federação,25,Paraíba,1991,1991,134,Pessoas residentes em domicílios particulares,45,Pessoas,3195435
3,Unidade da Federação,25,Paraíba,1991,1991,619,Média de moradores em domicílios particulares ocupados,45,Pessoas,4.60
3,Unidade da Federação,25,Paraíba,2000,2000,2048,Domicílios particulares ocupados,1020,Unidades,852871
3,Unidade da Federação,25,Paraíba,2000,2000,134,Pessoas residentes em domicílios particulares,45,Pessoas,3438084
3,Unidade da Federação,25,Paraíba,2000,2000,619,Média de moradores em domicílios particulares ocupados,45,Pessoas,4.03
3,Unidade da Federação,25,Paraíba,2010,2010,2048,Domicílios particulares ocupados,1020,Unidades,1082796
3,Unidade da Federação,25,Paraíba,2010,2010,134,Pessoas residentes em domicílios particulares,45,Pessoas,3758323
3,Unidade da Federação,25,Paraíba,2010,2010,619,Média de moradores em domicílios particulares ocupados,45,Pessoas,3.47
3,Unidade da Federação,26,Pernambuco,1991,1991,2048,Domicílios particulares ocupados,1020,Unidades,1591157
3,Unidade da Federação,26,Pernambuco,1991,1991,134,Pessoas residentes em domicílios particulares,45,Pessoas,7112485
3,Unidade da Federação,26,Pernambuco,1991,1991,619,Média de moradores em domicílios particulares ocupados,45,Pessoas,4.47
3,Unidade da Federação,26,Pernambuco,2000,2000,2048,Domicílios particulares ocupados,1020,Unidades,1979182
3,Unidade da Federação,26,Pernambuco,2000,2000,134,Pessoas residentes em domicílios particulares,45,Pessoas,7900044
3,Unidade da Federação,26,Pernambuco,2000,2000,619,Média de moradores em domicílios particulares ocupados,45,Pessoas,3.99
3,Unidade da Federação,26,Pernambuco,2010,2010,2048,Domicílios particulares ocupados,1020,Unidades,2551317
3,Unidade da Federação,26,Pernambuco,2010,2010,134,Pessoas residentes em domicílios particulares,45,Pessoas,8770723
3,Unidade da Federação,26,Pernambuco,2010,2010,619,Média de moradores em domicílios particulares ocupados,45,Pessoas,3.44
3,Unidade da Federação,27,Alagoas,1991,1991,2048,Domicílios particulares ocupados,1020,Unidades,528067
3,Unidade da Federação,27,Alagoas,1991,1991,134,Pessoas residentes em domicílios particulares,45,Pessoas,2507990
3,Unidade da Federação,27,Alagoas,1991,1991,619,Média de moradores em domicílios particulares ocupados,45,Pessoas,4.75
3,Unidade da Federação,27,Alagoas,2000,2000,2048,Domicílios particulares ocupados,1020,Unidades,656204
3,Unidade da Federação,27,Alagoas,2000,2000,134,Pessoas residentes em domicílios particulares,45,Pessoas,2818628
3,Unidade da Federação,27,Alagoas,2000,2000,619,Média de moradores em domicílios particulares ocupados,45,Pessoas,4.30
3,Unidade da Federação,27,Alagoas,2010,2010,2048,Domicílios particulares ocupados,1020,Unidades,847252
3,Unidade da Federação,27,Alagoas,2010,2010,134,Pessoas residentes em domicílios particulares,45,Pessoas,3114195
3,Unidade da Federação,27,Alagoas,2010,2010,619,Média de moradores em domicílios particulares ocupados,45,Pessoas,3.68
3,Unidade da Federação,28,Sergipe,1991,1991,2048,Domicílios particulares ocupados,1020,Unidades,329717
3,Unidade da Federação,28,Sergipe,1991,1991,134,Pessoas residentes em domicílios particulares,45,Pessoas,1488913
3,Unidade da Federação,28,Sergipe,1991,1991,619,Média de moradores em domicílios particulares ocupados,45,Pessoas,4.52
3,Unidade da Federação,28,Sergipe,2000,2000,2048,Domicílios particulares ocupados,1020,Unidades,439975
3,Unidade da Federação,28,Sergipe,2000,2000,134,Pessoas residentes em domicílios particulares,45,Pessoas,1781739
3,Unidade da Federação,28,Sergipe,2000,2000,619,Média de moradores em domicílios particulares ocupados,45,Pessoas,4.05
3,Unidade da Federação,28,Sergipe,2010,2010,2048,Domicílios particulares ocupados,1020,Unidades,593248
3,Unidade da Federação,28,Sergipe,2010,2010,134,Pessoas residentes em domicílios particulares,45,Pessoas,2065293
3,Unidade da Federação,28,Sergipe,2010,2010,619,Média de moradores em domicílios particulares ocupados,45,Pessoas,3.48
3,Unidade da Federação,29,Bahia,1991,1991,2048,Domicílios particulares ocupados,1020,Unidades,2523518
3,Unidade da Federação,29,Bahia,1991,1991,134,Pessoas residentes em domicílios particulares,45,Pessoas,11841182
3,Unidade da Federação,29,Bahia,1991,1991,619,Média de moradores em domicílios particulares ocupados,45,Pessoas,4.69
3,Unidade da Federação,29,Bahia,2000,2000,2048,Domicílios particulares ocupados,1020,Unidades,3196112
3,Unidade da Federação,29,Bahia,2000,2000,134,Pessoas residentes em domicílios particulares,45,Pessoas,13044502
3,Unidade da Federação,29,Bahia,2000,2000,619,Média de moradores em domicílios particulares ocupados,45,Pessoas,4.08
3,Unidade da Federação,29,Bahia,2010,2010,2048,Domicílios particulares ocupados,1020,Unidades,4105497
3,Unidade da Federação,29,Bahia,2010,2010,134,Pessoas residentes em domicílios particulares,45,Pessoas,13992202
3,Unidade da Federação,29,Bahia,2010,2010,619,Média de moradores em domicílios particulares ocupados,45,Pessoas,3.41
3,Unidade da Federação,31,Minas Gerais,1991,1991,2048,Domicílios particulares ocupados,1020,Unidades,3720628
3,Unidade da Federação,31,Minas Gerais,1991,1991,134,Pessoas residentes em domicílios particulares,45,Pessoas,15676612
3,Unidade da Federação,31,Minas Gerais,1991,1991,619,Média de moradores em domicílios particulares ocupados,45,Pessoas,4.21
3,Unidade da Federação,31,Minas Gerais,2000,2000,2048,Domicílios particulares ocupados,1020,Unidades,4787711
3,Unidade da Federação,31,Minas Gerais,2000,2000,134,Pessoas residentes em domicílios particulares,45,Pessoas,17834022
3,Unidade da Federação,31,Minas Gerais,2000,2000,619,Média de moradores em domicílios particulares ocupados,45,Pessoas,3.72
3,Unidade da Federação,31,Minas Gerais,2010,2010,2048,Domicílios particulares ocupados,1020,Unidades,6037879
3,Unidade da Federação,31,Minas Gerais,2010,2010,134,Pessoas residentes em domicílios particulares,45,Pessoas,19519023
3,Unidade da Federação,31,Minas Gerais,2010,2010,619,Média de moradores em domicílios particulares ocupados,45,Pessoas,3.23
3,Unidade da Federação,32,Espírito Santo,1991,1991,2048,Domicílios particulares ocupados,1020,Unidades,620709
3,Unidade da Federação,32,Espírito Santo,1991,1991,134,Pessoas residentes em domicílios particulares,45,Pessoas,2593882
3,Unidade da Federação,32,Espírito Santo,1991,1991,619,Média de moradores em domicílios particulares ocupados,45,Pessoas,4.18
3,Unidade da Federação,32,Espírito Santo,2000,2000,2048,Domicílios particulares ocupados,1020,Unidades,845540
3,Unidade da Federação,32,Espírito Santo,2000,2000,134,Pessoas residentes em domicílios particulares,45,Pessoas,3090737
3,Unidade da Federação,32,Espírito Santo,2000,2000,619,Média de moradores em domicílios particulares ocupados,45,Pessoas,3.66
3,Unidade da Federação,32,Espírito Santo,2010,2010,2048,Domicílios particulares ocupados,1020,Unidades,1103345
3,Unidade da Federação,32,Espírito Santo,2010,2010,134,Pessoas residentes em domicílios particulares,45,Pessoas,3501693
3,Unidade da Federação,32,Espírito Santo,2010,2010,619,Média de moradores em domicílios particulares ocupados,45,Pessoas,3.17
3,Unidade da Federação,33,Rio de Janeiro,1991,1991,2048,Domicílios particulares ocupados,1020,Unidades,3463463
3,Unidade da Federação,33,Rio de Janeiro,1991,1991,134,Pessoas residentes em domicílios particulares,45,Pessoas,12744069
3,Unidade da Federação,33,Rio de Janeiro,1991,1991,619,Média de moradores em domicílios particulares ocupados,45,Pessoas,3.68
3,Unidade da Federação,33,Rio de Janeiro,2000,2000,2048,Domicílios particulares ocupados,1020,Unidades,4267979
3,Unidade da Federação,33,Rio de Janeiro,2000,2000,134,Pessoas residentes em domicílios particulares,45,Pessoas,14338129
3,Unidade da Federação,33,Rio de Janeiro,2000,2000,619,Média de moradores em domicílios particulares ocupados,45,Pessoas,3.36
3,Unidade da Federação,33,Rio de Janeiro,2010,2010,2048,Domicílios particulares ocupados,1020,Unidades,5248110
3,Unidade da Federação,33,Rio de Janeiro,2010,2010,134,Pessoas residentes em domicílios particulares,45,Pessoas,15937153
3,Unidade da Federação,33,Rio de Janeiro,2010,2010,619,Média de moradores em domicílios particulares ocupados,45,Pessoas,3.04
3,Unidade da Federação,35,São Paulo,1991,1991,2048,Domicílios particulares ocupados,1020,Unidades,8062111
3,Unidade da Federação,35,São Paulo,1991,1991,134,Pessoas residentes em domicílios particulares,45,Pessoas,31354404
3,Unidade da Federação,35,São Paulo,1991,1991,619,Média de moradores em domicílios particulares ocupados,45,Pessoas,3.89
3,Unidade da Federação,35,São Paulo,2000,2000,2048,Domicílios particulares ocupados,1020,Unidades,10406024
3,Unidade da Federação,35,São Paulo,2000,2000,134,Pessoas residentes em domicílios particulares,45,Pessoas,36851754
3,Unidade da Federação,35,São Paulo,2000,2000,619,Média de moradores em domicílios particulares ocupados,45,Pessoas,3.54
3,Unidade da Federação,35,São Paulo,2010,2010,2048,Domicílios particulares ocupados,1020,Unidades,12838561
3,Unidade da Federação,35,São Paulo,2010,2010,134,Pessoas residentes em domicílios particulares,45,Pessoas,41033567
3,Unidade da Federação,35,São Paulo,2010,2010,619,Média de moradores em domicílios particulares ocupados,45,Pessoas,3.20
3,Unidade da Federação,41,Paraná,1991,1991,2048,Domicílios particulares ocupados,1020,Unidades,2092977
3,Unidade da Federação,41,Paraná,1991,1991,134,Pessoas residentes em domicílios particulares,45,Pessoas,8413671
3,Unidade da Federação,41,Paraná,1991,1991,619,Média de moradores em domicílios particulares ocupados,45,Pessoas,4.02
3,Unidade da Federação,41,Paraná,2000,2000,2048,Domicílios particulares ocupados,1020,Unidades,2682017
3,Unidade da Federação,41,Paraná,2000,2000,134,Pessoas residentes em domicílios particulares,45,Pessoas,9532043
3,Unidade da Federação,41,Paraná,2000,2000,619,Média de moradores em domicílios particulares ocupados,45,Pessoas,3.55
3,Unidade da Federação,41,Paraná,2010,2010,2048,Domicílios particulares ocupados,1020,Unidades,3304597
3,Unidade da Federação,41,Paraná,2010,2010,134,Pessoas residentes em domicílios particulares,45,Pessoas,10406307
3,Unidade da Federação,41,Paraná,2010,2010,619,Média de moradores em domicílios particulares ocupados,45,Pessoas,3.15
3,Unidade da Federação,42,Santa Catarina,1991,1991,2048,Domicílios particulares ocupados,1020,Unidades,1126868
3,Unidade da Federação,42,Santa Catarina,1991,1991,134,Pessoas residentes em domicílios particulares,45,Pessoas,4524595
3,Unidade da Federação,42,Santa Catarina,1991,1991,619,Média de moradores em domicílios particulares ocupados,45,Pessoas,4.02
3,Unidade da Federação,42,Santa Catarina,2000,2000,2048,Domicílios particulares ocupados,1020,Unidades,1505966
3,Unidade da Federação,42,Santa Catarina,2000,2000,134,Pessoas residentes em domicílios particulares,45,Pessoas,5341084
3,Unidade da Federação,42,Santa Catarina,2000,2000,619,Média de moradores em domicílios particulares ocupados,45,Pessoas,3.55
3,Unidade da Federação,42,Santa Catarina,2010,2010,2048,Domicílios particulares ocupados,1020,Unidades,1995572
3,Unidade da Federação,42,Santa Catarina,2010,2010,134,Pessoas residentes em domicílios particulares,45,Pessoas,6226708
3,Unidade da Federação,42,Santa Catarina,2010,2010,619,Média de moradores em domicílios particulares ocupados,45,Pessoas,3.12
3,Unidade da Federação,43,Rio Grande do Sul,1991,1991,2048,Domicílios particulares ocupados,1020,Unidades,2497788
3,Unidade da Federação,43,Rio Grande do Sul,1991,1991,134,Pessoas residentes em domicílios particulares,45,Pessoas,9093499
3,Unidade da Federação,43,Rio Grande do Sul,1991,1991,619,Média de moradores em domicílios particulares ocupados,45,Pessoas,3.64
3,Unidade da Federação,43,Rio Grande do Sul,2000,2000,2048,Domicílios particulares ocupados,1020,Unidades,3053287
3,Unidade da Federação,43,Rio Grande do Sul,2000,2000,134,Pessoas residentes em domicílios particulares,45,Pessoas,10145016
3,Unidade da Federação,43,Rio Grande do Sul,2000,2000,619,Média de moradores em domicílios particulares ocupados,45,Pessoas,3.32
3,Unidade da Federação,43,Rio Grande do Sul,2010,2010,2048,Domicílios particulares ocupados,1020,Unidades,3603951
3,Unidade da Federação,43,Rio Grande do Sul,2010,2010,134,Pessoas residentes em domicílios particulares,45,Pessoas,10641426
3,Unidade da Federação,43,Rio Grande do Sul,2010,2010,619,Média de moradores em domicílios particulares ocupados,45,Pessoas,2.95
3,Unidade da Federação,50,Mato Grosso do Sul,1991,1991,2048,Domicílios particulares ocupados,1020,Unidades,433642
3,Unidade da Federação,50,Mato Grosso do Sul,1991,1991,134,Pessoas residentes em domicílios particulares,45,Pessoas,1770546
3,Unidade da Federação,50,Mato Grosso do Sul,1991,1991,619,Média de moradores em domicílios particulares ocupados,45,Pessoas,4.08
3,Unidade da Federação,50,Mato Grosso do Sul,2000,2000,2048,Domicílios particulares ocupados,1020,Unidades,569730
3,Unidade da Federação,50,Mato Grosso do Sul,2000,2000,134,Pessoas residentes em domicílios particulares,45,Pessoas,2068831
3,Unidade da Federação,50,Mato Grosso do Sul,2000,2000,619,Média de moradores em domicílios particulares ocupados,45,Pessoas,3.63
3,Unidade da Federação,50,Mato Grosso do Sul,2010,2010,2048,Domicílios particulares ocupados,1020,Unidades,763696
3,Unidade da Federação,50,Mato Grosso do Sul,2010,2010,134,Pessoas residentes em domicílios particulares,45,Pessoas,2437037
3,Unidade da Federação,50,Mato Grosso do Sul,2010,2010,619,Média de moradores em domicílios particulares ocupados,45,Pessoas,3.19
3,Unidade da Federação,51,Mato Grosso,1991,1991,2048,Domicílios particulares ocupados,1020,Unidades,462426
3,Unidade da Federação,51,Mato Grosso,1991,1991,134,Pessoas residentes em domicílios particulares,45,Pessoas,2012351
3,Unidade da Federação,51,Mato Grosso,1991,1991,619,Média de moradores em domicílios particulares ocupados,45,Pessoas,4.35
3,Unidade da Federação,51,Mato Grosso,2000,2000,2048,Domicílios particulares ocupados,1020,Unidades,659443
3,Unidade da Federação,51,Mato Grosso,2000,2000,134,Pessoas residentes em domicílios particulares,45,Pessoas,2484096
3,Unidade da Federação,51,Mato Grosso,2000,2000,619,Média de moradores em domicílios particulares ocupados,45,Pessoas,3.77
3,Unidade da Federação,51,Mato Grosso,2010,2010,2048,Domicílios particulares ocupados,1020,Unidades,918559
3,Unidade da Federação,51,Mato Grosso,2010,2010,134,Pessoas residentes em domicílios particulares,45,Pessoas,3020113
3,Unidade da Federação,51,Mato Grosso,2010,2010,619,Média de moradores em domicílios particulares ocupados,45,Pessoas,3.29
3,Unidade da Federação,52,Goiás,1991,1991,2048,Domicílios particulares ocupados,1020,Unidades,994516
3,Unidade da Federação,52,Goiás,1991,1991,134,Pessoas residentes em domicílios particulares,45,Pessoas,4002031
3,Unidade da Federação,52,Goiás,1991,1991,619,Média de moradores em domicílios particulares ocupados,45,Pessoas,4.02
3,Unidade da Federação,52,Goiás,2000,2000,2048,Domicílios particulares ocupados,1020,Unidades,1409230
3,Unidade da Federação,52,Goiás,2000,2000,134,Pessoas residentes em domicílios particulares,45,Pessoas,4988946
3,Unidade da Federação,52,Goiás,2000,2000,619,Média de moradores em domicílios particulares ocupados,45,Pessoas,3.54
3,Unidade da Federação,52,Goiás,2010,2010,2048,Domicílios particulares ocupados,1020,Unidades,1892385
3,Unidade da Federação,52,Goiás,2010,2010,134,Pessoas residentes em domicílios particulares,45,Pessoas,5985111
3,Unidade da Federação,52,Goiás,2010,2010,619,Média de moradores em domicílios particulares ocupados,45,Pessoas,3.16
3,Unidade da Federação,53,Distrito Federal,1991,1991,2048,Domicílios particulares ocupados,1020,Unidades,379869
3,Unidade da Federação,53,Distrito Federal,1991,1991,134,Pessoas residentes em domicílios particulares,45,Pessoas,1593455
3,Unidade da Federação,53,Distrito Federal,1991,1991,619,Média de moradores em domicílios particulares ocupados,45,Pessoas,4.19
3,Unidade da Federação,53,Distrito Federal,2000,2000,2048,Domicílios particulares ocupados,1020,Unidades,550526
3,Unidade da Federação,53,Distrito Federal,2000,2000,134,Pessoas residentes em domicílios particulares,45,Pessoas,2044211
3,Unidade da Federação,53,Distrito Federal,2000,2000,619,Média de moradores em domicílios particulares ocupados,45,Pessoas,3.71
3,Unidade da Federação,53,Distrito Federal,2010,2010,2048,Domicílios particulares ocupados,1020,Unidades,774922
3,Unidade da Federação,53,Distrito Federal,2010,2010,134,Pessoas residentes em domicílios particulares,45,Pessoas,2558865
3,Unidade da Federação,53,Distrito Federal,2010,2010,619,Média de moradores em domicílios particulares ocupados,45,Pessoas,3.30
