NC,NN,D1C,D1N,D2C,D2N,D3C,D3N,MC,MN,V
Nível Territorial (Código),Nível Territorial,Unidade da Federação (Código),Unidade da Federação,Ano (Código),Ano,Variável (Código),Variável,Unidade de Medida (Código),Unidade de Medida,Valor
3,Unidade da Federação,11,Rondônia,1991,1991,99,Número médio de cômodos por domicílio,37,Cômodos,4.63
3,Unidade da Federação,12,Acre,1991,1991,99,Número médio de cômodos por domicílio,37,Cômodos,3.95
3,Unidade da Federação,13,Amazonas,1991,1991,99,Número médio de cômodos por domicílio,37,Cômodos,4.04
3,Unidade da Federação,14,Roraima,1991,1991,99,Número médio de cômodos por domicílio,37,Cômodos,4.26
3,Unidade da Federação,15,Pará,1991,1991,99,Número médio de cômodos por domicílio,37,Cômodos,4.38
3,Unidade da Federação,16,Amapá,1991,1991,99,Número médio de cômodos por domicílio,37,Cômodos,4.18
3,Unidade da Federação,17,Tocantins,1991,1991,99,Número médio de cômodos por domicílio,37,Cômodos,4.80
3,Unidade da Federação,21,Maranhão,1991,1991,99,Número médio de cômodos por domicílio,37,Cômodos,4.58
3,Unidade da Federação,22,Piauí,1991,1991,99,Número médio de cômodos por domicílio,37,Cômodos,5.23
3,Unidade da Federação,23,Ceará,1991,1991,99,Número médio de cômodos por domicílio,37,Cômodos,5.25
3,Unidade da Federação,24,Rio Grande do Norte,1991,1991,99,Número médio de cômodos por domicílio,37,Cômodos,5.40
3,Unidade da Federação,25,Paraíba,1991,1991,99,Número médio de cômodos por domicílio,37,Cômodos,5.35
3,Unidade da Federação,26,Pernambuco,1991,1991,99,Número médio de cômodos por domicílio,37,Cômodos,5.38
3,Unidade da Federação,27,Alagoas,1991,1991,99,Número médio de cômodos por domicílio,37,Cômodos,5.22
3,Unidade da Federação,28,Sergipe,1991,1991,99,Número médio de cômodos por domicílio,37,Cômodos,5.42
3,Unidade da Federação,29,Bahia,1991,1991,99,Número médio de cômodos por domicílio,37,Cômodos,5.40
3,Unidade da Federação,31,Minas Gerais,1991,1991,99,Número médio de cômodos por domicílio,37,Cômodos,6.02
3,Unidade da Federação,32,Espírito Santo,1991,1991,99,Número médio de cômodos por domicílio,37,Cômodos,5.83
3,Unidade da Federação,33,Rio de Janeiro,1991,1991,99,Número médio de cômodos por domicílio,37,Cômodos,5.31
3,Unidade da Federação,35,São Paulo,1991,1991,99,Número médio de cômodos por domicílio,37,Cômodos,5.34
3,Unidade da Federação,41,Paraná,1991,1991,99,Número médio de cômodos por domicílio,37,Cômodos,5.59
3,Unidade da Federação,42,Santa Catarina,1991,1991,99,Número médio de cômodos por domicílio,37,Cômodos,6.09
3,Unidade da Federação,43,Rio Grande do Sul,1991,1991,99,Número médio de cômodos por domicílio,37,Cômodos,5.68
3,Unidade da Federação,50,Mato Grosso do Sul,1991,1991,99,Número médio de cômodos por domicílio,37,Cômodos,5.42
3,Unidade da Federação,51,Mato Grosso,1991,1991,99,Número médio de cômodos por domicílio,37,Cômodos,5.02
3,Unidade da Federação,52,Goiás,1991,1991,99,Número médio de cômodos por domicílio,37,Cômodos,5.52
3,Unidade da Federação,53,Distrito Federal,1991,1991,99,Número médio de cômodos por domicílio,37,Cômodos,5.84
