NC,NN,D1C,D1N,D2C,D2N,D3C,D3N,D4C,D4N,D5C,D5N,MC,MN,V
Nível Territorial (Código),Nível Territorial,Unidade da Federação (Código),Unidade da Federação,Ano (Código),Ano,Variável (Código),Variável,Situação do domicílio (Código),Situação do domicílio,Número de dormitórios (Código),Número de dormitórios,Unidade de Medida (Código),Unidade de Medida,Valor
3,Unidade da Federação,11,Rondônia,2000,2000,96,Domicílios particulares permanentes,0,Total,0,Total,1020,Unidades,347192
3,Unidade da Federação,11,Rondônia,2000,2000,1000096,Domicílios particulares permanentes - percentual do total geral,0,Total,0,Total,2,Percentual,100.00
3,Unidade da Federação,11,Rondônia,2000,2000,137,Moradores em domicílios particulares permanentes,0,Total,0,Total,45,Pessoas,1361295
3,Unidade da Federação,11,Rondônia,2000,2000,1000137,Moradores em domicílios particulares permanentes - percentual do total geral,0,Total,0,Total,2,Percentual,100.00
3,Unidade da Federação,11,Rondônia,2010,2010,96,Domicílios particulares permanentes,0,Total,0,Total,1020,Unidades,458431
3,Unidade da Federação,11,Rondônia,2010,2010,1000096,Domicílios particulares permanentes - percentual do total geral,0,Total,0,Total,2,Percentual,100.00
3,Unidade da Federação,11,Rondônia,2010,2010,137,Moradores em domicílios particulares permanentes,0,Total,0,Total,45,Pessoas,1548789
3,Unidade da Federação,11,Rondônia,2010,2010,1000137,Moradores em domicílios particulares permanentes - percentual do total geral,0,Total,0,Total,2,Percentual,100.00
3,Unidade da Federação,12,Acre,2000,2000,96,Domicílios particulares permanentes,0,Total,0,Total,1020,Unidades,129392
3,Unidade da Federação,12,Acre,2000,2000,1000096,Domicílios particulares permanentes - percentual do total geral,0,Total,0,Total,2,Percentual,100.00
3,Unidade da Federação,12,Acre,2000,2000,137,Moradores em domicílios particulares permanentes,0,Total,0,Total,45,Pessoas,552016
3,Unidade da Federação,12,Acre,2000,2000,1000137,Moradores em domicílios particulares permanentes - percentual do total geral,0,Total,0,Total,2,Percentual,100.00
3,Unidade da Federação,12,Acre,2010,2010,96,Domicílios particulares permanentes,0,Total,0,Total,1020,Unidades,190644
3,Unidade da Federação,12,Acre,2010,2010,1000096,Domicílios particulares permanentes - percentual do total geral,0,Total,0,Total,2,Percentual,100.00
3,Unidade da Federação,12,Acre,2010,2010,137,Moradores em domicílios particulares permanentes,0,Total,0,Total,45,Pessoas,729507
3,Unidade da Federação,12,Acre,2010,2010,1000137,Moradores em domicílios particulares permanentes - percentual do total geral,0,Total,0,Total,2,Percentual,100.00
3,Unidade da Federação,13,Amazonas,2000,2000,96,Domicílios particulares permanentes,0,Total,0,Total,1020,Unidades,570562
3,Unidade da Federação,13,Amazonas,2000,2000,1000096,Domicílios particulares permanentes - percentual do total geral,0,Total,0,Total,2,Percentual,100.00
3,Unidade da Federação,13,Amazonas,2000,2000,137,Moradores em domicílios particulares permanentes,0,Total,0,Total,45,Pessoas,2780256
3,Unidade da Federação,13,Amazonas,2000,2000,1000137,Moradores em domicílios particulares permanentes - percentual do total geral,0,Total,0,Total,2,Percentual,100.00
3,Unidade da Federação,13,Amazonas,2010,2010,96,Domicílios particulares permanentes,0,Total,0,Total,1020,Unidades,799357
3,Unidade da Federação,13,Amazonas,2010,2010,1000096,Domicílios particulares permanentes - percentual do total geral,0,Total,0,Total,2,Percentual,100.00
3,Unidade da Federação,13,Amazonas,2010,2010,137,Moradores em domicílios particulares permanentes,0,Total,0,Total,45,Pessoas,3465831
3,Unidade da Federação,13,Amazonas,2010,2010,1000137,Moradores em domicílios particulares permanentes - percentual do total geral,0,Total,0,Total,2,Percentual,100.00
3,Unidade da Federação,14,Roraima,2000,2000,96,Domicílios particulares permanentes,0,Total,0,Total,1020,Unidades,74402
3,Unidade da Federação,14,Roraima,2000,2000,1000096,Domicílios particulares permanentes - percentual do total geral,0,Total,0,Total,2,Percentual,100.00
3,Unidade da Federação,14,Roraima,2000,2000,137,Moradores em domicílios particulares permanentes,0,Total,0,Total,45,Pessoas,317662
3,Unidade da Federação,14,Roraima,2000,2000,1000137,Moradores em domicílios particulares permanentes - percentual do total geral,0,Total,0,Total,2,Percentual,100.00
3,Unidade da Federação,14,Roraima,2010,2010,96,Domicílios particulares permanentes,0,Total,0,Total,1020,Unidades,115778
3,Unidade da Federação,14,Roraima,2010,2010,1000096,Domicílios particulares permanentes - percentual do total geral,0,Total,0,Total,2,Percentual,100.00
3,Unidade da Federação,14,Roraima,2010,2010,137,Moradores em domicílios particulares permanentes,0,Total,0,Total,45,Pessoas,446963
3,Unidade da Federação,14,Roraima,2010,2010,1000137,Moradores em domicílios particulares permanentes - percentual do total geral,0,Total,0,Total,2,Percentual,100.00
3,Unidade da Federação,15,Pará,2000,2000,96,Domicílios particulares permanentes,0,Total,0,Total,1020,Unidades,1308511
3,Unidade da Federação,15,Pará,2000,2000,1000096,Domicílios particulares permanentes - percentual do total geral,0,Total,0,Total,2,Percentual,100.00
3,Unidade da Federação,15,Pará,2000,2000,137,Moradores em domicílios particulares permanentes,0,Total,0,Total,45,Pessoas,6121430
3,Unidade da Federação,15,Pará,2000,2000,1000137,Moradores em domicílios particulares permanentes - percentual do total geral,0,Total,0,Total,2,Percentual,100.00
3,Unidade da Federação,15,Pará,2010,2010,96,Domicílios particulares permanentes,0,Total,0,Total,1020,Unidades,1858732
3,Unidade da Federação,15,Pará,2010,2010,1000096,Domicílios particulares permanentes - percentual do total geral,0,Total,0,Total,2,Percentual,100.00
3,Unidade da Federação,15,Pará,2010,2010,137,Moradores em domicílios particulares permanentes,0,Total,0,Total,45,Pessoas,7542186
3,Unidade da Federação,15,Pará,2010,2010,1000137,Moradores em domicílios particulares permanentes - percentual do total geral,0,Total,0,Total,2,Percentual,100.00
3,Unidade da Federação,16,Amapá,2000,2000,96,Domicílios particulares permanentes,0,Total,0,Total,1020,Unidades,98521
3,Unidade da Federação,16,Amapá,2000,2000,1000096,Domicílios particulares permanentes - percentual do total geral,0,Total,0,Total,2,Percentual,100.00
3,Unidade da Federação,16,Amapá,2000,2000,137,Moradores em domicílios particulares permanentes,0,Total,0,Total,45,Pessoas,471545
3,Unidade da Federação,16,Amapá,2000,2000,1000137,Moradores em domicílios particulares permanentes - percentual do total geral,0,Total,0,Total,2,Percentual,100.00
3,Unidade da Federação,16,Amapá,2010,2010,96,Domicílios particulares permanentes,0,Total,0,Total,1020,Unidades,156141
3,Unidade da Federação,16,Amapá,2010,2010,1000096,Domicílios particulares permanentes - percentual do total geral,0,Total,0,Total,2,Percentual,100.00
3,Unidade da Federação,16,Amapá,2010,2010,137,Moradores em domicílios particulares permanentes,0,Total,0,Total,45,Pessoas,665266
3,Unidade da Federação,16,Amapá,2010,2010,1000137,Moradores em domicílios particulares permanentes - percentual do total geral,0,Total,0,Total,2,Percentual,100.00
3,Unidade da Federação,17,Tocantins,2000,2000,96,Domicílios particulares permanentes,0,Total,0,Total,1020,Unidades,280224
3,Unidade da Federação,17,Tocantins,2000,2000,1000096,Domicílios particulares permanentes - percentual do total geral,0,Total,0,Total,2,Percentual,100.00
3,Unidade da Federação,17,Tocantins,2000,2000,137,Moradores em domicílios particulares permanentes,0,Total,0,Total,45,Pessoas,1143283
3,Unidade da Federação,17,Tocantins,2000,2000,1000137,Moradores em domicílios particulares permanentes - percentual do total geral,0,Total,0,Total,2,Percentual,100.00
3,Unidade da Federação,17,Tocantins,2010,2010,96,Domicílios particulares permanentes,0,Total,0,Total,1020,Unidades,398280
3,Unidade da Federação,17,Tocantins,2010,2010,1000096,Domicílios particulares permanentes - percentual do total geral,0,Total,0,Total,2,Percentual,100.00
3,Unidade da Federação,17,Tocantins,2010,2010,137,Moradores em domicílios particulares permanentes,0,Total,0,Total,45,Pessoas,1376438
3,Unidade da Federação,17,Tocantins,2010,2010,1000137,Moradores em domicílios particulares permanentes - percentual do total geral,0,Total,0,Total,2,Percentual,100.00
3,Unidade da Federação,21,Maranhão,2000,2000,96,Domicílios particulares permanentes,0,Total,0,Total,1020,Unidades,1235523
3,Unidade da Federação,21,Maranhão,2000,2000,1000096,Domicílios particulares permanentes - percentual do total geral,0,Total,0,Total,2,Percentual,100.00
3,Unidade da Federação,21,Maranhão,2000,2000,137,Moradores em domicílios particulares permanentes,0,Total,0,Total,45,Pessoas,5621913
3,Unidade da Federação,21,Maranhão,2000,2000,1000137,Moradores em domicílios particulares permanentes - percentual do total geral,0,Total,0,Total,2,Percentual,100.00
3,Unidade da Federação,21,Maranhão,2010,2010,96,Domicílios particulares permanentes,0,Total,0,Total,1020,Unidades,1653969
3,Unidade da Federação,21,Maranhão,2010,2010,1000096,Domicílios particulares permanentes - percentual do total geral,0,Total,0,Total,2,Percentual,100.00
3,Unidade da Federação,21,Maranhão,2010,2010,137,Moradores em domicílios particulares permanentes,0,Total,0,Total,45,Pessoas,6559859
3,Unidade da Federação,21,Maranhão,2010,2010,1000137,Moradores em domicílios particulares permanentes - percentual do total geral,0,Total,0,Total,2,Percentual,100.00
3,Unidade da Federação,22,Piauí,2000,2000,96,Domicílios particulares permanentes,0,Total,0,Total,1020,Unidades,661105
3,Unidade da Federação,22,Piauí,2000,2000,1000096,Domicílios particulares permanentes - percentual do total geral,0,Total,0,Total,2,Percentual,100.00
3,Unidade da Federação,22,Piauí,2000,2000,137,Moradores em domicílios particulares permanentes,0,Total,0,Total,45,Pessoas,2832095
3,Unidade da Federação,22,Piauí,2000,2000,1000137,Moradores em domicílios particulares permanentes - percentual do total geral,0,Total,0,Total,2,Percentual,100.00
3,Unidade da Federação,22,Piauí,2010,2010,96,Domicílios particulares permanentes,0,Total,0,Total,1020,Unidades,848413
3,Unidade da Federação,22,Piauí,2010,2010,1000096,Domicílios particulares permanentes - percentual do total geral,0,Total,0,Total,2,Percentual,100.00
3,Unidade da Federação,22,Piauí,2010,2010,137,Moradores em domicílios particulares permanentes,0,Total,0,Total,45,Pessoas,3111473
3,Unidade da Federação,22,Piauí,2010,2010,1000137,Moradores em domicílios particulares permanentes - percentual do total geral,0,Total,0,Total,2,Percentual,100.00
3,Unidade da Federação,23,Ceará,2000,2000,96,Domicílios particulares permanentes,0,Total,0,Total,1020,Unidades,1757249
3,Unidade da Federação,23,Ceará,2000,2000,1000096,Domicílios particulares permanentes - percentual do total geral,0,Total,0,Total,2,Percentual,100.00
3,Unidade da Federação,23,Ceará,2000,2000,137,Moradores em domicílios particulares permanentes,0,Total,0,Total,45,Pessoas,7397045
3,Unidade da Federação,23,Ceará,2000,2000,1000137,Moradores em domicílios particulares permanentes - percentual do total geral,0,Total,0,Total,2,Percentual,100.00
3,Unidade da Federação,23,Ceará,2010,2010,96,Domicílios particulares permanentes,0,Total,0,Total,1020,Unidades,2365102
3,Unidade da Federação,23,Ceará,2010,2010,1000096,Domicílios particulares permanentes - percentual do total geral,0,Total,0,Total,2,Percentual,100.00
3,Unidade da Federação,23,Ceará,2010,2010,137,Moradores em domicílios particulares permanentes,0,Total,0,Total,45,Pessoas,8428842
3,Unidade da Federação,23,Ceará,2010,2010,1000137,Moradores em domicílios particulares permanentes - percentual do total geral,0,Total,0,Total,2,Percentual,100.00
3,Unidade da Federação,24,Rio Grande do Norte,2000,2000,96,Domicílios particulares permanentes,0,Total,0,Total,1020,Unidades,671581
3,Unidade da Federação,24,Rio Grande do Norte,2000,2000,1000096,Domicílios particulares permanentes - percentual do total geral,0,Total,0,Total,2,Percentual,100.00
3,Unidade da Federação,24,Rio Grande do Norte,2000,2000,137,Moradores em domicílios particulares permanentes,0,Total,0,Total,45,Pessoas,2761522
3,Unidade da Federação,24,Rio Grande do Norte,2000,2000,1000137,Moradores em domicílios particulares permanentes - percentual do total geral,0,Total,0,Total,2,Percentual,100.00
3,Unidade da Federação,24,Rio Grande do Norte,2010,2010,96,Domicílios particulares permanentes,0,Total,0,Total,1020,Unidades,899574
3,Unidade da Federação,24,Rio Grande do Norte,2010,2010,1000096,Domicílios particulares permanentes - percentual do total geral,0,Total,0,Total,2,Percentual,100.00
3,Unidade da Federação,24,Rio Grande do Norte,2010,2010,137,Moradores em domicílios particulares permanentes,0,Total,0,Total,45,Pessoas,3157414
3,Unidade da Federação,24,Rio Grande do Norte,2010,2010,1000137,Moradores em domicílios particulares permanentes - percentual do total geral,0,Total,0,Total,2,Percentual,100.00
3,Unidade da Federação,25,Paraíba,2000,2000,96,Domicílios particulares permanentes,0,Total,0,Total,1020,Unidades,848972
3,Unidade da Federação,25,Paraíba,2000,2000,1000096,Domicílios particulares permanentes - percentual do total geral,0,Total,0,Total,2,Percentual,100.00
3,Unidade da Federação,25,Paraíba,2000,2000,137,Moradores em domicílios particulares permanentes,0,Total,0,Total,45,Pessoas,3428145
3,Unidade da Federação,25,Paraíba,2000,2000,1000137,Moradores em domicílios particulares permanentes - percentual do total geral,0,Total,0,Total,2,Percentual,100.00
3,Unidade da Federação,25,Paraíba,2010,2010,96,Domicílios particulares permanentes,0,Total,0,Total,1020,Unidades,1080527
3,Unidade da Federação,25,Paraíba,2010,2010,1000096,Domicílios particulares permanentes - percentual do total geral,0,Total,0,Total,2,Percentual,100.00
3,Unidade da Federação,25,Paraíba,2010,2010,137,Moradores em domicílios particulares permanentes,0,Total,0,Total,45,Pessoas,3753152
3,Unidade da Federação,25,Paraíba,2010,2010,1000137,Moradores em domicílios particulares permanentes - percentual do total geral,0,Total,0,Total,2,Percentual,100.00
3,Unidade da Federação,26,Pernambuco,2000,2000,96,Domicílios particulares permanentes,0,Total,0,Total,1020,Unidades,1968316
3,Unidade da Federação,26,Pernambuco,2000,2000,1000096,Domicílios particulares permanentes - percentual do total geral,0,Total,0,Total,2,Percentual,100.00
3,Unidade da Federação,26,Pernambuco,2000,2000,137,Moradores em domicílios particulares permanentes,0,Total,0,Total,45,Pessoas,7873514
3,Unidade da Federação,26,Pernambuco,2000,2000,1000137,Moradores em domicílios particulares permanentes - percentual do total geral,0,Total,0,Total,2,Percentual,100.00
3,Unidade da Federação,26,Pernambuco,2010,2010,96,Domicílios particulares permanentes,0,Total,0,Total,1020,Unidades,2547068
3,Unidade da Federação,26,Pernambuco,2010,2010,1000096,Domicílios particulares permanentes - percentual do total geral,0,Total,0,Total,2,Percentual,100.00
3,Unidade da Federação,26,Pernambuco,2010,2010,137,Moradores em domicílios particulares permanentes,0,Total,0,Total,45,Pessoas,8759736
3,Unidade da Federação,26,Pernambuco,2010,2010,1000137,Moradores em domicílios particulares permanentes - percentual do total geral,0,Total,0,Total,2,Percentual,100.00
3,Unidade da Federação,27,Alagoas,2000,2000,96,Domicílios particulares permanentes,0,Total,0,Total,1020,Unidades,649347
3,Unidade da Federação,27,Alagoas,2000,2000,1000096,Domicílios particulares permanentes - percentual do total geral,0,Total,0,Total,2,Percentual,100.00
3,Unidade da Federação,27,Alagoas,2000,2000,137,Moradores em domicílios particulares permanentes,0,Total,0,Total,45,Pessoas,2797246
3,Unidade da Federação,27,Alagoas,2000,2000,1000137,Moradores em domicílios particulares permanentes - percentual do total geral,0,Total,0,Total,2,Percentual,100.00
3,Unidade da Federação,27,Alagoas,2010,2010,96,Domicílios particulares permanentes,0,Total,0,Total,1020,Unidades,842804
3,Unidade da Federação,27,Alagoas,2010,2010,1000096,Domicílios particulares permanentes - percentual do total geral,0,Total,0,Total,2,Percentual,100.00
3,Unidade da Federação,27,Alagoas,2010,2010,137,Moradores em domicílios particulares permanentes,0,Total,0,Total,45,Pessoas,3098428
3,Unidade da Federação,27,Alagoas,2010,2010,1000137,Moradores em domicílios particulares permanentes - percentual do total geral,0,Total,0,Total,2,Percentual,100.00
3,Unidade da Federação,28,Sergipe,2000,2000,96,Domicílios particulares permanentes,0,Total,0,Total,1020,Unidades,436717
3,Unidade da Federação,28,Sergipe,2000,2000,1000096,Domicílios particulares permanentes - percentual do total geral,0,Total,0,Total,2,Percentual,100.00
3,Unidade da Federação,28,Sergipe,2000,2000,137,Moradores em domicílios particulares permanentes,0,Total,0,Total,45,Pessoas,1770852
3,Unidade da Federação,28,Sergipe,2000,2000,1000137,Moradores em domicílios particulares permanentes - percentual do total geral,0,Total,0,Total,2,Percentual,100.00
3,Unidade da Federação,28,Sergipe,2010,2010,96,Domicílios particulares permanentes,0,Total,0,Total,1020,Unidades,591400
3,Unidade da Federação,28,Sergipe,2010,2010,1000096,Domicílios particulares permanentes - percentual do total geral,0,Total,0,Total,2,Percentual,100.00
3,Unidade da Federação,28,Sergipe,2010,2010,137,Moradores em domicílios particulares permanentes,0,Total,0,Total,45,Pessoas,2060338
3,Unidade da Federação,28,Sergipe,2010,2010,1000137,Moradores em domicílios particulares permanentes - percentual do total geral,0,Total,0,Total,2,Percentual,100.00
3,Unidade da Federação,29,Bahia,2000,2000,96,Domicílios particulares permanentes,0,Total,0,Total,1020,Unidades,3169267
3,Unidade da Federação,29,Bahia,2000,2000,1000096,Domicílios particulares permanentes - percentual do total geral,0,Total,0,Total,2,Percentual,100.00
3,Unidade da Federação,29,Bahia,2000,2000,137,Moradores em domicílios particulares permanentes,0,Total,0,Total,45,Pessoas,12968957
3,Unidade da Federação,29,Bahia,2000,2000,1000137,Moradores em domicílios particulares permanentes - percentual do total geral,0,Total,0,Total,2,Percentual,100.00
3,Unidade da Federação,29,Bahia,2010,2010,96,Domicílios particulares permanentes,0,Total,0,Total,1020,Unidades,4093619
3,Unidade da Federação,29,Bahia,2010,2010,1000096,Domicílios particulares permanentes - percentual do total geral,0,Total,0,Total,2,Percentual,100.00
3,Unidade da Federação,29,Bahia,2010,2010,137,Moradores em domicílios particulares permanentes,0,Total,0,Total,45,Pessoas,13962710
3,Unidade da Federação,29,Bahia,2010,2010,1000137,Moradores em domicílios particulares permanentes - percentual do total geral,0,Total,0,Total,2,Percentual,100.00
3,Unidade da Federação,31,Minas Gerais,2000,2000,96,Domicílios particulares permanentes,0,Total,0,Total,1020,Unidades,4763314
3,Unidade da Federação,31,Minas Gerais,2000,2000,1000096,Domicílios particulares permanentes - percentual do total geral,0,Total,0,Total,2,Percentual,100.00
3,Unidade da Federação,31,Minas Gerais,2000,2000,137,Moradores em domicílios particulares permanentes,0,Total,0,Total,45,Pessoas,17775471
3,Unidade da Federação,31,Minas Gerais,2000,2000,1000137,Moradores em domicílios particulares permanentes - percentual do total geral,0,Total,0,Total,2,Percentual,100.00
3,Unidade da Federação,31,Minas Gerais,2010,2010,96,Domicílios particulares permanentes,0,Total,0,Total,1020,Unidades,6027492
3,Unidade da Federação,31,Minas Gerais,2010,2010,1000096,Domicílios particulares permanentes - percentual do total geral,0,Total,0,Total,2,Percentual,100.00
3,Unidade da Federação,31,Minas Gerais,2010,2010,137,Moradores em domicílios particulares permanentes,0,Total,0,Total,45,Pessoas,19499039
3,Unidade da Federação,31,Minas Gerais,2010,2010,1000137,Moradores em domicílios particulares permanentes - percentual do total geral,0,Total,0,Total,2,Percentual,100.00
3,Unidade da Federação,32,Espírito Santo,2000,2000,96,Domicílios particulares permanentes,0,Total,0,Total,1020,Unidades,840842
3,Unidade da Federação,32,Espírito Santo,2000,2000,1000096,Domicílios particulares permanentes - percentual do total geral,0,Total,0,Total,2,Percentual,100.00
3,Unidade da Federação,32,Espírito Santo,2000,2000,137,Moradores em domicílios particulares permanentes,0,Total,0,Total,45,Pessoas,3077469
3,Unidade da Federação,32,Espírito Santo,2000,2000,1000137,Moradores em domicílios particulares permanentes - percentual do total geral,0,Total,0,Total,2,Percentual,100.00
3,Unidade da Federação,32,Espírito Santo,2010,2010,96,Domicílios particulares permanentes,0,Total,0,Total,1020,Unidades,1101094
3,Unidade da Federação,32,Espírito Santo,2010,2010,1000096,Domicílios particulares permanentes - percentual do total geral,0,Total,0,Total,2,Percentual,100.00
3,Unidade da Federação,32,Espírito Santo,2010,2010,137,Moradores em domicílios particulares permanentes,0,Total,0,Total,45,Pessoas,3496502
3,Unidade da Federação,32,Espírito Santo,2010,2010,1000137,Moradores em domicílios particulares permanentes - percentual do total geral,0,Total,0,Total,2,Percentual,100.00
3,Unidade da Federação,33,Rio de Janeiro,2000,2000,96,Domicílios particulares permanentes,0,Total,0,Total,1020,Unidades,4252642
3,Unidade da Federação,33,Rio de Janeiro,2000,2000,1000096,Domicílios particulares permanentes - percentual do total geral,0,Total,0,Total,2,Percentual,100.00
3,Unidade da Federação,33,Rio de Janeiro,2000,2000,137,Moradores em domicílios particulares permanentes,0,Total,0,Total,45,Pessoas,14298735
3,Unidade da Federação,33,Rio de Janeiro,2000,2000,1000137,Moradores em domicílios particulares permanentes - percentual do total geral,0,Total,0,Total,2,Percentual,100.00
3,Unidade da Federação,33,Rio de Janeiro,2010,2010,96,Domicílios particulares permanentes,0,Total,0,Total,1020,Unidades,5243266
3,Unidade da Federação,33,Rio de Janeiro,2010,2010,1000096,Domicílios particulares permanentes - percentual do total geral,0,Total,0,Total,2,Percentual,100.00
3,Unidade da Federação,33,Rio de Janeiro,2010,2010,137,Moradores em domicílios particulares permanentes,0,Total,0,Total,45,Pessoas,15923748
3,Unidade da Federação,33,Rio de Janeiro,2010,2010,1000137,Moradores em domicílios particulares permanentes - percentual do total geral,0,Total,0,Total,2,Percentual,100.00
3,Unidade da Federação,35,São Paulo,2000,2000,96,Domicílios particulares permanentes,0,Total,0,Total,1020,Unidades,10358598
3,Unidade da Federação,35,São Paulo,2000,2000,1000096,Domicílios particulares permanentes - percentual do total geral,0,Total,0,Total,2,Percentual,100.00
3,Unidade da Federação,35,São Paulo,2000,2000,137,Moradores em domicílios particulares permanentes,0,Total,0,Total,45,Pessoas,36719202
3,Unidade da Federação,35,São Paulo,2000,2000,1000137,Moradores em domicílios particulares permanentes - percentual do total geral,0,Total,0,Total,2,Percentual,100.00
3,Unidade da Federação,35,São Paulo,2010,2010,96,Domicílios particulares permanentes,0,Total,0,Total,1020,Unidades,12825453
3,Unidade da Federação,35,São Paulo,2010,2010,1000096,Domicílios particulares permanentes - percentual do total geral,0,Total,0,Total,2,Percentual,100.00
3,Unidade da Federação,35,São Paulo,2010,2010,137,Moradores em domicílios particulares permanentes,0,Total,0,Total,45,Pessoas,41006788
3,Unidade da Federação,35,São Paulo,2010,2010,1000137,Moradores em domicílios particulares permanentes - percentual do total geral,0,Total,0,Total,2,Percentual,100.00
3,Unidade da Federação,41,Paraná,2000,2000,96,Domicílios particulares permanentes,0,Total,0,Total,1020,Unidades,2663037
3,Unidade da Federação,41,Paraná,2000,2000,1000096,Domicílios particulares permanentes - percentual do total geral,0,Total,0,Total,2,Percentual,100.00
3,Unidade da Federação,41,Paraná,2000,2000,137,Moradores em domicílios particulares permanentes,0,Total,0,Total,45,Pessoas,9471919
3,Unidade da Federação,41,Paraná,2000,2000,1000137,Moradores em domicílios particulares permanentes - percentual do total geral,0,Total,0,Total,2,Percentual,100.00
3,Unidade da Federação,41,Paraná,2010,2010,96,Domicílios particulares permanentes,0,Total,0,Total,1020,Unidades,3298304
3,Unidade da Federação,41,Paraná,2010,2010,1000096,Domicílios particulares permanentes - percentual do total geral,0,Total,0,Total,2,Percentual,100.00
3,Unidade da Federação,41,Paraná,2010,2010,137,Moradores em domicílios particulares permanentes,0,Total,0,Total,45,Pessoas,10391169
3,Unidade da Federação,41,Paraná,2010,2010,1000137,Moradores em domicílios particulares permanentes - percentual do total geral,0,Total,0,Total,2,Percentual,100.00
3,Unidade da Federação,42,Santa Catarina,2000,2000,96,Domicílios particulares permanentes,0,Total,0,Total,1020,Unidades,1498071
3,Unidade da Federação,42,Santa Catarina,2000,2000,1000096,Domicílios particulares permanentes - percentual do total geral,0,Total,0,Total,2,Percentual,100.00
3,Unidade da Federação,42,Santa Catarina,2000,2000,137,Moradores em domicílios particulares permanentes,0,Total,0,Total,45,Pessoas,5319120
3,Unidade da Federação,42,Santa Catarina,2000,2000,1000137,Moradores em domicílios particulares permanentes - percentual do total geral,0,Total,0,Total,2,Percentual,100.00
3,Unidade da Federação,42,Santa Catarina,2010,2010,96,Domicílios particulares permanentes,0,Total,0,Total,1020,Unidades,1993012
3,Unidade da Federação,42,Santa Catarina,2010,2010,1000096,Domicílios particulares permanentes - percentual do total geral,0,Total,0,Total,2,Percentual,100.00
3,Unidade da Federação,42,Santa Catarina,2010,2010,137,Moradores em domicílios particulares permanentes,0,Total,0,Total,45,Pessoas,6221011
3,Unidade da Federação,42,Santa Catarina,2010,2010,1000137,Moradores em domicílios particulares permanentes - percentual do total geral,0,Total,0,Total,2,Percentual,100.00
3,Unidade da Federação,43,Rio Grande do Sul,2000,2000,96,Domicílios particulares permanentes,0,Total,0,Total,1020,Unidades,3040070
3,Unidade da Federação,43,Rio Grande do Sul,2000,2000,1000096,Domicílios particulares permanentes - percentual do total geral,0,Total,0,Total,2,Percentual,100.00
3,Unidade da Federação,43,Rio Grande do Sul,2000,2000,137,Moradores em domicílios particulares permanentes,0,Total,0,Total,45,Pessoas,10114382
3,Unidade da Federação,43,Rio Grande do Sul,2000,2000,1000137,Moradores em domicílios particulares permanentes - percentual do total geral,0,Total,0,Total,2,Percentual,100.00
3,Unidade da Federação,43,Rio Grande do Sul,2010,2010,96,Domicílios particulares permanentes,0,Total,0,Total,1020,Unidades,3599263
3,Unidade da Federação,43,Rio Grande do Sul,2010,2010,1000096,Domicílios particulares permanentes - percentual do total geral,0,Total,0,Total,2,Percentual,100.00
3,Unidade da Federação,43,Rio Grande do Sul,2010,2010,137,Moradores em domicílios particulares permanentes,0,Total,0,Total,45,Pessoas,10632450
3,Unidade da Federação,43,Rio Grande do Sul,2010,2010,1000137,Moradores em domicílios particulares permanentes - percentual do total geral,0,Total,0,Total,2,Percentual,100.00
3,Unidade da Federação,50,Mato Grosso do Sul,2000,2000,96,Domicílios particulares permanentes,0,Total,0,Total,1020,Unidades,562769
3,Unidade da Federação,50,Mato Grosso do Sul,2000,2000,1000096,Domicílios particulares permanentes - percentual do total geral,0,Total,0,Total,2,Percentual,100.00
3,Unidade da Federação,50,Mato Grosso do Sul,2000,2000,137,Moradores em domicílios particulares permanentes,0,Total,0,Total,45,Pessoas,2046155
3,Unidade da Federação,50,Mato Grosso do Sul,2000,2000,1000137,Moradores em domicílios particulares permanentes - percentual do total geral,0,Total,0,Total,2,Percentual,100.00
3,Unidade da Federação,50,Mato Grosso do Sul,2010,2010,96,Domicílios particulares permanentes,0,Total,0,Total,1020,Unidades,758626
3,Unidade da Federação,50,Mato Grosso do Sul,2010,2010,1000096,Domicílios particulares permanentes - percentual do total geral,0,Total,0,Total,2,Percentual,100.00
3,Unidade da Federação,50,Mato Grosso do Sul,2010,2010,137,Moradores em domicílios particulares permanentes,0,Total,0,Total,45,Pessoas,2423462
3,Unidade da Federação,50,Mato Grosso do Sul,2010,2010,1000137,Moradores em domicílios particulares permanentes - percentual do total geral,0,Total,0,Total,2,Percentual,100.00
3,Unidade da Federação,51,Mato Grosso,2000,2000,96,Domicílios particulares permanentes,0,Total,0,Total,1020,Unidades,645584
3,Unidade da Federação,51,Mato Grosso,2000,2000,1000096,Domicílios particulares permanentes - percentual do total geral,0,Total,0,Total,2,Percentual,100.00
3,Unidade da Federação,51,Mato Grosso,2000,2000,137,Moradores em domicílios particulares permanentes,0,Total,0,Total,45,Pessoas,2439861
3,Unidade da Federação,51,Mato Grosso,2000,2000,1000137,Moradores em domicílios particulares permanentes - percentual do total geral,0,Total,0,Total,2,Percentual,100.00
3,Unidade da Federação,51,Mato Grosso,2010,2010,96,Domicílios particulares permanentes,0,Total,0,Total,1020,Unidades,914731
3,Unidade da Federação,51,Mato Grosso,2010,2010,1000096,Domicílios particulares permanentes - percentual do total geral,0,Total,0,Total,2,Percentual,100.00
3,Unidade da Federação,51,Mato Grosso,2010,2010,137,Moradores em domicílios particulares permanentes,0,Total,0,Total,45,Pessoas,3011022
3,Unidade da Federação,51,Mato Grosso,2010,2010,1000137,Moradores em domicílios particulares permanentes - percentual do total geral,0,Total,0,Total,2,Percentual,100.00
3,Unidade da Federação,52,Goiás,2000,2000,96,Domicílios particulares permanentes,0,Total,0,Total,1020,Unidades,1397463
3,Unidade da Federação,52,Goiás,2000,2000,1000096,Domicílios particulares permanentes - percentual do total geral,0,Total,0,Total,2,Percentual,100.00
3,Unidade da Federação,52,Goiás,2000,2000,137,Moradores em domicílios particulares permanentes,0,Total,0,Total,45,Pessoas,4953940
3,Unidade da Federação,52,Goiás,2000,2000,1000137,Moradores em domicílios particulares permanentes - percentual do total geral,0,Total,0,Total,2,Percentual,100.00
3,Unidade da Federação,52,Goiás,2010,2010,96,Domicílios particulares permanentes,0,Total,0,Total,1020,Unidades,1885438
3,Unidade da Federação,52,Goiás,2010,2010,1000096,Domicílios particulares permanentes - percentual do total geral,0,Total,0,Total,2,Percentual,100.00
3,Unidade da Federação,52,Goiás,2010,2010,137,Moradores em domicílios particulares permanentes,0,Total,0,Total,45,Pessoas,5968968
3,Unidade da Federação,52,Goiás,2010,2010,1000137,Moradores em domicílios particulares permanentes - percentual do total geral,0,Total,0,Total,2,Percentual,100.00
3,Unidade da Federação,53,Distrito Federal,2000,2000,96,Domicílios particulares permanentes,0,Total,0,Total,1020,Unidades,547465
3,Unidade da Federação,53,Distrito Federal,2000,2000,1000096,Domicílios particulares permanentes - percentual do total geral,0,Total,0,Total,2,Percentual,100.00
3,Unidade da Federação,53,Distrito Federal,2000,2000,137,Moradores em domicílios particulares permanentes,0,Total,0,Total,45,Pessoas,2035459
3,Unidade da Federação,53,Distrito Federal,2000,2000,1000137,Moradores em domicílios particulares permanentes - percentual do total geral,0,Total,0,Total,2,Percentual,100.00
3,Unidade da Federação,53,Distrito Federal,2010,2010,96,Domicílios particulares permanentes,0,Total,0,Total,1020,Unidades,774037
3,Unidade da Federação,53,Distrito Federal,2010,2010,1000096,Domicílios particulares permanentes - percentual do total geral,0,Total,0,Total,2,Percentual,100.00
3,Unidade da Federação,53,Distrito Federal,2010,2010,137,Moradores em domicílios particulares permanentes,0,Total,0,Total,45,Pessoas,2556767
3,Unidade da Federação,53,Distrito Federal,2010,2010,1000137,Moradores em domicílios particulares permanentes - percentual do total geral,0,Total,0,Total,2,Percentual,100.00
