NC,NN,D1C,D1N,D2C,D2N,D3C,D3N,D4C,D4N,D5C,D5N,MC,MN,V
Nível Territorial (Código),Nível Territorial,Unidade da Federação (Código),Unidade da Federação,Ano (Código),Ano,Variável (Código),Variável,Existência de serviços e bens duráveis (Código),Existência de serviços e bens duráveis,Classes de rendimento nominal mensal domiciliar (Código),Classes de rendimento nominal mensal domiciliar,Unidade de Medida (Código),Unidade de Medida,Valor
3,Unidade da Federação,11,Rondônia,2000,2000,96,Domicílios particulares permanentes,0,,0,Total,1020,Unidades,..
3,Unidade da Federação,12,Acre,2000,2000,96,Domicílios particulares permanentes,0,,0,Total,1020,Unidades,..
3,Unidade da Federação,13,Amazonas,2000,2000,96,Domicílios particulares permanentes,0,,0,Total,1020,Unidades,..
3,Unidade da Federação,14,Roraima,2000,2000,96,Domicílios particulares permanentes,0,,0,Total,1020,Unidades,..
3,Unidade da Federação,15,Pará,2000,2000,96,Domicílios particulares permanentes,0,,0,Total,1020,Unidades,..
3,Unidade da Federação,16,Amapá,2000,2000,96,Domicílios particulares permanentes,0,,0,Total,1020,Unidades,..
3,Unidade da Federação,17,Tocantins,2000,2000,96,Domicílios particulares permanentes,0,,0,Total,1020,Unidades,..
3,Unidade da Federação,21,Maranhão,2000,2000,96,Domicílios particulares permanentes,0,,0,Total,1020,Unidades,..
3,Unidade da Federação,22,Piauí,2000,2000,96,Domicílios particulares permanentes,0,,0,Total,1020,Unidades,..
3,Unidade da Federação,23,Ceará,2000,2000,96,Domicílios particulares permanentes,0,,0,Total,1020,Unidades,..
3,Unidade da Federação,24,Rio Grande do Norte,2000,2000,96,Domicílios particulares permanentes,0,,0,Total,1020,Unidades,..
3,Unidade da Federação,25,Paraíba,2000,2000,96,Domicílios particulares permanentes,0,,0,Total,1020,Unidades,..
3,Unidade da Federação,26,Pernambuco,2000,2000,96,Domicílios particulares permanentes,0,,0,Total,1020,Unidades,..
3,Unidade da Federação,27,Alagoas,2000,2000,96,Domicílios particulares permanentes,0,,0,Total,1020,Unidades,..
3,Unidade da Federação,28,Sergipe,2000,2000,96,Domicílios particulares permanentes,0,,0,Total,1020,Unidades,..
3,Unidade da Federação,29,Bahia,2000,2000,96,Domicílios particulares permanentes,0,,0,Total,1020,Unidades,..
3,Unidade da Federação,31,Minas Gerais,2000,2000,96,Domicílios particulares permanentes,0,,0,Total,1020,Unidades,..
3,Unidade da Federação,32,Espírito Santo,2000,2000,96,Domicílios particulares permanentes,0,,0,Total,1020,Unidades,..
3,Unidade da Federação,33,Rio de Janeiro,2000,2000,96,Domicílios particulares permanentes,0,,0,Total,1020,Unidades,..
3,Unidade da Federação,35,São Paulo,2000,2000,96,Domicílios particulares permanentes,0,,0,Total,1020,Unidades,..
3,Unidade da Federação,41,Paraná,2000,2000,96,Domicílios particulares permanentes,0,,0,Total,1020,Unidades,..
3,Unidade da Federação,42,Santa Catarina,2000,2000,96,Domicílios particulares permanentes,0,,0,Total,1020,Unidades,..
3,Unidade da Federação,43,Rio Grande do Sul,2000,2000,96,Domicílios particulares permanentes,0,,0,Total,1020,Unidades,..
3,Unidade da Federação,50,Mato Grosso do Sul,2000,2000,96,Domicílios particulares permanentes,0,,0,Total,1020,Unidades,..
3,Unidade da Federação,51,Mato Grosso,2000,2000,96,Domicílios particulares permanentes,0,,0,Total,1020,Unidades,..
3,Unidade da Federação,52,Goiás,2000,2000,96,Domicílios particulares permanentes,0,,0,Total,1020,Unidades,..
3,Unidade da Federação,53,Distrito Federal,2000,2000,96,Domicílios particulares permanentes,0,,0,Total,1020,Unidades,..
