NC,NN,D1C,D1N,D2C,D2N,D3C,D3N,D4C,D4N,D5C,D5N,D6C,D6N,MC,MN,V
Nível Territorial (Código),Nível Territorial,Unidade da Federação (Código),Unidade da Federação,Ano (Código),Ano,Variável (Código),Variável,Situação do domicílio (Código),Situação do domicílio,Número de famílias (Código),Número de famílias,Adequação da moradia (Código),Adequação da moradia,Unidade de Medida (Código),Unidade de Medida,Valor
3,Unidade da Federação,11,Rondônia,2000,2000,96,Domicílios particulares permanentes,0,Total,0,Total,0,Total,1020,Unidades,347192
3,Unidade da Federação,11,Rondônia,2000,2000,1000096,Domicílios particulares permanentes - percentual do total geral,0,Total,0,Total,0,Total,2,Percentual,100.00
3,Unidade da Federação,12,Acre,2000,2000,96,Domicílios particulares permanentes,0,Total,0,Total,0,Total,1020,Unidades,129392
3,Unidade da Federação,12,Acre,2000,2000,1000096,Domicílios particulares permanentes - percentual do total geral,0,Total,0,Total,0,Total,2,Percentual,100.00
3,Unidade da Federação,13,Amazonas,2000,2000,96,Domicílios particulares permanentes,0,Total,0,Total,0,Total,1020,Unidades,570562
3,Unidade da Federação,13,Amazonas,2000,2000,1000096,Domicílios particulares permanentes - percentual do total geral,0,Total,0,Total,0,Total,2,Percentual,100.00
3,Unidade da Federação,14,Roraima,2000,2000,96,Domicílios particulares permanentes,0,Total,0,Total,0,Total,1020,Unidades,74402
3,Unidade da Federação,14,Roraima,2000,2000,1000096,Domicílios particulares permanentes - percentual do total geral,0,Total,0,Total,0,Total,2,Percentual,100.00
3,Unidade da Federação,15,Pará,2000,2000,96,Domicílios particulares permanentes,0,Total,0,Total,0,Total,1020,Unidades,1308511
3,Unidade da Federação,15,Pará,2000,2000,1000096,Domicílios particulares permanentes - percentual do total geral,0,Total,0,Total,0,Total,2,Percentual,100.00
3,Unidade da Federação,16,Amapá,2000,2000,96,Domicílios particulares permanentes,0,Total,0,Total,0,Total,1020,Unidades,98521
3,Unidade da Federação,16,Amapá,2000,2000,1000096,Domicílios particulares permanentes - percentual do total geral,0,Total,0,Total,0,Total,2,Percentual,100.00
3,Unidade da Federação,17,Tocantins,2000,2000,96,Domicílios particulares permanentes,0,Total,0,Total,0,Total,1020,Unidades,280224
3,Unidade da Federação,17,Tocantins,2000,2000,1000096,Domicílios particulares permanentes - percentual do total geral,0,Total,0,Total,0,Total,2,Percentual,100.00
3,Unidade da Federação,21,Maranhão,2000,2000,96,Domicílios particulares permanentes,0,Total,0,Total,0,Total,1020,Unidades,1235523
3,Unidade da Federação,21,Maranhão,2000,2000,1000096,Domicílios particulares permanentes - percentual do total geral,0,Total,0,Total,0,Total,2,Percentual,100.00
3,Unidade da Federação,22,Piauí,2000,2000,96,Domicílios particulares permanentes,0,Total,0,Total,0,Total,1020,Unidades,661105
3,Unidade da Federação,22,Piauí,2000,2000,1000096,Domicílios particulares permanentes - percentual do total geral,0,Total,0,Total,0,Total,2,Percentual,100.00
3,Unidade da Federação,23,Ceará,2000,2000,96,Domicílios particulares permanentes,0,Total,0,Total,0,Total,1020,Unidades,1757249
3,Unidade da Federação,23,Ceará,2000,2000,1000096,Domicílios particulares permanentes - percentual do total geral,0,Total,0,Total,0,Total,2,Percentual,100.00
3,Unidade da Federação,24,Rio Grande do Norte,2000,2000,96,Domicílios particulares permanentes,0,Total,0,Total,0,Total,1020,Unidades,671581
3,Unidade da Federação,24,Rio Grande do Norte,2000,2000,1000096,Domicílios particulares permanentes - percentual do total geral,0,Total,0,Total,0,Total,2,Percentual,100.00
3,Unidade da Federação,25,Paraíba,2000,2000,96,Domicílios particulares permanentes,0,Total,0,Total,0,Total,1020,Unidades,848972
3,Unidade da Federação,25,Paraíba,2000,2000,1000096,Domicílios particulares permanentes - percentual do total geral,0,Total,0,Total,0,Total,2,Percentual,100.00
3,Unidade da Federação,26,Pernambuco,2000,2000,96,Domicílios particulares permanentes,0,Total,0,Total,0,Total,1020,Unidades,1968316
3,Unidade da Federação,26,Pernambuco,2000,2000,1000096,Domicílios particulares permanentes - percentual do total geral,0,Total,0,Total,0,Total,2,Percentual,100.00
3,Unidade da Federação,27,Alagoas,2000,2000,96,Domicílios particulares permanentes,0,Total,0,Total,0,Total,1020,Unidades,649347
3,Unidade da Federação,27,Alagoas,2000,2000,1000096,Domicílios particulares permanentes - percentual do total geral,0,Total,0,Total,0,Total,2,Percentual,100.00
3,Unidade da Federação,28,Sergipe,2000,2000,96,Domicílios particulares permanentes,0,Total,0,Total,0,Total,1020,Unidades,436717
3,Unidade da Federação,28,Sergipe,2000,2000,1000096,Domicílios particulares permanentes - percentual do total geral,0,Total,0,Total,0,Total,2,Percentual,100.00
3,Unidade da Federação,29,Bahia,2000,2000,96,Domicílios particulares permanentes,0,Total,0,Total,0,Total,1020,Unidades,3169267
3,Unidade da Federação,29,Bahia,2000,2000,1000096,Domicílios particulares permanentes - percentual do total geral,0,Total,0,Total,0,Total,2,Percentual,100.00
3,Unidade da Federação,31,Minas Gerais,2000,2000,96,Domicílios particulares permanentes,0,Total,0,Total,0,Total,1020,Unidades,4763314
3,Unidade da Federação,31,Minas Gerais,2000,2000,1000096,Domicílios particulares permanentes - percentual do total geral,0,Total,0,Total,0,Total,2,Percentual,100.00
3,Unidade da Federação,32,Espírito Santo,2000,2000,96,Domicílios particulares permanentes,0,Total,0,Total,0,Total,1020,Unidades,840842
3,Unidade da Federação,32,Espírito Santo,2000,2000,1000096,Domicílios particulares permanentes - percentual do total geral,0,Total,0,Total,0,Total,2,Percentual,100.00
3,Unidade da Federação,33,Rio de Janeiro,2000,2000,96,Domicílios particulares permanentes,0,Total,0,Total,0,Total,1020,Unidades,4252642
3,Unidade da Federação,33,Rio de Janeiro,2000,2000,1000096,Domicílios particulares permanentes - percentual do total geral,0,Total,0,Total,0,Total,2,Percentual,100.00
3,Unidade da Federação,35,São Paulo,2000,2000,96,Domicílios particulares permanentes,0,Total,0,Total,0,Total,1020,Unidades,10358598
3,Unidade da Federação,35,São Paulo,2000,2000,1000096,Domicílios particulares permanentes - percentual do total geral,0,Total,0,Total,0,Total,2,Percentual,100.00
3,Unidade da Federação,41,Paraná,2000,2000,96,Domicílios particulares permanentes,0,Total,0,Total,0,Total,1020,Unidades,2663037
3,Unidade da Federação,41,Paraná,2000,2000,1000096,Domicílios particulares permanentes - percentual do total geral,0,Total,0,Total,0,Total,2,Percentual,100.00
3,Unidade da Federação,42,Santa Catarina,2000,2000,96,Domicílios particulares permanentes,0,Total,0,Total,0,Total,1020,Unidades,1498071
3,Unidade da Federação,42,Santa Catarina,2000,2000,1000096,Domicílios particulares permanentes - percentual do total geral,0,Total,0,Total,0,Total,2,Percentual,100.00
3,Unidade da Federação,43,Rio Grande do Sul,2000,2000,96,Domicílios particulares permanentes,0,Total,0,Total,0,Total,1020,Unidades,3040070
3,Unidade da Federação,43,Rio Grande do Sul,2000,2000,1000096,Domicílios particulares permanentes - percentual do total geral,0,Total,0,Total,0,Total,2,Percentual,100.00
3,Unidade da Federação,50,Mato Grosso do Sul,2000,2000,96,Domicílios particulares permanentes,0,Total,0,Total,0,Total,1020,Unidades,562769
3,Unidade da Federação,50,Mato Grosso do Sul,2000,2000,1000096,Domicílios particulares permanentes - percentual do total geral,0,Total,0,Total,0,Total,2,Percentual,100.00
3,Unidade da Federação,51,Mato Grosso,2000,2000,96,Domicílios particulares permanentes,0,Total,0,Total,0,Total,1020,Unidades,645584
3,Unidade da Federação,51,Mato Grosso,2000,2000,1000096,Domicílios particulares permanentes - percentual do total geral,0,Total,0,Total,0,Total,2,Percentual,100.00
3,Unidade da Federação,52,Goiás,2000,2000,96,Domicílios particulares permanentes,0,Total,0,Total,0,Total,1020,Unidades,1397463
3,Unidade da Federação,52,Goiás,2000,2000,1000096,Domicílios particulares permanentes - percentual do total geral,0,Total,0,Total,0,Total,2,Percentual,100.00
3,Unidade da Federação,53,Distrito Federal,2000,2000,96,Domicílios particulares permanentes,0,Total,0,Total,0,Total,1020,Unidades,547465
3,Unidade da Federação,53,Distrito Federal,2000,2000,1000096,Domicílios particulares permanentes - percentual do total geral,0,Total,0,Total,0,Total,2,Percentual,100.00
