NC,NN,D1C,D1N,D2C,D2N,D3C,D3N,D4C,D4N,D5C,D5N,D6C,D6N,D7C,D7N,D8C,D8N,D9C,D9N,MC,MN,V
Nível Territorial (Código),Nível Territorial,Unidade da Federação (Código),Unidade da Federação,Ano (Código),Ano,Variável (Código),Variável,Situação do domicílio (Código),Situação do domicílio,Localização (Código),Localização,Condição de ocupação do domicílio (Código),Condição de ocupação do domicílio,Tipo de parede (Código),Tipo de parede,Tipo de cobertura (Código),Tipo de cobertura,Classes de aluguel nominal mensal domiciliar (Código),Classes de aluguel nominal mensal domiciliar,Unidade de Medida (Código),Unidade de Medida,Valor
3,Unidade da Federação,11,Rondônia,1991,1991,96,Domicílios particulares permanentes,0,Total,0,Total,0,Total,0,Total,0,Total,0,Total,1020,Unidades,254379
3,Unidade da Federação,11,Rondônia,1991,1991,1000096,Domicílios particulares permanentes - percentual do total geral,0,Total,0,Total,0,Total,0,Total,0,Total,0,Total,2,Percentual,100.00
3,Unidade da Federação,12,Acre,1991,1991,96,Domicílios particulares permanentes,0,Total,0,Total,0,Total,0,Total,0,Total,0,Total,1020,Unidades,88393
3,Unidade da Federação,12,Acre,1991,1991,1000096,Domicílios particulares permanentes - percentual do total geral,0,Total,0,Total,0,Total,0,Total,0,Total,0,Total,2,Percentual,100.00
3,Unidade da Federação,13,Amazonas,1991,1991,96,Domicílios particulares permanentes,0,Total,0,Total,0,Total,0,Total,0,Total,0,Total,1020,Unidades,389822
3,Unidade da Federação,13,Amazonas,1991,1991,1000096,Domicílios particulares permanentes - percentual do total geral,0,Total,0,Total,0,Total,0,Total,0,Total,0,Total,2,Percentual,100.00
3,Unidade da Federação,14,Roraima,1991,1991,96,Domicílios particulares permanentes,0,Total,0,Total,0,Total,0,Total,0,Total,0,Total,1020,Unidades,41832
3,Unidade da Federação,14,Roraima,1991,1991,1000096,Domicílios particulares permanentes - percentual do total geral,0,Total,0,Total,0,Total,0,Total,0,Total,0,Total,2,Percentual,100.00
3,Unidade da Federação,15,Pará,1991,1991,96,Domicílios particulares permanentes,0,Total,0,Total,0,Total,0,Total,0,Total,0,Total,1020,Unidades,943884
3,Unidade da Federação,15,Pará,1991,1991,1000096,Domicílios particulares permanentes - percentual do total geral,0,Total,0,Total,0,Total,0,Total,0,Total,0,Total,2,Percentual,100.00
3,Unidade da Federação,16,Amapá,1991,1991,96,Domicílios particulares permanentes,0,Total,0,Total,0,Total,0,Total,0,Total,0,Total,1020,Unidades,53004
3,Unidade da Federação,16,Amapá,1991,1991,1000096,Domicílios particulares permanentes - percentual do total geral,0,Total,0,Total,0,Total,0,Total,0,Total,0,Total,2,Percentual,100.00
3,Unidade da Federação,17,Tocantins,1991,1991,96,Domicílios particulares permanentes,0,Total,0,Total,0,Total,0,Total,0,Total,0,Total,1020,Unidades,191170
3,Unidade da Federação,17,Tocantins,1991,1991,1000096,Domicílios particulares permanentes - percentual do total geral,0,Total,0,Total,0,Total,0,Total,0,Total,0,Total,2,Percentual,100.00
3,Unidade da Federação,21,Maranhão,1991,1991,96,Domicílios particulares permanentes,0,Total,0,Total,0,Total,0,Total,0,Total,0,Total,1020,Unidades,983793
3,Unidade da Federação,21,Maranhão,1991,1991,1000096,Domicílios particulares permanentes - percentual do total geral,0,Total,0,Total,0,Total,0,Total,0,Total,0,Total,2,Percentual,100.00
3,Unidade da Federação,22,Piauí,1991,1991,96,Domicílios particulares permanentes,0,Total,0,Total,0,Total,0,Total,0,Total,0,Total,1020,Unidades,518805
3,Unidade da Federação,22,Piauí,1991,1991,1000096,Domicílios particulares permanentes - percentual do total geral,0,Total,0,Total,0,Total,0,Total,0,Total,0,Total,2,Percentual,100.00
3,Unidade da Federação,23,Ceará,1991,1991,96,Domicílios particulares permanentes,0,Total,0,Total,0,Total,0,Total,0,Total,0,Total,1020,Unidades,1344888
3,Unidade da Federação,23,Ceará,1991,1991,1000096,Domicílios particulares permanentes - percentual do total geral,0,Total,0,Total,0,Total,0,Total,0,Total,0,Total,2,Percentual,100.00
3,Unidade da Federação,24,Rio Grande do Norte,1991,1991,96,Domicílios particulares permanentes,0,Total,0,Total,0,Total,0,Total,0,Total,0,Total,1020,Unidades,520256
3,Unidade da Federação,24,Rio Grande do Norte,1991,1991,1000096,Domicílios particulares permanentes - percentual do total geral,0,Total,0,Total,0,Total,0,Total,0,Total,0,Total,2,Percentual,100.00
3,Unidade da Federação,25,Paraíba,1991,1991,96,Domicílios particulares permanentes,0,Total,0,Total,0,Total,0,Total,0,Total,0,Total,1020,Unidades,693529
3,Unidade da Federação,25,Paraíba,1991,1991,1000096,Domicílios particulares permanentes - percentual do total geral,0,Total,0,Total,0,Total,0,Total,0,Total,0,Total,2,Percentual,100.00
3,Unidade da Federação,26,Pernambuco,1991,1991,96,Domicílios particulares permanentes,0,Total,0,Total,0,Total,0,Total,0,Total,0,Total,1020,Unidades,1586476
3,Unidade da Federação,26,Pernambuco,1991,1991,1000096,Domicílios particulares permanentes - percentual do total geral,0,Total,0,Total,0,Total,0,Total,0,Total,0,Total,2,Percentual,100.00
3,Unidade da Federação,27,Alagoas,1991,1991,96,Domicílios particulares permanentes,0,Total,0,Total,0,Total,0,Total,0,Total,0,Total,1020,Unidades,525555
3,Unidade da Federação,27,Alagoas,1991,1991,1000096,Domicílios particulares permanentes - percentual do total geral,0,Total,0,Total,0,Total,0,Total,0,Total,0,Total,2,Percentual,100.00
3,Unidade da Federação,28,Sergipe,1991,1991,96,Domicílios particulares permanentes,0,Total,0,Total,0,Total,0,Total,0,Total,0,Total,1020,Unidades,328832
3,Unidade da Federação,28,Sergipe,1991,1991,1000096,Domicílios particulares permanentes - percentual do total geral,0,Total,0,Total,0,Total,0,Total,0,Total,0,Total,2,Percentual,100.00
3,Unidade da Federação,29,Bahia,1991,1991,96,Domicílios particulares permanentes,0,Total,0,Total,0,Total,0,Total,0,Total,0,Total,1020,Unidades,2512584
3,Unidade da Federação,29,Bahia,1991,1991,1000096,Domicílios particulares permanentes - percentual do total geral,0,Total,0,Total,0,Total,0,Total,0,Total,0,Total,2,Percentual,100.00
3,Unidade da Federação,31,Minas Gerais,1991,1991,96,Domicílios particulares permanentes,0,Total,0,Total,0,Total,0,Total,0,Total,0,Total,1020,Unidades,3707010
3,Unidade da Federação,31,Minas Gerais,1991,1991,1000096,Domicílios particulares permanentes - percentual do total geral,0,Total,0,Total,0,Total,0,Total,0,Total,0,Total,2,Percentual,100.00
3,Unidade da Federação,32,Espírito Santo,1991,1991,96,Domicílios particulares permanentes,0,Total,0,Total,0,Total,0,Total,0,Total,0,Total,1020,Unidades,618189
3,Unidade da Federação,32,Espírito Santo,1991,1991,1000096,Domicílios particulares permanentes - percentual do total geral,0,Total,0,Total,0,Total,0,Total,0,Total,0,Total,2,Percentual,100.00
3,Unidade da Federação,33,Rio de Janeiro,1991,1991,96,Domicílios particulares permanentes,0,Total,0,Total,0,Total,0,Total,0,Total,0,Total,1020,Unidades,3455498
3,Unidade da Federação,33,Rio de Janeiro,1991,1991,1000096,Domicílios particulares permanentes - percentual do total geral,0,Total,0,Total,0,Total,0,Total,0,Total,0,Total,2,Percentual,100.00
3,Unidade da Federação,35,São Paulo,1991,1991,96,Domicílios particulares permanentes,0,Total,0,Total,0,Total,0,Total,0,Total,0,Total,1020,Unidades,8040248
3,Unidade da Federação,35,São Paulo,1991,1991,1000096,Domicílios particulares permanentes - percentual do total geral,0,Total,0,Total,0,Total,0,Total,0,Total,0,Total,2,Percentual,100.00
3,Unidade da Federação,41,Paraná,1991,1991,96,Domicílios particulares permanentes,0,Total,0,Total,0,Total,0,Total,0,Total,0,Total,1020,Unidades,2083056
3,Unidade da Federação,41,Paraná,1991,1991,1000096,Domicílios particulares permanentes - percentual do total geral,0,Total,0,Total,0,Total,0,Total,0,Total,0,Total,2,Percentual,100.00
3,Unidade da Federação,42,Santa Catarina,1991,1991,96,Domicílios particulares permanentes,0,Total,0,Total,0,Total,0,Total,0,Total,0,Total,1020,Unidades,1121400
3,Unidade da Federação,42,Santa Catarina,1991,1991,1000096,Domicílios particulares permanentes - percentual do total geral,0,Total,0,Total,0,Total,0,Total,0,Total,0,Total,2,Percentual,100.00
3,Unidade da Federação,43,Rio Grande do Sul,1991,1991,96,Domicílios particulares permanentes,0,Total,0,Total,0,Total,0,Total,0,Total,0,Total,1020,Unidades,2489219
3,Unidade da Federação,43,Rio Grande do Sul,1991,1991,1000096,Domicílios particulares permanentes - percentual do total geral,0,Total,0,Total,0,Total,0,Total,0,Total,0,Total,2,Percentual,100.00
3,Unidade da Federação,50,Mato Grosso do Sul,1991,1991,96,Domicílios particulares permanentes,0,Total,0,Total,0,Total,0,Total,0,Total,0,Total,1020,Unidades,429755
3,Unidade da Federação,50,Mato Grosso do Sul,1991,1991,1000096,Domicílios particulares permanentes - percentual do total geral,0,Total,0,Total,0,Total,0,Total,0,Total,0,Total,2,Percentual,100.00
3,Unidade da Federação,51,Mato Grosso,1991,1991,96,Domicílios particulares permanentes,0,Total,0,Total,0,Total,0,Total,0,Total,0,Total,1020,Unidades,455949
3,Unidade da Federação,51,Mato Grosso,1991,1991,1000096,Domicílios particulares permanentes - percentual do total geral,0,Total,0,Total,0,Total,0,Total,0,Total,0,Total,2,Percentual,100.00
3,Unidade da Federação,52,Goiás,1991,1991,96,Domicílios particulares permanentes,0,Total,0,Total,0,Total,0,Total,0,Total,0,Total,1020,Unidades,988157
3,Unidade da Federação,52,Goiás,1991,1991,1000096,Domicílios particulares permanentes - percentual do total geral,0,Total,0,Total,0,Total,0,Total,0,Total,0,Total,2,Percentual,100.00
3,Unidade da Federação,53,Distrito Federal,1991,1991,96,Domicílios particulares permanentes,0,Total,0,Total,0,Total,0,Total,0,Total,0,Total,1020,Unidades,377722
3,Unidade da Federação,53,Distrito Federal,1991,1991,1000096,Domicílios particulares permanentes - percentual do total geral,0,Total,0,Total,0,Total,0,Total,0,Total,0,Total,2,Percentual,100.00
