NC,NN,D1C,D1N,D2C,D2N,D3C,D3N,D4C,D4N,D5C,D5N,D6C,D6N,D7C,D7N,D8C,D8N,MC,MN,V
Nível Territorial (Código),Nível Territorial,Unidade da Federação (Código),Unidade da Federação,Ano (Código),Ano,Variável (Código),Variável,Situação do domicílio (Código),Situação do domicílio,Condição de ocupação do domicílio (Código),Condição de ocupação do domicílio,Tipo de domicílio (Código),Tipo de domicílio,Existência de banheiro ou sanitário e esgotamento sanitário (Código),Existência de banheiro ou sanitário e esgotamento sanitário,Existência e número de banheiros de uso exclusivo do domicílio (Código),Existência e número de banheiros de uso exclusivo do domicílio,Unidade de Medida (Código),Unidade de Medida,Valor
3,Unidade da Federação,11,Rondônia,2010,2010,96,Domicílios particulares permanentes,0,Total,0,Total,0,Total,0,Total,0,Total,1020,Unidades,455599
3,Unidade da Federação,11,Rondônia,2010,2010,1000096,Domicílios particulares permanentes - percentual do total geral,0,Total,0,Total,0,Total,0,Total,0,Total,2,Percentual,100.00
3,Unidade da Federação,11,Rondônia,2010,2010,137,Moradores em domicílios particulares permanentes,0,Total,0,Total,0,Total,0,Total,0,Total,45,Pessoas,1545677
3,Unidade da Federação,11,Rondônia,2010,2010,1000137,Moradores em domicílios particulares permanentes - percentual do total geral,0,Total,0,Total,0,Total,0,Total,0,Total,2,Percentual,100.00
3,Unidade da Federação,12,Acre,2010,2010,96,Domicílios particulares permanentes,0,Total,0,Total,0,Total,0,Total,0,Total,1020,Unidades,190645
3,Unidade da Federação,12,Acre,2010,2010,1000096,Domicílios particulares permanentes - percentual do total geral,0,Total,0,Total,0,Total,0,Total,0,Total,2,Percentual,100.00
3,Unidade da Federação,12,Acre,2010,2010,137,Moradores em domicílios particulares permanentes,0,Total,0,Total,0,Total,0,Total,0,Total,45,Pessoas,729415
3,Unidade da Federação,12,Acre,2010,2010,1000137,Moradores em domicílios particulares permanentes - percentual do total geral,0,Total,0,Total,0,Total,0,Total,0,Total,2,Percentual,100.00
3,Unidade da Federação,13,Amazonas,2010,2010,96,Domicílios particulares permanentes,0,Total,0,Total,0,Total,0,Total,0,Total,1020,Unidades,799629
3,Unidade da Federação,13,Amazonas,2010,2010,1000096,Domicílios particulares permanentes - percentual do total geral,0,Total,0,Total,0,Total,0,Total,0,Total,2,Percentual,100.00
3,Unidade da Federação,13,Amazonas,2010,2010,137,Moradores em domicílios particulares permanentes,0,Total,0,Total,0,Total,0,Total,0,Total,45,Pessoas,3468613
3,Unidade da Federação,13,Amazonas,2010,2010,1000137,Moradores em domicílios particulares permanentes - percentual do total geral,0,Total,0,Total,0,Total,0,Total,0,Total,2,Percentual,100.00
3,Unidade da Federação,14,Roraima,2010,2010,96,Domicílios particulares permanentes,0,Total,0,Total,0,Total,0,Total,0,Total,1020,Unidades,115844
3,Unidade da Federação,14,Roraima,2010,2010,1000096,Domicílios particulares permanentes - percentual do total geral,0,Total,0,Total,0,Total,0,Total,0,Total,2,Percentual,100.00
3,Unidade da Federação,14,Roraima,2010,2010,137,Moradores em domicílios particulares permanentes,0,Total,0,Total,0,Total,0,Total,0,Total,45,Pessoas,447369
3,Unidade da Federação,14,Roraima,2010,2010,1000137,Moradores em domicílios particulares permanentes - percentual do total geral,0,Total,0,Total,0,Total,0,Total,0,Total,2,Percentual,100.00
3,Unidade da Federação,15,Pará,2010,2010,96,Domicílios particulares permanentes,0,Total,0,Total,0,Total,0,Total,0,Total,1020,Unidades,1859165
3,Unidade da Federação,15,Pará,2010,2010,1000096,Domicílios particulares permanentes - percentual do total geral,0,Total,0,Total,0,Total,0,Total,0,Total,2,Percentual,100.00
3,Unidade da Federação,15,Pará,2010,2010,137,Moradores em domicílios particulares permanentes,0,Total,0,Total,0,Total,0,Total,0,Total,45,Pessoas,7541651
3,Unidade da Federação,15,Pará,2010,2010,1000137,Moradores em domicílios particulares permanentes - percentual do total geral,0,Total,0,Total,0,Total,0,Total,0,Total,2,Percentual,100.00
3,Unidade da Federação,16,Amapá,2010,2010,96,Domicílios particulares permanentes,0,Total,0,Total,0,Total,0,Total,0,Total,1020,Unidades,156284
3,Unidade da Federação,16,Amapá,2010,2010,1000096,Domicílios particulares permanentes - percentual do total geral,0,Total,0,Total,0,Total,0,Total,0,Total,2,Percentual,100.00
3,Unidade da Federação,16,Amapá,2010,2010,137,Moradores em domicílios particulares permanentes,0,Total,0,Total,0,Total,0,Total,0,Total,45,Pessoas,665630
3,Unidade da Federação,16,Amapá,2010,2010,1000137,Moradores em domicílios particulares permanentes - percentual do total geral,0,Total,0,Total,0,Total,0,Total,0,Total,2,Percentual,100.00
3,Unidade da Federação,17,Tocantins,2010,2010,96,Domicílios particulares permanentes,0,Total,0,Total,0,Total,0,Total,0,Total,1020,Unidades,398367
3,Unidade da Federação,17,Tocantins,2010,2010,1000096,Domicílios particulares permanentes - percentual do total geral,0,Total,0,Total,0,Total,0,Total,0,Total,2,Percentual,100.00
3,Unidade da Federação,17,Tocantins,2010,2010,137,Moradores em domicílios particulares permanentes,0,Total,0,Total,0,Total,0,Total,0,Total,45,Pessoas,1376986
3,Unidade da Federação,17,Tocantins,2010,2010,1000137,Moradores em domicílios particulares permanentes - percentual do total geral,0,Total,0,Total,0,Total,0,Total,0,Total,2,Percentual,100.00
3,Unidade da Federação,21,Maranhão,2010,2010,96,Domicílios particulares permanentes,0,Total,0,Total,0,Total,0,Total,0,Total,1020,Unidades,1653701
3,Unidade da Federação,21,Maranhão,2010,2010,1000096,Domicílios particulares permanentes - percentual do total geral,0,Total,0,Total,0,Total,0,Total,0,Total,2,Percentual,100.00
3,Unidade da Federação,21,Maranhão,2010,2010,137,Moradores em domicílios particulares permanentes,0,Total,0,Total,0,Total,0,Total,0,Total,45,Pessoas,6559550
3,Unidade da Federação,21,Maranhão,2010,2010,1000137,Moradores em domicílios particulares permanentes - percentual do total geral,0,Total,0,Total,0,Total,0,Total,0,Total,2,Percentual,100.00
3,Unidade da Federação,22,Piauí,2010,2010,96,Domicílios particulares permanentes,0,Total,0,Total,0,Total,0,Total,0,Total,1020,Unidades,848263
3,Unidade da Federação,22,Piauí,2010,2010,1000096,Domicílios particulares permanentes - percentual do total geral,0,Total,0,Total,0,Total,0,Total,0,Total,2,Percentual,100.00
3,Unidade da Federação,22,Piauí,2010,2010,137,Moradores em domicílios particulares permanentes,0,Total,0,Total,0,Total,0,Total,0,Total,45,Pessoas,3110856
3,Unidade da Federação,22,Piauí,2010,2010,1000137,Moradores em domicílios particulares permanentes - percentual do total geral,0,Total,0,Total,0,Total,0,Total,0,Total,2,Percentual,100.00
3,Unidade da Federação,23,Ceará,2010,2010,96,Domicílios particulares permanentes,0,Total,0,Total,0,Total,0,Total,0,Total,1020,Unidades,2365276
3,Unidade da Federação,23,Ceará,2010,2010,1000096,Domicílios particulares permanentes - percentual do total geral,0,Total,0,Total,0,Total,0,Total,0,Total,2,Percentual,100.00
3,Unidade da Federação,23,Ceará,2010,2010,137,Moradores em domicílios particulares permanentes,0,Total,0,Total,0,Total,0,Total,0,Total,45,Pessoas,8427780
3,Unidade da Federação,23,Ceará,2010,2010,1000137,Moradores em domicílios particulares permanentes - percentual do total geral,0,Total,0,Total,0,Total,0,Total,0,Total,2,Percentual,100.00
3,Unidade da Federação,24,Rio Grande do Norte,2010,2010,96,Domicílios particulares permanentes,0,Total,0,Total,0,Total,0,Total,0,Total,1020,Unidades,899513
3,Unidade da Federação,24,Rio Grande do Norte,2010,2010,1000096,Domicílios particulares permanentes - percentual do total geral,0,Total,0,Total,0,Total,0,Total,0,Total,2,Percentual,100.00
3,Unidade da Federação,24,Rio Grande do Norte,2010,2010,137,Moradores em domicílios particulares permanentes,0,Total,0,Total,0,Total,0,Total,0,Total,45,Pessoas,3157234
3,Unidade da Federação,24,Rio Grande do Norte,2010,2010,1000137,Moradores em domicílios particulares permanentes - percentual do total geral,0,Total,0,Total,0,Total,0,Total,0,Total,2,Percentual,100.00
3,Unidade da Federação,25,Paraíba,2010,2010,96,Domicílios particulares permanentes,0,Total,0,Total,0,Total,0,Total,0,Total,1020,Unidades,1080672
3,Unidade da Federação,25,Paraíba,2010,2010,1000096,Domicílios particulares permanentes - percentual do total geral,0,Total,0,Total,0,Total,0,Total,0,Total,2,Percentual,100.00
3,Unidade da Federação,25,Paraíba,2010,2010,137,Moradores em domicílios particulares permanentes,0,Total,0,Total,0,Total,0,Total,0,Total,45,Pessoas,3752875
3,Unidade da Federação,25,Paraíba,2010,2010,1000137,Moradores em domicílios particulares permanentes - percentual do total geral,0,Total,0,Total,0,Total,0,Total,0,Total,2,Percentual,100.00
3,Unidade da Federação,26,Pernambuco,2010,2010,96,Domicílios particulares permanentes,0,Total,0,Total,0,Total,0,Total,0,Total,1020,Unidades,2546872
3,Unidade da Federação,26,Pernambuco,2010,2010,1000096,Domicílios particulares permanentes - percentual do total geral,0,Total,0,Total,0,Total,0,Total,0,Total,2,Percentual,100.00
3,Unidade da Federação,26,Pernambuco,2010,2010,137,Moradores em domicílios particulares permanentes,0,Total,0,Total,0,Total,0,Total,0,Total,45,Pessoas,8757880
3,Unidade da Federação,26,Pernambuco,2010,2010,1000137,Moradores em domicílios particulares permanentes - percentual do total geral,0,Total,0,Total,0,Total,0,Total,0,Total,2,Percentual,100.00
3,Unidade da Federação,27,Alagoas,2010,2010,96,Domicílios particulares permanentes,0,Total,0,Total,0,Total,0,Total,0,Total,1020,Unidades,842884
3,Unidade da Federação,27,Alagoas,2010,2010,1000096,Domicílios particulares permanentes - percentual do total geral,0,Total,0,Total,0,Total,0,Total,0,Total,2,Percentual,100.00
3,Unidade da Federação,27,Alagoas,2010,2010,137,Moradores em domicílios particulares permanentes,0,Total,0,Total,0,Total,0,Total,0,Total,45,Pessoas,3099251
3,Unidade da Federação,27,Alagoas,2010,2010,1000137,Moradores em domicílios particulares permanentes - percentual do total geral,0,Total,0,Total,0,Total,0,Total,0,Total,2,Percentual,100.00
3,Unidade da Federação,28,Sergipe,2010,2010,96,Domicílios particulares permanentes,0,Total,0,Total,0,Total,0,Total,0,Total,1020,Unidades,591315
3,Unidade da Federação,28,Sergipe,2010,2010,1000096,Domicílios particulares permanentes - percentual do total geral,0,Total,0,Total,0,Total,0,Total,0,Total,2,Percentual,100.00
3,Unidade da Federação,28,Sergipe,2010,2010,137,Moradores em domicílios particulares permanentes,0,Total,0,Total,0,Total,0,Total,0,Total,45,Pessoas,2059819
3,Unidade da Federação,28,Sergipe,2010,2010,1000137,Moradores em domicílios particulares permanentes - percentual do total geral,0,Total,0,Total,0,Total,0,Total,0,Total,2,Percentual,100.00
3,Unidade da Federação,29,Bahia,2010,2010,96,Domicílios particulares permanentes,0,Total,0,Total,0,Total,0,Total,0,Total,1020,Unidades,4094405
3,Unidade da Federação,29,Bahia,2010,2010,1000096,Domicílios particulares permanentes - percentual do total geral,0,Total,0,Total,0,Total,0,Total,0,Total,2,Percentual,100.00
3,Unidade da Federação,29,Bahia,2010,2010,137,Moradores em domicílios particulares permanentes,0,Total,0,Total,0,Total,0,Total,0,Total,45,Pessoas,13963669
3,Unidade da Federação,29,Bahia,2010,2010,1000137,Moradores em domicílios particulares permanentes - percentual do total geral,0,Total,0,Total,0,Total,0,Total,0,Total,2,Percentual,100.00
3,Unidade da Federação,31,Minas Gerais,2010,2010,96,Domicílios particulares permanentes,0,Total,0,Total,0,Total,0,Total,0,Total,1020,Unidades,6028223
3,Unidade da Federação,31,Minas Gerais,2010,2010,1000096,Domicílios particulares permanentes - percentual do total geral,0,Total,0,Total,0,Total,0,Total,0,Total,2,Percentual,100.00
3,Unidade da Federação,31,Minas Gerais,2010,2010,137,Moradores em domicílios particulares permanentes,0,Total,0,Total,0,Total,0,Total,0,Total,45,Pessoas,19496615
3,Unidade da Federação,31,Minas Gerais,2010,2010,1000137,Moradores em domicílios particulares permanentes - percentual do total geral,0,Total,0,Total,0,Total,0,Total,0,Total,2,Percentual,100.00
3,Unidade da Federação,32,Espírito Santo,2010,2010,96,Domicílios particulares permanentes,0,Total,0,Total,0,Total,0,Total,0,Total,1020,Unidades,1101394
3,Unidade da Federação,32,Espírito Santo,2010,2010,1000096,Domicílios particulares permanentes - percentual do total geral,0,Total,0,Total,0,Total,0,Total,0,Total,2,Percentual,100.00
3,Unidade da Federação,32,Espírito Santo,2010,2010,137,Moradores em domicílios particulares permanentes,0,Total,0,Total,0,Total,0,Total,0,Total,45,Pessoas,3496686
3,Unidade da Federação,32,Espírito Santo,2010,2010,1000137,Moradores em domicílios particulares permanentes - percentual do total geral,0,Total,0,Total,0,Total,0,Total,0,Total,2,Percentual,100.00
3,Unidade da Federação,33,Rio de Janeiro,2010,2010,96,Domicílios particulares permanentes,0,Total,0,Total,0,Total,0,Total,0,Total,1020,Unidades,5243011
3,Unidade da Federação,33,Rio de Janeiro,2010,2010,1000096,Domicílios particulares permanentes - percentual do total geral,0,Total,0,Total,0,Total,0,Total,0,Total,2,Percentual,100.00
3,Unidade da Federação,33,Rio de Janeiro,2010,2010,137,Moradores em domicílios particulares permanentes,0,Total,0,Total,0,Total,0,Total,0,Total,45,Pessoas,15923940
3,Unidade da Federação,33,Rio de Janeiro,2010,2010,1000137,Moradores em domicílios particulares permanentes - percentual do total geral,0,Total,0,Total,0,Total,0,Total,0,Total,2,Percentual,100.00
3,Unidade da Federação,35,São Paulo,2010,2010,96,Domicílios particulares permanentes,0,Total,0,Total,0,Total,0,Total,0,Total,1020,Unidades,12827153
3,Unidade da Federação,35,São Paulo,2010,2010,1000096,Domicílios particulares permanentes - percentual do total geral,0,Total,0,Total,0,Total,0,Total,0,Total,2,Percentual,100.00
3,Unidade da Federação,35,São Paulo,2010,2010,137,Moradores em domicílios particulares permanentes,0,Total,0,Total,0,Total,0,Total,0,Total,45,Pessoas,41004920
3,Unidade da Federação,35,São Paulo,2010,2010,1000137,Moradores em domicílios particulares permanentes - percentual do total geral,0,Total,0,Total,0,Total,0,Total,0,Total,2,Percentual,100.00
3,Unidade da Federação,41,Paraná,2010,2010,96,Domicílios particulares permanentes,0,Total,0,Total,0,Total,0,Total,0,Total,1020,Unidades,3298578
3,Unidade da Federação,41,Paraná,2010,2010,1000096,Domicílios particulares permanentes - percentual do total geral,0,Total,0,Total,0,Total,0,Total,0,Total,2,Percentual,100.00
3,Unidade da Federação,41,Paraná,2010,2010,137,Moradores em domicílios particulares permanentes,0,Total,0,Total,0,Total,0,Total,0,Total,45,Pessoas,10390201
3,Unidade da Federação,41,Paraná,2010,2010,1000137,Moradores em domicílios particulares permanentes - percentual do total geral,0,Total,0,Total,0,Total,0,Total,0,Total,2,Percentual,100.00
3,Unidade da Federação,42,Santa Catarina,2010,2010,96,Domicílios particulares permanentes,0,Total,0,Total,0,Total,0,Total,0,Total,1020,Unidades,1993097
3,Unidade da Federação,42,Santa Catarina,2010,2010,1000096,Domicílios particulares permanentes - percentual do total geral,0,Total,0,Total,0,Total,0,Total,0,Total,2,Percentual,100.00
3,Unidade da Federação,42,Santa Catarina,2010,2010,137,Moradores em domicílios particulares permanentes,0,Total,0,Total,0,Total,0,Total,0,Total,45,Pessoas,6219867
3,Unidade da Federação,42,Santa Catarina,2010,2010,1000137,Moradores em domicílios particulares permanentes - percentual do total geral,0,Total,0,Total,0,Total,0,Total,0,Total,2,Percentual,100.00
3,Unidade da Federação,43,Rio Grande do Sul,2010,2010,96,Domicílios particulares permanentes,0,Total,0,Total,0,Total,0,Total,0,Total,1020,Unidades,3599604
3,Unidade da Federação,43,Rio Grande do Sul,2010,2010,1000096,Domicílios particulares permanentes - percentual do total geral,0,Total,0,Total,0,Total,0,Total,0,Total,2,Percentual,100.00
3,Unidade da Federação,43,Rio Grande do Sul,2010,2010,137,Moradores em domicílios particulares permanentes,0,Total,0,Total,0,Total,0,Total,0,Total,45,Pessoas,10631019
3,Unidade da Federação,43,Rio Grande do Sul,2010,2010,1000137,Moradores em domicílios particulares permanentes - percentual do total geral,0,Total,0,Total,0,Total,0,Total,0,Total,2,Percentual,100.00
3,Unidade da Federação,50,Mato Grosso do Sul,2010,2010,96,Domicílios particulares permanentes,0,Total,0,Total,0,Total,0,Total,0,Total,1020,Unidades,759299
3,Unidade da Federação,50,Mato Grosso do Sul,2010,2010,1000096,Domicílios particulares permanentes - percentual do total geral,0,Total,0,Total,0,Total,0,Total,0,Total,2,Percentual,100.00
3,Unidade da Federação,50,Mato Grosso do Sul,2010,2010,137,Moradores em domicílios particulares permanentes,0,Total,0,Total,0,Total,0,Total,0,Total,45,Pessoas,2425176
3,Unidade da Federação,50,Mato Grosso do Sul,2010,2010,1000137,Moradores em domicílios particulares permanentes - percentual do total geral,0,Total,0,Total,0,Total,0,Total,0,Total,2,Percentual,100.00
3,Unidade da Federação,51,Mato Grosso,2010,2010,96,Domicílios particulares permanentes,0,Total,0,Total,0,Total,0,Total,0,Total,1020,Unidades,915089
3,Unidade da Federação,51,Mato Grosso,2010,2010,1000096,Domicílios particulares permanentes - percentual do total geral,0,Total,0,Total,0,Total,0,Total,0,Total,2,Percentual,100.00
3,Unidade da Federação,51,Mato Grosso,2010,2010,137,Moradores em domicílios particulares permanentes,0,Total,0,Total,0,Total,0,Total,0,Total,45,Pessoas,3011429
3,Unidade da Federação,51,Mato Grosso,2010,2010,1000137,Moradores em domicílios particulares permanentes - percentual do total geral,0,Total,0,Total,0,Total,0,Total,0,Total,2,Percentual,100.00
3,Unidade da Federação,52,Goiás,2010,2010,96,Domicílios particulares permanentes,0,Total,0,Total,0,Total,0,Total,0,Total,1020,Unidades,1886264
3,Unidade da Federação,52,Goiás,2010,2010,1000096,Domicílios particulares permanentes - percentual do total geral,0,Total,0,Total,0,Total,0,Total,0,Total,2,Percentual,100.00
3,Unidade da Federação,52,Goiás,2010,2010,137,Moradores em domicílios particulares permanentes,0,Total,0,Total,0,Total,0,Total,0,Total,45,Pessoas,5969592
3,Unidade da Federação,52,Goiás,2010,2010,1000137,Moradores em domicílios particulares permanentes - percentual do total geral,0,Total,0,Total,0,Total,0,Total,0,Total,2,Percentual,100.00
3,Unidade da Federação,53,Distrito Federal,2010,2010,96,Domicílios particulares permanentes,0,Total,0,Total,0,Total,0,Total,0,Total,1020,Unidades,774021
3,Unidade da Federação,53,Distrito Federal,2010,2010,1000096,Domicílios particulares permanentes - percentual do total geral,0,Total,0,Total,0,Total,0,Total,0,Total,2,Percentual,100.00
3,Unidade da Federação,53,Distrito Federal,2010,2010,137,Moradores em domicílios particulares permanentes,0,Total,0,Total,0,Total,0,Total,0,Total,45,Pessoas,2556511
3,Unidade da Federação,53,Distrito Federal,2010,2010,1000137,Moradores em domicílios particulares permanentes - percentual do total geral,0,Total,0,Total,0,Total,0,Total,0,Total,2,Percentual,100.00
