NC,NN,D1C,D1N,D2C,D2N,D3C,D3N,D4C,D4N,D5C,D5N,MC,MN,V
Nível Territorial (Código),Nível Territorial,Unidade da Federação (Código),Unidade da Federação,Ano (Código),Ano,Variável (Código),Variável,Situação do domicílio (Código),Situação do domicílio,Classes de rendimento nominal mensal domiciliar per capita (Código),Classes de rendimento nominal mensal domiciliar per capita,Unidade de Medida (Código),Unidade de Medida,Valor
3,Unidade da Federação,11,Rondônia,2010,2010,96,Domicílios particulares permanentes,6795,Total,9680,Total,1020,Unidades,455599
3,Unidade da Federação,11,Rondônia,2010,2010,1000096,Domicílios particulares permanentes - percentual do total geral,6795,Total,9680,Total,2,Percentual,100.00
3,Unidade da Federação,11,Rondônia,2010,2010,888,"Moradores em domicílios particulares permanentes, cuja condição no domicílio não era pensionista, nem empregado(a) doméstico(a) ou seu parente",6795,Total,9680,Total,45,Pessoas,1544220
3,Unidade da Federação,11,Rondônia,2010,2010,1000888,"Moradores em domicílios particulares permanentes, cuja condição no domicílio não era pensionista, nem empregado(a) doméstico(a) ou seu parente - percentual do total geral",6795,Total,9680,Total,2,Percentual,100.00
3,Unidade da Federação,11,Rondônia,2010,2010,949,"Média de moradores em domicílios particulares permanentes, cuja condição no domicílio não era pensionista, nem empregado(a) doméstico(a) ou seu parente",6795,Total,9680,Total,45,Pessoas,3.39
3,Unidade da Federação,12,Acre,2010,2010,96,Domicílios particulares permanentes,6795,Total,9680,Total,1020,Unidades,190645
3,Unidade da Federação,12,Acre,2010,2010,1000096,Domicílios particulares permanentes - percentual do total geral,6795,Total,9680,Total,2,Percentual,100.00
3,Unidade da Federação,12,Acre,2010,2010,888,"Moradores em domicílios particulares permanentes, cuja condição no domicílio não era pensionista, nem empregado(a) doméstico(a) ou seu parente",6795,Total,9680,Total,45,Pessoas,728610
3,Unidade da Federação,12,Acre,2010,2010,1000888,"Moradores em domicílios particulares permanentes, cuja condição no domicílio não era pensionista, nem empregado(a) doméstico(a) ou seu parente - percentual do total geral",6795,Total,9680,Total,2,Percentual,100.00
3,Unidade da Federação,12,Acre,2010,2010,949,"Média de moradores em domicílios particulares permanentes, cuja condição no domicílio não era pensionista, nem empregado(a) doméstico(a) ou seu parente",6795,Total,9680,Total,45,Pessoas,3.82
3,Unidade da Federação,13,Amazonas,2010,2010,96,Domicílios particulares permanentes,6795,Total,9680,Total,1020,Unidades,799629
3,Unidade da Federação,13,Amazonas,2010,2010,1000096,Domicílios particulares permanentes - percentual do total geral,6795,Total,9680,Total,2,Percentual,100.00
3,Unidade da Federação,13,Amazonas,2010,2010,888,"Moradores em domicílios particulares permanentes, cuja condição no domicílio não era pensionista, nem empregado(a) doméstico(a) ou seu parente",6795,Total,9680,Total,45,Pessoas,3463804
3,Unidade da Federação,13,Amazonas,2010,2010,1000888,"Moradores em domicílios particulares permanentes, cuja condição no domicílio não era pensionista, nem empregado(a) doméstico(a) ou seu parente - percentual do total geral",6795,Total,9680,Total,2,Percentual,100.00
3,Unidade da Federação,13,Amazonas,2010,2010,949,"Média de moradores em domicílios particulares permanentes, cuja condição no domicílio não era pensionista, nem empregado(a) doméstico(a) ou seu parente",6795,Total,9680,Total,45,Pessoas,4.33
3,Unidade da Federação,14,Roraima,2010,2010,96,Domicílios particulares permanentes,6795,Total,9680,Total,1020,Unidades,115844
3,Unidade da Federação,14,Roraima,2010,2010,1000096,Domicílios particulares permanentes - percentual do total geral,6795,Total,9680,Total,2,Percentual,100.00
3,Unidade da Federação,14,Roraima,2010,2010,888,"Moradores em domicílios particulares permanentes, cuja condição no domicílio não era pensionista, nem empregado(a) doméstico(a) ou seu parente",6795,Total,9680,Total,45,Pessoas,446404
3,Unidade da Federação,14,Roraima,2010,2010,1000888,"Moradores em domicílios particulares permanentes, cuja condição no domicílio não era pensionista, nem empregado(a) doméstico(a) ou seu parente - percentual do total geral",6795,Total,9680,Total,2,Percentual,100.00
3,Unidade da Federação,14,Roraima,2010,2010,949,"Média de moradores em domicílios particulares permanentes, cuja condição no domicílio não era pensionista, nem empregado(a) doméstico(a) ou seu parente",6795,Total,9680,Total,45,Pessoas,3.85
3,Unidade da Federação,15,Pará,2010,2010,96,Domicílios particulares permanentes,6795,Total,9680,Total,1020,Unidades,1859165
3,Unidade da Federação,15,Pará,2010,2010,1000096,Domicílios particulares permanentes - percentual do total geral,6795,Total,9680,Total,2,Percentual,100.00
3,Unidade da Federação,15,Pará,2010,2010,888,"Moradores em domicílios particulares permanentes, cuja condição no domicílio não era pensionista, nem empregado(a) doméstico(a) ou seu parente",6795,Total,9680,Total,45,Pessoas,7524921
3,Unidade da Federação,15,Pará,2010,2010,1000888,"Moradores em domicílios particulares permanentes, cuja condição no domicílio não era pensionista, nem empregado(a) doméstico(a) ou seu parente - percentual do total geral",6795,Total,9680,Total,2,Percentual,100.00
3,Unidade da Federação,15,Pará,2010,2010,949,"Média de moradores em domicílios particulares permanentes, cuja condição no domicílio não era pensionista, nem empregado(a) doméstico(a) ou seu parente",6795,Total,9680,Total,45,Pessoas,4.05
3,Unidade da Federação,16,Amapá,2010,2010,96,Domicílios particulares permanentes,6795,Total,9680,Total,1020,Unidades,156284
3,Unidade da Federação,16,Amapá,2010,2010,1000096,Domicílios particulares permanentes - percentual do total geral,6795,Total,9680,Total,2,Percentual,100.00
3,Unidade da Federação,16,Amapá,2010,2010,888,"Moradores em domicílios particulares permanentes, cuja condição no domicílio não era pensionista, nem empregado(a) doméstico(a) ou seu parente",6795,Total,9680,Total,45,Pessoas,664409
3,Unidade da Federação,16,Amapá,2010,2010,1000888,"Moradores em domicílios particulares permanentes, cuja condição no domicílio não era pensionista, nem empregado(a) doméstico(a) ou seu parente - percentual do total geral",6795,Total,9680,Total,2,Percentual,100.00
3,Unidade da Federação,16,Amapá,2010,2010,949,"Média de moradores em domicílios particulares permanentes, cuja condição no domicílio não era pensionista, nem empregado(a) doméstico(a) ou seu parente",6795,Total,9680,Total,45,Pessoas,4.25
3,Unidade da Federação,17,Tocantins,2010,2010,96,Domicílios particulares permanentes,6795,Total,9680,Total,1020,Unidades,398367
3,Unidade da Federação,17,Tocantins,2010,2010,1000096,Domicílios particulares permanentes - percentual do total geral,6795,Total,9680,Total,2,Percentual,100.00
3,Unidade da Federação,17,Tocantins,2010,2010,888,"Moradores em domicílios particulares permanentes, cuja condição no domicílio não era pensionista, nem empregado(a) doméstico(a) ou seu parente",6795,Total,9680,Total,45,Pessoas,1374575
3,Unidade da Federação,17,Tocantins,2010,2010,1000888,"Moradores em domicílios particulares permanentes, cuja condição no domicílio não era pensionista, nem empregado(a) doméstico(a) ou seu parente - percentual do total geral",6795,Total,9680,Total,2,Percentual,100.00
3,Unidade da Federação,17,Tocantins,2010,2010,949,"Média de moradores em domicílios particulares permanentes, cuja condição no domicílio não era pensionista, nem empregado(a) doméstico(a) ou seu parente",6795,Total,9680,Total,45,Pessoas,3.45
3,Unidade da Federação,21,Maranhão,2010,2010,96,Domicílios particulares permanentes,6795,Total,9680,Total,1020,Unidades,1653701
3,Unidade da Federação,21,Maranhão,2010,2010,1000096,Domicílios particulares permanentes - percentual do total geral,6795,Total,9680,Total,2,Percentual,100.00
3,Unidade da Federação,21,Maranhão,2010,2010,888,"Moradores em domicílios particulares permanentes, cuja condição no domicílio não era pensionista, nem empregado(a) doméstico(a) ou seu parente",6795,Total,9680,Total,45,Pessoas,6547249
3,Unidade da Federação,21,Maranhão,2010,2010,1000888,"Moradores em domicílios particulares permanentes, cuja condição no domicílio não era pensionista, nem empregado(a) doméstico(a) ou seu parente - percentual do total geral",6795,Total,9680,Total,2,Percentual,100.00
3,Unidade da Federação,21,Maranhão,2010,2010,949,"Média de moradores em domicílios particulares permanentes, cuja condição no domicílio não era pensionista, nem empregado(a) doméstico(a) ou seu parente",6795,Total,9680,Total,45,Pessoas,3.96
3,Unidade da Federação,22,Piauí,2010,2010,96,Domicílios particulares permanentes,6795,Total,9680,Total,1020,Unidades,848263
3,Unidade da Federação,22,Piauí,2010,2010,1000096,Domicílios particulares permanentes - percentual do total geral,6795,Total,9680,Total,2,Percentual,100.00
3,Unidade da Federação,22,Piauí,2010,2010,888,"Moradores em domicílios particulares permanentes, cuja condição no domicílio não era pensionista, nem empregado(a) doméstico(a) ou seu parente",6795,Total,9680,Total,45,Pessoas,3102196
3,Unidade da Federação,22,Piauí,2010,2010,1000888,"Moradores em domicílios particulares permanentes, cuja condição no domicílio não era pensionista, nem empregado(a) doméstico(a) ou seu parente - percentual do total geral",6795,Total,9680,Total,2,Percentual,100.00
3,Unidade da Federação,22,Piauí,2010,2010,949,"Média de moradores em domicílios particulares permanentes, cuja condição no domicílio não era pensionista, nem empregado(a) doméstico(a) ou seu parente",6795,Total,9680,Total,45,Pessoas,3.66
3,Unidade da Federação,23,Ceará,2010,2010,96,Domicílios particulares permanentes,6795,Total,9680,Total,1020,Unidades,2365276
3,Unidade da Federação,23,Ceará,2010,2010,1000096,Domicílios particulares permanentes - percentual do total geral,6795,Total,9680,Total,2,Percentual,100.00
3,Unidade da Federação,23,Ceará,2010,2010,888,"Moradores em domicílios particulares permanentes, cuja condição no domicílio não era pensionista, nem empregado(a) doméstico(a) ou seu parente",6795,Total,9680,Total,45,Pessoas,8402416
3,Unidade da Federação,23,Ceará,2010,2010,1000888,"Moradores em domicílios particulares permanentes, cuja condição no domicílio não era pensionista, nem empregado(a) doméstico(a) ou seu parente - percentual do total geral",6795,Total,9680,Total,2,Percentual,100.00
3,Unidade da Federação,23,Ceará,2010,2010,949,"Média de moradores em domicílios particulares permanentes, cuja condição no domicílio não era pensionista, nem empregado(a) doméstico(a) ou seu parente",6795,Total,9680,Total,45,Pessoas,3.55
3,Unidade da Federação,24,Rio Grande do Norte,2010,2010,96,Domicílios particulares permanentes,6795,Total,9680,Total,1020,Unidades,899513
3,Unidade da Federação,24,Rio Grande do Norte,2010,2010,1000096,Domicílios particulares permanentes - percentual do total geral,6795,Total,9680,Total,2,Percentual,100.00
3,Unidade da Federação,24,Rio Grande do Norte,2010,2010,888,"Moradores em domicílios particulares permanentes, cuja condição no domicílio não era pensionista, nem empregado(a) doméstico(a) ou seu parente",6795,Total,9680,Total,45,Pessoas,3150834
3,Unidade da Federação,24,Rio Grande do Norte,2010,2010,1000888,"Moradores em domicílios particulares permanentes, cuja condição no domicílio não era pensionista, nem empregado(a) doméstico(a) ou seu parente - percentual do total geral",6795,Total,9680,Total,2,Percentual,100.00
3,Unidade da Federação,24,Rio Grande do Norte,2010,2010,949,"Média de moradores em domicílios particulares permanentes, cuja condição no domicílio não era pensionista, nem empregado(a) doméstico(a) ou seu parente",6795,Total,9680,Total,45,Pessoas,3.50
3,Unidade da Federação,25,Paraíba,2010,2010,96,Domicílios particulares permanentes,6795,Total,9680,Total,1020,Unidades,1080672
3,Unidade da Federação,25,Paraíba,2010,2010,1000096,Domicílios particulares permanentes - percentual do total geral,6795,Total,9680,Total,2,Percentual,100.00
3,Unidade da Federação,25,Paraíba,2010,2010,888,"Moradores em domicílios particulares permanentes, cuja condição no domicílio não era pensionista, nem empregado(a) doméstico(a) ou seu parente",6795,Total,9680,Total,45,Pessoas,3744766
3,Unidade da Federação,25,Paraíba,2010,2010,1000888,"Moradores em domicílios particulares permanentes, cuja condição no domicílio não era pensionista, nem empregado(a) doméstico(a) ou seu parente - percentual do total geral",6795,Total,9680,Total,2,Percentual,100.00
3,Unidade da Federação,25,Paraíba,2010,2010,949,"Média de moradores em domicílios particulares permanentes, cuja condição no domicílio não era pensionista, nem empregado(a) doméstico(a) ou seu parente",6795,Total,9680,Total,45,Pessoas,3.47
3,Unidade da Federação,26,Pernambuco,2010,2010,96,Domicílios particulares permanentes,6795,Total,9680,Total,1020,Unidades,2546872
3,Unidade da Federação,26,Pernambuco,2010,2010,1000096,Domicílios particulares permanentes - percentual do total geral,6795,Total,9680,Total,2,Percentual,100.00
3,Unidade da Federação,26,Pernambuco,2010,2010,888,"Moradores em domicílios particulares permanentes, cuja condição no domicílio não era pensionista, nem empregado(a) doméstico(a) ou seu parente",6795,Total,9680,Total,45,Pessoas,8742708
3,Unidade da Federação,26,Pernambuco,2010,2010,1000888,"Moradores em domicílios particulares permanentes, cuja condição no domicílio não era pensionista, nem empregado(a) doméstico(a) ou seu parente - percentual do total geral",6795,Total,9680,Total,2,Percentual,100.00
3,Unidade da Federação,26,Pernambuco,2010,2010,949,"Média de moradores em domicílios particulares permanentes, cuja condição no domicílio não era pensionista, nem empregado(a) doméstico(a) ou seu parente",6795,Total,9680,Total,45,Pessoas,3.43
3,Unidade da Federação,27,Alagoas,2010,2010,96,Domicílios particulares permanentes,6795,Total,9680,Total,1020,Unidades,842884
3,Unidade da Federação,27,Alagoas,2010,2010,1000096,Domicílios particulares permanentes - percentual do total geral,6795,Total,9680,Total,2,Percentual,100.00
3,Unidade da Federação,27,Alagoas,2010,2010,888,"Moradores em domicílios particulares permanentes, cuja condição no domicílio não era pensionista, nem empregado(a) doméstico(a) ou seu parente",6795,Total,9680,Total,45,Pessoas,3093658
3,Unidade da Federação,27,Alagoas,2010,2010,1000888,"Moradores em domicílios particulares permanentes, cuja condição no domicílio não era pensionista, nem empregado(a) doméstico(a) ou seu parente - percentual do total geral",6795,Total,9680,Total,2,Percentual,100.00
3,Unidade da Federação,27,Alagoas,2010,2010,949,"Média de moradores em domicílios particulares permanentes, cuja condição no domicílio não era pensionista, nem empregado(a) doméstico(a) ou seu parente",6795,Total,9680,Total,45,Pessoas,3.67
3,Unidade da Federação,28,Sergipe,2010,2010,96,Domicílios particulares permanentes,6795,Total,9680,Total,1020,Unidades,591315
3,Unidade da Federação,28,Sergipe,2010,2010,1000096,Domicílios particulares permanentes - percentual do total geral,6795,Total,9680,Total,2,Percentual,100.00
3,Unidade da Federação,28,Sergipe,2010,2010,888,"Moradores em domicílios particulares permanentes, cuja condição no domicílio não era pensionista, nem empregado(a) doméstico(a) ou seu parente",6795,Total,9680,Total,45,Pessoas,2055021
3,Unidade da Federação,28,Sergipe,2010,2010,1000888,"Moradores em domicílios particulares permanentes, cuja condição no domicílio não era pensionista, nem empregado(a) doméstico(a) ou seu parente - percentual do total geral",6795,Total,9680,Total,2,Percentual,100.00
3,Unidade da Federação,28,Sergipe,2010,2010,949,"Média de moradores em domicílios particulares permanentes, cuja condição no domicílio não era pensionista, nem empregado(a) doméstico(a) ou seu parente",6795,Total,9680,Total,45,Pessoas,3.48
3,Unidade da Federação,29,Bahia,2010,2010,96,Domicílios particulares permanentes,6795,Total,9680,Total,1020,Unidades,4094405
3,Unidade da Federação,29,Bahia,2010,2010,1000096,Domicílios particulares permanentes - percentual do total geral,6795,Total,9680,Total,2,Percentual,100.00
3,Unidade da Federação,29,Bahia,2010,2010,888,"Moradores em domicílios particulares permanentes, cuja condição no domicílio não era pensionista, nem empregado(a) doméstico(a) ou seu parente",6795,Total,9680,Total,45,Pessoas,13934971
3,Unidade da Federação,29,Bahia,2010,2010,1000888,"Moradores em domicílios particulares permanentes, cuja condição no domicílio não era pensionista, nem empregado(a) doméstico(a) ou seu parente - percentual do total geral",6795,Total,9680,Total,2,Percentual,100.00
3,Unidade da Federação,29,Bahia,2010,2010,949,"Média de moradores em domicílios particulares permanentes, cuja condição no domicílio não era pensionista, nem empregado(a) doméstico(a) ou seu parente",6795,Total,9680,Total,45,Pessoas,3.40
3,Unidade da Federação,31,Minas Gerais,2010,2010,96,Domicílios particulares permanentes,6795,Total,9680,Total,1020,Unidades,6028223
3,Unidade da Federação,31,Minas Gerais,2010,2010,1000096,Domicílios particulares permanentes - percentual do total geral,6795,Total,9680,Total,2,Percentual,100.00
3,Unidade da Federação,31,Minas Gerais,2010,2010,888,"Moradores em domicílios particulares permanentes, cuja condição no domicílio não era pensionista, nem empregado(a) doméstico(a) ou seu parente",6795,Total,9680,Total,45,Pessoas,19468167
3,Unidade da Federação,31,Minas Gerais,2010,2010,1000888,"Moradores em domicílios particulares permanentes, cuja condição no domicílio não era pensionista, nem empregado(a) doméstico(a) ou seu parente - percentual do total geral",6795,Total,9680,Total,2,Percentual,100.00
3,Unidade da Federação,31,Minas Gerais,2010,2010,949,"Média de moradores em domicílios particulares permanentes, cuja condição no domicílio não era pensionista, nem empregado(a) doméstico(a) ou seu parente",6795,Total,9680,Total,45,Pessoas,3.23
3,Unidade da Federação,32,Espírito Santo,2010,2010,96,Domicílios particulares permanentes,6795,Total,9680,Total,1020,Unidades,1101394
3,Unidade da Federação,32,Espírito Santo,2010,2010,1000096,Domicílios particulares permanentes - percentual do total geral,6795,Total,9680,Total,2,Percentual,100.00
3,Unidade da Federação,32,Espírito Santo,2010,2010,888,"Moradores em domicílios particulares permanentes, cuja condição no domicílio não era pensionista, nem empregado(a) doméstico(a) ou seu parente",6795,Total,9680,Total,45,Pessoas,3492640
3,Unidade da Federação,32,Espírito Santo,2010,2010,1000888,"Moradores em domicílios particulares permanentes, cuja condição no domicílio não era pensionista, nem empregado(a) doméstico(a) ou seu parente - percentual do total geral",6795,Total,9680,Total,2,Percentual,100.00
3,Unidade da Federação,32,Espírito Santo,2010,2010,949,"Média de moradores em domicílios particulares permanentes, cuja condição no domicílio não era pensionista, nem empregado(a) doméstico(a) ou seu parente",6795,Total,9680,Total,45,Pessoas,3.17
3,Unidade da Federação,33,Rio de Janeiro,2010,2010,96,Domicílios particulares permanentes,6795,Total,9680,Total,1020,Unidades,5243011
3,Unidade da Federação,33,Rio de Janeiro,2010,2010,1000096,Domicílios particulares permanentes - percentual do total geral,6795,Total,9680,Total,2,Percentual,100.00
3,Unidade da Federação,33,Rio de Janeiro,2010,2010,888,"Moradores em domicílios particulares permanentes, cuja condição no domicílio não era pensionista, nem empregado(a) doméstico(a) ou seu parente",6795,Total,9680,Total,45,Pessoas,15895891
3,Unidade da Federação,33,Rio de Janeiro,2010,2010,1000888,"Moradores em domicílios particulares permanentes, cuja condição no domicílio não era pensionista, nem empregado(a) doméstico(a) ou seu parente - percentual do total geral",6795,Total,9680,Total,2,Percentual,100.00
3,Unidade da Federação,33,Rio de Janeiro,2010,2010,949,"Média de moradores em domicílios particulares permanentes, cuja condição no domicílio não era pensionista, nem empregado(a) doméstico(a) ou seu parente",6795,Total,9680,Total,45,Pessoas,3.03
3,Unidade da Federação,35,São Paulo,2010,2010,96,Domicílios particulares permanentes,6795,Total,9680,Total,1020,Unidades,12827153
3,Unidade da Federação,35,São Paulo,2010,2010,1000096,Domicílios particulares permanentes - percentual do total geral,6795,Total,9680,Total,2,Percentual,100.00
3,Unidade da Federação,35,São Paulo,2010,2010,888,"Moradores em domicílios particulares permanentes, cuja condição no domicílio não era pensionista, nem empregado(a) doméstico(a) ou seu parente",6795,Total,9680,Total,45,Pessoas,40943200
3,Unidade da Federação,35,São Paulo,2010,2010,1000888,"Moradores em domicílios particulares permanentes, cuja condição no domicílio não era pensionista, nem empregado(a) doméstico(a) ou seu parente - percentual do total geral",6795,Total,9680,Total,2,Percentual,100.00
3,Unidade da Federação,35,São Paulo,2010,2010,949,"Média de moradores em domicílios particulares permanentes, cuja condição no domicílio não era pensionista, nem empregado(a) doméstico(a) ou seu parente",6795,Total,9680,Total,45,Pessoas,3.19
3,Unidade da Federação,41,Paraná,2010,2010,96,Domicílios particulares permanentes,6795,Total,9680,Total,1020,Unidades,3298578
3,Unidade da Federação,41,Paraná,2010,2010,1000096,Domicílios particulares permanentes - percentual do total geral,6795,Total,9680,Total,2,Percentual,100.00
3,Unidade da Federação,41,Paraná,2010,2010,888,"Moradores em domicílios particulares permanentes, cuja condição no domicílio não era pensionista, nem empregado(a) doméstico(a) ou seu parente",6795,Total,9680,Total,45,Pessoas,10378102
3,Unidade da Federação,41,Paraná,2010,2010,1000888,"Moradores em domicílios particulares permanentes, cuja condição no domicílio não era pensionista, nem empregado(a) doméstico(a) ou seu parente - percentual do total geral",6795,Total,9680,Total,2,Percentual,100.00
3,Unidade da Federação,41,Paraná,2010,2010,949,"Média de moradores em domicílios particulares permanentes, cuja condição no domicílio não era pensionista, nem empregado(a) doméstico(a) ou seu parente",6795,Total,9680,Total,45,Pessoas,3.15
3,Unidade da Federação,42,Santa Catarina,2010,2010,96,Domicílios particulares permanentes,6795,Total,9680,Total,1020,Unidades,1993097
3,Unidade da Federação,42,Santa Catarina,2010,2010,1000096,Domicílios particulares permanentes - percentual do total geral,6795,Total,9680,Total,2,Percentual,100.00
3,Unidade da Federação,42,Santa Catarina,2010,2010,888,"Moradores em domicílios particulares permanentes, cuja condição no domicílio não era pensionista, nem empregado(a) doméstico(a) ou seu parente",6795,Total,9680,Total,45,Pessoas,6209818
3,Unidade da Federação,42,Santa Catarina,2010,2010,1000888,"Moradores em domicílios particulares permanentes, cuja condição no domicílio não era pensionista, nem empregado(a) doméstico(a) ou seu parente - percentual do total geral",6795,Total,9680,Total,2,Percentual,100.00
3,Unidade da Federação,42,Santa Catarina,2010,2010,949,"Média de moradores em domicílios particulares permanentes, cuja condição no domicílio não era pensionista, nem empregado(a) doméstico(a) ou seu parente",6795,Total,9680,Total,45,Pessoas,3.12
3,Unidade da Federação,43,Rio Grande do Sul,2010,2010,96,Domicílios particulares permanentes,6795,Total,9680,Total,1020,Unidades,3599604
3,Unidade da Federação,43,Rio Grande do Sul,2010,2010,1000096,Domicílios particulares permanentes - percentual do total geral,6795,Total,9680,Total,2,Percentual,100.00
3,Unidade da Federação,43,Rio Grande do Sul,2010,2010,888,"Moradores em domicílios particulares permanentes, cuja condição no domicílio não era pensionista, nem empregado(a) doméstico(a) ou seu parente",6795,Total,9680,Total,45,Pessoas,10616457
3,Unidade da Federação,43,Rio Grande do Sul,2010,2010,1000888,"Moradores em domicílios particulares permanentes, cuja condição no domicílio não era pensionista, nem empregado(a) doméstico(a) ou seu parente - percentual do total geral",6795,Total,9680,Total,2,Percentual,100.00
3,Unidade da Federação,43,Rio Grande do Sul,2010,2010,949,"Média de moradores em domicílios particulares permanentes, cuja condição no domicílio não era pensionista, nem empregado(a) doméstico(a) ou seu parente",6795,Total,9680,Total,45,Pessoas,2.95
3,Unidade da Federação,50,Mato Grosso do Sul,2010,2010,96,Domicílios particulares permanentes,6795,Total,9680,Total,1020,Unidades,759299
3,Unidade da Federação,50,Mato Grosso do Sul,2010,2010,1000096,Domicílios particulares permanentes - percentual do total geral,6795,Total,9680,Total,2,Percentual,100.00
3,Unidade da Federação,50,Mato Grosso do Sul,2010,2010,888,"Moradores em domicílios particulares permanentes, cuja condição no domicílio não era pensionista, nem empregado(a) doméstico(a) ou seu parente",6795,Total,9680,Total,45,Pessoas,2422521
3,Unidade da Federação,50,Mato Grosso do Sul,2010,2010,1000888,"Moradores em domicílios particulares permanentes, cuja condição no domicílio não era pensionista, nem empregado(a) doméstico(a) ou seu parente - percentual do total geral",6795,Total,9680,Total,2,Percentual,100.00
3,Unidade da Federação,50,Mato Grosso do Sul,2010,2010,949,"Média de moradores em domicílios particulares permanentes, cuja condição no domicílio não era pensionista, nem empregado(a) doméstico(a) ou seu parente",6795,Total,9680,Total,45,Pessoas,3.19
3,Unidade da Federação,51,Mato Grosso,2010,2010,96,Domicílios particulares permanentes,6795,Total,9680,Total,1020,Unidades,915089
3,Unidade da Federação,51,Mato Grosso,2010,2010,1000096,Domicílios particulares permanentes - percentual do total geral,6795,Total,9680,Total,2,Percentual,100.00
3,Unidade da Federação,51,Mato Grosso,2010,2010,888,"Moradores em domicílios particulares permanentes, cuja condição no domicílio não era pensionista, nem empregado(a) doméstico(a) ou seu parente",6795,Total,9680,Total,45,Pessoas,3008417
3,Unidade da Federação,51,Mato Grosso,2010,2010,1000888,"Moradores em domicílios particulares permanentes, cuja condição no domicílio não era pensionista, nem empregado(a) doméstico(a) ou seu parente - percentual do total geral",6795,Total,9680,Total,2,Percentual,100.00
3,Unidade da Federação,51,Mato Grosso,2010,2010,949,"Média de moradores em domicílios particulares permanentes, cuja condição no domicílio não era pensionista, nem empregado(a) doméstico(a) ou seu parente",6795,Total,9680,Total,45,Pessoas,3.29
3,Unidade da Federação,52,Goiás,2010,2010,96,Domicílios particulares permanentes,6795,Total,9680,Total,1020,Unidades,1886264
3,Unidade da Federação,52,Goiás,2010,2010,1000096,Domicílios particulares permanentes - percentual do total geral,6795,Total,9680,Total,2,Percentual,100.00
3,Unidade da Federação,52,Goiás,2010,2010,888,"Moradores em domicílios particulares permanentes, cuja condição no domicílio não era pensionista, nem empregado(a) doméstico(a) ou seu parente",6795,Total,9680,Total,45,Pessoas,5962381
3,Unidade da Federação,52,Goiás,2010,2010,1000888,"Moradores em domicílios particulares permanentes, cuja condição no domicílio não era pensionista, nem empregado(a) doméstico(a) ou seu parente - percentual do total geral",6795,Total,9680,Total,2,Percentual,100.00
3,Unidade da Federação,52,Goiás,2010,2010,949,"Média de moradores em domicílios particulares permanentes, cuja condição no domicílio não era pensionista, nem empregado(a) doméstico(a) ou seu parente",6795,Total,9680,Total,45,Pessoas,3.16
3,Unidade da Federação,53,Distrito Federal,2010,2010,96,Domicílios particulares permanentes,6795,Total,9680,Total,1020,Unidades,774021
3,Unidade da Federação,53,Distrito Federal,2010,2010,1000096,Domicílios particulares permanentes - percentual do total geral,6795,Total,9680,Total,2,Percentual,100.00
3,Unidade da Federação,53,Distrito Federal,2010,2010,888,"Moradores em domicílios particulares permanentes, cuja condição no domicílio não era pensionista, nem empregado(a) doméstico(a) ou seu parente",6795,Total,9680,Total,45,Pessoas,2543040
3,Unidade da Federação,53,Distrito Federal,2010,2010,1000888,"Moradores em domicílios particulares permanentes, cuja condição no domicílio não era pensionista, nem empregado(a) doméstico(a) ou seu parente - percentual do total geral",6795,Total,9680,Total,2,Percentual,100.00
3,Unidade da Federação,53,Distrito Federal,2010,2010,949,"Média de moradores em domicílios particulares permanentes, cuja condição no domicílio não era pensionista, nem empregado(a) doméstico(a) ou seu parente",6795,Total,9680,Total,45,Pessoas,3.29
