NC,NN,D1C,D1N,D2C,D2N,D3C,D3N,D4C,D4N,D5C,D5N,D6C,D6N,MC,MN,V
Nível Territorial (Código),Nível Territorial,Unidade da Federação (Código),Unidade da Federação,Ano (Código),Ano,Variável (Código),Variável,Características do entorno (Código),Características do entorno,Sexo do responsável pelo domicílio (Código),Sexo do responsável pelo domicílio,Existência de características do entorno (Código),Existência de características do entorno,Unidade de Medida (Código),Unidade de Medida,Valor
3,Unidade da Federação,11,Rondônia,2010,2010,701,Domicílios particulares permanentes em áreas urbanas com ordenamento regular,12137,Identificação do logradouro,0,Total,0,Total,1020,Unidades,331072
3,Unidade da Federação,11,Rondônia,2010,2010,1000701,Domicílios particulares permanentes em áreas urbanas com ordenamento regular - percentual do total geral,12137,Identificação do logradouro,0,Total,0,Total,2,Percentual,100.00
3,Unidade da Federação,12,Acre,2010,2010,701,Domicílios particulares permanentes em áreas urbanas com ordenamento regular,12137,Identificação do logradouro,0,Total,0,Total,1020,Unidades,139509
3,Unidade da Federação,12,Acre,2010,2010,1000701,Domicílios particulares permanentes em áreas urbanas com ordenamento regular - percentual do total geral,12137,Identificação do logradouro,0,Total,0,Total,2,Percentual,100.00
3,Unidade da Federação,13,Amazonas,2010,2010,701,Domicílios particulares permanentes em áreas urbanas com ordenamento regular,12137,Identificação do logradouro,0,Total,0,Total,1020,Unidades,646615
3,Unidade da Federação,13,Amazonas,2010,2010,1000701,Domicílios particulares permanentes em áreas urbanas com ordenamento regular - percentual do total geral,12137,Identificação do logradouro,0,Total,0,Total,2,Percentual,100.00
3,Unidade da Federação,14,Roraima,2010,2010,701,Domicílios particulares permanentes em áreas urbanas com ordenamento regular,12137,Identificação do logradouro,0,Total,0,Total,1020,Unidades,91947
3,Unidade da Federação,14,Roraima,2010,2010,1000701,Domicílios particulares permanentes em áreas urbanas com ordenamento regular - percentual do total geral,12137,Identificação do logradouro,0,Total,0,Total,2,Percentual,100.00
3,Unidade da Federação,15,Pará,2010,2010,701,Domicílios particulares permanentes em áreas urbanas com ordenamento regular,12137,Identificação do logradouro,0,Total,0,Total,1020,Unidades,1320336
3,Unidade da Federação,15,Pará,2010,2010,1000701,Domicílios particulares permanentes em áreas urbanas com ordenamento regular - percentual do total geral,12137,Identificação do logradouro,0,Total,0,Total,2,Percentual,100.00
3,Unidade da Federação,16,Amapá,2010,2010,701,Domicílios particulares permanentes em áreas urbanas com ordenamento regular,12137,Identificação do logradouro,0,Total,0,Total,1020,Unidades,124868
3,Unidade da Federação,16,Amapá,2010,2010,1000701,Domicílios particulares permanentes em áreas urbanas com ordenamento regular - percentual do total geral,12137,Identificação do logradouro,0,Total,0,Total,2,Percentual,100.00
3,Unidade da Federação,17,Tocantins,2010,2010,701,Domicílios particulares permanentes em áreas urbanas com ordenamento regular,12137,Identificação do logradouro,0,Total,0,Total,1020,Unidades,312605
3,Unidade da Federação,17,Tocantins,2010,2010,1000701,Domicílios particulares permanentes em áreas urbanas com ordenamento regular - percentual do total geral,12137,Identificação do logradouro,0,Total,0,Total,2,Percentual,100.00
3,Unidade da Federação,21,Maranhão,2010,2010,701,Domicílios particulares permanentes em áreas urbanas com ordenamento regular,12137,Identificação do logradouro,0,Total,0,Total,1020,Unidades,1108354
3,Unidade da Federação,21,Maranhão,2010,2010,1000701,Domicílios particulares permanentes em áreas urbanas com ordenamento regular - percentual do total geral,12137,Identificação do logradouro,0,Total,0,Total,2,Percentual,100.00
3,Unidade da Federação,22,Piauí,2010,2010,701,Domicílios particulares permanentes em áreas urbanas com ordenamento regular,12137,Identificação do logradouro,0,Total,0,Total,1020,Unidades,565713
3,Unidade da Federação,22,Piauí,2010,2010,1000701,Domicílios particulares permanentes em áreas urbanas com ordenamento regular - percentual do total geral,12137,Identificação do logradouro,0,Total,0,Total,2,Percentual,100.00
3,Unidade da Federação,23,Ceará,2010,2010,701,Domicílios particulares permanentes em áreas urbanas com ordenamento regular,12137,Identificação do logradouro,0,Total,0,Total,1020,Unidades,1746873
3,Unidade da Federação,23,Ceará,2010,2010,1000701,Domicílios particulares permanentes em áreas urbanas com ordenamento regular - percentual do total geral,12137,Identificação do logradouro,0,Total,0,Total,2,Percentual,100.00
3,Unidade da Federação,24,Rio Grande do Norte,2010,2010,701,Domicílios particulares permanentes em áreas urbanas com ordenamento regular,12137,Identificação do logradouro,0,Total,0,Total,1020,Unidades,707101
3,Unidade da Federação,24,Rio Grande do Norte,2010,2010,1000701,Domicílios particulares permanentes em áreas urbanas com ordenamento regular - percentual do total geral,12137,Identificação do logradouro,0,Total,0,Total,2,Percentual,100.00
3,Unidade da Federação,25,Paraíba,2010,2010,701,Domicílios particulares permanentes em áreas urbanas com ordenamento regular,12137,Identificação do logradouro,0,Total,0,Total,1020,Unidades,824144
3,Unidade da Federação,25,Paraíba,2010,2010,1000701,Domicílios particulares permanentes em áreas urbanas com ordenamento regular - percentual do total geral,12137,Identificação do logradouro,0,Total,0,Total,2,Percentual,100.00
3,Unidade da Federação,26,Pernambuco,2010,2010,701,Domicílios particulares permanentes em áreas urbanas com ordenamento regular,12137,Identificação do logradouro,0,Total,0,Total,1020,Unidades,1822810
3,Unidade da Federação,26,Pernambuco,2010,2010,1000701,Domicílios particulares permanentes em áreas urbanas com ordenamento regular - percentual do total geral,12137,Identificação do logradouro,0,Total,0,Total,2,Percentual,100.00
3,Unidade da Federação,27,Alagoas,2010,2010,701,Domicílios particulares permanentes em áreas urbanas com ordenamento regular,12137,Identificação do logradouro,0,Total,0,Total,1020,Unidades,627762
3,Unidade da Federação,27,Alagoas,2010,2010,1000701,Domicílios particulares permanentes em áreas urbanas com ordenamento regular - percentual do total geral,12137,Identificação do logradouro,0,Total,0,Total,2,Percentual,100.00
3,Unidade da Federação,28,Sergipe,2010,2010,701,Domicílios particulares permanentes em áreas urbanas com ordenamento regular,12137,Identificação do logradouro,0,Total,0,Total,1020,Unidades,436157
3,Unidade da Federação,28,Sergipe,2010,2010,1000701,Domicílios particulares permanentes em áreas urbanas com ordenamento regular - percentual do total geral,12137,Identificação do logradouro,0,Total,0,Total,2,Percentual,100.00
3,Unidade da Federação,29,Bahia,2010,2010,701,Domicílios particulares permanentes em áreas urbanas com ordenamento regular,12137,Identificação do logradouro,0,Total,0,Total,1020,Unidades,2742971
3,Unidade da Federação,29,Bahia,2010,2010,1000701,Domicílios particulares permanentes em áreas urbanas com ordenamento regular - percentual do total geral,12137,Identificação do logradouro,0,Total,0,Total,2,Percentual,100.00
3,Unidade da Federação,31,Minas Gerais,2010,2010,701,Domicílios particulares permanentes em áreas urbanas com ordenamento regular,12137,Identificação do logradouro,0,Total,0,Total,1020,Unidades,5123781
3,Unidade da Federação,31,Minas Gerais,2010,2010,1000701,Domicílios particulares permanentes em áreas urbanas com ordenamento regular - percentual do total geral,12137,Identificação do logradouro,0,Total,0,Total,2,Percentual,100.00
3,Unidade da Federação,32,Espírito Santo,2010,2010,701,Domicílios particulares permanentes em áreas urbanas com ordenamento regular,12137,Identificação do logradouro,0,Total,0,Total,1020,Unidades,884316
3,Unidade da Federação,32,Espírito Santo,2010,2010,1000701,Domicílios particulares permanentes em áreas urbanas com ordenamento regular - percentual do total geral,12137,Identificação do logradouro,0,Total,0,Total,2,Percentual,100.00
3,Unidade da Federação,33,Rio de Janeiro,2010,2010,701,Domicílios particulares permanentes em áreas urbanas com ordenamento regular,12137,Identificação do logradouro,0,Total,0,Total,1020,Unidades,4755924
3,Unidade da Federação,33,Rio de Janeiro,2010,2010,1000701,Domicílios particulares permanentes em áreas urbanas com ordenamento regular - percentual do total geral,12137,Identificação do logradouro,0,Total,0,Total,2,Percentual,100.00
3,Unidade da Federação,35,São Paulo,2010,2010,701,Domicílios particulares permanentes em áreas urbanas com ordenamento regular,12137,Identificação do logradouro,0,Total,0,Total,1020,Unidades,11792539
3,Unidade da Federação,35,São Paulo,2010,2010,1000701,Domicílios particulares permanentes em áreas urbanas com ordenamento regular - percentual do total geral,12137,Identificação do logradouro,0,Total,0,Total,2,Percentual,100.00
3,Unidade da Federação,41,Paraná,2010,2010,701,Domicílios particulares permanentes em áreas urbanas com ordenamento regular,12137,Identificação do logradouro,0,Total,0,Total,1020,Unidades,2773342
3,Unidade da Federação,41,Paraná,2010,2010,1000701,Domicílios particulares permanentes em áreas urbanas com ordenamento regular - percentual do total geral,12137,Identificação do logradouro,0,Total,0,Total,2,Percentual,100.00
3,Unidade da Federação,42,Santa Catarina,2010,2010,701,Domicílios particulares permanentes em áreas urbanas com ordenamento regular,12137,Identificação do logradouro,0,Total,0,Total,1020,Unidades,1569342
3,Unidade da Federação,42,Santa Catarina,2010,2010,1000701,Domicílios particulares permanentes em áreas urbanas com ordenamento regular - percentual do total geral,12137,Identificação do logradouro,0,Total,0,Total,2,Percentual,100.00
3,Unidade da Federação,43,Rio Grande do Sul,2010,2010,701,Domicílios particulares permanentes em áreas urbanas com ordenamento regular,12137,Identificação do logradouro,0,Total,0,Total,1020,Unidades,3005977
3,Unidade da Federação,43,Rio Grande do Sul,2010,2010,1000701,Domicílios particulares permanentes em áreas urbanas com ordenamento regular - percentual do total geral,12137,Identificação do logradouro,0,Total,0,Total,2,Percentual,100.00
3,Unidade da Federação,50,Mato Grosso do Sul,2010,2010,701,Domicílios particulares permanentes em áreas urbanas com ordenamento regular,12137,Identificação do logradouro,0,Total,0,Total,1020,Unidades,643373
3,Unidade da Federação,50,Mato Grosso do Sul,2010,2010,1000701,Domicílios particulares permanentes em áreas urbanas com ordenamento regular - percentual do total geral,12137,Identificação do logradouro,0,Total,0,Total,2,Percentual,100.00
3,Unidade da Federação,51,Mato Grosso,2010,2010,701,Domicílios particulares permanentes em áreas urbanas com ordenamento regular,12137,Identificação do logradouro,0,Total,0,Total,1020,Unidades,736955
3,Unidade da Federação,51,Mato Grosso,2010,2010,1000701,Domicílios particulares permanentes em áreas urbanas com ordenamento regular - percentual do total geral,12137,Identificação do logradouro,0,Total,0,Total,2,Percentual,100.00
3,Unidade da Federação,52,Goiás,2010,2010,701,Domicílios particulares permanentes em áreas urbanas com ordenamento regular,12137,Identificação do logradouro,0,Total,0,Total,1020,Unidades,1686684
3,Unidade da Federação,52,Goiás,2010,2010,1000701,Domicílios particulares permanentes em áreas urbanas com ordenamento regular - percentual do total geral,12137,Identificação do logradouro,0,Total,0,Total,2,Percentual,100.00
3,Unidade da Federação,53,Distrito Federal,2010,2010,701,Domicílios particulares permanentes em áreas urbanas com ordenamento regular,12137,Identificação do logradouro,0,Total,0,Total,1020,Unidades,743138
3,Unidade da Federação,53,Distrito Federal,2010,2010,1000701,Domicílios particulares permanentes em áreas urbanas com ordenamento regular - percentual do total geral,12137,Identificação do logradouro,0,Total,0,Total,2,Percentual,100.00
