NC,NN,D1C,D1N,D2C,D2N,D3C,D3N,D4C,D4N,D5C,D5N,D6C,D6N,D7C,D7N,MC,MN,V
Nível Territorial (Código),Nível Territorial,Unidade da Federação (Código),Unidade da Federação,Ano (Código),Ano,Variável (Código),Variável,Condição de ocupação do domicílio (Código),Condição de ocupação do domicílio,Tipo de domicílio (Código),Tipo de domicílio,Tipo de material das paredes externas (Código),Tipo de material das paredes externas,Adequação da moradia (Código),Adequação da moradia,Unidade de Medida (Código),Unidade de Medida,Valor
3,Unidade da Federação,11,Rondônia,2010,2010,847,Valor do rendimento nominal médio mensal dos domicílios particulares permanentes,95826,Total,2932,Total,13233,Total,104566,Total,38,Reais,2183.08
3,Unidade da Federação,11,Rondônia,2010,2010,848,Valor do rendimento nominal mediano mensal dos domicílios particulares permanentes,95826,Total,2932,Total,13233,Total,104566,Total,38,Reais,1250.00
3,Unidade da Federação,12,Acre,2010,2010,847,Valor do rendimento nominal médio mensal dos domicílios particulares permanentes,95826,Total,2932,Total,13233,Total,104566,Total,38,Reais,1901.14
3,Unidade da Federação,12,Acre,2010,2010,848,Valor do rendimento nominal mediano mensal dos domicílios particulares permanentes,95826,Total,2932,Total,13233,Total,104566,Total,38,Reais,1020.00
3,Unidade da Federação,13,Amazonas,2010,2010,847,Valor do rendimento nominal médio mensal dos domicílios particulares permanentes,95826,Total,2932,Total,13233,Total,104566,Total,38,Reais,2200.60
3,Unidade da Federação,13,Amazonas,2010,2010,848,Valor do rendimento nominal mediano mensal dos domicílios particulares permanentes,95826,Total,2932,Total,13233,Total,104566,Total,38,Reais,1060.00
3,Unidade da Federação,14,Roraima,2010,2010,847,Valor do rendimento nominal médio mensal dos domicílios particulares permanentes,95826,Total,2932,Total,13233,Total,104566,Total,38,Reais,2227.92
3,Unidade da Federação,14,Roraima,2010,2010,848,Valor do rendimento nominal mediano mensal dos domicílios particulares permanentes,95826,Total,2932,Total,13233,Total,104566,Total,38,Reais,1110.00
3,Unidade da Federação,15,Pará,2010,2010,847,Valor do rendimento nominal médio mensal dos domicílios particulares permanentes,95826,Total,2932,Total,13233,Total,104566,Total,38,Reais,1738.97
3,Unidade da Federação,15,Pará,2010,2010,848,Valor do rendimento nominal mediano mensal dos domicílios particulares permanentes,95826,Total,2932,Total,13233,Total,104566,Total,38,Reais,1000.00
3,Unidade da Federação,16,Amapá,2010,2010,847,Valor do rendimento nominal médio mensal dos domicílios particulares permanentes,95826,Total,2932,Total,13233,Total,104566,Total,38,Reais,2447.61
3,Unidade da Federação,16,Amapá,2010,2010,848,Valor do rendimento nominal mediano mensal dos domicílios particulares permanentes,95826,Total,2932,Total,13233,Total,104566,Total,38,Reais,1268.00
3,Unidade da Federação,17,Tocantins,2010,2010,847,Valor do rendimento nominal médio mensal dos domicílios particulares permanentes,95826,Total,2932,Total,13233,Total,104566,Total,38,Reais,1971.32
3,Unidade da Federação,17,Tocantins,2010,2010,848,Valor do rendimento nominal mediano mensal dos domicílios particulares permanentes,95826,Total,2932,Total,13233,Total,104566,Total,38,Reais,1020.00
3,Unidade da Federação,21,Maranhão,2010,2010,847,Valor do rendimento nominal médio mensal dos domicílios particulares permanentes,95826,Total,2932,Total,13233,Total,104566,Total,38,Reais,1380.37
3,Unidade da Federação,21,Maranhão,2010,2010,848,Valor do rendimento nominal mediano mensal dos domicílios particulares permanentes,95826,Total,2932,Total,13233,Total,104566,Total,38,Reais,734.00
3,Unidade da Federação,22,Piauí,2010,2010,847,Valor do rendimento nominal médio mensal dos domicílios particulares permanentes,95826,Total,2932,Total,13233,Total,104566,Total,38,Reais,1493.10
3,Unidade da Federação,22,Piauí,2010,2010,848,Valor do rendimento nominal mediano mensal dos domicílios particulares permanentes,95826,Total,2932,Total,13233,Total,104566,Total,38,Reais,810.00
3,Unidade da Federação,23,Ceará,2010,2010,847,Valor do rendimento nominal médio mensal dos domicílios particulares permanentes,95826,Total,2932,Total,13233,Total,104566,Total,38,Reais,1584.25
3,Unidade da Federação,23,Ceará,2010,2010,848,Valor do rendimento nominal mediano mensal dos domicílios particulares permanentes,95826,Total,2932,Total,13233,Total,104566,Total,38,Reais,900.00
3,Unidade da Federação,24,Rio Grande do Norte,2010,2010,847,Valor do rendimento nominal médio mensal dos domicílios particulares permanentes,95826,Total,2932,Total,13233,Total,104566,Total,38,Reais,1862.26
3,Unidade da Federação,24,Rio Grande do Norte,2010,2010,848,Valor do rendimento nominal mediano mensal dos domicílios particulares permanentes,95826,Total,2932,Total,13233,Total,104566,Total,38,Reais,1020.00
3,Unidade da Federação,25,Paraíba,2010,2010,847,Valor do rendimento nominal médio mensal dos domicílios particulares permanentes,95826,Total,2932,Total,13233,Total,104566,Total,38,Reais,1602.14
3,Unidade da Federação,25,Paraíba,2010,2010,848,Valor do rendimento nominal mediano mensal dos domicílios particulares permanentes,95826,Total,2932,Total,13233,Total,104566,Total,38,Reais,900.00
3,Unidade da Federação,26,Pernambuco,2010,2010,847,Valor do rendimento nominal médio mensal dos domicílios particulares permanentes,95826,Total,2932,Total,13233,Total,104566,Total,38,Reais,1746.88
3,Unidade da Federação,26,Pernambuco,2010,2010,848,Valor do rendimento nominal mediano mensal dos domicílios particulares permanentes,95826,Total,2932,Total,13233,Total,104566,Total,38,Reais,910.00
3,Unidade da Federação,27,Alagoas,2010,2010,847,Valor do rendimento nominal médio mensal dos domicílios particulares permanentes,95826,Total,2932,Total,13233,Total,104566,Total,38,Reais,1545.92
3,Unidade da Federação,27,Alagoas,2010,2010,848,Valor do rendimento nominal mediano mensal dos domicílios particulares permanentes,95826,Total,2932,Total,13233,Total,104566,Total,38,Reais,800.00
3,Unidade da Federação,28,Sergipe,2010,2010,847,Valor do rendimento nominal médio mensal dos domicílios particulares permanentes,95826,Total,2932,Total,13233,Total,104566,Total,38,Reais,1765.67
3,Unidade da Federação,28,Sergipe,2010,2010,848,Valor do rendimento nominal mediano mensal dos domicílios particulares permanentes,95826,Total,2932,Total,13233,Total,104566,Total,38,Reais,910.00
3,Unidade da Federação,29,Bahia,2010,2010,847,Valor do rendimento nominal médio mensal dos domicílios particulares permanentes,95826,Total,2932,Total,13233,Total,104566,Total,38,Reais,1637.73
3,Unidade da Federação,29,Bahia,2010,2010,848,Valor do rendimento nominal mediano mensal dos domicílios particulares permanentes,95826,Total,2932,Total,13233,Total,104566,Total,38,Reais,900.00
3,Unidade da Federação,31,Minas Gerais,2010,2010,847,Valor do rendimento nominal médio mensal dos domicílios particulares permanentes,95826,Total,2932,Total,13233,Total,104566,Total,38,Reais,2368.65
3,Unidade da Federação,31,Minas Gerais,2010,2010,848,Valor do rendimento nominal mediano mensal dos domicílios particulares permanentes,95826,Total,2932,Total,13233,Total,104566,Total,38,Reais,1350.00
3,Unidade da Federação,32,Espírito Santo,2010,2010,847,Valor do rendimento nominal médio mensal dos domicílios particulares permanentes,95826,Total,2932,Total,13233,Total,104566,Total,38,Reais,2522.48
3,Unidade da Federação,32,Espírito Santo,2010,2010,848,Valor do rendimento nominal mediano mensal dos domicílios particulares permanentes,95826,Total,2932,Total,13233,Total,104566,Total,38,Reais,1410.00
3,Unidade da Federação,33,Rio de Janeiro,2010,2010,847,Valor do rendimento nominal médio mensal dos domicílios particulares permanentes,95826,Total,2932,Total,13233,Total,104566,Total,38,Reais,3011.11
3,Unidade da Federação,33,Rio de Janeiro,2010,2010,848,Valor do rendimento nominal mediano mensal dos domicílios particulares permanentes,95826,Total,2932,Total,13233,Total,104566,Total,38,Reais,1530.00
3,Unidade da Federação,35,São Paulo,2010,2010,847,Valor do rendimento nominal médio mensal dos domicílios particulares permanentes,95826,Total,2932,Total,13233,Total,104566,Total,38,Reais,3308.97
3,Unidade da Federação,35,São Paulo,2010,2010,848,Valor do rendimento nominal mediano mensal dos domicílios particulares permanentes,95826,Total,2932,Total,13233,Total,104566,Total,38,Reais,1900.00
3,Unidade da Federação,41,Paraná,2010,2010,847,Valor do rendimento nominal médio mensal dos domicílios particulares permanentes,95826,Total,2932,Total,13233,Total,104566,Total,38,Reais,2739.76
3,Unidade da Federação,41,Paraná,2010,2010,848,Valor do rendimento nominal mediano mensal dos domicílios particulares permanentes,95826,Total,2932,Total,13233,Total,104566,Total,38,Reais,1600.00
3,Unidade da Federação,42,Santa Catarina,2010,2010,847,Valor do rendimento nominal médio mensal dos domicílios particulares permanentes,95826,Total,2932,Total,13233,Total,104566,Total,38,Reais,3015.10
3,Unidade da Federação,42,Santa Catarina,2010,2010,848,Valor do rendimento nominal mediano mensal dos domicílios particulares permanentes,95826,Total,2932,Total,13233,Total,104566,Total,38,Reais,2000.00
3,Unidade da Federação,43,Rio Grande do Sul,2010,2010,847,Valor do rendimento nominal médio mensal dos domicílios particulares permanentes,95826,Total,2932,Total,13233,Total,104566,Total,38,Reais,2773.96
3,Unidade da Federação,43,Rio Grande do Sul,2010,2010,848,Valor do rendimento nominal mediano mensal dos domicílios particulares permanentes,95826,Total,2932,Total,13233,Total,104566,Total,38,Reais,1620.00
3,Unidade da Federação,50,Mato Grosso do Sul,2010,2010,847,Valor do rendimento nominal médio mensal dos domicílios particulares permanentes,95826,Total,2932,Total,13233,Total,104566,Total,38,Reais,2504.72
3,Unidade da Federação,50,Mato Grosso do Sul,2010,2010,848,Valor do rendimento nominal mediano mensal dos domicílios particulares permanentes,95826,Total,2932,Total,13233,Total,104566,Total,38,Reais,1420.00
3,Unidade da Federação,51,Mato Grosso,2010,2010,847,Valor do rendimento nominal médio mensal dos domicílios particulares permanentes,95826,Total,2932,Total,13233,Total,104566,Total,38,Reais,2418.24
3,Unidade da Federação,51,Mato Grosso,2010,2010,848,Valor do rendimento nominal mediano mensal dos domicílios particulares permanentes,95826,Total,2932,Total,13233,Total,104566,Total,38,Reais,1415.00
3,Unidade da Federação,52,Goiás,2010,2010,847,Valor do rendimento nominal médio mensal dos domicílios particulares permanentes,95826,Total,2932,Total,13233,Total,104566,Total,38,Reais,2482.99
3,Unidade da Federação,52,Goiás,2010,2010,848,Valor do rendimento nominal mediano mensal dos domicílios particulares permanentes,95826,Total,2932,Total,13233,Total,104566,Total,38,Reais,1420.00
3,Unidade da Federação,53,Distrito Federal,2010,2010,847,Valor do rendimento nominal médio mensal dos domicílios particulares permanentes,95826,Total,2932,Total,13233,Total,104566,Total,38,Reais,5473.24
3,Unidade da Federação,53,Distrito Federal,2010,2010,848,Valor do rendimento nominal mediano mensal dos domicílios particulares permanentes,95826,Total,2932,Total,13233,Total,104566,Total,38,Reais,2470.00
