NC,NN,D1C,D1N,D2C,D2N,D3C,D3N,D4C,D4N,D5C,D5N,D6C,D6N,MC,MN,V
Nível Territorial (Código),Nível Territorial,Unidade da Federação (Código),Unidade da Federação,Ano (Código),Ano,Variável (Código),Variável,Situação do domicílio (Código),Situação do domicílio,Número de cômodos (Código),Número de cômodos,Alguns bens duráveis existentes no domicílio (Código),Alguns bens duráveis existentes no domicílio,Unidade de Medida (Código),Unidade de Medida,Valor
3,Unidade da Federação,11,Rondônia,2010,2010,884,Domicílios particulares permanentes com rendimento domiciliar,6795,Total,95810,Total,114527,Total,1020,Unidades,432961
3,Unidade da Federação,11,Rondônia,2010,2010,1000884,Domicílios particulares permanentes com rendimento domiciliar - percentual do total geral,6795,Total,95810,Total,114527,Total,2,Percentual,100.00
3,Unidade da Federação,11,Rondônia,2010,2010,1883,Moradores em domicílios particulares permanentes com rendimento domiciliar,6795,Total,95810,Total,114527,Total,45,Pessoas,1475168
3,Unidade da Federação,11,Rondônia,2010,2010,1001883,Moradores em domicílios particulares permanentes com rendimento domiciliar - percentual do total geral,6795,Total,95810,Total,114527,Total,2,Percentual,100.00
3,Unidade da Federação,11,Rondônia,2010,2010,878,Valor do rendimento nominal médio mensal dos domicílios particulares permanentes com rendimento domiciliar,6795,Total,95810,Total,114527,Total,38,Reais,2311.50
3,Unidade da Federação,11,Rondônia,2010,2010,879,Valor do rendimento nominal mediano mensal dos domicílios particulares permanentes com rendimento domicíliar,6795,Total,95810,Total,114527,Total,38,Reais,1332.00
3,Unidade da Federação,12,Acre,2010,2010,884,Domicílios particulares permanentes com rendimento domiciliar,6795,Total,95810,Total,114527,Total,1020,Unidades,173259
3,Unidade da Federação,12,Acre,2010,2010,1000884,Domicílios particulares permanentes com rendimento domiciliar - percentual do total geral,6795,Total,95810,Total,114527,Total,2,Percentual,100.00
3,Unidade da Federação,12,Acre,2010,2010,1883,Moradores em domicílios particulares permanentes com rendimento domiciliar,6795,Total,95810,Total,114527,Total,45,Pessoas,668429
3,Unidade da Federação,12,Acre,2010,2010,1001883,Moradores em domicílios particulares permanentes com rendimento domiciliar - percentual do total geral,6795,Total,95810,Total,114527,Total,2,Percentual,100.00
3,Unidade da Federação,12,Acre,2010,2010,878,Valor do rendimento nominal médio mensal dos domicílios particulares permanentes com rendimento domiciliar,6795,Total,95810,Total,114527,Total,38,Reais,2091.89
3,Unidade da Federação,12,Acre,2010,2010,879,Valor do rendimento nominal mediano mensal dos domicílios particulares permanentes com rendimento domicíliar,6795,Total,95810,Total,114527,Total,38,Reais,1082.00
3,Unidade da Federação,13,Amazonas,2010,2010,884,Domicílios particulares permanentes com rendimento domiciliar,6795,Total,95810,Total,114527,Total,1020,Unidades,723520
3,Unidade da Federação,13,Amazonas,2010,2010,1000884,Domicílios particulares permanentes com rendimento domiciliar - percentual do total geral,6795,Total,95810,Total,114527,Total,2,Percentual,100.00
3,Unidade da Federação,13,Amazonas,2010,2010,1883,Moradores em domicílios particulares permanentes com rendimento domiciliar,6795,Total,95810,Total,114527,Total,45,Pessoas,3169477
3,Unidade da Federação,13,Amazonas,2010,2010,1001883,Moradores em domicílios particulares permanentes com rendimento domiciliar - percentual do total geral,6795,Total,95810,Total,114527,Total,2,Percentual,100.00
3,Unidade da Federação,13,Amazonas,2010,2010,878,Valor do rendimento nominal médio mensal dos domicílios particulares permanentes com rendimento domiciliar,6795,Total,95810,Total,114527,Total,38,Reais,2431.26
3,Unidade da Federação,13,Amazonas,2010,2010,879,Valor do rendimento nominal mediano mensal dos domicílios particulares permanentes com rendimento domicíliar,6795,Total,95810,Total,114527,Total,38,Reais,1200.00
3,Unidade da Federação,14,Roraima,2010,2010,884,Domicílios particulares permanentes com rendimento domiciliar,6795,Total,95810,Total,114527,Total,1020,Unidades,105041
3,Unidade da Federação,14,Roraima,2010,2010,1000884,Domicílios particulares permanentes com rendimento domiciliar - percentual do total geral,6795,Total,95810,Total,114527,Total,2,Percentual,100.00
3,Unidade da Federação,14,Roraima,2010,2010,1883,Moradores em domicílios particulares permanentes com rendimento domiciliar,6795,Total,95810,Total,114527,Total,45,Pessoas,408740
3,Unidade da Federação,14,Roraima,2010,2010,1001883,Moradores em domicílios particulares permanentes com rendimento domiciliar - percentual do total geral,6795,Total,95810,Total,114527,Total,2,Percentual,100.00
3,Unidade da Federação,14,Roraima,2010,2010,878,Valor do rendimento nominal médio mensal dos domicílios particulares permanentes com rendimento domiciliar,6795,Total,95810,Total,114527,Total,38,Reais,2455.66
3,Unidade da Federação,14,Roraima,2010,2010,879,Valor do rendimento nominal mediano mensal dos domicílios particulares permanentes com rendimento domicíliar,6795,Total,95810,Total,114527,Total,38,Reais,1262.00
3,Unidade da Federação,15,Pará,2010,2010,884,Domicílios particulares permanentes com rendimento domiciliar,6795,Total,95810,Total,114527,Total,1020,Unidades,1720524
3,Unidade da Federação,15,Pará,2010,2010,1000884,Domicílios particulares permanentes com rendimento domiciliar - percentual do total geral,6795,Total,95810,Total,114527,Total,2,Percentual,100.00
3,Unidade da Federação,15,Pará,2010,2010,1883,Moradores em domicílios particulares permanentes com rendimento domiciliar,6795,Total,95810,Total,114527,Total,45,Pessoas,7061360
3,Unidade da Federação,15,Pará,2010,2010,1001883,Moradores em domicílios particulares permanentes com rendimento domiciliar - percentual do total geral,6795,Total,95810,Total,114527,Total,2,Percentual,100.00
3,Unidade da Federação,15,Pará,2010,2010,878,Valor do rendimento nominal médio mensal dos domicílios particulares permanentes com rendimento domiciliar,6795,Total,95810,Total,114527,Total,38,Reais,1878.66
3,Unidade da Federação,15,Pará,2010,2010,879,Valor do rendimento nominal mediano mensal dos domicílios particulares permanentes com rendimento domicíliar,6795,Total,95810,Total,114527,Total,38,Reais,1020.00
3,Unidade da Federação,16,Amapá,2010,2010,884,Domicílios particulares permanentes com rendimento domiciliar,6795,Total,95810,Total,114527,Total,1020,Unidades,146374
3,Unidade da Federação,16,Amapá,2010,2010,1000884,Domicílios particulares permanentes com rendimento domiciliar - percentual do total geral,6795,Total,95810,Total,114527,Total,2,Percentual,100.00
3,Unidade da Federação,16,Amapá,2010,2010,1883,Moradores em domicílios particulares permanentes com rendimento domiciliar,6795,Total,95810,Total,114527,Total,45,Pessoas,631166
3,Unidade da Federação,16,Amapá,2010,2010,1001883,Moradores em domicílios particulares permanentes com rendimento domiciliar - percentual do total geral,6795,Total,95810,Total,114527,Total,2,Percentual,100.00
3,Unidade da Federação,16,Amapá,2010,2010,878,Valor do rendimento nominal médio mensal dos domicílios particulares permanentes com rendimento domiciliar,6795,Total,95810,Total,114527,Total,38,Reais,2610.93
3,Unidade da Federação,16,Amapá,2010,2010,879,Valor do rendimento nominal mediano mensal dos domicílios particulares permanentes com rendimento domicíliar,6795,Total,95810,Total,114527,Total,38,Reais,1400.00
3,Unidade da Federação,17,Tocantins,2010,2010,884,Domicílios particulares permanentes com rendimento domiciliar,6795,Total,95810,Total,114527,Total,1020,Unidades,377245
3,Unidade da Federação,17,Tocantins,2010,2010,1000884,Domicílios particulares permanentes com rendimento domiciliar - percentual do total geral,6795,Total,95810,Total,114527,Total,2,Percentual,100.00
3,Unidade da Federação,17,Tocantins,2010,2010,1883,Moradores em domicílios particulares permanentes com rendimento domiciliar,6795,Total,95810,Total,114527,Total,45,Pessoas,1322224
3,Unidade da Federação,17,Tocantins,2010,2010,1001883,Moradores em domicílios particulares permanentes com rendimento domiciliar - percentual do total geral,6795,Total,95810,Total,114527,Total,2,Percentual,100.00
3,Unidade da Federação,17,Tocantins,2010,2010,878,Valor do rendimento nominal médio mensal dos domicílios particulares permanentes com rendimento domiciliar,6795,Total,95810,Total,114527,Total,38,Reais,2081.24
3,Unidade da Federação,17,Tocantins,2010,2010,879,Valor do rendimento nominal mediano mensal dos domicílios particulares permanentes com rendimento domicíliar,6795,Total,95810,Total,114527,Total,38,Reais,1050.00
3,Unidade da Federação,21,Maranhão,2010,2010,884,Domicílios particulares permanentes com rendimento domiciliar,6795,Total,95810,Total,114527,Total,1020,Unidades,1538912
3,Unidade da Federação,21,Maranhão,2010,2010,1000884,Domicílios particulares permanentes com rendimento domiciliar - percentual do total geral,6795,Total,95810,Total,114527,Total,2,Percentual,100.00
3,Unidade da Federação,21,Maranhão,2010,2010,1883,Moradores em domicílios particulares permanentes com rendimento domiciliar,6795,Total,95810,Total,114527,Total,45,Pessoas,6194744
3,Unidade da Federação,21,Maranhão,2010,2010,1001883,Moradores em domicílios particulares permanentes com rendimento domiciliar - percentual do total geral,6795,Total,95810,Total,114527,Total,2,Percentual,100.00
3,Unidade da Federação,21,Maranhão,2010,2010,878,Valor do rendimento nominal médio mensal dos domicílios particulares permanentes com rendimento domiciliar,6795,Total,95810,Total,114527,Total,38,Reais,1483.57
3,Unidade da Federação,21,Maranhão,2010,2010,879,Valor do rendimento nominal mediano mensal dos domicílios particulares permanentes com rendimento domicíliar,6795,Total,95810,Total,114527,Total,38,Reais,820.00
3,Unidade da Federação,22,Piauí,2010,2010,884,Domicílios particulares permanentes com rendimento domiciliar,6795,Total,95810,Total,114527,Total,1020,Unidades,812134
3,Unidade da Federação,22,Piauí,2010,2010,1000884,Domicílios particulares permanentes com rendimento domiciliar - percentual do total geral,6795,Total,95810,Total,114527,Total,2,Percentual,100.00
3,Unidade da Federação,22,Piauí,2010,2010,1883,Moradores em domicílios particulares permanentes com rendimento domiciliar,6795,Total,95810,Total,114527,Total,45,Pessoas,3013670
3,Unidade da Federação,22,Piauí,2010,2010,1001883,Moradores em domicílios particulares permanentes com rendimento domiciliar - percentual do total geral,6795,Total,95810,Total,114527,Total,2,Percentual,100.00
3,Unidade da Federação,22,Piauí,2010,2010,878,Valor do rendimento nominal médio mensal dos domicílios particulares permanentes com rendimento domiciliar,6795,Total,95810,Total,114527,Total,38,Reais,1559.79
3,Unidade da Federação,22,Piauí,2010,2010,879,Valor do rendimento nominal mediano mensal dos domicílios particulares permanentes com rendimento domicíliar,6795,Total,95810,Total,114527,Total,38,Reais,900.00
3,Unidade da Federação,23,Ceará,2010,2010,884,Domicílios particulares permanentes com rendimento domiciliar,6795,Total,95810,Total,114527,Total,1020,Unidades,2261988
3,Unidade da Federação,23,Ceará,2010,2010,1000884,Domicílios particulares permanentes com rendimento domiciliar - percentual do total geral,6795,Total,95810,Total,114527,Total,2,Percentual,100.00
3,Unidade da Federação,23,Ceará,2010,2010,1883,Moradores em domicílios particulares permanentes com rendimento domiciliar,6795,Total,95810,Total,114527,Total,45,Pessoas,8146285
3,Unidade da Federação,23,Ceará,2010,2010,1001883,Moradores em domicílios particulares permanentes com rendimento domiciliar - percentual do total geral,6795,Total,95810,Total,114527,Total,2,Percentual,100.00
3,Unidade da Federação,23,Ceará,2010,2010,878,Valor do rendimento nominal médio mensal dos domicílios particulares permanentes com rendimento domiciliar,6795,Total,95810,Total,114527,Total,38,Reais,1656.46
3,Unidade da Federação,23,Ceará,2010,2010,879,Valor do rendimento nominal mediano mensal dos domicílios particulares permanentes com rendimento domicíliar,6795,Total,95810,Total,114527,Total,38,Reais,990.00
3,Unidade da Federação,24,Rio Grande do Norte,2010,2010,884,Domicílios particulares permanentes com rendimento domiciliar,6795,Total,95810,Total,114527,Total,1020,Unidades,865556
3,Unidade da Federação,24,Rio Grande do Norte,2010,2010,1000884,Domicílios particulares permanentes com rendimento domiciliar - percentual do total geral,6795,Total,95810,Total,114527,Total,2,Percentual,100.00
3,Unidade da Federação,24,Rio Grande do Norte,2010,2010,1883,Moradores em domicílios particulares permanentes com rendimento domiciliar,6795,Total,95810,Total,114527,Total,45,Pessoas,3066745
3,Unidade da Federação,24,Rio Grande do Norte,2010,2010,1001883,Moradores em domicílios particulares permanentes com rendimento domiciliar - percentual do total geral,6795,Total,95810,Total,114527,Total,2,Percentual,100.00
3,Unidade da Federação,24,Rio Grande do Norte,2010,2010,878,Valor do rendimento nominal médio mensal dos domicílios particulares permanentes com rendimento domiciliar,6795,Total,95810,Total,114527,Total,38,Reais,1935.45
3,Unidade da Federação,24,Rio Grande do Norte,2010,2010,879,Valor do rendimento nominal mediano mensal dos domicílios particulares permanentes com rendimento domicíliar,6795,Total,95810,Total,114527,Total,38,Reais,1020.00
3,Unidade da Federação,25,Paraíba,2010,2010,884,Domicílios particulares permanentes com rendimento domiciliar,6795,Total,95810,Total,114527,Total,1020,Unidades,1036113
3,Unidade da Federação,25,Paraíba,2010,2010,1000884,Domicílios particulares permanentes com rendimento domiciliar - percentual do total geral,6795,Total,95810,Total,114527,Total,2,Percentual,100.00
3,Unidade da Federação,25,Paraíba,2010,2010,1883,Moradores em domicílios particulares permanentes com rendimento domiciliar,6795,Total,95810,Total,114527,Total,45,Pessoas,3639221
3,Unidade da Federação,25,Paraíba,2010,2010,1001883,Moradores em domicílios particulares permanentes com rendimento domiciliar - percentual do total geral,6795,Total,95810,Total,114527,Total,2,Percentual,100.00
3,Unidade da Federação,25,Paraíba,2010,2010,878,Valor do rendimento nominal médio mensal dos domicílios particulares permanentes com rendimento domiciliar,6795,Total,95810,Total,114527,Total,38,Reais,1670.82
3,Unidade da Federação,25,Paraíba,2010,2010,879,Valor do rendimento nominal mediano mensal dos domicílios particulares permanentes com rendimento domicíliar,6795,Total,95810,Total,114527,Total,38,Reais,990.00
3,Unidade da Federação,26,Pernambuco,2010,2010,884,Domicílios particulares permanentes com rendimento domiciliar,6795,Total,95810,Total,114527,Total,1020,Unidades,2416374
3,Unidade da Federação,26,Pernambuco,2010,2010,1000884,Domicílios particulares permanentes com rendimento domiciliar - percentual do total geral,6795,Total,95810,Total,114527,Total,2,Percentual,100.00
3,Unidade da Federação,26,Pernambuco,2010,2010,1883,Moradores em domicílios particulares permanentes com rendimento domiciliar,6795,Total,95810,Total,114527,Total,45,Pessoas,8404589
3,Unidade da Federação,26,Pernambuco,2010,2010,1001883,Moradores em domicílios particulares permanentes com rendimento domiciliar - percentual do total geral,6795,Total,95810,Total,114527,Total,2,Percentual,100.00
3,Unidade da Federação,26,Pernambuco,2010,2010,878,Valor do rendimento nominal médio mensal dos domicílios particulares permanentes com rendimento domiciliar,6795,Total,95810,Total,114527,Total,38,Reais,1841.36
3,Unidade da Federação,26,Pernambuco,2010,2010,879,Valor do rendimento nominal mediano mensal dos domicílios particulares permanentes com rendimento domicíliar,6795,Total,95810,Total,114527,Total,38,Reais,1000.00
3,Unidade da Federação,27,Alagoas,2010,2010,884,Domicílios particulares permanentes com rendimento domiciliar,6795,Total,95810,Total,114527,Total,1020,Unidades,801396
3,Unidade da Federação,27,Alagoas,2010,2010,1000884,Domicílios particulares permanentes com rendimento domiciliar - percentual do total geral,6795,Total,95810,Total,114527,Total,2,Percentual,100.00
3,Unidade da Federação,27,Alagoas,2010,2010,1883,Moradores em domicílios particulares permanentes com rendimento domiciliar,6795,Total,95810,Total,114527,Total,45,Pessoas,2983438
3,Unidade da Federação,27,Alagoas,2010,2010,1001883,Moradores em domicílios particulares permanentes com rendimento domiciliar - percentual do total geral,6795,Total,95810,Total,114527,Total,2,Percentual,100.00
3,Unidade da Federação,27,Alagoas,2010,2010,878,Valor do rendimento nominal médio mensal dos domicílios particulares permanentes com rendimento domiciliar,6795,Total,95810,Total,114527,Total,38,Reais,1625.80
3,Unidade da Federação,27,Alagoas,2010,2010,879,Valor do rendimento nominal mediano mensal dos domicílios particulares permanentes com rendimento domicíliar,6795,Total,95810,Total,114527,Total,38,Reais,860.00
3,Unidade da Federação,28,Sergipe,2010,2010,884,Domicílios particulares permanentes com rendimento domiciliar,6795,Total,95810,Total,114527,Total,1020,Unidades,564102
3,Unidade da Federação,28,Sergipe,2010,2010,1000884,Domicílios particulares permanentes com rendimento domiciliar - percentual do total geral,6795,Total,95810,Total,114527,Total,2,Percentual,100.00
3,Unidade da Federação,28,Sergipe,2010,2010,1883,Moradores em domicílios particulares permanentes com rendimento domiciliar,6795,Total,95810,Total,114527,Total,45,Pessoas,1987959
3,Unidade da Federação,28,Sergipe,2010,2010,1001883,Moradores em domicílios particulares permanentes com rendimento domiciliar - percentual do total geral,6795,Total,95810,Total,114527,Total,2,Percentual,100.00
3,Unidade da Federação,28,Sergipe,2010,2010,878,Valor do rendimento nominal médio mensal dos domicílios particulares permanentes com rendimento domiciliar,6795,Total,95810,Total,114527,Total,38,Reais,1851.11
3,Unidade da Federação,28,Sergipe,2010,2010,879,Valor do rendimento nominal mediano mensal dos domicílios particulares permanentes com rendimento domicíliar,6795,Total,95810,Total,114527,Total,38,Reais,1000.00
3,Unidade da Federação,29,Bahia,2010,2010,884,Domicílios particulares permanentes com rendimento domiciliar,6795,Total,95810,Total,114527,Total,1020,Unidades,3878414
3,Unidade da Federação,29,Bahia,2010,2010,1000884,Domicílios particulares permanentes com rendimento domiciliar - percentual do total geral,6795,Total,95810,Total,114527,Total,2,Percentual,100.00
3,Unidade da Federação,29,Bahia,2010,2010,1883,Moradores em domicílios particulares permanentes com rendimento domiciliar,6795,Total,95810,Total,114527,Total,45,Pessoas,13412462
3,Unidade da Federação,29,Bahia,2010,2010,1001883,Moradores em domicílios particulares permanentes com rendimento domiciliar - percentual do total geral,6795,Total,95810,Total,114527,Total,2,Percentual,100.00
3,Unidade da Federação,29,Bahia,2010,2010,878,Valor do rendimento nominal médio mensal dos domicílios particulares permanentes com rendimento domiciliar,6795,Total,95810,Total,114527,Total,38,Reais,1728.60
3,Unidade da Federação,29,Bahia,2010,2010,879,Valor do rendimento nominal mediano mensal dos domicílios particulares permanentes com rendimento domicíliar,6795,Total,95810,Total,114527,Total,38,Reais,1000.00
3,Unidade da Federação,31,Minas Gerais,2010,2010,884,Domicílios particulares permanentes com rendimento domiciliar,6795,Total,95810,Total,114527,Total,1020,Unidades,5845708
3,Unidade da Federação,31,Minas Gerais,2010,2010,1000884,Domicílios particulares permanentes com rendimento domiciliar - percentual do total geral,6795,Total,95810,Total,114527,Total,2,Percentual,100.00
3,Unidade da Federação,31,Minas Gerais,2010,2010,1883,Moradores em domicílios particulares permanentes com rendimento domiciliar,6795,Total,95810,Total,114527,Total,45,Pessoas,19049516
3,Unidade da Federação,31,Minas Gerais,2010,2010,1001883,Moradores em domicílios particulares permanentes com rendimento domiciliar - percentual do total geral,6795,Total,95810,Total,114527,Total,2,Percentual,100.00
3,Unidade da Federação,31,Minas Gerais,2010,2010,878,Valor do rendimento nominal médio mensal dos domicílios particulares permanentes com rendimento domiciliar,6795,Total,95810,Total,114527,Total,38,Reais,2442.30
3,Unidade da Federação,31,Minas Gerais,2010,2010,879,Valor do rendimento nominal mediano mensal dos domicílios particulares permanentes com rendimento domicíliar,6795,Total,95810,Total,114527,Total,38,Reais,1410.00
3,Unidade da Federação,32,Espírito Santo,2010,2010,884,Domicílios particulares permanentes com rendimento domiciliar,6795,Total,95810,Total,114527,Total,1020,Unidades,1060376
3,Unidade da Federação,32,Espírito Santo,2010,2010,1000884,Domicílios particulares permanentes com rendimento domiciliar - percentual do total geral,6795,Total,95810,Total,114527,Total,2,Percentual,100.00
3,Unidade da Federação,32,Espírito Santo,2010,2010,1883,Moradores em domicílios particulares permanentes com rendimento domiciliar,6795,Total,95810,Total,114527,Total,45,Pessoas,3389756
3,Unidade da Federação,32,Espírito Santo,2010,2010,1001883,Moradores em domicílios particulares permanentes com rendimento domiciliar - percentual do total geral,6795,Total,95810,Total,114527,Total,2,Percentual,100.00
3,Unidade da Federação,32,Espírito Santo,2010,2010,878,Valor do rendimento nominal médio mensal dos domicílios particulares permanentes com rendimento domiciliar,6795,Total,95810,Total,114527,Total,38,Reais,2619.34
3,Unidade da Federação,32,Espírito Santo,2010,2010,879,Valor do rendimento nominal mediano mensal dos domicílios particulares permanentes com rendimento domicíliar,6795,Total,95810,Total,114527,Total,38,Reais,1500.00
3,Unidade da Federação,33,Rio de Janeiro,2010,2010,884,Domicílios particulares permanentes com rendimento domiciliar,6795,Total,95810,Total,114527,Total,1020,Unidades,4956462
3,Unidade da Federação,33,Rio de Janeiro,2010,2010,1000884,Domicílios particulares permanentes com rendimento domiciliar - percentual do total geral,6795,Total,95810,Total,114527,Total,2,Percentual,100.00
3,Unidade da Federação,33,Rio de Janeiro,2010,2010,1883,Moradores em domicílios particulares permanentes com rendimento domiciliar,6795,Total,95810,Total,114527,Total,45,Pessoas,15172437
3,Unidade da Federação,33,Rio de Janeiro,2010,2010,1001883,Moradores em domicílios particulares permanentes com rendimento domiciliar - percentual do total geral,6795,Total,95810,Total,114527,Total,2,Percentual,100.00
3,Unidade da Federação,33,Rio de Janeiro,2010,2010,878,Valor do rendimento nominal médio mensal dos domicílios particulares permanentes com rendimento domiciliar,6795,Total,95810,Total,114527,Total,38,Reais,3185.34
3,Unidade da Federação,33,Rio de Janeiro,2010,2010,879,Valor do rendimento nominal mediano mensal dos domicílios particulares permanentes com rendimento domicíliar,6795,Total,95810,Total,114527,Total,38,Reais,1610.00
3,Unidade da Federação,35,São Paulo,2010,2010,884,Domicílios particulares permanentes com rendimento domiciliar,6795,Total,95810,Total,114527,Total,1020,Unidades,12252322
3,Unidade da Federação,35,São Paulo,2010,2010,1000884,Domicílios particulares permanentes com rendimento domiciliar - percentual do total geral,6795,Total,95810,Total,114527,Total,2,Percentual,100.00
3,Unidade da Federação,35,São Paulo,2010,2010,1883,Moradores em domicílios particulares permanentes com rendimento domiciliar,6795,Total,95810,Total,114527,Total,45,Pessoas,39415618
3,Unidade da Federação,35,São Paulo,2010,2010,1001883,Moradores em domicílios particulares permanentes com rendimento domiciliar - percentual do total geral,6795,Total,95810,Total,114527,Total,2,Percentual,100.00
3,Unidade da Federação,35,São Paulo,2010,2010,878,Valor do rendimento nominal médio mensal dos domicílios particulares permanentes com rendimento domiciliar,6795,Total,95810,Total,114527,Total,38,Reais,3463.76
3,Unidade da Federação,35,São Paulo,2010,2010,879,Valor do rendimento nominal mediano mensal dos domicílios particulares permanentes com rendimento domicíliar,6795,Total,95810,Total,114527,Total,38,Reais,2000.00
3,Unidade da Federação,41,Paraná,2010,2010,884,Domicílios particulares permanentes com rendimento domiciliar,6795,Total,95810,Total,114527,Total,1020,Unidades,3209408
3,Unidade da Federação,41,Paraná,2010,2010,1000884,Domicílios particulares permanentes com rendimento domiciliar - percentual do total geral,6795,Total,95810,Total,114527,Total,2,Percentual,100.00
3,Unidade da Federação,41,Paraná,2010,2010,1883,Moradores em domicílios particulares permanentes com rendimento domiciliar,6795,Total,95810,Total,114527,Total,45,Pessoas,10163250
3,Unidade da Federação,41,Paraná,2010,2010,1001883,Moradores em domicílios particulares permanentes com rendimento domiciliar - percentual do total geral,6795,Total,95810,Total,114527,Total,2,Percentual,100.00
3,Unidade da Federação,41,Paraná,2010,2010,878,Valor do rendimento nominal médio mensal dos domicílios particulares permanentes com rendimento domiciliar,6795,Total,95810,Total,114527,Total,38,Reais,2815.65
3,Unidade da Federação,41,Paraná,2010,2010,879,Valor do rendimento nominal mediano mensal dos domicílios particulares permanentes com rendimento domicíliar,6795,Total,95810,Total,114527,Total,38,Reais,1660.00
3,Unidade da Federação,42,Santa Catarina,2010,2010,884,Domicílios particulares permanentes com rendimento domiciliar,6795,Total,95810,Total,114527,Total,1020,Unidades,1948998
3,Unidade da Federação,42,Santa Catarina,2010,2010,1000884,Domicílios particulares permanentes com rendimento domiciliar - percentual do total geral,6795,Total,95810,Total,114527,Total,2,Percentual,100.00
3,Unidade da Federação,42,Santa Catarina,2010,2010,1883,Moradores em domicílios particulares permanentes com rendimento domiciliar,6795,Total,95810,Total,114527,Total,45,Pessoas,6104963
3,Unidade da Federação,42,Santa Catarina,2010,2010,1001883,Moradores em domicílios particulares permanentes com rendimento domiciliar - percentual do total geral,6795,Total,95810,Total,114527,Total,2,Percentual,100.00
3,Unidade da Federação,42,Santa Catarina,2010,2010,878,Valor do rendimento nominal médio mensal dos domicílios particulares permanentes com rendimento domiciliar,6795,Total,95810,Total,114527,Total,38,Reais,3083.19
3,Unidade da Federação,42,Santa Catarina,2010,2010,879,Valor do rendimento nominal mediano mensal dos domicílios particulares permanentes com rendimento domicíliar,6795,Total,95810,Total,114527,Total,38,Reais,2010.00
3,Unidade da Federação,43,Rio Grande do Sul,2010,2010,884,Domicílios particulares permanentes com rendimento domiciliar,6795,Total,95810,Total,114527,Total,1020,Unidades,3503051
3,Unidade da Federação,43,Rio Grande do Sul,2010,2010,1000884,Domicílios particulares permanentes com rendimento domiciliar - percentual do total geral,6795,Total,95810,Total,114527,Total,2,Percentual,100.00
3,Unidade da Federação,43,Rio Grande do Sul,2010,2010,1883,Moradores em domicílios particulares permanentes com rendimento domiciliar,6795,Total,95810,Total,114527,Total,45,Pessoas,10404889
3,Unidade da Federação,43,Rio Grande do Sul,2010,2010,1001883,Moradores em domicílios particulares permanentes com rendimento domiciliar - percentual do total geral,6795,Total,95810,Total,114527,Total,2,Percentual,100.00
3,Unidade da Federação,43,Rio Grande do Sul,2010,2010,878,Valor do rendimento nominal médio mensal dos domicílios particulares permanentes com rendimento domiciliar,6795,Total,95810,Total,114527,Total,38,Reais,2850.15
3,Unidade da Federação,43,Rio Grande do Sul,2010,2010,879,Valor do rendimento nominal mediano mensal dos domicílios particulares permanentes com rendimento domicíliar,6795,Total,95810,Total,114527,Total,38,Reais,1700.00
3,Unidade da Federação,50,Mato Grosso do Sul,2010,2010,884,Domicílios particulares permanentes com rendimento domiciliar,6795,Total,95810,Total,114527,Total,1020,Unidades,736497
3,Unidade da Federação,50,Mato Grosso do Sul,2010,2010,1000884,Domicílios particulares permanentes com rendimento domiciliar - percentual do total geral,6795,Total,95810,Total,114527,Total,2,Percentual,100.00
3,Unidade da Federação,50,Mato Grosso do Sul,2010,2010,1883,Moradores em domicílios particulares permanentes com rendimento domiciliar,6795,Total,95810,Total,114527,Total,45,Pessoas,2368036
3,Unidade da Federação,50,Mato Grosso do Sul,2010,2010,1001883,Moradores em domicílios particulares permanentes com rendimento domiciliar - percentual do total geral,6795,Total,95810,Total,114527,Total,2,Percentual,100.00
3,Unidade da Federação,50,Mato Grosso do Sul,2010,2010,878,Valor do rendimento nominal médio mensal dos domicílios particulares permanentes com rendimento domiciliar,6795,Total,95810,Total,114527,Total,38,Reais,2579.98
3,Unidade da Federação,50,Mato Grosso do Sul,2010,2010,879,Valor do rendimento nominal mediano mensal dos domicílios particulares permanentes com rendimento domicíliar,6795,Total,95810,Total,114527,Total,38,Reais,1500.00
3,Unidade da Federação,51,Mato Grosso,2010,2010,884,Domicílios particulares permanentes com rendimento domiciliar,6795,Total,95810,Total,114527,Total,1020,Unidades,863325
3,Unidade da Federação,51,Mato Grosso,2010,2010,1000884,Domicílios particulares permanentes com rendimento domiciliar - percentual do total geral,6795,Total,95810,Total,114527,Total,2,Percentual,100.00
3,Unidade da Federação,51,Mato Grosso,2010,2010,1883,Moradores em domicílios particulares permanentes com rendimento domiciliar,6795,Total,95810,Total,114527,Total,45,Pessoas,2867434
3,Unidade da Federação,51,Mato Grosso,2010,2010,1001883,Moradores em domicílios particulares permanentes com rendimento domiciliar - percentual do total geral,6795,Total,95810,Total,114527,Total,2,Percentual,100.00
3,Unidade da Federação,51,Mato Grosso,2010,2010,878,Valor do rendimento nominal médio mensal dos domicílios particulares permanentes com rendimento domiciliar,6795,Total,95810,Total,114527,Total,38,Reais,2562.23
3,Unidade da Federação,51,Mato Grosso,2010,2010,879,Valor do rendimento nominal mediano mensal dos domicílios particulares permanentes com rendimento domicíliar,6795,Total,95810,Total,114527,Total,38,Reais,1500.00
3,Unidade da Federação,52,Goiás,2010,2010,884,Domicílios particulares permanentes com rendimento domiciliar,6795,Total,95810,Total,114527,Total,1020,Unidades,1807540
3,Unidade da Federação,52,Goiás,2010,2010,1000884,Domicílios particulares permanentes com rendimento domiciliar - percentual do total geral,6795,Total,95810,Total,114527,Total,2,Percentual,100.00
3,Unidade da Federação,52,Goiás,2010,2010,1883,Moradores em domicílios particulares permanentes com rendimento domiciliar,6795,Total,95810,Total,114527,Total,45,Pessoas,5771867
3,Unidade da Federação,52,Goiás,2010,2010,1001883,Moradores em domicílios particulares permanentes com rendimento domiciliar - percentual do total geral,6795,Total,95810,Total,114527,Total,2,Percentual,100.00
3,Unidade da Federação,52,Goiás,2010,2010,878,Valor do rendimento nominal médio mensal dos domicílios particulares permanentes com rendimento domiciliar,6795,Total,95810,Total,114527,Total,38,Reais,2590.00
3,Unidade da Federação,52,Goiás,2010,2010,879,Valor do rendimento nominal mediano mensal dos domicílios particulares permanentes com rendimento domicíliar,6795,Total,95810,Total,114527,Total,38,Reais,1500.00
3,Unidade da Federação,53,Distrito Federal,2010,2010,884,Domicílios particulares permanentes com rendimento domiciliar,6795,Total,95810,Total,114527,Total,1020,Unidades,748070
3,Unidade da Federação,53,Distrito Federal,2010,2010,1000884,Domicílios particulares permanentes com rendimento domiciliar - percentual do total geral,6795,Total,95810,Total,114527,Total,2,Percentual,100.00
3,Unidade da Federação,53,Distrito Federal,2010,2010,1883,Moradores em domicílios particulares permanentes com rendimento domiciliar,6795,Total,95810,Total,114527,Total,45,Pessoas,2485769
3,Unidade da Federação,53,Distrito Federal,2010,2010,1001883,Moradores em domicílios particulares permanentes com rendimento domiciliar - percentual do total geral,6795,Total,95810,Total,114527,Total,2,Percentual,100.00
3,Unidade da Federação,53,Distrito Federal,2010,2010,878,Valor do rendimento nominal médio mensal dos domicílios particulares permanentes com rendimento domiciliar,6795,Total,95810,Total,114527,Total,38,Reais,5663.23
3,Unidade da Federação,53,Distrito Federal,2010,2010,879,Valor do rendimento nominal mediano mensal dos domicílios particulares permanentes com rendimento domicíliar,6795,Total,95810,Total,114527,Total,38,Reais,2550.00
