NC,NN,D1C,D1N,D2C,D2N,D3C,D3N,D4C,D4N,D5C,D5N,D6C,D6N,MC,MN,V
Nível Territorial (Código),Nível Territorial,Unidade da Federação (Código),Unidade da Federação,Ano (Código),Ano,Variável (Código),Variável,Situação do domicílio (Código),Situação do domicílio,Número de moradores (Código),Número de moradores,Utilidades existentes (Código),Utilidades existentes,Unidade de Medida (Código),Unidade de Medida,Valor
3,Unidade da Federação,11,Rondônia,1991,1991,96,Domicílios particulares permanentes,0,Total,0,Total,0,,1020,Unidades,..
3,Unidade da Federação,12,Acre,1991,1991,96,Domicílios particulares permanentes,0,Total,0,Total,0,,1020,Unidades,..
3,Unidade da Federação,13,Amazonas,1991,1991,96,Domicílios particulares permanentes,0,Total,0,Total,0,,1020,Unidades,..
3,Unidade da Federação,14,Roraima,1991,1991,96,Domicílios particulares permanentes,0,Total,0,Total,0,,1020,Unidades,..
3,Unidade da Federação,15,Pará,1991,1991,96,Domicílios particulares permanentes,0,Total,0,Total,0,,1020,Unidades,..
3,Unidade da Federação,16,Amapá,1991,1991,96,Domicílios particulares permanentes,0,Total,0,Total,0,,1020,Unidades,..
3,Unidade da Federação,17,Tocantins,1991,1991,96,Domicílios particulares permanentes,0,Total,0,Total,0,,1020,Unidades,..
3,Unidade da Federação,21,Maranhão,1991,1991,96,Domicílios particulares permanentes,0,Total,0,Total,0,,1020,Unidades,..
3,Unidade da Federação,22,Piauí,1991,1991,96,Domicílios particulares permanentes,0,Total,0,Total,0,,1020,Unidades,..
3,Unidade da Federação,23,Ceará,1991,1991,96,Domicílios particulares permanentes,0,Total,0,Total,0,,1020,Unidades,..
3,Unidade da Federação,24,Rio Grande do Norte,1991,1991,96,Domicílios particulares permanentes,0,Total,0,Total,0,,1020,Unidades,..
3,Unidade da Federação,25,Paraíba,1991,1991,96,Domicílios particulares permanentes,0,Total,0,Total,0,,1020,Unidades,..
3,Unidade da Federação,26,Pernambuco,1991,1991,96,Domicílios particulares permanentes,0,Total,0,Total,0,,1020,Unidades,..
3,Unidade da Federação,27,Alagoas,1991,1991,96,Domicílios particulares permanentes,0,Total,0,Total,0,,1020,Unidades,..
3,Unidade da Federação,28,Sergipe,1991,1991,96,Domicílios particulares permanentes,0,Total,0,Total,0,,1020,Unidades,..
3,Unidade da Federação,29,Bahia,1991,1991,96,Domicílios particulares permanentes,0,Total,0,Total,0,,1020,Unidades,..
3,Unidade da Federação,31,Minas Gerais,1991,1991,96,Domicílios particulares permanentes,0,Total,0,Total,0,,1020,Unidades,..
3,Unidade da Federação,32,Espírito Santo,1991,1991,96,Domicílios particulares permanentes,0,Total,0,Total,0,,1020,Unidades,..
3,Unidade da Federação,33,Rio de Janeiro,1991,1991,96,Domicílios particulares permanentes,0,Total,0,Total,0,,1020,Unidades,..
3,Unidade da Federação,35,São Paulo,1991,1991,96,Domicílios particulares permanentes,0,Total,0,Total,0,,1020,Unidades,..
3,Unidade da Federação,41,Paraná,1991,1991,96,Domicílios particulares permanentes,0,Total,0,Total,0,,1020,Unidades,..
3,Unidade da Federação,42,Santa Catarina,1991,1991,96,Domicílios particulares permanentes,0,Total,0,Total,0,,1020,Unidades,..
3,Unidade da Federação,43,Rio Grande do Sul,1991,1991,96,Domicílios particulares permanentes,0,Total,0,Total,0,,1020,Unidades,..
3,Unidade da Federação,50,Mato Grosso do Sul,1991,1991,96,Domicílios particulares permanentes,0,Total,0,Total,0,,1020,Unidades,..
3,Unidade da Federação,51,Mato Grosso,1991,1991,96,Domicílios particulares permanentes,0,Total,0,Total,0,,1020,Unidades,..
3,Unidade da Federação,52,Goiás,1991,1991,96,Domicílios particulares permanentes,0,Total,0,Total,0,,1020,Unidades,..
3,Unidade da Federação,53,Distrito Federal,1991,1991,96,Domicílios particulares permanentes,0,Total,0,Total,0,,1020,Unidades,..
