ID,DESCRIPTION
3223,"Óbitos de pessoas que haviam residido com moradores dos domicílios particulares, ocorridos de agosto de 2009 a julho de 2010, por situação do domicílio, sexo e grupo de idade da pessoa falecida"
3224,"Óbitos de crianças menores de 1 ano de idade que haviam residido com moradores dos domicílios particulares, ocorridos de agosto de 2009 a julho de 2010, por situação do domicílio e sexo da pessoa falecida, e o mês e ano de ocorrência do falecimento"
